0.004146126 -5.722046E-08 -0.5102731 270.0198 -2.668043E-06 0

0.007513111 0.01562336 -0.5099982 270.6224 13.22051 346.2041

0.007513111 0.01562336 -0.5099982 270.6224 13.22051 346.2041

0.007513111 0.01562336 -0.5099982 270.6224 13.22051 346.2041

0.001824475 -0.004559326 -0.5102692 270.3298 28.63246 330.1086

0.009365086 0.01378681 -0.5100206 270.976 330.3307 27.67913

0.005866487 -0.006198635 -0.510224 270.476 262.2352 94.93792

0.005866487 -0.006198635 -0.510224 270.476 262.2352 94.93792

0.006203625 0.001407795 -0.5102558 272.4976 310.7128 46.22066

0.005899526 0.006596546 -0.5102187 274.2699 306.0333 50.30394

-0.0001261008 0.007951012 -0.5102308 274.2949 295.5842 59.88633

-0.0001261008 0.007951012 -0.5102308 274.2949 295.5842 59.88633

-0.0195613 0.01338793 -0.509742 274.2247 296.4296 58.25013

-0.01650064 0.03334705 -0.5089346 274.8711 305.1779 48.73979

-0.01618442 0.03330832 -0.5089499 274.8712 305.1779 48.73977

-0.02152887 0.0135577 -0.5096608 274.4659 303.1745 49.86769

-0.01809818 0.02989234 -0.5090976 274.4323 309.3443 42.82627

-0.02171452 0.01357155 -0.5096526 274.3509 314.4527 36.85101

-0.02171452 0.01357155 -0.5096526 274.3509 314.4527 36.85101

-0.01702522 0.02988951 -0.5091348 274.4489 315.6133 34.77518

-0.02150962 0.01116302 -0.5097197 273.4961 326.0446 23.75652

-0.01551249 0.02638893 -0.5093765 274.2209 327.3317 21.74189

-0.01551249 0.02638893 -0.5093765 274.2209 327.3317 21.74189

-0.01959985 0.006106396 -0.5098823 273.7648 318.7501 29.50223

-0.01268063 0.02473995 -0.5095376 273.6525 322.1023 25.38564

-0.01668538 0.004630566 -0.5100015 273.5088 318.7028 27.94836

-0.01668538 0.004630566 -0.5100015 273.5088 318.7028 27.94836

-0.01108825 0.02154757 -0.5097197 273.5983 318.7404 27.06141

-0.01570336 0.001451111 -0.5100517 273.6387 315.0526 29.82157

-0.01017746 0.02049631 -0.509782 273.6388 315.0525 29.82166

-0.01049372 0.02053625 -0.5097714 273.5421 312.2578 31.7146

-0.01499961 0.0008987045 -0.5100715 273.5292 321.8885 21.28294

-0.00992693 0.02029804 -0.5097923 273.8558 322.9536 19.31258

-0.0141401 0.001287632 -0.5100952 273.8557 322.9536 19.31255

-0.0138243 0.001244431 -0.5101066 273.5798 313.7183 27.59773

-0.007525879 0.02015293 -0.5098418 273.3618 314.871 25.55407

-0.009848644 0.001161346 -0.5101991 272.9951 314.7787 24.75442

-0.00369256 0.02018589 -0.5098826 272.9952 314.7787 24.75443

-0.00369256 0.02018589 -0.5098826 273.1251 317.6708 20.95669

-0.009586074 0.001660824 -0.5102026 273.921 332.0894 5.789957

-0.01134936 0.01209812 -0.5100257 273.9891 336.745 0.2734524

-0.01687645 -0.0006253052 -0.5100159 273.9891 336.745 0.2734524

-0.01687645 -0.0006253052 -0.5100159 274.2789 331.3216 4.756952

-0.01351711 0.01834734 -0.5097862 273.9091 326.023 9.040103

-0.01773817 -0.001740875 -0.5099841 273.9091 326.0229 9.040153

-0.01773817 -0.001740875 -0.5099841 273.478 321.5838 12.44918

-0.01159162 0.01684587 -0.5098855 273.5121 315.2012 17.75448

-0.0156005 -0.003734207 -0.5100432 273.5121 315.2012 17.75448

-0.0156005 -0.003734207 -0.5100432 273.7003 308.8534 22.96877

-0.008265006 0.01422684 -0.5100301 273.713 296.1683 34.47492

-0.01066862 -0.003486786 -0.5101714 273.713 296.1683 34.47494

-0.001856236 0.01359083 -0.5101105 274.4013 281.4165 48.06589

-0.001856236 0.01359083 -0.5101105 274.869 271.6746 56.59853

-0.002489051 -0.006025943 -0.5102533 274.8689 271.6746 56.59855

-0.002614577 -0.006003227 -0.5102518 274.9401 264.7612 61.89099

0.004970391 0.006612911 -0.5102268 274.9401 264.7612 61.891

0.001112172 -0.01429951 -0.5100922 275.1051 258.9987 66.00362

0.005616828 -0.0003607178 -0.5102628 275.1051 258.9988 66.00361

0.007254893 -0.0006202697 -0.5102526 275.1227 249.2807 73.11561

0.007254893 -0.0006202697 -0.5102526 275.6414 241.8875 77.51318

0.007254893 -0.0006202697 -0.5102526 275.6414 241.8875 77.51318

0.002137522 -0.02064995 -0.5098822 275.0709 235.9318 80.5226

0.01621098 -0.01152792 -0.5098875 275.0709 235.9318 80.52259

0.02092207 -0.002869205 -0.5098382 272.9863 251.8932 62.21353

0.02092207 -0.002869205 -0.5098382 272.2402 296.2153 15.43606

0.02486816 0.004730186 -0.5096471 272.2403 296.2153 15.43603

0.03934581 0.004420109 -0.5083184 274.8074 319.1333 349.9268

0.03791948 -0.01599581 -0.5081943 274.0307 328.6274 338.0421

0.04737245 -0.001322823 -0.5076507 274.3102 317.6397 346.7699

0.04737245 -0.001322823 -0.5076507 274.3102 317.6397 346.7699

0.03667758 -0.02369064 -0.5083712 275.384 307.9882 354.4395

0.03667758 -0.02369064 -0.5083712 276.277 322.2604 338.3319

0.0433368 -0.008247356 -0.5083322 276.277 322.2604 338.3319

0.0433368 -0.008247356 -0.5083322 278.8676 323.7208 335.5597

0.1402775 -0.01626154 -0.475595 278.8676 323.7208 335.5597

0.1471606 -0.004162273 -0.4737713 278.963 331.2853 326.5379

0.1471606 -0.004162273 -0.4737713 278.963 331.2853 326.5379

0.1835975 -0.00228447 -0.4459917 281.1759 324.8254 331.9347

0.1804324 -0.0238466 -0.4466513 281.1759 324.8254 331.9347

0.1804324 -0.0238466 -0.4466513 282.9492 320.2493 335.2393

0.1861439 -0.01419436 -0.4447144 284.6321 316.6222 337.3992

0.2090657 -0.03196315 -0.4115757 286.3641 312.7604 339.979

0.2047782 -0.03724732 -0.4132835 286.3641 312.7603 339.979

0.2047782 -0.03724732 -0.4132835 288.0299 309.5447 342.1222

0.2020982 -0.04432365 -0.4139039 289.7337 305.9984 344.7939

0.2204598 -0.03523722 -0.3894963 291.1985 302.6325 347.1767

0.2212559 -0.04699035 -0.3878005 291.1984 302.6325 347.1767

0.2212559 -0.04699035 -0.3878005 292.6542 298.8246 349.9597

0.2267384 -0.04108294 -0.3852966 294.2662 295.5223 352.3809

0.2341044 -0.05635763 -0.3662569 294.2662 295.5223 352.3809

0.239807 -0.04554334 -0.3640654 295.8272 293.3553 353.7762

0.239807 -0.04554334 -0.3640654 295.8272 293.3553 353.7762

0.2410306 -0.05845651 -0.3614032 297.0534 292.1945 354.0864

0.2549528 -0.04369423 -0.3449611 297.0534 292.1945 354.0864

0.2564505 -0.06122609 -0.3411639 298.0709 286.6316 358.907

0.2564505 -0.06122609 -0.3411639 298.0709 286.6316 358.907

0.2625223 -0.06111626 -0.336534 299.3427 281.2713 3.716594

0.2640066 -0.05873832 -0.331524 299.3427 281.2713 3.716583

0.2648742 -0.07356242 -0.3278536 299.3427 281.2713 3.716572

0.2648742 -0.07356242 -0.3278536 300.7075 278.328 6.203701

0.2673162 -0.08658846 -0.3226489 300.7076 278.328 6.203708

0.2708897 -0.09681092 -0.3139222 300.7076 278.328 6.203721

0.2708897 -0.09681092 -0.3139222 301.4979 277.2708 6.865542

0.2750706 -0.1075746 -0.3066995 301.4979 277.2708 6.865549

0.280248 -0.118614 -0.2978129 301.4652 269.6308 14.3637

0.2804682 -0.1178131 -0.2968446 301.4651 269.6308 14.36371

0.2872748 -0.1115139 -0.2927403 302.7602 265.4098 18.99399

0.2887757 -0.126571 -0.2850393 303.6887 263.7724 21.27709

0.2887757 -0.126571 -0.2850393 303.6887 263.7724 21.27709

0.2953916 -0.1219888 -0.2807893 304.0803 262.9669 22.5872

0.2956842 -0.1343835 -0.274758 304.8512 257.7555 27.40811

0.2956842 -0.1343835 -0.274758 304.8512 257.7555 27.40811

0.2932756 -0.1472721 -0.2707036 305.7049 253.6183 31.21572

0.2931303 -0.1479135 -0.2713985 305.7048 253.6183 31.21573

0.2931303 -0.1479135 -0.2713985 306.8483 250.3983 34.28597

0.3014887 -0.1325166 -0.2701941 309.0519 243.414 40.77406

0.3032662 -0.1388625 -0.2652694 309.0519 243.414 40.77409

0.3032662 -0.1388625 -0.2652694 312.2101 238.1898 45.70338

0.3081885 -0.1401987 -0.258815 315.4579 234.8457 49.25178

0.3178741 -0.1255588 -0.2526858 318.2886 233.2784 51.33928

0.3178741 -0.1255588 -0.2526858 318.2886 233.2784 51.33928

0.3154061 -0.1416088 -0.2472346 320.5002 232.889 52.60545

0.3242302 -0.1259268 -0.2442873 320.5002 232.889 52.60546

0.324275 -0.1238328 -0.2423245 320.5002 232.889 52.60545

0.3275703 -0.1263609 -0.2365176 321.7157 233.7816 53.16452

0.3339609 -0.1175479 -0.2320832 321.7157 233.7816 53.16452

0.3339609 -0.1175479 -0.2320832 321.7157 233.7816 53.16452

0.335822 -0.1235332 -0.2279892 321.7157 233.7816 53.16453

0.3425699 -0.1083753 -0.225647 321.7157 233.7816 53.16452

0.3425699 -0.1083753 -0.225647 322.6481 234.82 53.62905

0.3406682 -0.1224025 -0.2213114 322.6481 234.82 53.62907

0.3407762 -0.1245663 -0.2231945 323.6913 235.7427 54.22264

0.3374022 -0.1402032 -0.2190063 323.6913 235.7427 54.22263

0.3374022 -0.1402032 -0.2190063 324.8281 236.7298 54.89998

0.344285 -0.1299047 -0.214601 325.9469 237.7898 55.59225

0.344375 -0.1325234 -0.2169342 325.9469 237.7898 55.59225

0.3401143 -0.1477674 -0.213785 327.043 238.9245 56.30393

0.3347868 -0.1612173 -0.2124707 328.4667 240.3841 57.66293

0.3347868 -0.1612173 -0.2124707 328.4667 240.3841 57.66293

0.3362266 -0.1566126 -0.2147514 330.0761 241.6686 59.00308

0.328631 -0.1721522 -0.2146142 331.5649 242.8364 60.31127

0.328631 -0.1721522 -0.2146142 331.5649 242.8364 60.31127

0.3316909 -0.1619147 -0.2178503 332.6044 243.9748 61.60267

0.3324628 -0.1560776 -0.2227 333.3134 245.5705 62.73923

0.3324628 -0.1560776 -0.2227 334.5755 247.3364 63.72483

0.3348001 -0.1477197 -0.2248883 334.5755 247.3364 63.72483

0.3370837 -0.1432274 -0.2243825 335.7883 249.0455 64.68163

0.3435056 -0.1308459 -0.2291677 336.9606 250.8402 65.21275

0.3435056 -0.1308459 -0.2291677 338.3628 252.4341 65.4332

0.3393284 -0.1414435 -0.229095 338.3628 252.4342 65.43321

0.3320583 -0.1492148 -0.2347484 339.5601 254.1251 65.83987

0.331829 -0.1519084 -0.2369847 340.5324 255.9963 66.46281

0.3213424 -0.1637822 -0.2434397 341.6075 257.8927 67.13036

0.3225351 -0.1570971 -0.246252 341.6075 257.8927 67.13036

0.3180841 -0.1687988 -0.2442907 342.3641 259.5646 68.09857

0.3183824 -0.1668203 -0.2427072 342.9318 261.2547 69.10915

0.3224861 -0.1580345 -0.2431687 342.9318 261.2547 69.10915

0.3256007 -0.160981 -0.2370074 343.0282 262.806 70.02443

0.3256007 -0.160981 -0.2370074 343.108 264.3226 70.7856

0.3268796 -0.1473994 -0.2340924 343.108 264.3226 70.78561

0.3268796 -0.1473994 -0.2340924 343.0535 265.7854 71.38592

0.330254 -0.1339348 -0.2374234 343.0535 265.7854 71.38592

0.330254 -0.1339348 -0.2374234 342.7573 267.2775 71.99598

0.323587 -0.1391002 -0.2296126 342.5639 268.8704 72.71404

0.323587 -0.1391002 -0.2296126 342.5639 268.8704 72.71404

0.3269852 -0.1284988 -0.2309721 342.4043 270.3826 73.47044

0.3244596 -0.1388809 -0.2285114 342.4043 270.3826 73.47044

0.3255075 -0.1346515 -0.2295501 342.2387 271.7466 74.15536

0.3255075 -0.1346515 -0.2295501 342.2387 271.7466 74.15536

0.320854 -0.1255957 -0.2100717 342.0456 273.1015 74.8723

0.3214892 -0.1222857 -0.2110512 341.6593 274.3017 75.80159

0.3214892 -0.1222857 -0.2110512 341.6593 274.3017 75.80159

0.3186468 -0.1322809 -0.2093267 341.6593 274.3017 75.8016

0.3171049 -0.112628 -0.2006491 341.2894 275.5199 76.70053

0.3127269 -0.1229813 -0.2014401 341.2894 275.5199 76.70053

0.3127269 -0.1229813 -0.2014401 341.2894 275.5199 76.70053

0.3136542 -0.1141342 -0.2051709 340.9241 276.7513 77.56982

0.3096769 -0.09955306 -0.1914597 340.9241 276.7513 77.56982

0.3056831 -0.109469 -0.1924626 340.9241 276.7513 77.56982

0.3055348 -0.1067902 -0.1941952 340.5542 277.9926 78.4094

0.3055348 -0.1067902 -0.1941952 340.5542 277.9926 78.4094

0.295855 -0.1017703 -0.1790785 340.1727 279.2418 79.21831

0.297909 -0.09627452 -0.178712 340.1727 279.2418 79.21831

0.297909 -0.09627452 -0.178712 340.6379 280.9485 78.89422

0.2933585 -0.1104905 -0.1780146 340.6379 280.9485 78.89423

0.2853842 -0.09306744 -0.1616701 339.9424 282.0251 79.20044

0.286429 -0.08852094 -0.1623743 339.9424 282.0251 79.20044

0.286429 -0.08852094 -0.1623743 340.0064 283.4109 79.59692

0.2811454 -0.1056391 -0.161371 340.0064 283.4109 79.59693

0.2675683 -0.1077101 -0.1456016 340.0064 283.4109 79.59692

0.2675683 -0.1077101 -0.1456016 338.2036 282.8114 79.77824

0.2611856 -0.1043039 -0.136724 338.2036 282.8114 79.77824

0.2611856 -0.1043039 -0.136724 338.2036 282.8114 79.77824

0.259194 -0.1129046 -0.1336476 338.2036 282.8114 79.77824

0.2588448 -0.1149476 -0.1325787 339.9586 283.1883 79.47299

0.2588448 -0.1149476 -0.1325787 337.2231 281.3462 79.11938

0.2574431 -0.1234224 -0.1275958 337.8003 280.9828 77.50846

0.2592662 -0.1220869 -0.1251658 337.8003 280.9828 77.50848

0.2592662 -0.1220869 -0.1251658 335.8284 278.0228 78.0231

0.259698 -0.1276575 -0.1185377 333.8911 275.047 78.66078

0.2644301 -0.1238309 -0.1119522 332.2088 271.5693 79.11618

0.2644301 -0.1238309 -0.1119522 332.2088 271.5693 79.11618

0.2627322 -0.1330648 -0.1051487 333.707 270.3797 78.41679

0.2309411 -0.09284181 -0.07375087 331.8086 267.0247 79.1629

0.2298936 -0.09871721 -0.06925619 333.4361 267.1299 78.5291

0.2298936 -0.09871721 -0.06925619 333.4361 267.1299 78.5291

0.2308894 -0.100325 -0.06338426 332.7466 267.2896 78.25944

0.225112 -0.09476227 -0.05945694 332.7154 267.53 76.03321

0.221842 -0.1066793 -0.05095183 333.6514 265.2549 78.09489

0.2243126 -0.1077933 -0.03542461 333.6514 265.2549 78.09488

0.2243126 -0.1077933 -0.03542461 332.7416 261.2897 78.31615

0.2197863 -0.1034402 -0.03309596 334.2867 261.1339 77.76414

0.2188221 -0.1081873 -0.02266345 334.2867 261.134 77.76413

0.2188221 -0.1081873 -0.02266345 334.0691 260.8451 77.84304

0.2218651 -0.1035255 -0.01263315 332.0696 257.7095 78.73414

0.2211843 -0.102901 -0.01238411 332.0696 257.7095 78.73412

0.2211843 -0.102901 -0.01238411 330.4366 256.0492 79.75573

0.2211843 -0.102901 -0.01238411 330.4366 256.0492 79.75573

0.2164998 -0.1129103 -0.006596481 329.8319 254.2323 81.92566

0.2169402 -0.1133439 -0.006754803 331.1624 255.3119 80.52869

0.2169402 -0.1133439 -0.006754803 331.1624 255.3119 80.52869

0.2176214 -0.1122055 0.002520289 329.5565 252.763 81.57872

0.2176214 -0.1122055 0.002520289 331.2227 253.4965 79.64036

0.2191765 -0.1137353 0.002044745 331.2227 253.4965 79.64036

0.2191765 -0.1137353 0.002044745 330.2715 251.6021 81.3013

0.2191765 -0.1137353 0.002044745 331.7253 252.821 79.78648

0.2191765 -0.1137353 0.002044745 331.7253 252.821 79.78648

0.2246935 -0.1117205 0.008571339 330.2834 251.9088 80.88945

0.2246935 -0.1117205 0.008571339 330.2834 251.9088 80.88945

0.2187333 -0.1220601 0.01729693 331.0337 253.6234 78.51228

0.2119569 -0.1321145 0.02573161 331.0337 253.6234 78.51226

0.2162378 -0.1371621 0.02470445 329.2842 253.329 78.52207

0.2127415 -0.1405481 0.03420273 331.0493 254.3546 76.80849

0.2092157 -0.1432297 0.04355025 331.0493 254.3546 76.80849

0.2092157 -0.1432297 0.04355025 331.0493 254.3546 76.80849

0.2093323 -0.1516355 0.05209884 329.7019 255.3013 75.41801

0.2051072 -0.1540657 0.06101171 331.3227 256.692 73.2225

0.2003738 -0.1568113 0.06919663 331.3227 256.692 73.2225

0.2003738 -0.1568113 0.06919663 329.7374 256.4122 73.55927

0.2081155 -0.1696435 0.06898076 331.3901 258.0525 72.61851

0.2081155 -0.1696435 0.06898076 331.3901 258.0525 72.61851

0.2032675 -0.1718979 0.07734804 329.8688 257.9137 73.15798

0.2032675 -0.1718979 0.07734804 329.8688 257.9137 73.15798

0.203855 -0.1809523 0.08658683 330.3096 256.7421 75.40489

0.1980632 -0.1829161 0.09544934 330.0325 258.3338 72.80481

0.2014 -0.1739343 0.104799 330.0325 258.3338 72.80482

0.2014 -0.1739343 0.104799 328.4969 259.0608 71.20406

0.2087394 -0.1797768 0.1099414 327.1391 259.7022 70.93603

0.2091547 -0.1742419 0.1177837 327.3312 261.1706 70.99694

0.2064741 -0.1768096 0.1186833 327.3312 261.1706 70.99694

0.2064741 -0.1768096 0.1186833 327.4763 260.5913 72.94432

0.2117684 -0.1864212 0.1238583 329.6667 260.183 73.62634

0.2064212 -0.1877235 0.1307278 329.6667 260.183 73.62635

0.2064212 -0.1877235 0.1307278 331.9509 260.5307 73.98737

0.2064212 -0.1877235 0.1307278 333.0639 259.3074 75.5436

0.2198522 -0.1888894 0.1354235 333.0639 259.3074 75.5436

0.2270668 -0.1767707 0.1398087 333.0639 259.3074 75.54359

0.2270668 -0.1767707 0.1398087 331.9198 260.3654 73.87002

0.2270668 -0.1767707 0.1398087 333.2456 262.2239 72.311

0.2312702 -0.1867253 0.1407123 333.2456 262.224 72.311

0.2394711 -0.1722139 0.145424 334.4461 264.2875 70.64435

0.2394711 -0.1722139 0.145424 332.9161 265.2655 68.96072

0.2394711 -0.1722139 0.145424 332.9161 265.2655 68.96072

0.2546582 -0.1752394 0.1514358 333.7472 264.8594 71.28539

0.2588035 -0.1658493 0.1549426 332.0244 264.1699 72.06702

0.2588035 -0.1658493 0.1549426 332.0244 264.1699 72.06702

0.2560821 -0.1722368 0.1524758 334.3002 265.2849 72.36095

0.2677996 -0.1846292 0.1570792 333.1765 264.1075 74.1463

0.2673343 -0.1798183 0.1633285 333.1765 264.1075 74.14629

0.2676399 -0.1805366 0.1620305 334.6731 263.6663 74.65945

0.2676399 -0.1805366 0.1620305 333.9347 261.8952 75.19562

0.2774533 -0.1665432 0.1605038 333.9347 261.8952 75.19562

0.2872583 -0.1502682 0.1593129 335.8414 262.8275 74.71879

0.3083522 -0.1588864 0.1594666 334.5512 262.1298 76.68291

0.3083522 -0.1588864 0.1594666 335.6131 264.545 76.43412

0.3105691 -0.1557087 0.1582946 335.6131 264.545 76.43413

0.3124314 -0.1496067 0.1604994 333.8369 263.4619 76.57058

0.3188595 -0.1634909 0.1600428 333.8369 263.4619 76.57059

0.318951 -0.1638048 0.1595387 335.3968 265.1059 75.00127

0.3216555 -0.1593631 0.1586049 334.0509 263.4692 75.71106

0.3254551 -0.1501354 0.1598521 336.0109 265.2262 75.34052

0.3303329 -0.1612153 0.1592978 336.0109 265.2262 75.34053

0.3310538 -0.1604179 0.1586046 336.0602 263.8239 77.63926

0.33497 -0.1514441 0.1592036 336.0602 263.8239 77.63926

0.33497 -0.1514441 0.1592036 337.4027 265.3893 75.84926

0.33973 -0.1610645 0.1576491 337.4027 265.3893 75.84927

0.3452631 -0.1470924 0.1592755 336.1288 266.2071 74.31122

0.343189 -0.1518315 0.1593109 336.1288 266.2071 74.31122

0.343189 -0.1518315 0.1593109 336.5471 268.1972 73.19717

0.346813 -0.1602836 0.1583257 335.1611 266.9857 75.17519

0.3405313 -0.1682783 0.1635785 335.1611 266.9857 75.17519

0.3405313 -0.1682783 0.1635785 335.5414 267.3773 77.18058

0.3467044 -0.1571474 0.1616721 335.5414 267.3773 77.18058

0.3578195 -0.1508976 0.1575875 333.9471 267.3029 78.13371

0.3578195 -0.1508976 0.1575875 335.6457 268.4509 76.85625

0.3544973 -0.1610561 0.1550201 335.6848 267.7054 75.34904

0.3579304 -0.1526569 0.155629 335.6848 267.7054 75.34906

0.358887 -0.154999 0.1552978 336.8997 266.6474 75.47511

0.3597024 -0.1543315 0.1540713 335.2116 267.1035 75.41371

0.3630155 -0.1447149 0.1556257 335.2116 267.1035 75.4137

0.3630155 -0.1447149 0.1556257 336.1578 268.6848 73.45707

0.3624285 -0.1508332 0.1563926 334.3475 267.2194 73.20514

0.3632142 -0.1440914 0.1608629 335.946 268.1992 72.02877

0.3632142 -0.1440914 0.1608629 335.946 268.1992 72.02877

0.3609352 -0.1475094 0.1628819 334.4902 266.434 73.7702

0.3621803 -0.1492085 0.1669222 334.0465 266.0141 74.7357

0.3621803 -0.1492085 0.1669222 334.0465 266.0141 74.7357

0.3621803 -0.1492085 0.1669222 335.2718 266.2281 76.92035

0.3600457 -0.1528148 0.1682721 336.5723 265.6432 76.48129

0.3574433 -0.1547821 0.1701054 336.5723 265.6432 76.48128

0.3574433 -0.1547821 0.1701054 338.4369 265.8398 76.35177

0.3574771 -0.1525044 0.1720802 339.5242 265.2576 75.65549

0.3592538 -0.1428166 0.1766329 339.5242 265.2576 75.65549

0.3585174 -0.1410591 0.1768091 339.5242 265.2576 75.6555

0.3549437 -0.1447931 0.1809524 338.6141 264.0564 74.48354

0.3541299 -0.1449464 0.1824182 336.7356 263.7932 75.89166

0.3541299 -0.1449464 0.1824182 336.7356 263.7932 75.89166

0.3510364 -0.1496836 0.1823605 335.3961 263.8611 77.75979

0.3515062 -0.1511527 0.1802313 335.3961 263.8611 77.75977

0.3515062 -0.1511527 0.1802313 335.0579 264.3936 79.78876

0.3512699 -0.1505629 0.1802887 334.3172 265.0237 81.14622

0.3529776 -0.1466235 0.1802001 334.3172 265.0237 81.14622

0.3495107 -0.1501194 0.1840386 333.0645 262.6703 82.32278

0.3495107 -0.1501194 0.1840386 334.4801 264.0604 83.46857

0.3497666 -0.1470941 0.185985 334.4801 264.0604 83.46857

0.3489549 -0.145017 0.1860912 332.793 262.194 85.10052

0.3470527 -0.1500258 0.1856774 333.4454 261.3795 84.81702

0.3499081 -0.1460096 0.1835074 333.4454 261.3795 84.81704

0.3499081 -0.1460096 0.1835074 331.5432 260.9184 83.79035

0.3482957 -0.150623 0.1819542 331.3017 258.9905 85.41815

0.3438754 -0.1663655 0.1765696 331.3017 258.9906 85.41815

0.3438754 -0.1663655 0.1765696 330.382 258.4953 86.92133

0.3438754 -0.1663655 0.1765696 329.5158 258.2006 88.15204

0.3465197 -0.1515693 0.1740582 329.5158 258.2006 88.15204

0.3449098 -0.157956 0.1715592 329.2577 258.4941 89.01508

0.3449098 -0.157956 0.1715592 329.2577 258.4941 89.01508

0.3292026 -0.1555103 0.1676231 328.8152 259.7313 87.9353

0.3292026 -0.1555103 0.1676231 328.8152 259.7313 87.9353

0.3236818 -0.1731084 0.1609936 328.3512 260.7874 86.32884

0.3236818 -0.1731084 0.1609936 328.3512 260.7874 86.32884

0.3236818 -0.1731084 0.1609936 328.861 262.0492 84.70195

0.3099298 -0.1415607 0.1613225 328.5516 264.0195 81.63167

0.3100057 -0.1486997 0.1546149 328.5516 264.0195 81.63167

0.3045276 -0.1370112 0.1463044 329.8871 266.2947 77.49216

0.3045276 -0.1370112 0.1463044 332.3279 267.7905 72.90057

0.3045276 -0.1370112 0.1463044 332.3279 267.7905 72.90057

0.3092946 -0.133986 0.1389197 335.5628 267.8888 69.3811

0.2882077 -0.1018473 0.1359909 337.7755 268.8125 65.66496

0.2882077 -0.1018473 0.1359909 337.7755 268.8125 65.66496

0.2882077 -0.1018473 0.1359909 339.8632 270.1314 62.07033

0.2882077 -0.1018473 0.1359909 341.5679 270.8381 58.74451

0.2888444 -0.1052136 0.1320192 341.5679 270.8381 58.74452

0.2621111 -0.07504839 0.1243189 342.7502 270.7845 55.65023

0.2621111 -0.07504839 0.1243189 342.7502 270.7845 55.65023

0.2579823 -0.09073172 0.1224848 343.9162 270.7261 52.55094

0.2579823 -0.09073172 0.1224848 343.9162 270.7261 52.55094

0.2473598 -0.07969028 0.1194173 344.3802 271.8752 50.21154

0.2473598 -0.07969028 0.1194173 344.8224 271.9815 48.41381

0.2477054 -0.07641531 0.1208332 344.8224 271.9815 48.41382

0.2477054 -0.07641531 0.1208332 344.8765 272.4639 46.66406

0.2401945 -0.06946164 0.1183843 344.6441 273.9094 44.8187

0.2401945 -0.06946164 0.1183843 344.6441 273.9094 44.8187

0.2380589 -0.07455985 0.1195908 344.2851 275.8927 43.00977

0.2380589 -0.07455985 0.1195908 344.2851 275.8927 43.00977

0.230882 -0.06821153 0.1171538 343.4784 278.0284 41.44636

0.230882 -0.06821153 0.1171538 342.3183 280.2965 40.9562

0.2317671 -0.06882659 0.115027 342.3183 280.2965 40.9562

0.2317671 -0.06882659 0.115027 342.3183 280.2965 40.9562

0.2249126 -0.06312741 0.112562 339.156 280.2915 42.31414

0.2251561 -0.06225191 0.1125627 339.156 280.2915 42.31413

0.2251561 -0.06225191 0.1125627 338.6302 281.5114 44.92877

0.2251561 -0.06225191 0.1125627 335.3703 281.9966 44.83328

0.2215246 -0.0594313 0.1112419 332.7527 284.4591 43.25826

0.2224086 -0.05670658 0.1108998 332.7527 284.4591 43.25826

0.2224086 -0.05670658 0.1108998 329.0571 285.2343 42.93037

0.2224086 -0.05670658 0.1108998 329.0571 285.2343 42.93037

0.2179675 -0.05772875 0.1104521 327.6388 288.8902 40.85873

0.2179675 -0.05772875 0.1104521 323.6664 290.739 41.06145

0.2179675 -0.05772875 0.1104521 323.6664 290.739 41.06145

0.2188901 -0.05701102 0.1089907 319.9068 293.429 41.4277

0.2191355 -0.05719273 0.1090828 316.0152 296.1102 41.05819

0.2191355 -0.05719273 0.1090828 316.0152 296.1102 41.05819

0.2186928 -0.05805691 0.1095139 312.3469 298.3737 40.1079

0.2186928 -0.05805691 0.1095139 309.8217 298.8635 40.71645

0.2194285 -0.05860532 0.1097849 309.8217 298.8635 40.71646

0.2203238 -0.05640878 0.1091407 309.8217 298.8635 40.71645

0.2203238 -0.05640878 0.1091407 309.5604 301.1169 40.84644

0.2203238 -0.05640878 0.1091407 305.4623 303.0815 41.41167

0.221582 -0.06025377 0.1106837 305.4623 303.0815 41.41167

0.221582 -0.06025377 0.1106837 301.4227 304.9281 41.84902

0.221582 -0.06025377 0.1106837 297.4616 306.7243 42.19394

0.221582 -0.06025377 0.1106837 297.4616 306.7243 42.19394

0.2258443 -0.06141129 0.1109613 293.8406 308.5866 42.20416

0.2258443 -0.06141129 0.1109613 293.8406 308.5866 42.20416

0.2258443 -0.06141129 0.1109613 290.3975 310.6787 42.10236

0.2250879 -0.06307945 0.1115608 287.0521 313.4416 41.24507

0.2347954 -0.07118571 0.1148794 287.0521 313.4416 41.24509

0.2347954 -0.07118571 0.1148794 284.0675 316.2971 39.76183

0.2357023 -0.06918152 0.114245 282.1174 319.6203 37.54556

0.2357023 -0.06918152 0.114245 282.1174 319.6203 37.54556

0.2490837 -0.08169162 0.118531 279.9694 333.6198 25.22467

0.2481818 -0.08366064 0.1190482 278.9536 341.8388 18.32827

0.2481818 -0.08366064 0.1190482 278.9536 341.8388 18.32827

0.2490698 -0.08180606 0.1184813 277.8405 341.6295 20.88508

0.2626598 -0.09653775 0.1223169 277.8405 341.6294 20.8851

0.2617654 -0.0985328 0.1226429 276.7922 17.76059 347.7533

0.2617654 -0.0985328 0.1226429 276.7922 17.76059 347.7533

0.2626861 -0.09652352 0.1222716 279.2728 43.03959 325.5772

0.2811643 -0.1321114 0.1133377 282.1647 54.44188 317.3805

0.2811643 -0.1321114 0.1133377 282.1647 54.44188 317.3805

0.2818523 -0.1413242 0.0996944 280.5716 62.75405 311.6648

0.2900608 -0.1638954 0.08455265 279.4194 74.11029 302.6006

0.2897716 -0.171473 0.06910539 279.4194 74.11031 302.6006

0.2897716 -0.171473 0.06910539 279.4909 89.53859 288.108

0.3045265 -0.2062759 0.04819198 278.8193 93.71428 285.1057

0.3058352 -0.2070908 0.03445026 278.8193 93.71428 285.1057

0.3073908 -0.2065181 0.02167352 281.5376 103.5816 276.4367

0.3073908 -0.2065181 0.02167352 280.4715 104.1426 277.5174

0.3183809 -0.2374104 -0.006277857 280.4715 104.1426 277.5173

0.3203417 -0.2340208 -0.01962102 283.13 108.3093 274.5185

0.3203417 -0.2340208 -0.01962102 281.7151 107.9917 276.6571

0.3223841 -0.2298363 -0.03183201 281.7151 107.9918 276.657

0.3290481 -0.2538232 -0.06513957 281.7151 107.9918 276.657

0.3316116 -0.2472629 -0.07639898 283.0013 113.6366 271.3949

0.3316116 -0.2472629 -0.07639898 281.2701 113.8298 272.7076

0.3341206 -0.2403315 -0.08686868 281.2701 113.8298 272.7076

0.3369404 -0.2544595 -0.1189667 281.6631 109.754 276.7538

0.3369404 -0.2544595 -0.1189667 283.5052 101.9471 285.9625

0.3403286 -0.2449457 -0.1288781 283.5052 101.947 285.9626

0.3403286 -0.2449457 -0.1288781 285.1524 96.61976 293.1812

0.3415091 -0.2518993 -0.1601342 285.1524 96.61979 293.1812

0.3415091 -0.2518993 -0.1601342 286.5262 93.56329 298.1917

0.3469288 -0.2384421 -0.1688505 287.5609 93.3846 300.5618

0.3520754 -0.2238126 -0.1779763 288.2551 94.13417 302.531

0.3455297 -0.2412455 -0.2046216 288.2551 94.13417 302.531

0.3508008 -0.2243246 -0.2146566 289.2253 96.47027 302.8993

0.3508008 -0.2243246 -0.2146566 289.2253 96.47027 302.8993

0.3551075 -0.2076886 -0.2241078 286.4234 96.8911 304.2803

0.3467239 -0.2070545 -0.2628702 283.9346 95.8872 306.8296

0.3475427 -0.1925146 -0.2726572 283.9346 95.8872 306.8296

0.3475427 -0.1925146 -0.2726572 281.8635 98.43394 305.4353

0.3462041 -0.1746241 -0.2860749 281.8635 98.43393 305.4353

0.3354254 -0.1834946 -0.3062676 282.6385 90.71893 315.1371

0.3357718 -0.1700958 -0.3135365 282.6385 90.71892 315.1371

0.3371321 -0.161405 -0.3166555 282.6385 90.71892 315.1371

0.3230164 -0.1716367 -0.3365589 281.2438 91.55525 315.1549

0.3265384 -0.1628342 -0.3375328 282.5363 99.15524 308.4945

0.3300688 -0.1502006 -0.3399486 282.5363 99.15525 308.4944

0.3300688 -0.1502006 -0.3399486 280.8984 92.03724 316.6132

0.3126812 -0.1563309 -0.3620633 281.6114 103.3142 305.9962

0.3126812 -0.1563309 -0.3620633 281.8007 94.99483 315.7247

0.3114584 -0.1417039 -0.3690695 281.8007 94.99483 315.7247

0.3074424 -0.1312774 -0.3762235 281.7328 106.8356 304.2941

0.2910246 -0.1378596 -0.3913498 281.0023 100.8477 311.5555

0.2849727 -0.1246353 -0.4001398 280.8949 110.1846 302.9993

0.2734961 -0.1184623 -0.4099046 280.8949 110.1846 302.9993

0.2734961 -0.1184623 -0.4099046 280.9238 105.0021 309.349

0.2573325 -0.1162035 -0.4222694 281.1971 108.5153 306.0304

0.2540462 -0.09614883 -0.4292443 281.1971 108.5153 306.0304

0.2422531 -0.09265482 -0.4367645 284.3068 104.686 310.1602

0.2353309 -0.093853 -0.4411702 284.3068 104.686 310.1602

0.2239625 -0.08639912 -0.4485489 284.3617 104.6874 310.1169

0.2239625 -0.08639912 -0.4485489 284.3617 104.6874 310.1169

0.1990538 -0.08731507 -0.46101 288.6394 104.6537 310.0316

0.1886982 -0.08431797 -0.465897 292.8534 104.3541 310.2181

0.1886982 -0.08431797 -0.465897 292.8534 104.3541 310.2181

0.1785964 -0.08229375 -0.4702208 296.8552 104.0571 310.7357

0.161316 -0.07369915 -0.4782177 296.8552 104.0571 310.7356

0.161316 -0.07369915 -0.4782177 300.235 104.8905 310.1001

0.161316 -0.07369915 -0.4782177 302.8708 105.8483 309.0891
