0.00296706 -0.082205 0 -0.443412 0.216801 -9.545131 0.2424 -0.2687 1.229 -0.04729842 0.1047198 0.0122173 -0.281547 -0.164808 -8.876088 0.4699 -0.0043 0.9467 0.01745329

0.06073746 -0.07225662 0.02129302 -0.467937 0.254079 -9.5932 0.2424 -0.2687 1.229 -0.05305801 -0.008203047 0.02827433 -0.08436601 -0.173637 -8.856468 0.4699 -0.0043 0.9467 0.01611073

0.06073746 -0.07225662 0.02129302 -0.467937 0.254079 -9.5932 0.2424 -0.2687 1.229 -0.05305801 -0.008203047 0.02827433 -0.08436601 -0.173637 -8.856468 0.4699 -0.0043 0.9467 0.01611073

0.06073746 -0.07225662 0.02129302 -0.467937 0.254079 -9.5932 0.2424 -0.2687 1.229 -0.05305801 -0.008203047 0.02827433 -0.08436601 -0.173637 -8.856468 0.4699 -0.0043 0.9467 0.01611073

0.06073746 -0.07225662 0.02129302 -0.467937 0.254079 -9.5932 0.2424 -0.2687 1.229 -0.05305801 -0.008203047 0.02827433 -0.08436601 -0.173637 -8.856468 0.4699 -0.0043 0.9467 0.01611073

0.0418879 -0.029147 0.005061455 -0.560151 0.154017 -9.838449 0.2402 -0.2644 1.253 -0.01972222 -0.1263618 0.01832596 -0.179523 -0.07946101 -8.880994 0.5017 0.0173 0.9327 0.01611073

0.1893682 -0.08464847 -0.09267698 -0.567999 0.122625 -9.793324 0.2402 -0.2644 1.253 -0.01972222 -0.1263618 0.01832596 -0.179523 -0.07946101 -8.880994 0.5017 0.0173 0.9327 -0.01476817

0.1893682 -0.08464847 -0.09267698 -0.567999 0.122625 -9.793324 0.2402 -0.2644 1.253 -0.01972222 -0.1263618 0.01832596 -0.179523 -0.07946101 -8.880994 0.5017 0.0173 0.9327 -0.01476817

-0.02303835 -0.009773844 -0.01256637 -0.023544 -0.659232 -9.65206 0.2096 -0.217 1.2583 0.01134464 -0.1014036 -0.005061455 0.826983 -0.319806 -8.866279 0.3719 -0.0177 0.9928 -0.01476817

-0.06911504 0.01466077 -0.04118977 -0.064746 -0.719073 -9.649117 0.2096 -0.217 1.2583 -0.002268928 0.09581857 -0.02530728 0.8210971 -0.336483 -8.852545 0.3719 -0.0177 0.9928 -0.01476817

0.02949606 0.04537856 -0.07993608 -0.09417601 -0.60822 -9.63342 0.2093 -0.2117 1.2551 -0.02007129 0.02600541 -0.007330383 0.659232 -0.327654 -8.817228 0.3574 -0.0201 0.9904 -0.01611073

0.02949606 0.04537856 -0.07993608 -0.09417601 -0.60822 -9.63342 0.2093 -0.2117 1.2551 -0.02007129 0.02600541 -0.007330383 0.659232 -0.327654 -8.817228 0.3574 -0.0201 0.9904 -0.01611073

0.04729842 0.0132645 -0.03543018 -0.04905 -0.577809 -9.598104 0.2093 -0.2117 1.2551 -0.001396263 -0.06649704 -0.007853981 0.776952 -0.309996 -8.814285 0.3574 -0.0201 0.9904 -0.01611073

-0.06352998 0.02129302 -0.02548181 -0.059841 -0.632745 -9.580446 0.1839 -0.2075 1.2643 -0.01989675 0.09738937 -0.03438299 0.801477 -0.33354 -8.81919 0.385 -0.0097 0.9824 -0.01611073

-0.06352998 0.02129302 -0.02548181 -0.059841 -0.632745 -9.580446 0.1839 -0.2075 1.2643 -0.01989675 0.09738937 -0.03438299 0.801477 -0.33354 -8.81919 0.385 -0.0097 0.9824 -0.01476817

-0.02164208 0.01308997 -0.06911504 -0.053955 -0.577809 -9.568674 0.1839 -0.2075 1.2643 -0.02670354 0.03281219 -0.02775074 0.71613 -0.302148 -8.753464 0.385 -0.0097 0.9824 -0.01476817

-0.02391101 0.03508112 -0.05340707 -0.09417601 -0.540531 -9.601048 0.1715 -0.2176 1.2735 -0.02670354 0.03281219 -0.02775074 0.71613 -0.302148 -8.753464 0.385 -0.0097 0.9824 -0.01476817

0.02775074 0.01099557 -0.05899213 -0.061803 -0.453222 -9.577503 0.1715 -0.2176 1.2735 -0.03351032 -0.08604473 0.002094395 0.9476461 -0.268794 -8.908462 0.3761 -0.0096 0.9957 -0.01476817

0.02775074 0.01099557 -0.05899213 -0.061803 -0.453222 -9.577503 0.1715 -0.2176 1.2735 -0.03351032 -0.08604473 0.002094395 0.9476461 -0.268794 -8.908462 0.3761 -0.0096 0.9957 -0.01476817

0.02775074 0.01099557 -0.05899213 -0.061803 -0.453222 -9.577503 0.1715 -0.2176 1.2735 -0.03246313 0.05340707 0.001396263 0.762237 -0.268794 -8.883937 0.3761 -0.0096 0.9957 -0.01476817

-0.01815142 -0.04764749 0.0286234 -0.031392 -0.206991 -9.793324 0.1835 -0.2248 1.273 -0.03333579 0.06859144 0.0148353 0.801477 -0.242307 -8.86824 0.3659 -0.0098 0.9846 -0.01476817

-0.03944444 -0.03769911 0.01692969 -0.015696 -0.28449 -9.788419 0.1936 -0.2204 1.2718 -0.02094395 0.01937315 0.01884956 0.894672 -0.250155 -8.877069 0.3618 -0.0008 0.9893 -0.01476817

-0.03944444 -0.03769911 0.01692969 -0.015696 -0.28449 -9.788419 0.1936 -0.2204 1.2718 -0.02094395 0.01937315 0.01884956 0.894672 -0.250155 -8.877069 0.3618 -0.0008 0.9893 -0.01476817

0.03473205 -0.01954769 0.006632251 -0.033354 -0.367875 -9.813924 0.1918 -0.2202 1.2477 -0.03787364 0.03577925 0.01291544 0.988848 -0.233478 -8.885899 0.3618 -0.0008 0.9893 -0.01476817

0.01151917 -0.001919862 0.03438299 -0.06670801 -0.332559 -9.845317 0.1918 -0.2202 1.2477 -0.01692969 -0.129678 0.04625123 1.06929 -0.204048 -8.881974 0.3713 0.0006 0.9984 -0.01476817

0.02129302 -0.02251475 0.009075711 -0.07946101 -0.371799 -9.873766 0.197 -0.2193 1.2321 -0.01919862 -0.1281072 0.03246313 0.999639 -0.207972 -8.856468 0.3713 0.0006 0.9984 -0.01476817

0.02129302 -0.02251475 0.009075711 -0.07946101 -0.371799 -9.873766 0.197 -0.2193 1.2321 -0.01919862 -0.1281072 0.03246313 0.999639 -0.207972 -8.856468 0.3713 0.0006 0.9984 -0.01476817

-0.02321288 -0.01710423 0.0005235987 -0.07455601 -0.404172 -9.810982 0.197 -0.2193 1.2321 -0.029147 -0.0143117 0.005061455 0.844641 -0.202086 -8.898651 0.3707 -0.0032 0.9928 -0.01476817

-0.05794493 0.00837758 -0.02687807 -0.092214 -0.492462 -9.772722 0.1945 -0.2243 1.2361 -0.02513274 0.03682645 0.02460914 0.797553 -0.209934 -8.882956 0.3707 -0.0032 0.9928 -0.01476817

-0.05794493 0.00837758 -0.02687807 -0.092214 -0.492462 -9.772722 0.1945 -0.2243 1.2361 -0.0434587 -0.006457718 0.02478367 0.8603371 -0.197181 -8.891785 0.3592 -0.0026 0.9881 -0.01476817

0.01169371 -0.00715585 0.0001745329 -0.114777 -0.504234 -9.772722 0.1945 -0.2243 1.2361 -0.0434587 -0.006457718 0.02478367 0.8603371 -0.197181 -8.891785 0.3592 -0.0026 0.9881 -0.01611073

-0.007679448 -0.01396263 0.01780236 -0.103986 -0.394362 -9.815886 0.1876 -0.2264 1.2378 -0.008901179 -0.02321288 0.04450589 0.781857 -0.188352 -8.872165 0.3592 -0.0026 0.9881 -0.01611073

-0.01902409 -0.01466077 -0.009075711 -0.07161301 -0.427716 -9.823734 0.1876 -0.2264 1.2378 -0.02792527 0.05585054 -0.0001745329 0.8132491 -0.210915 -8.826057 0.3589 -0.0066 0.9906 -0.01611073

-0.01902409 -0.01466077 -0.009075711 -0.07161301 -0.427716 -9.823734 0.1876 -0.2264 1.2378 -0.01396263 0.01832596 0.004886922 0.919197 -0.173637 -8.88786 0.3589 -0.0066 0.9906 -0.01611073

0.0286234 -0.005585053 -0.03822271 -0.08338501 -0.520911 -9.821772 0.203 -0.223 1.2464 -0.01396263 0.01832596 0.004886922 0.919197 -0.173637 -8.88786 0.3589 -0.0066 0.9906 -0.01476817

0.02495821 0.002443461 0 -0.119682 -0.475785 -9.79921 0.203 -0.223 1.2464 -0.0153589 -0.12706 0.04974188 0.8897671 -0.165789 -8.914348 0.3679 0.005 0.9919 -0.01476817

0.01361357 -0.04258604 -0.00418879 -0.115758 -0.463032 -9.753102 0.2159 -0.2321 1.258 -0.03176499 0.04625123 0.02530728 0.770085 -0.181485 -8.866279 0.3738 0.0077 0.9901 -0.01476817

0.01361357 -0.04258604 -0.00418879 -0.115758 -0.463032 -9.753102 0.2159 -0.2321 1.258 -0.03176499 0.04625123 0.02530728 0.770085 -0.181485 -8.866279 0.3738 0.0077 0.9901 -0.01476817

0.01361357 -0.04258604 -0.00418879 -0.115758 -0.463032 -9.753102 0.2159 -0.2321 1.258 -0.03176499 0.04625123 0.02530728 0.770085 -0.181485 -8.866279 0.3738 0.0077 0.9901 -0.01476817

-0.03281219 -0.05235988 0.0008726646 -0.109872 -0.321768 -9.55396 0.1866 -0.2339 1.2696 -0.05846853 -0.09320059 0.04310963 0.9682471 -0.14715 -8.824096 0.36 -0.0277 1.0338 -0.01476817

0.06126106 -0.08028515 0.02617994 -0.073575 -0.254079 -9.571618 0.1866 -0.2339 1.2696 -0.07853982 -0.06457718 0.04729842 1.011411 -0.155979 -8.807419 0.36 -0.0277 1.0338 -0.01476817

0.06126106 -0.08028515 0.02617994 -0.073575 -0.254079 -9.571618 0.1866 -0.2339 1.2696 -0.06370452 -0.07609636 0.03333579 0.953532 -0.17658 -8.781913 0.3659 -0.0243 1.0218 -0.01476817

0.0122173 -0.08203047 0.03577925 -0.082404 -0.36297 -9.614781 0.1816 -0.2353 1.2704 -0.06370452 -0.07609636 0.03333579 0.953532 -0.17658 -8.781913 0.3659 -0.0243 1.0218 -0.01476817

-0.09459685 -0.03839725 -0.009599311 -0.118701 -0.476766 -9.690318 0.1816 -0.2353 1.2704 -0.06213372 -0.06527531 0.03717551 0.946665 -0.163827 -8.812324 0.3659 -0.0243 1.0218 -0.01476817

-0.09459685 -0.03839725 -0.009599311 -0.118701 -0.476766 -9.690318 0.1816 -0.2353 1.2704 -0.0705113 -0.01570796 0.02670354 0.8652421 -0.120663 -8.831944 0.3707 -0.0115 1.0191 -0.01476817

-0.05340707 -0.06492625 -0.02495821 -0.128511 -0.52974 -9.714844 0.1962 -0.2426 1.2787 -0.0705113 -0.01570796 0.02670354 0.8652421 -0.120663 -8.831944 0.3707 -0.0115 1.0191 -0.01476817

-0.1219985 -0.08098327 -0.02722714 -0.169713 -0.651384 -9.719748 0.1962 -0.2426 1.2787 -0.05340707 0.007853981 0.00715585 0.822078 -0.102024 -8.851563 0.3707 -0.0115 1.0191 -0.01476817

-0.1219985 -0.08098327 -0.02722714 -0.169713 -0.651384 -9.719748 0.1962 -0.2426 1.2787 -0.05811946 -0.0280998 0.003839724 0.8181541 -0.052974 -8.883937 0.3816 -0.0152 0.9991 -0.01476817

-0.1411971 -0.1040216 -0.06265732 -0.188352 -0.7445791 -9.707976 0.1923 -0.2338 1.2769 -0.05811946 -0.0280998 0.003839724 0.8181541 -0.052974 -8.883937 0.3816 -0.0152 0.9991 -0.01476817

-0.1256637 -0.1136209 -0.1066396 -0.246231 -0.9388171 -9.679527 0.1923 -0.2338 1.2769 -0.05550147 -0.1357866 -0.0280998 0.896634 -0.025506 -8.855488 0.3816 -0.0152 0.9991 -0.01476817

-0.1256637 -0.1136209 -0.1066396 -0.246231 -0.9388171 -9.679527 0.1923 -0.2338 1.2769 -0.02984513 -0.1305506 -0.08988446 1.065366 -0.03924 -8.840773 0.3705 -0.0144 0.9884 -0.0150367

-0.2473132 -0.1872738 -0.2026327 -0.265851 -1.44207 -9.601048 0.187 -0.2279 1.2735 0.0132645 0.02146755 -0.1949533 1.166409 -0.028449 -8.780931 0.357 -0.0096 0.998 -0.0150367

-0.8108799 -0.06614798 -0.4269075 -0.3924 -2.411298 -9.556903 0.187 -0.2279 1.2735 0.0132645 0.02146755 -0.1949533 1.166409 -0.028449 -8.780931 0.357 -0.0096 0.998 -0.0150367

-0.8108799 -0.06614798 -0.4269075 -0.3924 -2.411298 -9.556903 0.187 -0.2279 1.2735 -0.009424779 0.0837758 -0.29147 1.273338 -0.023544 -8.696566 0.357 -0.0096 0.998 -0.0150367

-1.21248 0.01570796 -0.8628908 -0.599391 -3.220623 -9.479403 0.1968 -0.2384 1.2614 -0.009424779 0.0837758 -0.29147 1.273338 -0.023544 -8.696566 0.357 -0.0096 0.998 -0.01557372

-1.21248 0.01570796 -0.8628908 -0.599391 -3.220623 -9.479403 0.1968 -0.2384 1.2614 -0.1253146 -0.235794 -0.233176 1.486215 0.01962 -8.727958 0.3646 -0.0167 1.002 -0.01557372

-1.21248 0.01570796 -0.8628908 -0.599391 -3.220623 -9.479403 0.1968 -0.2384 1.2614 -0.08883726 -0.699877 -0.008028515 1.552923 0.103986 -8.903556 0.3646 -0.0167 1.002 -0.01557372

-1.21248 0.01570796 -0.8628908 -0.599391 -3.220623 -9.479403 0.1968 -0.2384 1.2614 -0.07801621 -0.3857178 0.01256637 1.166409 0.090252 -8.870203 0.3633 -0.0243 1.0037 -0.01557372

-0.5419247 0.3413864 -1.496096 -0.8613181 -2.031651 -9.539245 0.2038 -0.2728 1.2694 -0.07801621 -0.3857178 0.01256637 1.166409 0.090252 -8.870203 0.3633 -0.0243 1.0037 -0.008592382

-0.4434882 0.405789 -1.809906 -1.043784 -2.267091 -9.716805 0.19 -0.2856 1.2756 -0.07801621 -0.3857178 0.01256637 1.166409 0.090252 -8.870203 0.3633 -0.0243 1.0037 -0.008592382

-0.4434882 0.405789 -1.809906 -1.043784 -2.267091 -9.716805 0.19 -0.2856 1.2756 -0.07801621 -0.3857178 0.01256637 1.166409 0.090252 -8.870203 0.3633 -0.0243 1.0037 -0.008592382

-0.3607596 0.5501278 -1.673422 -1.086948 -1.738332 -9.774684 0.19 -0.2856 1.2756 -0.07801621 -0.3857178 0.01256637 1.166409 0.090252 -8.870203 0.3633 -0.0243 1.0037 -0.008592382

-0.3607596 0.5501278 -1.673422 -1.086948 -1.738332 -9.774684 0.19 -0.2856 1.2756 -0.1167625 -0.7953466 -0.3460988 0.404172 0.025506 -8.719129 0.3865 -0.0277 0.989 0.02309207

-0.4462807 0.6702064 -1.411448 -1.102644 -1.182105 -9.871803 0.1672 -0.299 1.2703 -0.09686577 -0.5014331 -0.2389356 -0.040221 -0.077499 -8.623972 0.3974 -0.0083 0.9959 0.02309207

-0.3155555 0.7813839 -1.339366 -1.054575 -0.991791 -9.960093 0.1672 -0.299 1.2703 -0.09686577 -0.5014331 -0.2389356 -0.040221 -0.077499 -8.623972 0.3974 -0.0083 0.9959 0.02309207

-0.1211258 0.7389724 -1.599594 -1.038879 -0.791667 -9.827658 0.1195 -0.3086 1.2813 -0.1973967 -0.4550073 -0.3668682 -0.05886 -0.169713 -8.589636 0.3974 -0.0083 0.9959 0.02309207

-0.1211258 0.7389724 -1.599594 -1.038879 -0.791667 -9.827658 0.1195 -0.3086 1.2813 -0.1973967 -0.4550073 -0.3668682 -0.05886 -0.169713 -8.589636 0.3974 -0.0083 0.9959 0.08431281

-0.4176573 1.008102 -1.725782 -1.056537 -0.740655 -9.606934 0.1195 -0.3086 1.2813 -0.1876229 -0.3447025 -0.4064872 -0.12753 -0.072594 -8.777007 0.4221 -0.0024 0.9823 0.08431281

-1.020494 1.57865 -1.849002 -1.452861 -1.077138 -9.674623 0.0774 -0.3155 1.2806 -0.2604031 -0.5623451 -0.3954916 -0.076518 0.123606 -8.796628 0.457 -0.0022 0.9743 0.08431281

-1.020494 1.57865 -1.849002 -1.452861 -1.077138 -9.674623 0.0774 -0.3155 1.2806 -0.2604031 -0.5623451 -0.3954916 -0.076518 0.123606 -8.796628 0.457 -0.0022 0.9743 0.08431281

-1.198692 1.959307 -1.989152 -1.781496 -1.359666 -9.923797 0.0201 -0.3203 1.2698 -0.3295181 -0.2574361 -0.3185226 -0.298224 0.258984 -8.684793 0.457 -0.0022 0.9743 0.03235569

-1.554041 2.383945 -2.152689 -1.69713 -0.953532 -9.924778 0.0201 -0.3203 1.2698 -0.3295181 -0.2574361 -0.3185226 -0.298224 0.258984 -8.684793 0.457 -0.0022 0.9743 0.03235569

-1.554041 2.383945 -2.152689 -1.69713 -0.953532 -9.924778 0.0201 -0.3203 1.2698 -0.3914773 -0.1792453 -0.1956514 -0.458127 0.128511 -8.620048 0.4795 -0.0108 0.9844 0.03235569

0.1097812 1.043881 -2.181313 -1.224288 -0.132435 -9.823734 -0.0625 -0.3467 1.2678 -0.3914773 -0.1792453 -0.1956514 -0.458127 0.128511 -8.620048 0.4795 -0.0108 0.9844 0.03235569

0.1097812 1.043881 -2.181313 -1.224288 -0.132435 -9.823734 -0.0625 -0.3467 1.2678 -0.3532546 0.07260569 0.01605703 -0.700434 0.20601 -8.542548 0.4795 -0.0108 0.9844 0.473924

0.1097812 1.043881 -2.181313 -1.224288 -0.132435 -9.823734 -0.0625 -0.3467 1.2678 -0.2923426 0.2256711 0.1026254 -0.6798331 0.360027 -8.490555 0.4835 -0.0126 0.9775 0.473924

0.1097812 1.043881 -2.181313 -1.224288 -0.132435 -9.823734 -0.0625 -0.3467 1.2678 -0.2923426 0.2256711 0.1026254 -0.6798331 0.360027 -8.490555 0.4835 -0.0126 0.9775 0.473924

0.9400343 0.5269149 -1.239707 1.036917 2.368134 -8.997733 -0.2456 -0.4178 1.2393 -0.2923426 0.2256711 0.1026254 -0.6798331 0.360027 -8.490555 0.4835 -0.0126 0.9775 0.6672528

0.9400343 0.5269149 -1.239707 1.036917 2.368134 -8.997733 -0.2456 -0.4178 1.2393 -0.3008948 0.01291544 0.1242674 -0.316863 0.444393 -8.440524 0.4835 -0.0126 0.9775 0.6672528

1.047547 0.06754424 -1.41267 1.478367 2.463291 -9.111528 -0.3276 -0.401 1.2102 -0.3008948 0.01291544 0.1242674 -0.316863 0.444393 -8.440524 0.4835 -0.0126 0.9775 0.6672528

1.276534 0.07417649 -1.498191 1.612764 2.602593 -9.434278 -0.3276 -0.401 1.2102 -0.3008948 0.01291544 0.1242674 -0.316863 0.444393 -8.440524 0.4835 -0.0126 0.9775 0.6672528

1.475152 0.1738348 -1.312313 1.711845 2.73699 -9.712882 -0.3876 -0.3901 1.1978 -0.9110619 -0.9175196 0.6073745 -0.417906 0.50031 -8.183502 0.4839 -0.0557 0.9643 0.8726646

1.475152 0.1738348 -1.312313 1.711845 2.73699 -9.712882 -0.3876 -0.3901 1.1978 -0.9060004 -0.7955211 0.3768166 -0.918216 0.72594 -8.18154 0.5139 -0.0931 0.9525 0.8726646

1.699776 0.2522001 -1.024683 1.776591 2.796831 -9.88848 -0.3876 -0.3901 1.1978 -0.9060004 -0.7955211 0.3768166 -0.918216 0.72594 -8.18154 0.5139 -0.0931 0.9525 0.8726646

1.907121 0.3029892 -0.8021533 1.885482 2.691864 -9.92772 -0.4373 -0.3639 1.1716 -0.8738863 -0.6597344 0.1548107 -1.413621 1.017297 -8.131509 0.5418 -0.1429 0.9217 0.8726646

2.146231 0.1694715 -0.7520624 2.227851 2.494683 -9.766836 -0.4373 -0.3639 1.1716 -0.7963938 -0.5281366 -0.005061455 -1.794249 1.344951 -8.113852 0.5418 -0.1429 0.9217 0.9934951

2.146231 0.1694715 -0.7520624 2.227851 2.494683 -9.766836 -0.4373 -0.3639 1.1716 -0.8489282 -0.5852089 -0.1078613 -1.927665 1.617669 -8.125624 0.567 -0.1732 0.8897 0.9934951

2.284811 0.0280998 -0.7384488 2.474082 2.074815 -9.542188 -0.4804 -0.3246 1.1322 -0.8489282 -0.5852089 -0.1078613 -1.927665 1.617669 -8.125624 0.567 -0.1732 0.8897 0.9934951

2.137505 0.00837758 -0.6230826 2.471139 1.460709 -9.396018 -0.5168 -0.2735 1.1174 -1.014734 -0.8576548 -0.188321 -1.835451 1.725579 -7.99515 0.567 -0.1732 0.8897 0.9934951

2.137505 0.00837758 -0.6230826 2.471139 1.460709 -9.396018 -0.5168 -0.2735 1.1174 -1.151743 -0.927817 -0.1082104 -1.745199 1.753047 -7.804836 0.5999 -0.1996 0.8716 1.078076

1.968382 -0.02460914 -0.5304055 2.505474 0.975114 -9.247888 -0.5168 -0.2735 1.1174 -1.225745 -0.8599237 -0.06195919 -2.002221 1.879596 -7.729299 0.5999 -0.1996 0.8716 1.078076

1.968382 -0.02460914 -0.5304055 2.505474 0.975114 -9.247888 -0.5168 -0.2735 1.1174 -1.225745 -0.8599237 -0.06195919 -2.002221 1.879596 -7.729299 0.5999 -0.1996 0.8716 1.078076

1.968382 -0.02460914 -0.5304055 2.505474 0.975114 -9.247888 -0.5168 -0.2735 1.1174 -1.200088 -0.8196066 -0.1726131 -2.336742 2.159181 -7.826418 0.6338 -0.2358 0.8522 1.078076

1.968382 -0.02460914 -0.5304055 2.505474 0.975114 -9.247888 -0.5168 -0.2735 1.1174 -1.104793 -0.7061602 -0.254469 -2.537847 2.549619 -7.834267 0.6338 -0.2358 0.8522 1.131779

2.062805 -0.9042551 -0.5398303 2.785059 -0.809325 -8.863336 -0.5389 -0.1504 1.0585 -1.04458 -0.6092944 -0.3090978 -2.708541 2.909646 -7.853886 0.6589 -0.2808 0.8322 1.131779

2.062805 -0.9042551 -0.5398303 2.785059 -0.809325 -8.863336 -0.5389 -0.1504 1.0585 -1.04458 -0.6092944 -0.3090978 -2.708541 2.909646 -7.853886 0.6589 -0.2808 0.8322 1.131779

1.918815 -0.8009316 -0.4710644 2.676168 -1.295901 -8.832924 -0.5669 -0.0982 1.0151 -1.04458 -0.6092944 -0.3090978 -2.708541 2.909646 -7.853886 0.6589 -0.2808 0.8322 1.131779

1.918815 -0.8009316 -0.4710644 2.676168 -1.295901 -8.832924 -0.5669 -0.0982 1.0151 -1.04458 -0.6092944 -0.3090978 -2.708541 2.909646 -7.853886 0.6589 -0.2808 0.8322 1.155945

1.918815 -0.8009316 -0.4710644 2.676168 -1.295901 -8.832924 -0.5669 -0.0982 1.0151 -0.9787807 -0.3824016 -0.2848377 -3.281445 3.999537 -7.671421 0.7378 -0.3818 0.7386 1.155945

1.918815 -0.8009316 -0.4710644 2.676168 -1.295901 -8.832924 -0.5669 -0.0982 1.0151 -0.9787807 -0.3824016 -0.2848377 -3.281445 3.999537 -7.671421 0.7378 -0.3818 0.7386 1.155945

1.918815 -0.8009316 -0.4710644 2.676168 -1.295901 -8.832924 -0.5669 -0.0982 1.0151 -0.9271189 -0.2686062 -0.3768166 -3.380526 4.205547 -7.613541 0.7378 -0.3818 0.7386 1.155945

1.918815 -0.8009316 -0.4710644 2.676168 -1.295901 -8.832924 -0.5669 -0.0982 1.0151 -0.8693485 -0.1713913 -0.4256858 -3.476664 4.49298 -7.50465 0.7719 -0.3992 0.6871 1.170713

1.918815 -0.8009316 -0.4710644 2.676168 -1.295901 -8.832924 -0.5669 -0.0982 1.0151 -0.8693485 -0.1713913 -0.4256858 -3.476664 4.49298 -7.50465 0.7719 -0.3992 0.6871 1.170713

1.918815 -0.8009316 -0.4710644 2.676168 -1.295901 -8.832924 -0.5669 -0.0982 1.0151 -0.7902851 -0.1040216 -0.3930482 -3.513942 4.769622 -7.383987 0.7719 -0.3992 0.6871 1.170713

2.059314 -1.010022 -0.49323 2.087568 -2.921418 -8.786818 -0.58 -0.042 0.957 -0.7335619 -0.06318092 -0.3829252 -3.527676 4.866741 -7.345728 0.7894 -0.4103 0.6444 1.170713

2.059314 -1.010022 -0.49323 2.087568 -2.921418 -8.786818 -0.58 -0.042 0.957 -0.7335619 -0.06318092 -0.3829252 -3.527676 4.866741 -7.345728 0.7894 -0.4103 0.6444 1.176083

1.755278 -0.7782423 -0.5213299 2.087568 -2.921418 -8.786818 -0.58 -0.042 0.957 -0.7026695 -0.0731293 -0.4253367 -3.501189 4.898133 -7.268229 0.7894 -0.4103 0.6444 1.176083

1.755278 -0.7782423 -0.5213299 2.087568 -2.921418 -8.786818 -0.58 -0.042 0.957 -0.7147123 -0.1485275 -0.4258603 -3.474702 5.013891 -7.173072 0.8022 -0.4248 0.6339 1.176083

1.755278 -0.7782423 -0.5213299 2.087568 -2.921418 -8.786818 -0.58 -0.042 0.957 -0.7147123 -0.1485275 -0.4258603 -3.474702 5.013891 -7.173072 0.8022 -0.4248 0.6339 1.176083

1.755278 -0.7782423 -0.5213299 2.087568 -2.921418 -8.786818 -0.58 -0.042 0.957 -0.686787 -0.2103122 -0.4274311 -3.473721 5.210091 -7.125985 0.8022 -0.4248 0.6339 1.173398

1.338318 -0.9857619 -0.7293731 1.388115 -4.898133 -8.694604 -0.593 0.0933 0.8138 -0.5543166 -0.198793 -0.3834488 -3.512961 5.380785 -7.143642 0.8141 -0.433 0.5985 1.173398

1.338318 -0.9857619 -0.7293731 1.388115 -4.898133 -8.694604 -0.593 0.0933 0.8138 -0.5543166 -0.198793 -0.3834488 -3.512961 5.380785 -7.143642 0.8141 -0.433 0.5985 1.173398

1.040042 -1.168498 -0.7609635 1.198782 -5.268951 -8.820171 -0.5994 0.1209 0.7632 -0.4365068 -0.2193879 -0.3345796 -3.525714 5.506353 -7.095573 0.8187 -0.4406 0.5713 1.173398

1.040042 -1.168498 -0.7609635 1.198782 -5.268951 -8.820171 -0.5994 0.1209 0.7632 -0.4365068 -0.2193879 -0.3345796 -3.525714 5.506353 -7.095573 0.8187 -0.4406 0.5713 1.169371

1.040042 -1.168498 -0.7609635 1.198782 -5.268951 -8.820171 -0.5994 0.1209 0.7632 -0.4365068 -0.2193879 -0.3345796 -3.525714 5.506353 -7.095573 0.8187 -0.4406 0.5713 1.169371

3.137753 -1.267284 -0.4010766 -0.36297 -5.920335 -8.529796 -0.6243 0.1687 0.6768 -0.4365068 -0.2193879 -0.3345796 -3.525714 5.506353 -7.095573 0.8187 -0.4406 0.5713 1.169371

3.137753 -1.267284 -0.4010766 -0.36297 -5.920335 -8.529796 -0.6243 0.1687 0.6768 -0.5375614 -0.2391101 -0.3342305 -3.833748 5.613282 -6.444189 0.8624 -0.4461 0.5277 1.168028

3.081204 -0.8326966 -0.2867576 -0.576828 -6.713964 -8.077555 -0.6108 0.1916 0.6123 -0.5375614 -0.2391101 -0.3342305 -3.833748 5.613282 -6.444189 0.8624 -0.4461 0.5277 1.168028

2.520779 -0.4930555 -0.1141445 -0.751446 -7.742053 -7.395759 -0.6108 0.1916 0.6123 -0.4654793 -0.08185595 -0.3930482 -4.003461 5.71923 -6.316659 0.8624 -0.4461 0.5277 1.168028

1.557008 -0.1963495 -0.007504916 -0.8210971 -8.697547 -6.630579 -0.6092 0.2302 0.5341 -0.3981096 0.03159046 -0.3928736 -4.136877 5.726097 -6.36669 0.8724 -0.4397 0.4968 1.176083

1.557008 -0.1963495 -0.007504916 -0.8210971 -8.697547 -6.630579 -0.6092 0.2302 0.5341 -0.3981096 0.03159046 -0.3928736 -4.136877 5.726097 -6.36669 0.8724 -0.4397 0.4968 1.176083

0.6787585 -0.0413643 0.1209513 -0.7848 -9.350892 -6.008626 -0.6043 0.2619 0.476 -0.4605924 0.05951573 -0.3874631 -4.256559 5.683914 -6.304887 0.8724 -0.4397 0.4968 1.176083

0.6787585 -0.0413643 0.1209513 -0.7848 -9.350892 -6.008626 -0.6043 0.2619 0.476 -0.4865978 0.05899213 -0.4176573 -4.388013 5.629959 -6.169509 0.8749 -0.4344 0.4798 1.176083

0.6787585 -0.0413643 0.1209513 -0.7848 -9.350892 -6.008626 -0.6043 0.2619 0.476 -0.4865978 0.05899213 -0.4176573 -4.388013 5.629959 -6.169509 0.8749 -0.4344 0.4798 1.188166

-0.498466 0.04642576 0.2324778 -0.655308 -9.658927 -5.555403 -0.6043 0.2619 0.476 -0.4591961 0.087441 -0.4351106 -4.481208 5.673123 -6.026283 0.8782 -0.4299 0.4752 1.188166

-0.498466 0.04642576 0.2324778 -0.655308 -9.658927 -5.555403 -0.6043 0.2619 0.476 -0.3635521 0.2474877 -0.3745476 -4.586175 5.77809 -5.94486 0.8782 -0.4299 0.4752 1.188166

-0.498466 0.04642576 0.2324778 -0.655308 -9.658927 -5.555403 -0.6043 0.2619 0.476 -0.3635521 0.2474877 -0.3745476 -4.586175 5.77809 -5.94486 0.8782 -0.4299 0.4752 1.188166

-0.498466 0.04642576 0.2324778 -0.655308 -9.658927 -5.555403 -0.6043 0.2619 0.476 -0.1918117 0.4742059 -0.3174754 -4.783356 5.793787 -5.97429 0.875 -0.4327 0.4781 1.181454

-0.498466 0.04642576 0.2324778 -0.655308 -9.658927 -5.555403 -0.6043 0.2619 0.476 -0.1007055 0.5733407 -0.2630211 -4.859874 5.822236 -6.04296 0.875 -0.4327 0.4781 1.181454

-0.7456047 -0.06195919 0.2890265 -0.42183 -8.993809 -5.128668 -0.6061 0.2765 0.4271 -0.1007055 0.5733407 -0.2630211 -4.859874 5.822236 -6.04296 0.875 -0.4327 0.4781 1.181454

-0.7456047 -0.06195919 0.2890265 -0.42183 -8.993809 -5.128668 -0.6061 0.2765 0.4271 -0.1389282 0.431969 -0.1869248 -4.64994 5.844798 -5.910525 0.8803 -0.4228 0.4815 1.181454

-0.572468 -0.1494002 0.3082252 -0.250155 -8.136415 -4.95405 -0.6061 0.2765 0.4271 -0.1389282 0.431969 -0.1869248 -4.64994 5.844798 -5.910525 0.8803 -0.4228 0.4815 1.169371

-0.572468 -0.1494002 0.3082252 -0.250155 -8.136415 -4.95405 -0.6061 0.2765 0.4271 -0.2460914 0.2043781 -0.1713913 -4.270293 5.762394 -5.718249 0.8803 -0.4228 0.4815 1.169371

-0.4565781 -0.1307252 0.3740241 -0.237402 -7.620408 -5.037435 -0.6082 0.2858 0.4081 -0.2460914 0.2043781 -0.1713913 -4.270293 5.762394 -5.718249 0.8803 -0.4228 0.4815 1.169371

-0.4565781 -0.1307252 0.3740241 -0.237402 -7.620408 -5.037435 -0.6082 0.2858 0.4081 -0.2460914 0.2043781 -0.1713913 -4.270293 5.762394 -5.718249 0.8803 -0.4228 0.4815 1.169371

-0.4565781 -0.1307252 0.3740241 -0.237402 -7.620408 -5.037435 -0.6082 0.2858 0.4081 -0.2460914 0.2043781 -0.1713913 -4.270293 5.762394 -5.718249 0.8803 -0.4228 0.4815 1.154602

-0.4565781 -0.1307252 0.3740241 -0.237402 -7.620408 -5.037435 -0.6082 0.2858 0.4081 -0.2820452 0.04956735 -0.02338741 -4.053492 5.872266 -5.794767 0.916 -0.4108 0.4732 1.154602

0.4134685 0.3714061 0.3813545 -1.02024 -7.184844 -6.301945 -0.5731 0.2819 0.4542 -0.1230457 0.1881465 0.01448623 -4.181022 6.054732 -5.842836 0.9155 -0.427 0.4558 1.154602

0.4134685 0.3714061 0.3813545 -1.02024 -7.184844 -6.301945 -0.5731 0.2819 0.4542 -0.1230457 0.1881465 0.01448623 -4.181022 6.054732 -5.842836 0.9155 -0.427 0.4558 1.154602

0.7379252 0.3953171 0.1788962 -1.152675 -7.280001 -6.235236 -0.5731 0.2819 0.4542 0.02042035 0.2286381 0.06405359 -4.088808 6.145966 -5.844798 0.9155 -0.427 0.4558 1.150575

0.9309586 0.3166027 0.005585053 -1.23606 -7.497783 -6.340203 -0.5456 0.2635 0.4405 0.05602507 0.07679449 0.07120943 -3.827862 6.103782 -5.873247 0.9291 -0.4153 0.4581 1.150575

0.9309586 0.3166027 0.005585053 -1.23606 -7.497783 -6.340203 -0.5456 0.2635 0.4405 0.05602507 0.07679449 0.07120943 -3.827862 6.103782 -5.873247 0.9291 -0.4153 0.4581 1.150575

0.699877 0.07417649 -0.02146755 -1.227231 -7.977492 -6.487353 -0.5456 0.2635 0.4405 -0.07644542 -0.1544616 0.0006981317 -3.712104 5.897772 -5.851665 0.9291 -0.4153 0.4581 1.150575

0.2237512 0.1897173 0.0424115 -1.120302 -8.498404 -6.495202 -0.5036 0.2622 0.4125 -0.2199115 -0.3843215 -0.05637414 -3.770964 5.790843 -5.83695 0.9302 -0.4105 0.4591 1.143862

0.3364995 0.4024729 0.0541052 -1.089891 -8.856468 -6.419664 -0.4911 0.2764 0.3763 -0.2199115 -0.3843215 -0.05637414 -3.770964 5.790843 -5.83695 0.9302 -0.4105 0.4591 1.143862

0.3364995 0.4024729 0.0541052 -1.089891 -8.856468 -6.419664 -0.4911 0.2764 0.3763 -0.1628392 -0.3476696 -0.08360127 -4.081941 5.855589 -5.917392 0.9302 -0.4105 0.4591 1.143862

0.4979424 0.4078835 -0.07714356 -1.0791 -8.636724 -6.21954 -0.4911 0.2764 0.3763 -0.01658063 -0.1551598 -0.1439897 -4.520448 5.956633 -5.970366 0.9284 -0.4107 0.4482 1.143862

0.2944371 0.297055 -0.2951352 -0.822078 -8.42581 -5.813406 -0.4818 0.2932 0.343 0.1940806 0.1267109 -0.1380555 -4.779432 6.04296 -5.981157 0.9284 -0.4107 0.4482 1.117011

0.4490732 0.1333431 -0.5387831 -0.437526 -8.570997 -5.445531 -0.4818 0.2932 0.343 0.1940806 0.1267109 -0.1380555 -4.779432 6.04296 -5.981157 0.9284 -0.4107 0.4482 1.117011

0.4490732 0.1333431 -0.5387831 -0.437526 -8.570997 -5.445531 -0.4818 0.2932 0.343 0.2684316 0.2080432 -0.1258382 -4.657788 5.942898 -5.857552 0.9298 -0.4224 0.4359 1.117011

0.2370157 0.1015782 -0.3173009 -0.388476 -8.517042 -5.298381 -0.4899 0.2972 0.3122 0.180118 0.1436406 -0.08011062 -4.308552 5.655465 -5.76828 0.9212 -0.441 0.4356 1.117011

0.2012365 0.2316052 -0.2036799 -0.393381 -8.698527 -5.374899 -0.4899 0.2972 0.3122 0.180118 0.1436406 -0.08011062 -4.308552 5.655465 -5.76828 0.9212 -0.441 0.4356 1.102243

0.2295108 0.2916445 -0.1806416 -0.576828 -8.915328 -5.445531 -0.5246 0.2948 0.2898 0.02146755 -0.03351032 -0.03246313 -3.941658 5.472018 -5.651541 0.9212 -0.441 0.4356 1.102243

0.2295108 0.2916445 -0.1806416 -0.576828 -8.915328 -5.445531 -0.5246 0.2948 0.2898 -0.1216494 -0.2265437 0.02164208 -3.730743 5.457303 -5.56227 0.9178 -0.4257 0.445 1.102243

0.1251401 0.2031563 -0.1949533 -0.82404 -8.790741 -5.16987 -0.5246 0.2948 0.2898 -0.06632251 -0.2502802 0.06510078 -3.740553 5.639769 -5.58189 0.9178 -0.4257 0.445 1.102243

0.1251401 0.2031563 -0.1949533 -0.82404 -8.790741 -5.16987 -0.5246 0.2948 0.2898 -0.06632251 -0.2502802 0.06510078 -3.740553 5.639769 -5.58189 0.9178 -0.4257 0.445 1.112983

0.1251401 0.2031563 -0.1949533 -0.82404 -8.790741 -5.16987 -0.5246 0.2948 0.2898 0.03822271 -0.1563815 0.1525418 -3.900456 5.823216 -5.602491 0.9295 -0.4066 0.4531 1.112983

-0.3426081 -0.1734857 -0.2172935 -0.752427 -8.866279 -4.955031 -0.5703 0.2956 0.2864 0.07330383 -0.07644542 0.2832669 -3.958335 5.823216 -5.645655 0.9295 -0.4066 0.4531 1.112983

-0.1820378 -0.3272492 -0.1884956 -0.405153 -8.754445 -5.043321 -0.5841 0.2988 0.295 0.07330383 -0.07644542 0.2832669 -3.958335 5.823216 -5.645655 0.9295 -0.4066 0.4531 1.112983

-0.1820378 -0.3272492 -0.1884956 -0.405153 -8.754445 -5.043321 -0.5841 0.2988 0.295 0.06021386 -0.108734 0.3824016 -3.980898 5.636826 -5.697648 0.9326 -0.4045 0.4546 1.15326

-0.1389282 -0.4473279 -0.2211332 -0.220725 -8.780931 -5.187528 -0.5841 0.2988 0.295 0.06021386 -0.108734 0.3824016 -3.980898 5.636826 -5.697648 0.9326 -0.4045 0.4546 1.15326

-0.1389282 -0.4473279 -0.2211332 -0.220725 -8.780931 -5.187528 -0.5841 0.2988 0.295 -0.03839725 -0.1891937 0.4466298 -4.052511 5.453379 -5.693724 0.9326 -0.4045 0.4546 1.15326

-0.185703 -0.3673918 -0.2371902 -0.222687 -8.787798 -5.224806 -0.6054 0.2954 0.3179 -0.03839725 -0.1891937 0.4466298 -4.052511 5.453379 -5.693724 0.9326 -0.4045 0.4546 1.15326

-0.1635374 -0.2028073 -0.2064724 -0.312939 -8.782893 -5.194395 -0.6054 0.2954 0.3179 -0.03839725 -0.1891937 0.4466298 -4.052511 5.453379 -5.693724 0.9326 -0.4045 0.4546 1.208305

-0.1635374 -0.2028073 -0.2064724 -0.312939 -8.782893 -5.194395 -0.6054 0.2954 0.3179 -0.03839725 -0.1891937 0.4466298 -4.052511 5.453379 -5.693724 0.9326 -0.4045 0.4546 1.208305

-0.01239184 -0.2076942 -0.1480039 -0.233478 -8.685775 -5.147307 -0.6164 0.2775 0.3245 0.2448697 0.132645 0.5384341 -4.560669 6.01353 -5.84676 0.9011 -0.4356 0.4507 1.208305

-0.01239184 -0.2076942 -0.1480039 -0.233478 -8.685775 -5.147307 -0.6164 0.2775 0.3245 0.2021091 0.1427679 0.5867797 -4.500828 6.075333 -5.721192 0.9011 -0.4356 0.4507 1.208305

0.0158825 -0.3284709 -0.2247984 -0.162846 -8.751501 -5.078638 -0.6149 0.2706 0.3271 0.159174 0.1406735 0.5778785 -4.341906 6.016473 -5.590719 0.9071 -0.4396 0.4489 1.208305

0.0158825 -0.3284709 -0.2247984 -0.162846 -8.751501 -5.078638 -0.6149 0.2706 0.3271 0.159174 0.1406735 0.5778785 -4.341906 6.016473 -5.590719 0.9071 -0.4396 0.4489 1.208305

-0.08080874 -0.3115413 -0.2839651 -0.22563 -8.883937 -5.036454 -0.6149 0.2706 0.3271 0.1118756 0.1453859 0.5503023 -4.176117 5.948784 -5.541669 0.9071 -0.4396 0.4489 1.32108

-0.082205 -0.1818633 -0.307178 -0.373761 -8.818209 -4.960917 -0.6161 0.2686 0.3445 0.09093165 0.1345649 0.5290093 -4.037796 5.898753 -5.506353 0.9115 -0.4566 0.4594 1.32108

-0.082205 -0.1818633 -0.307178 -0.373761 -8.818209 -4.960917 -0.6161 0.2686 0.3445 0.09093165 0.1345649 0.5290093 -4.037796 5.898753 -5.506353 0.9115 -0.4566 0.4594 1.32108

-0.082205 -0.1818633 -0.307178 -0.373761 -8.818209 -4.960917 -0.6161 0.2686 0.3445 0.06544985 0.08936086 0.5445427 -3.91419 5.874228 -5.430816 0.9115 -0.4566 0.4594 1.32108

-0.082205 -0.1818633 -0.307178 -0.373761 -8.818209 -4.960917 -0.6161 0.2686 0.3445 0.01151917 0.08936086 0.5977753 -3.814128 5.816349 -5.363127 0.9064 -0.4946 0.4524 1.394921

-0.082205 -0.1818633 -0.307178 -0.373761 -8.818209 -4.960917 -0.6161 0.2686 0.3445 -0.0403171 0.1153663 0.655022 -3.782736 5.73885 -5.319963 0.9064 -0.4946 0.4524 1.394921

-0.082205 -0.1818633 -0.307178 -0.373761 -8.818209 -4.960917 -0.6161 0.2686 0.3445 -0.0403171 0.1153663 0.655022 -3.782736 5.73885 -5.319963 0.9064 -0.4946 0.4524 1.394921

-0.082205 -0.1818633 -0.307178 -0.373761 -8.818209 -4.960917 -0.6161 0.2686 0.3445 -0.07661995 0.1780236 0.731642 -3.820995 5.739831 -5.327811 0.8815 -0.5196 0.4543 1.394921

-0.082205 -0.1818633 -0.307178 -0.373761 -8.818209 -4.960917 -0.6161 0.2686 0.3445 -0.07661995 0.1780236 0.731642 -3.820995 5.739831 -5.327811 0.8815 -0.5196 0.4543 1.480845

-0.082205 -0.1818633 -0.307178 -0.373761 -8.818209 -4.960917 -0.6161 0.2686 0.3445 -0.04014257 0.2609267 0.7445574 -3.891627 5.84676 -5.390595 0.8526 -0.5315 0.4663 1.480845

-0.082205 -0.1818633 -0.307178 -0.373761 -8.818209 -4.960917 -0.6161 0.2686 0.3445 0.01343904 0.3328343 0.7150614 -3.864159 6.00372 -5.443569 0.8526 -0.5315 0.4663 1.480845

-0.082205 -0.1818633 -0.307178 -0.373761 -8.818209 -4.960917 -0.6161 0.2686 0.3445 0.01343904 0.3328343 0.7150614 -3.864159 6.00372 -5.443569 0.8526 -0.5315 0.4663 1.480845

-0.082205 -0.1818633 -0.307178 -0.373761 -8.818209 -4.960917 -0.6161 0.2686 0.3445 0.01256637 0.3700098 0.7253588 -3.789603 6.172452 -5.466132 0.8205 -0.551 0.4625 1.577509

-0.082205 -0.1818633 -0.307178 -0.373761 -8.818209 -4.960917 -0.6161 0.2686 0.3445 -0.04694936 0.413294 0.7115707 -3.729762 6.272514 -5.467113 0.8205 -0.551 0.4625 1.577509

0.01343904 -0.416261 -0.2701769 0.040221 -8.234514 -4.303647 -0.6537 0.2708 0.3776 -0.04694936 0.413294 0.7115707 -3.729762 6.272514 -5.467113 0.8205 -0.551 0.4625 1.577509

0.01343904 -0.416261 -0.2701769 0.040221 -8.234514 -4.303647 -0.6537 0.2708 0.3776 -0.07435103 0.4007276 0.630762 -3.589479 6.25878 -5.566194 0.7957 -0.5661 0.4777 1.577509

0.01343904 -0.416261 -0.2701769 0.040221 -8.234514 -4.303647 -0.6537 0.2708 0.3776 -0.07435103 0.4007276 0.630762 -3.589479 6.25878 -5.566194 0.7957 -0.5661 0.4777 1.683571

0.01343904 -0.416261 -0.2701769 0.040221 -8.234514 -4.303647 -0.6537 0.2708 0.3776 -0.07435103 0.4007276 0.630762 -3.589479 6.25878 -5.566194 0.7957 -0.5661 0.4777 1.683571

0.01343904 -0.416261 -0.2701769 0.040221 -8.234514 -4.303647 -0.6537 0.2708 0.3776 -0.07435103 0.4007276 0.630762 -3.589479 6.25878 -5.566194 0.7957 -0.5661 0.4777 1.683571

0.01343904 -0.416261 -0.2701769 0.040221 -8.234514 -4.303647 -0.6537 0.2708 0.3776 0.0694641 0.6876597 0.5585054 -2.879235 6.693363 -5.784957 0.722 -0.6193 0.4965 1.683571

0.01343904 -0.416261 -0.2701769 0.040221 -8.234514 -4.303647 -0.6537 0.2708 0.3776 0.008901179 0.7429867 0.5263913 -2.72718 6.661971 -5.691762 0.722 -0.6193 0.4965 1.776208

0.01343904 -0.416261 -0.2701769 0.040221 -8.234514 -4.303647 -0.6537 0.2708 0.3776 0.008901179 0.7429867 0.5263913 -2.72718 6.661971 -5.691762 0.722 -0.6193 0.4965 1.776208

0.01343904 -0.416261 -0.2701769 0.040221 -8.234514 -4.303647 -0.6537 0.2708 0.3776 -0.05689773 0.705462 0.5078908 -2.453481 6.616845 -5.618187 0.6971 -0.6396 0.5282 1.828568

0.01343904 -0.416261 -0.2701769 0.040221 -8.234514 -4.303647 -0.6537 0.2708 0.3776 -0.05689773 0.705462 0.5078908 -2.453481 6.616845 -5.618187 0.6971 -0.6396 0.5282 1.828568

0.01343904 -0.416261 -0.2701769 0.040221 -8.234514 -4.303647 -0.6537 0.2708 0.3776 -0.122173 0.7279768 0.5077163 -2.277882 6.617826 -5.635846 0.6971 -0.6396 0.5282 1.828568

0.01343904 -0.416261 -0.2701769 0.040221 -8.234514 -4.303647 -0.6537 0.2708 0.3776 -0.1239184 0.7189011 0.4206243 -2.051271 6.668838 -5.618187 0.6532 -0.6724 0.5671 1.828568

-0.6609561 -0.8737118 -0.5101597 0.122625 -9.042858 -5.045283 -0.7042 0.2649 0.4539 -0.1239184 0.7189011 0.4206243 -2.051271 6.668838 -5.618187 0.6532 -0.6724 0.5671 1.828568

-0.6609561 -0.8737118 -0.5101597 0.122625 -9.042858 -5.045283 -0.7042 0.2649 0.4539 -0.1754056 0.768643 0.2951352 -1.909026 6.699249 -5.61132 0.6532 -0.6724 0.5671 1.828568

0.1062906 -1.242151 -0.5082399 0.026487 -8.301222 -5.23854 -0.678 0.2219 0.591 -0.211883 0.800408 0.1823869 -1.817793 6.737508 -5.592681 0.6212 -0.6785 0.589 1.828568

0.1062906 -1.242151 -0.5082399 0.026487 -8.301222 -5.23854 -0.678 0.2219 0.591 -0.211883 0.800408 0.1823869 -1.817793 6.737508 -5.592681 0.6212 -0.6785 0.589 1.828568

0.06824237 -1.15471 -0.5270894 -0.065727 -8.365969 -5.244426 -0.678 0.2219 0.591 -0.2138028 0.8812168 0.180467 -1.816812 6.855228 -5.51322 0.6212 -0.6785 0.589 1.828568

-0.05288348 -1.193456 -0.5356416 -0.03924 -8.531757 -5.22873 -0.6598 0.2211 0.6119 -0.1933825 0.9463176 0.1488766 -1.747161 6.917031 -5.47398 0.5787 -0.686 0.5992 1.828568

-0.05288348 -1.193456 -0.5356416 -0.03924 -8.531757 -5.22873 -0.6598 0.2211 0.6119 -0.1933825 0.9463176 0.1488766 -1.747161 6.917031 -5.47398 0.5787 -0.686 0.5992 1.828568

-0.04206244 -1.252623 -0.652055 -0.07161301 -8.514099 -5.147307 -0.6598 0.2211 0.6119 -0.1914626 1.048943 0.03385939 -1.614726 6.879754 -5.497524 0.5493 -0.7064 0.5941 1.828568

0.03665191 -1.262048 -0.6613052 -0.111834 -8.314957 -5.05215 -0.6387 0.212 0.6302 -0.1914626 1.048943 0.03385939 -1.614726 6.879754 -5.497524 0.5493 -0.7064 0.5941 2.082312

0.1338668 -1.191187 -0.5969026 -0.1962 -8.137396 -5.014873 -0.6517 0.2032 0.6441 -0.2241003 1.169022 -0.1064651 -1.472481 6.830704 -5.439645 0.5493 -0.7064 0.5941 2.082312

0.1338668 -1.191187 -0.5969026 -0.1962 -8.137396 -5.014873 -0.6517 0.2032 0.6441 -0.2241003 1.169022 -0.1064651 -1.472481 6.830704 -5.439645 0.5493 -0.7064 0.5941 2.082312

0.1518436 -1.169545 -0.6230826 -0.153036 -7.999074 -4.929525 -0.6517 0.2032 0.6441 -0.2241003 1.169022 -0.1064651 -1.472481 6.830704 -5.439645 0.5493 -0.7064 0.5941 2.082312

0.3216642 -1.286308 -0.7679449 0.03924 -7.614522 -4.720572 -0.663 0.1964 0.67 -0.2241003 1.169022 -0.1064651 -1.472481 6.830704 -5.439645 0.5493 -0.7064 0.5941 2.119904

0.2994985 -1.292591 -0.8288569 -0.042183 -7.590979 -4.557726 -0.663 0.1964 0.67 -0.3548254 1.632057 -0.1663299 -0.87309 7.176996 -5.201262 0.5037 -0.728 0.6172 2.119904

0.2994985 -1.292591 -0.8288569 -0.042183 -7.590979 -4.557726 -0.663 0.1964 0.67 -0.3333579 1.814444 -0.2994985 -0.8740711 7.127946 -5.141421 0.4749 -0.7361 0.6224 2.119904

0.21485 -1.412844 -0.9321803 -0.064746 -7.714584 -4.422348 -0.6524 0.1768 0.7144 -0.3333579 1.814444 -0.2994985 -0.8740711 7.127946 -5.141421 0.4749 -0.7361 0.6224 2.119904

0.2614503 -1.477247 -0.9093165 -0.175599 -7.844076 -4.487094 -0.6524 0.1768 0.7144 -0.3333579 1.814444 -0.2994985 -0.8740711 7.127946 -5.141421 0.4749 -0.7361 0.6224 2.148098

0.2614503 -1.477247 -0.9093165 -0.175599 -7.844076 -4.487094 -0.6524 0.1768 0.7144 -0.350113 1.887923 -0.405789 -0.8632801 7.228008 -4.959936 0.4749 -0.7361 0.6224 2.148098

0.2614503 -1.477247 -0.9093165 -0.175599 -7.844076 -4.487094 -0.6524 0.1768 0.7144 -0.350113 1.887923 -0.405789 -0.8632801 7.228008 -4.959936 0.4749 -0.7361 0.6224 2.148098

0.1506219 -1.33413 -0.6298893 -0.253098 -8.729919 -5.266008 -0.6233 0.1224 0.8041 -0.350113 1.887923 -0.405789 -0.8632801 7.228008 -4.959936 0.4749 -0.7361 0.6224 2.148098

0.1506219 -1.33413 -0.6298893 -0.253098 -8.729919 -5.266008 -0.6233 0.1224 0.8041 -0.350113 1.887923 -0.405789 -0.8632801 7.228008 -4.959936 0.4749 -0.7361 0.6224 2.152125

0.1811652 -1.172163 -0.6164503 -0.45126 -8.796628 -5.420025 -0.6233 0.1224 0.8041 -0.350113 1.887923 -0.405789 -0.8632801 7.228008 -4.959936 0.4749 -0.7361 0.6224 2.152125

0.1811652 -1.172163 -0.6164503 -0.45126 -8.796628 -5.420025 -0.6233 0.1224 0.8041 -0.350113 1.887923 -0.405789 -0.8632801 7.228008 -4.959936 0.4749 -0.7361 0.6224 2.152125

0.212232 -0.9601056 -0.6126105 -0.641574 -8.884917 -5.50341 -0.591 0.1228 0.8223 -0.350113 1.887923 -0.405789 -0.8632801 7.228008 -4.959936 0.4749 -0.7361 0.6224 2.152125

0.1638864 -0.7454301 -0.7548549 -0.7877431 -9.041878 -5.557365 -0.591 0.1228 0.8223 -0.350113 1.887923 -0.405789 -0.8632801 7.228008 -4.959936 0.4749 -0.7361 0.6224 2.14944

0.1638864 -0.7454301 -0.7548549 -0.7877431 -9.041878 -5.557365 -0.591 0.1228 0.8223 -0.350113 1.887923 -0.405789 -0.8632801 7.228008 -4.959936 0.4749 -0.7361 0.6224 2.14944

0.04066617 -0.6078982 -0.8250172 -0.792648 -9.206685 -5.605434 -0.5594 0.1258 0.8362 -0.350113 1.887923 -0.405789 -0.8632801 7.228008 -4.959936 0.4749 -0.7361 0.6224 2.14944

0.07592182 -0.6733481 -0.8894197 -0.652365 -9.186085 -5.479867 -0.5594 0.1258 0.8362 -0.350113 1.887923 -0.405789 -0.8632801 7.228008 -4.959936 0.4749 -0.7361 0.6224 2.14944

0.07592182 -0.6733481 -0.8894197 -0.652365 -9.186085 -5.479867 -0.5594 0.1258 0.8362 -0.350113 1.887923 -0.405789 -0.8632801 7.228008 -4.959936 0.4749 -0.7361 0.6224 2.140042

0.08133234 -0.678584 -0.9381145 -0.611163 -9.253774 -5.436702 -0.5491 0.1273 0.8288 -0.350113 1.887923 -0.405789 -0.8632801 7.228008 -4.959936 0.4749 -0.7361 0.6224 2.140042

-0.003141593 -0.5131268 -0.8698721 -0.740655 -9.425448 -5.506353 -0.5491 0.1273 0.8288 -0.350113 1.887923 -0.405789 -0.8632801 7.228008 -4.959936 0.4749 -0.7361 0.6224 2.140042

-0.003141593 -0.5131268 -0.8698721 -0.740655 -9.425448 -5.506353 -0.5491 0.1273 0.8288 -0.350113 1.887923 -0.405789 -0.8632801 7.228008 -4.959936 0.4749 -0.7361 0.6224 2.140042

-0.1314233 -0.3391175 -0.7782423 -0.743598 -9.511777 -5.584833 -0.5598 0.1178 0.8415 -0.350113 1.887923 -0.405789 -0.8632801 7.228008 -4.959936 0.4749 -0.7361 0.6224 2.121246

-0.1314233 -0.3391175 -0.7782423 -0.743598 -9.511777 -5.584833 -0.5598 0.1178 0.8415 -0.350113 1.887923 -0.405789 -0.8632801 7.228008 -4.959936 0.4749 -0.7361 0.6224 2.121246

-0.07330383 -0.3455752 -0.7841764 -0.522873 -9.484308 -5.657427 -0.5895 0.1045 0.8709 -0.6527532 1.598722 -0.745081 0.495405 7.395759 -4.185927 0.3734 -0.7493 0.6515 2.121246

-0.07330383 -0.3455752 -0.7841764 -0.522873 -9.484308 -5.657427 -0.5895 0.1045 0.8709 -0.6527532 1.598722 -0.745081 0.495405 7.395759 -4.185927 0.3734 -0.7493 0.6515 2.121246

-0.0996583 -0.3443534 -0.8009316 -0.357084 -9.493137 -5.693724 -0.5895 0.1045 0.8709 -0.6527532 1.598722 -0.745081 0.495405 7.395759 -4.185927 0.3734 -0.7493 0.6515 2.093053

-0.02024582 -0.3202679 -0.7506661 -0.230535 -9.405828 -5.669199 -0.5909 0.1045 0.8722 -0.5520476 0.7325147 -1.175479 1.288053 9.229248 -3.082302 0.3011 -0.7842 0.6301 2.093053

-0.02024582 -0.3202679 -0.7506661 -0.230535 -9.405828 -5.669199 -0.5909 0.1045 0.8722 -0.6503096 0.6283185 -1.193805 1.287072 9.251811 -2.827242 0.3201 -0.8093 0.6054 2.093053

-0.02024582 -0.3202679 -0.7506661 -0.230535 -9.405828 -5.669199 -0.5909 0.1045 0.8722 -0.6503096 0.6283185 -1.193805 1.287072 9.251811 -2.827242 0.3201 -0.8093 0.6054 2.093053

0.05288348 -0.0158825 -0.5508259 0.046107 -9.021276 -5.576005 -0.6089 0.093 0.872 -0.6682866 0.5377359 -1.237787 1.22625 9.2989 -2.716389 0.3201 -0.8093 0.6054 2.063516

0.09581857 -0.0837758 -0.4342379 0.271737 -8.898651 -5.490657 -0.6089 0.093 0.872 -0.6181956 0.5187119 -1.274788 1.080081 9.343044 -2.66832 0.359 -0.7954 0.5914 2.063516

0.09581857 -0.0837758 -0.4342379 0.271737 -8.898651 -5.490657 -0.6089 0.093 0.872 -0.5258677 0.4495968 -1.290322 0.8632801 9.472536 -2.676168 0.359 -0.7954 0.5914 2.063516

0.1382301 -0.161792 -0.4012512 0.459108 -8.840773 -5.496543 -0.6395 0.0685 0.8565 -0.5258677 0.4495968 -1.290322 0.8632801 9.472536 -2.676168 0.359 -0.7954 0.5914 2.063516

0.1076868 -0.1253146 -0.3558726 0.485595 -8.856468 -5.473 -0.6574 0.0558 0.8378 -0.5258677 0.4495968 -1.290322 0.8632801 9.472536 -2.676168 0.359 -0.7954 0.5914 2.000416

0.1076868 -0.1253146 -0.3558726 0.485595 -8.856468 -5.473 -0.6574 0.0558 0.8378 -0.5258677 0.4495968 -1.290322 0.8632801 9.472536 -2.676168 0.359 -0.7954 0.5914 2.000416

0.1103048 -0.06161012 -0.2713987 0.53955 -8.777007 -5.498506 -0.6574 0.0558 0.8378 -0.4262094 0.3986332 -1.255241 0.620973 9.613801 -2.683035 0.4002 -0.778 0.5785 2.000416

0.1103048 -0.06161012 -0.2713987 0.53955 -8.777007 -5.498506 -0.6574 0.0558 0.8378 -0.4262094 0.3986332 -1.255241 0.620973 9.613801 -2.683035 0.4002 -0.778 0.5785 2.000416

-0.04921828 0.03211406 -0.2349213 0.467937 -8.814285 -5.561289 -0.6513 0.053 0.8561 -0.3687881 0.3752458 -1.247387 0.299205 9.717787 -2.657529 0.4266 -0.7823 0.5623 1.958797

0.08779006 -0.03752458 -0.2445206 0.551322 -8.595523 -5.492619 -0.6513 0.053 0.8561 -0.3225368 0.3586651 -1.232377 0.009810001 9.698167 -2.66832 0.4266 -0.7823 0.5623 1.958797

0.08779006 -0.03752458 -0.2445206 0.551322 -8.595523 -5.492619 -0.6513 0.053 0.8561 -0.2527237 0.3466224 -1.137257 -0.216801 9.69228 -2.65851 0.4597 -0.7726 0.5378 1.958797

0.02164208 -0.08813913 -0.3382448 0.691605 -8.520967 -5.607397 -0.6562 0.0565 0.8581 -0.2527237 0.3466224 -1.137257 -0.216801 9.69228 -2.65851 0.4597 -0.7726 0.5378 1.958797

0.02879793 -0.1335177 -0.363203 0.713187 -8.246286 -5.791824 -0.6562 0.0565 0.8581 -0.1530654 0.3635521 -1.026254 -0.4905 9.757027 -2.602593 0.4597 -0.7726 0.5378 1.907779

0.0439823 0.05113815 -0.4469788 0.558189 -8.035372 -5.900715 -0.6756 0.042 0.8359 -0.003316126 0.2977532 -0.9817477 -0.665118 9.797248 -2.531961 0.49 -0.7513 0.5419 1.907779

0.0439823 0.05113815 -0.4469788 0.558189 -8.035372 -5.900715 -0.6756 0.042 0.8359 -0.003316126 0.2977532 -0.9817477 -0.665118 9.797248 -2.531961 0.49 -0.7513 0.5419 1.907779

0.3312635 0.0275762 -0.4316199 0.452241 -7.687116 -5.551479 -0.6756 0.042 0.8359 -0.003316126 0.2977532 -0.9817477 -0.665118 9.797248 -2.531961 0.49 -0.7513 0.5419 1.907779

0.3358013 0.08307768 -0.3551745 0.311958 -7.96572 -5.257179 -0.6678 0.0257 0.8147 -0.3225368 -0.4209734 -0.74735 -0.53955 8.851563 -1.875672 0.586 -0.6741 0.5738 1.851392

0.3358013 0.08307768 -0.3551745 0.311958 -7.96572 -5.257179 -0.6678 0.0257 0.8147 -0.5003859 -0.5173156 -0.8466592 -0.792648 8.800551 -1.993392 0.586 -0.6741 0.5738 1.851392

0.2495821 0.1919862 -0.2272419 0.309015 -8.143281 -4.942278 -0.6815 0.036 0.7913 -0.5003859 -0.5173156 -0.8466592 -0.792648 8.800551 -1.993392 0.586 -0.6741 0.5738 1.851392

0.21485 0.3755949 -0.002792527 0.325692 -8.221762 -4.778451 -0.6815 0.036 0.7913 -0.5003859 -0.5173156 -0.8466592 -0.792648 8.800551 -1.993392 0.586 -0.6741 0.5738 1.851392

0.21485 0.3755949 -0.002792527 0.325692 -8.221762 -4.778451 -0.6815 0.036 0.7913 -0.4494223 -0.4459316 -0.8326966 -1.436184 9.078175 -2.144466 0.6217 -0.6539 0.5761 1.792319

0.21485 0.3755949 -0.002792527 0.325692 -8.221762 -4.778451 -0.6815 0.036 0.7913 -0.2624975 -0.2275909 -0.7667232 -2.220984 9.31852 -2.310255 0.6217 -0.6539 0.5761 1.792319

0.21485 0.3755949 -0.002792527 0.325692 -8.221762 -4.778451 -0.6815 0.036 0.7913 -0.2624975 -0.2275909 -0.7667232 -2.220984 9.31852 -2.310255 0.6217 -0.6539 0.5761 1.792319

-0.2528982 0.2614503 0.2871067 1.136979 -8.37676 -4.557726 -0.7245 0.0532 0.7661 -0.2624975 -0.2275909 -0.7667232 -2.220984 9.31852 -2.310255 0.6217 -0.6539 0.5761 1.792319

-0.2528982 0.2614503 0.2871067 1.136979 -8.37676 -4.557726 -0.7245 0.0532 0.7661 0.09878563 0.03595378 -0.6517059 -2.811546 9.467631 -2.375001 0.6545 -0.6502 0.5387 1.746672

-0.267908 0.2968805 0.3005457 1.150713 -8.267869 -4.579308 -0.739 0.0528 0.751 0.09878563 0.03595378 -0.6517059 -2.811546 9.467631 -2.375001 0.6545 -0.6502 0.5387 1.746672

-0.2350959 0.2925172 0.2296853 1.077138 -8.121699 -4.642092 -0.739 0.0528 0.751 0.09878563 0.03595378 -0.6517059 -2.811546 9.467631 -2.375001 0.6545 -0.6502 0.5387 1.746672

-0.2350959 0.2925172 0.2296853 1.077138 -8.121699 -4.642092 -0.739 0.0528 0.751 0.09878563 0.03595378 -0.6517059 -2.811546 9.467631 -2.375001 0.6545 -0.6502 0.5387 1.746672

-0.1548107 0.381878 0.2429498 0.92214 -7.9461 -4.646016 -0.742 0.0452 0.7449 0.3433063 0.196175 -0.5586799 -3.047967 9.537282 -2.362248 0.6545 -0.6502 0.5387 1.666118

0.0413643 0.4272566 0.3534292 0.825021 -7.811703 -4.614624 -0.7288 0.0359 0.7374 0.4670501 0.2036799 -0.6262242 -3.00186 9.46567 -2.276901 0.6803 -0.6311 0.506 1.666118

0.0413643 0.4272566 0.3534292 0.825021 -7.811703 -4.614624 -0.7288 0.0359 0.7374 0.4670501 0.2036799 -0.6262242 -3.00186 9.46567 -2.276901 0.6803 -0.6311 0.506 1.666118

0.08779006 0.4782202 0.4303982 0.70632 -7.87743 -4.647978 -0.7288 0.0359 0.7374 0.4303982 0.1815142 -0.7269297 -2.927304 9.259659 -2.262186 0.6803 -0.6311 0.506 1.666118

0.1633628 0.4848525 0.3679154 0.507177 -8.095213 -4.726458 -0.7048 0.0299 0.7096 0.4303982 0.1815142 -0.7269297 -2.927304 9.259659 -2.262186 0.6803 -0.6311 0.506 1.573481

0.1633628 0.4848525 0.3679154 0.507177 -8.095213 -4.726458 -0.7048 0.0299 0.7096 0.1745329 -0.01919862 -0.6375688 -2.922399 8.584731 -2.062062 0.7167 -0.5776 0.5316 1.573481

-0.03490658 0.4003785 0.1705187 0.457146 -8.496442 -4.779432 -0.7048 0.0299 0.7096 0.1745329 -0.01919862 -0.6375688 -2.922399 8.584731 -2.062062 0.7167 -0.5776 0.5316 1.573481

-0.08779006 0.2659882 0.05794493 0.420849 -8.639668 -4.710762 -0.706 0.0341 0.7244 0.1745329 -0.01919862 -0.6375688 -2.922399 8.584731 -2.062062 0.7167 -0.5776 0.5316 1.573481

-0.08779006 0.2659882 0.05794493 0.420849 -8.639668 -4.710762 -0.706 0.0341 0.7244 0.4726351 0.08621927 -0.7661996 -3.445272 8.157015 -2.849805 0.7905 -0.4807 0.5538 1.573481

-0.09634218 0.1541126 0.08796459 0.375723 -8.669098 -4.65975 -0.706 0.0341 0.7244 0.3986332 0.01989675 -0.6272713 -3.652263 8.055972 -2.762496 0.7905 -0.4807 0.5538 1.573481

0.02338741 0.1794198 0.2256711 0.164808 -8.702451 -4.726458 -0.7345 0.0375 0.734 0.2336996 -0.05009095 -0.5164429 -3.868083 7.899012 -2.692845 0.798 -0.449 0.5583 1.455336

-0.09983283 0.3211406 0.2467896 0.121644 -8.84862 -4.818672 -0.7287 0.023 0.7148 0.2336996 -0.05009095 -0.5164429 -3.868083 7.899012 -2.692845 0.798 -0.449 0.5583 1.455336

-0.09983283 0.3211406 0.2467896 0.121644 -8.84862 -4.818672 -0.7287 0.023 0.7148 0.1869248 -0.01500983 -0.5108579 -4.053492 7.742053 -2.700693 0.8033 -0.4082 0.5578 1.455336

-0.1122247 0.334056 0.1954769 0.216801 -8.811342 -4.858893 -0.7287 0.023 0.7148 0.2565634 0.04834562 -0.4865978 -4.182984 7.744014 -2.708541 0.8033 -0.4082 0.5578 1.455336

-0.1122247 0.334056 0.1954769 0.216801 -8.811342 -4.858893 -0.7287 0.023 0.7148 0.2565634 0.04834562 -0.4865978 -4.182984 7.744014 -2.708541 0.8033 -0.4082 0.5578 1.390893

-0.1010546 0.3094469 0.1638864 0.2943 -8.748558 -4.82652 -0.7289 0.0246 0.7004 0.299673 0.07278023 -0.4194026 -4.268331 7.783254 -2.67813 0.8312 -0.3726 0.5552 1.390893

0.01012291 0.2483603 0.230558 0.385533 -8.66223 -4.730382 -0.7289 0.0246 0.7004 0.2726204 0.03717551 -0.3998549 -4.32621 7.629237 -2.679111 0.8312 -0.3726 0.5552 1.390893

0.04625123 0.2516765 0.2319543 0.335502 -8.65144 -4.634244 -0.743 0.0397 0.6863 0.1546362 -0.04974188 -0.4412192 -4.378203 7.411456 -2.689902 0.8419 -0.3633 0.5541 1.390893

0.04625123 0.2516765 0.2319543 0.335502 -8.65144 -4.634244 -0.743 0.0397 0.6863 0.1546362 -0.04974188 -0.4412192 -4.378203 7.411456 -2.689902 0.8419 -0.3633 0.5541 1.339876

0.008552114 0.2944371 0.2073451 0.201105 -8.741692 -4.550859 -0.743 0.0397 0.6863 0.04712389 -0.09721484 -0.411025 -4.429215 7.291773 -2.710503 0.8419 -0.3633 0.5541 1.339876

0.008552114 0.2944371 0.2073451 0.201105 -8.741692 -4.550859 -0.743 0.0397 0.6863 0.02879793 -0.09442231 -0.3625049 -4.495923 7.251552 -2.783097 0.8424 -0.3495 0.5537 1.339876

-0.03717551 0.238412 0.1808161 0.246231 -8.797608 -4.44393 -0.7334 0.045 0.6733 0.02879793 -0.09442231 -0.3625049 -4.495923 7.251552 -2.783097 0.8424 -0.3495 0.5537 1.339876

-0.03717551 0.238412 0.1808161 0.246231 -8.797608 -4.44393 -0.7334 0.045 0.6733 0.06562438 -0.03351032 -0.2925172 -4.666617 7.23978 -2.878254 0.8424 -0.3495 0.5537 1.294229

-0.04415683 -0.1171116 0.09581857 0.6141061 -8.347329 -4.470417 -0.7178 0.0548 0.6409 0.084823 0.02513274 -0.2399828 -4.85595 7.297659 -2.929266 0.8494 -0.3283 0.5558 1.294229

-0.04415683 -0.1171116 0.09581857 0.6141061 -8.347329 -4.470417 -0.7178 0.0548 0.6409 0.1450369 0.06510078 -0.1806416 -4.968765 7.350633 -2.99205 0.8568 -0.3149 0.5799 1.294229

-0.1537635 -0.2031563 -0.02600541 0.629802 -8.419923 -4.517505 -0.7285 0.0515 0.6188 0.1450369 0.06510078 -0.1806416 -4.968765 7.350633 -2.99205 0.8568 -0.3149 0.5799 1.294229

-0.174882 -0.2001893 -0.1216494 0.468918 -8.448372 -4.587156 -0.7285 0.0515 0.6188 0.1450369 0.06510078 -0.1806416 -4.968765 7.350633 -2.99205 0.8568 -0.3149 0.5799 1.255295

-0.174882 -0.2001893 -0.1216494 0.468918 -8.448372 -4.587156 -0.7285 0.0515 0.6188 0.1450369 0.06510078 -0.1806416 -4.968765 7.350633 -2.99205 0.8568 -0.3149 0.5799 1.255295

-0.01954769 -0.07592182 0.03316126 0.178542 -8.368912 -4.647978 -0.7193 0.0464 0.6098 0.1450369 0.06510078 -0.1806416 -4.968765 7.350633 -2.99205 0.8568 -0.3149 0.5799 1.255295

-0.01954769 -0.07592182 0.03316126 0.178542 -8.368912 -4.647978 -0.7193 0.0464 0.6098 0.03577925 0.03193953 -0.06213372 -4.866741 6.928803 -3.083283 0.8744 -0.2635 0.5761 1.255295

0.0577704 0.04939282 0.2113594 0.050031 -8.379703 -4.701933 -0.7193 0.0464 0.6098 -0.008726646 -0.01919862 -0.01640609 -4.877532 6.815989 -3.044043 0.8744 -0.2635 0.5761 1.217703

0.1083849 0.01884956 0.2380629 0.179523 -8.457201 -4.7088 -0.7107 0.0537 0.6037 -0.008726646 -0.01919862 -0.01640609 -4.877532 6.815989 -3.044043 0.8744 -0.2635 0.5761 1.217703

0.03909538 -0.09512044 0.169646 0.330597 -8.641629 -4.680351 -0.7107 0.0537 0.6037 -0.05515241 -0.08325221 -0.007853981 -4.91481 6.74928 -3.047967 0.8602 -0.2813 0.5624 1.217703

0.03909538 -0.09512044 0.169646 0.330597 -8.641629 -4.680351 -0.7107 0.0537 0.6037 -0.01134464 -0.06178465 0.002268928 -4.996233 6.727698 -3.064644 0.8602 -0.2813 0.5624 1.217703

-0.06073746 -0.1706932 0.1082104 0.409077 -8.803494 -4.726458 -0.6977 0.0637 0.6063 -0.01134464 -0.06178465 0.002268928 -4.996233 6.727698 -3.064644 0.8602 -0.2813 0.5624 1.206962

-0.06352998 -0.07871436 0.1054179 0.388476 -8.731881 -4.745097 -0.6977 0.0637 0.6063 -0.004363323 -0.0413643 -0.01832596 -5.083542 6.748299 -3.173535 0.8549 -0.2879 0.5618 1.206962

-0.06352998 -0.07871436 0.1054179 0.388476 -8.731881 -4.745097 -0.6977 0.0637 0.6063 -0.07574729 -0.06928957 -0.03612831 -5.207148 6.761052 -3.201003 0.8549 -0.2879 0.5618 1.206962

-0.07731808 -0.03403392 0.1050688 0.545436 -8.623972 -4.725477 -0.6999 0.0566 0.6073 -0.07574729 -0.06928957 -0.03612831 -5.207148 6.761052 -3.201003 0.8549 -0.2879 0.5618 1.193537

-0.1024508 -0.06719518 0.007853981 0.75537 -8.557263 -4.729401 -0.6808 0.0476 0.6026 -0.07330383 -0.08325221 -0.02722714 -5.329773 6.767919 -3.147048 0.8682 -0.2795 0.5779 1.193537

-0.15132 -0.1246165 -0.1164135 0.7848 -8.472898 -4.709781 -0.6808 0.0476 0.6026 -0.007504916 -0.02565634 -0.03874631 -5.473 6.832665 -3.123504 0.8682 -0.2795 0.5779 1.193537

-0.15132 -0.1246165 -0.1164135 0.7848 -8.472898 -4.709781 -0.6808 0.0476 0.6026 -0.007504916 -0.02565634 -0.03874631 -5.473 6.832665 -3.123504 0.8682 -0.2795 0.5779 1.193537

-0.1366593 -0.03159046 0.02076942 0.521892 -8.423847 -4.707819 -0.6561 0.041 0.6031 0.05497787 0.1014036 -0.05916666 -5.572081 6.92488 -3.152934 0.8674 -0.2647 0.5825 1.193537

0.9981537 0.2001893 -0.2165954 0.205029 -8.204103 -5.154174 -0.6561 0.041 0.6031 0.02321288 0.1083849 -0.05427974 -5.584833 6.962157 -3.161763 0.8674 -0.2647 0.5825 1.170713

0.9981537 0.2001893 -0.2165954 0.205029 -8.204103 -5.154174 -0.6561 0.041 0.6031 0.02321288 0.1083849 -0.05427974 -5.584833 6.962157 -3.161763 0.8674 -0.2647 0.5825 1.170713

0.397586 0.1731367 0.1024508 0.250155 -9.215514 -5.256198 -0.6764 0.0279 0.6033 0.02321288 0.1083849 -0.05427974 -5.584833 6.962157 -3.161763 0.8674 -0.2647 0.5825 1.170713

-0.02129302 -0.009773844 0.1275836 0.271737 -9.697186 -5.005063 -0.6764 0.0279 0.6033 0.02321288 0.1083849 -0.05427974 -5.584833 6.962157 -3.161763 0.8674 -0.2647 0.5825 1.170713

-0.02129302 -0.009773844 0.1275836 0.271737 -9.697186 -5.005063 -0.6764 0.0279 0.6033 -0.2855359 -0.3050835 -0.105767 -5.253255 6.940575 -2.936133 0.8491 -0.2631 0.5536 1.176083

0.03036873 -0.1090831 0.2244493 0.324711 -9.379341 -4.501809 -0.6926 0.0324 0.5953 -0.2855359 -0.3050835 -0.105767 -5.253255 6.940575 -2.936133 0.8491 -0.2631 0.5536 1.176083

-0.07365289 -0.2330015 0.2644174 0.455184 -9.259659 -4.195737 -0.6926 0.0324 0.5953 -0.2366666 -0.1895428 -0.09215339 -5.541669 7.028865 -3.043062 0.8491 -0.2631 0.5536 1.176083

-0.07365289 -0.2330015 0.2644174 0.455184 -9.259659 -4.195737 -0.6926 0.0324 0.5953 -0.0954695 0.06056292 -0.02617994 -5.854609 7.083801 -3.096036 0.848 -0.2689 0.5604 1.176083

-0.07365289 -0.2330015 0.2644174 0.455184 -9.259659 -4.195737 -0.6926 0.0324 0.5953 -0.0954695 0.06056292 -0.02617994 -5.854609 7.083801 -3.096036 0.848 -0.2689 0.5604 1.184139

-0.07365289 -0.2330015 0.2644174 0.455184 -9.259659 -4.195737 -0.6926 0.0324 0.5953 0.001047197 0.2241003 0.01815142 -5.971347 7.121079 -3.040119 0.848 -0.2689 0.5604 1.184139

-0.1764528 -0.3378958 0.4370305 0.125568 -8.931025 -5.025663 -0.6615 0.064 0.604 0.02722714 0.172264 0.02775074 -5.80752 7.176996 -2.878254 0.8653 -0.2623 0.554 1.184139

-0.1764528 -0.3378958 0.4370305 0.125568 -8.931025 -5.025663 -0.6615 0.064 0.604 0.02722714 0.172264 0.02775074 -5.80752 7.176996 -2.878254 0.8653 -0.2623 0.554 1.184139

-0.1658063 -0.3199188 0.4630359 -0.075537 -8.870203 -4.897152 -0.6615 0.064 0.604 -0.029147 0.01361357 -0.02338741 -5.595624 7.123042 -2.811546 0.8837 -0.2663 0.5536 1.190852

-0.1658063 -0.3199188 0.4630359 -0.075537 -8.870203 -4.897152 -0.6615 0.064 0.604 -0.1226966 -0.1698205 -0.1026254 -5.433759 6.904279 -2.788983 0.8837 -0.2663 0.5536 1.190852

-0.007853981 -0.2898992 0.4701917 -0.254079 -8.678907 -4.794147 -0.6407 0.0801 0.596 -0.1226966 -0.1698205 -0.1026254 -5.433759 6.904279 -2.788983 0.8837 -0.2663 0.5536 1.190852

0.09599311 -0.3406883 0.4855506 -0.395343 -8.537643 -4.781394 -0.6407 0.0801 0.596 -0.1226966 -0.1698205 -0.1026254 -5.433759 6.904279 -2.788983 0.8837 -0.2663 0.5536 1.193537

0.09599311 -0.3406883 0.4855506 -0.395343 -8.537643 -4.781394 -0.6407 0.0801 0.596 -0.1226966 -0.1698205 -0.1026254 -5.433759 6.904279 -2.788983 0.8837 -0.2663 0.5536 1.193537

0.148353 -0.2886775 0.5056219 -0.537588 -8.572959 -4.863798 -0.6137 0.0815 0.595 -0.1366593 -0.1422443 -0.08901179 -5.623092 6.971967 -2.618289 0.88 -0.2488 0.5687 1.193537

0.08901179 -0.0980875 0.4738569 -0.8613181 -8.736787 -5.044302 -0.6137 0.0815 0.595 -0.1366593 -0.1422443 -0.08901179 -5.623092 6.971967 -2.618289 0.88 -0.2488 0.5687 1.193537

0.08901179 -0.0980875 0.4738569 -0.8613181 -8.736787 -5.044302 -0.6137 0.0815 0.595 -0.06440265 -0.1237438 -0.07260569 -5.622111 7.07301 -2.641833 0.8696 -0.254 0.5471 1.193537

-0.2076942 0.03298672 0.381529 -1.105587 -8.990865 -5.162022 -0.59 0.0864 0.6027 -0.06440265 -0.1237438 -0.07260569 -5.622111 7.07301 -2.641833 0.8696 -0.254 0.5471 1.202935

-0.352731 -0.02879793 0.3300418 -1.109511 -8.870203 -5.013891 -0.5739 0.0973 0.6159 -0.1027999 -0.177849 -0.08080874 -5.579928 7.118136 -2.674206 0.8696 -0.254 0.5471 1.202935

-0.352731 -0.02879793 0.3300418 -1.109511 -8.870203 -5.013891 -0.5739 0.0973 0.6159 -0.1511455 -0.2572615 -0.07592182 -5.502429 7.046523 -2.66832 0.879 -0.2514 0.539 1.202935

-0.0996583 -0.002792527 -0.03874631 -1.093815 -8.507233 -4.901076 -0.5739 0.0973 0.6159 -0.1511455 -0.2572615 -0.07592182 -5.502429 7.046523 -2.66832 0.879 -0.2514 0.539 1.202935

0.02181662 0.05201081 -0.5223771 -1.438146 -8.70147 -5.251293 -0.5372 0.0946 0.6355 -0.1495747 -0.2590069 -0.0132645 -5.422968 7.025922 -2.657529 0.879 -0.2514 0.539 1.20562

0.02181662 0.05201081 -0.5223771 -1.438146 -8.70147 -5.251293 -0.5372 0.0946 0.6355 -0.08604473 -0.1837832 0.1181588 -5.396482 7.111269 -2.61927 0.8808 -0.2481 0.5426 1.20562

-0.37926 0.4754277 -0.6295403 -2.296521 -9.069345 -5.779071 -0.5372 0.0946 0.6355 -0.08604473 -0.1837832 0.1181588 -5.396482 7.111269 -2.61927 0.8808 -0.2481 0.5426 1.20562

-0.5998697 0.9271189 -0.6318092 -2.916513 -9.352855 -5.967423 -0.5211 0.0941 0.6508 -0.08604473 -0.1837832 0.1181588 -5.396482 7.111269 -2.61927 0.8808 -0.2481 0.5426 1.20562

-0.5998697 0.9271189 -0.6318092 -2.916513 -9.352855 -5.967423 -0.5211 0.0941 0.6508 -0.02146755 -0.1329941 0.222704 -5.284647 7.263324 -2.663415 0.8808 -0.2481 0.5426 1.236499

-0.4687954 1.331686 -0.6469935 -3.37464 -9.459784 -5.951727 -0.5211 0.0941 0.6508 -0.02146755 -0.1329941 0.222704 -5.284647 7.263324 -2.663415 0.8808 -0.2481 0.5426 1.236499

-0.4687954 1.331686 -0.6469935 -3.37464 -9.459784 -5.951727 -0.5211 0.0941 0.6508 -0.02146755 -0.1329941 0.222704 -5.284647 7.263324 -2.663415 0.8808 -0.2481 0.5426 1.236499

-1.236566 1.892635 -1.465378 -3.536505 -10.05427 -5.659389 -0.5825 0.0728 0.6915 -0.2617994 -0.1062906 0.7433357 -4.501809 7.753825 -2.656548 0.8889 -0.287 0.53 1.338533

-1.236566 1.892635 -1.465378 -3.536505 -10.05427 -5.659389 -0.5825 0.0728 0.6915 -0.2617994 -0.1062906 0.7433357 -4.501809 7.753825 -2.656548 0.8889 -0.287 0.53 1.338533

-1.388235 1.740093 -1.735032 -2.906703 -9.733482 -5.502429 -0.5825 0.0728 0.6915 -0.1469567 0.07295476 0.9002408 -4.548897 7.992208 -2.612403 0.8889 -0.287 0.53 1.338533

-1.388235 1.740093 -1.735032 -2.906703 -9.733482 -5.502429 -0.5825 0.0728 0.6915 -0.1469567 0.07295476 0.9002408 -4.548897 7.992208 -2.612403 0.8889 -0.287 0.53 1.338533

-0.6911504 1.648289 -2.12424 -2.132694 -8.673021 -5.515182 -0.6752 0.0291 0.6962 -0.1469567 0.07295476 0.9002408 -4.548897 7.992208 -2.612403 0.8889 -0.287 0.53 1.338533

1.046499 1.720546 -2.531076 -1.446975 -7.168168 -5.809482 -0.6752 0.0291 0.6962 -0.1469567 0.07295476 0.9002408 -4.548897 7.992208 -2.612403 0.8889 -0.287 0.53 1.48353

1.046499 1.720546 -2.531076 -1.446975 -7.168168 -5.809482 -0.6752 0.0291 0.6962 0.05497787 0.2293363 1.086293 -4.546935 8.136415 -2.53098 0.9045 -0.3106 0.5177 1.48353

2.295631 1.395216 -2.6906 -0.467937 -6.211692 -5.563251 -0.7712 -0.0217 0.6878 0.1672025 0.3089233 1.291893 -4.495923 8.124642 -2.429937 0.9045 -0.3362 0.5056 1.554686

2.858849 0.723439 -2.172586 1.158561 -5.901696 -5.027625 -0.7712 -0.0217 0.6878 0.1672025 0.3089233 1.291893 -4.495923 8.124642 -2.429937 0.9045 -0.3362 0.5056 1.554686

2.858849 0.723439 -2.172586 1.158561 -5.901696 -5.027625 -0.7712 -0.0217 0.6878 0.1672025 0.3089233 1.291893 -4.495923 8.124642 -2.429937 0.9045 -0.3362 0.5056 1.554686

3.055548 -0.2808235 -1.541824 2.842938 -6.325489 -4.631301 -0.8575 -0.0561 0.6569 0.1672025 0.3089233 1.291893 -4.495923 8.124642 -2.429937 0.9045 -0.3362 0.5056 1.554686

1.789661 0.2415536 -1.335526 3.469797 -7.656705 -4.7088 -0.8575 -0.0561 0.6569 0.1672025 0.3089233 1.291893 -4.495923 8.124642 -2.429937 0.9045 -0.3362 0.5056 1.717136

1.789661 0.2415536 -1.335526 3.469797 -7.656705 -4.7088 -0.8575 -0.0561 0.6569 0.1672025 0.3089233 1.291893 -4.495923 8.124642 -2.429937 0.9045 -0.3362 0.5056 1.717136

1.222254 0.3984587 -1.271647 4.144725 -7.873507 -4.244787 -0.9289 -0.0676 0.628 0.1672025 0.3089233 1.291893 -4.495923 8.124642 -2.429937 0.9045 -0.3362 0.5056 1.717136

0.8812168 -0.04660029 -1.25559 5.303286 -7.752843 -3.593403 -0.9884 -0.0706 0.6194 0.1672025 0.3089233 1.291893 -4.495923 8.124642 -2.429937 0.9045 -0.3362 0.5056 1.717136

0.8812168 -0.04660029 -1.25559 5.303286 -7.752843 -3.593403 -0.9884 -0.0706 0.6194 0.1672025 0.3089233 1.291893 -4.495923 8.124642 -2.429937 0.9045 -0.3362 0.5056 1.717136

0.6607817 -0.6382669 -1.262746 6.067485 -7.655724 -3.069549 -0.9884 -0.0706 0.6194 0.1672025 0.3089233 1.291893 -4.495923 8.124642 -2.429937 0.9045 -0.3362 0.5056 1.893011

0.6607817 -0.6382669 -1.262746 6.067485 -7.655724 -3.069549 -0.9884 -0.0706 0.6194 0.1672025 0.3089233 1.291893 -4.495923 8.124642 -2.429937 0.9045 -0.3362 0.5056 1.893011

0.6607817 -0.6382669 -1.262746 6.067485 -7.655724 -3.069549 -0.9884 -0.0706 0.6194 -0.1164135 -0.06911504 1.364324 -3.735648 7.733223 -2.123865 0.8701 -0.3595 0.5122 1.893011

0.6607817 -0.6382669 -1.262746 6.067485 -7.655724 -3.069549 -0.9884 -0.0706 0.6194 -0.1164135 -0.06911504 1.364324 -3.735648 7.733223 -2.123865 0.8701 -0.3595 0.5122 1.893011

-0.1706932 -0.1977458 -0.2775073 6.520707 -5.651541 -2.671263 -1.0336 -0.0935 0.5552 -0.1164135 -0.06911504 1.364324 -3.735648 7.733223 -2.123865 0.8701 -0.3595 0.5122 1.958797

0.3234095 -0.8728391 -0.07173304 6.72966 -5.480847 -2.546676 -1.0539 -0.1065 0.5488 -0.1164135 -0.06911504 1.364324 -3.735648 7.733223 -2.123865 0.8701 -0.3595 0.5122 1.958797

0.3234095 -0.8728391 -0.07173304 6.72966 -5.480847 -2.546676 -1.0539 -0.1065 0.5488 -0.1164135 -0.06911504 1.364324 -3.735648 7.733223 -2.123865 0.8701 -0.3595 0.5122 1.958797

-0.01902409 -0.9335766 0.05166174 6.467733 -5.887962 -2.905722 -1.0539 -0.1065 0.5488 -0.1164135 -0.06911504 1.364324 -3.735648 7.733223 -2.123865 0.8701 -0.3595 0.5122 1.958797

-0.5202826 -0.6618288 0.07260569 5.957613 -6.176376 -3.301065 -1.0915 -0.1232 0.5592 -0.1164135 -0.06911504 1.364324 -3.735648 7.733223 -2.123865 0.8701 -0.3595 0.5122 2.003101

-0.5202826 -0.6618288 0.07260569 5.957613 -6.176376 -3.301065 -1.0915 -0.1232 0.5592 -0.1164135 -0.06911504 1.364324 -3.735648 7.733223 -2.123865 0.8701 -0.3595 0.5122 2.003101

-0.6565928 -0.4522148 0.09250245 5.528916 -6.106725 -3.522771 -1.0915 -0.1232 0.5592 -0.1164135 -0.06911504 1.364324 -3.735648 7.733223 -2.123865 0.8701 -0.3595 0.5122 2.003101

-0.6565928 -0.4522148 0.09250245 5.528916 -6.106725 -3.522771 -1.0915 -0.1232 0.5592 -0.1164135 -0.06911504 1.364324 -3.735648 7.733223 -2.123865 0.8701 -0.3595 0.5122 2.003101

-0.6319837 -0.2988004 0.2134538 5.163003 -5.982138 -3.638529 -1.0942 -0.1332 0.5924 -0.1164135 -0.06911504 1.364324 -3.735648 7.733223 -2.123865 0.8701 -0.3595 0.5122 2.04472

-0.6674139 -0.1836087 0.3295181 4.828482 -5.969385 -3.712104 -1.0942 -0.1332 0.5924 -0.1164135 -0.06911504 1.364324 -3.735648 7.733223 -2.123865 0.8701 -0.3595 0.5122 2.04472

-0.6674139 -0.1836087 0.3295181 4.828482 -5.969385 -3.712104 -1.0942 -0.1332 0.5924 -0.1164135 -0.06911504 1.364324 -3.735648 7.733223 -2.123865 0.8701 -0.3595 0.5122 2.04472

-0.6674139 -0.1836087 0.3295181 4.828482 -5.969385 -3.712104 -1.0942 -0.1332 0.5924 -0.1164135 -0.06911504 1.364324 -3.735648 7.733223 -2.123865 0.8701 -0.3595 0.5122 2.04472

-1.332559 -0.4469788 0.7038913 4.664655 -6.123402 -3.813147 -1.0613 -0.1433 0.6755 -0.1164135 -0.06911504 1.364324 -3.735648 7.733223 -2.123865 0.8701 -0.3595 0.5122 2.083655

-1.332559 -0.4469788 0.7038913 4.664655 -6.123402 -3.813147 -1.0613 -0.1433 0.6755 -0.1164135 -0.06911504 1.364324 -3.735648 7.733223 -2.123865 0.8701 -0.3595 0.5122 2.083655

-1.410924 -0.3885103 0.8459611 4.573422 -6.089067 -3.956373 -1.0613 -0.1433 0.6755 -0.1164135 -0.06911504 1.364324 -3.735648 7.733223 -2.123865 0.8701 -0.3595 0.5122 2.083655

-1.518436 -0.2457424 0.8869763 4.353678 -6.034132 -4.185927 -1.0464 -0.1544 0.6991 -0.1164135 -0.06911504 1.364324 -3.735648 7.733223 -2.123865 0.8701 -0.3595 0.5122 2.083655

-1.783901 -0.2157227 0.9536479 4.241844 -5.930145 -4.549878 -1.0464 -0.1544 0.6991 -0.1164135 -0.06911504 1.364324 -3.735648 7.733223 -2.123865 0.8701 -0.3595 0.5122 2.103793

-1.783901 -0.2157227 0.9536479 4.241844 -5.930145 -4.549878 -1.0464 -0.1544 0.6991 -0.1164135 -0.06911504 1.364324 -3.735648 7.733223 -2.123865 0.8701 -0.3595 0.5122 2.103793

-2.152864 -0.3248058 1.05924 4.361526 -5.810463 -5.027625 -1.0159 -0.1639 0.7372 -0.1164135 -0.06911504 1.364324 -3.735648 7.733223 -2.123865 0.8701 -0.3595 0.5122 2.103793

-2.152864 -0.3248058 1.05924 4.361526 -5.810463 -5.027625 -1.0159 -0.1639 0.7372 -0.1164135 -0.06911504 1.364324 -3.735648 7.733223 -2.123865 0.8701 -0.3595 0.5122 2.103793

-2.260027 -0.4565781 1.216669 4.412539 -5.460246 -5.494581 -1.0159 -0.1639 0.7372 -0.1164135 -0.06911504 1.364324 -3.735648 7.733223 -2.123865 0.8701 -0.3595 0.5122 2.121246

-2.268404 -0.3371976 1.475676 4.133934 -5.103162 -6.196977 -0.9903 -0.1781 0.7724 -0.1164135 -0.06911504 1.364324 -3.735648 7.733223 -2.123865 0.8701 -0.3595 0.5122 2.121246

-2.268404 -0.3371976 1.475676 4.133934 -5.103162 -6.196977 -0.9903 -0.1781 0.7724 -0.1164135 -0.06911504 1.364324 -3.735648 7.733223 -2.123865 0.8701 -0.3595 0.5122 2.121246

-2.421295 -0.02146755 1.690526 3.77685 -4.999176 -7.008264 -0.9903 -0.1781 0.7724 -0.1164135 -0.06911504 1.364324 -3.735648 7.733223 -2.123865 0.8701 -0.3595 0.5122 2.121246

-2.433338 -0.01466077 1.800307 3.7278 -4.75785 -7.516422 -0.95 -0.2099 0.8182 -0.1164135 -0.06911504 1.364324 -3.735648 7.733223 -2.123865 0.8701 -0.3595 0.5122 2.119904

-2.433338 -0.01466077 1.800307 3.7278 -4.75785 -7.516422 -0.95 -0.2099 0.8182 -0.1164135 -0.06911504 1.364324 -3.735648 7.733223 -2.123865 0.8701 -0.3595 0.5122 2.119904

-2.214997 -0.325853 1.892635 3.785679 -4.496904 -7.842114 -0.9103 -0.2561 0.8584 -0.1164135 -0.06911504 1.364324 -3.735648 7.733223 -2.123865 0.8701 -0.3595 0.5122 2.119904

-2.345199 -0.4029965 1.934697 3.47274 -4.536144 -8.221762 -0.9103 -0.2561 0.8584 -0.1164135 -0.06911504 1.364324 -3.735648 7.733223 -2.123865 0.8701 -0.3595 0.5122 2.119904

-2.345199 -0.4029965 1.934697 3.47274 -4.536144 -8.221762 -0.9103 -0.2561 0.8584 -0.1164135 -0.06911504 1.364324 -3.735648 7.733223 -2.123865 0.8701 -0.3595 0.5122 2.115876

-2.345199 -0.4029965 1.934697 3.47274 -4.536144 -8.221762 -0.9103 -0.2561 0.8584 -0.1164135 -0.06911504 1.364324 -3.735648 7.733223 -2.123865 0.8701 -0.3595 0.5122 2.115876

-2.345199 -0.4029965 1.934697 3.47274 -4.536144 -8.221762 -0.9103 -0.2561 0.8584 -0.1164135 -0.06911504 1.364324 -3.735648 7.733223 -2.123865 0.8701 -0.3595 0.5122 2.115876

-2.30174 -0.2165954 2.002242 1.49112 -3.556125 -9.860031 -0.8338 -0.3023 0.9606 -0.1164135 -0.06911504 1.364324 -3.735648 7.733223 -2.123865 0.8701 -0.3595 0.5122 2.115876

-2.30174 -0.2165954 2.002242 1.49112 -3.556125 -9.860031 -0.8338 -0.3023 0.9606 -0.1164135 -0.06911504 1.364324 -3.735648 7.733223 -2.123865 0.8701 -0.3595 0.5122 2.103793

-2.096664 -0.3026401 2.079734 1.342008 -3.130371 -9.987561 -0.7723 -0.3217 1.0056 -0.1164135 -0.06911504 1.364324 -3.735648 7.733223 -2.123865 0.8701 -0.3595 0.5122 2.103793

-1.832596 -0.4118977 2.103296 1.172295 -2.660472 -10.07193 -0.7723 -0.3217 1.0056 -0.1164135 -0.06911504 1.364324 -3.735648 7.733223 -2.123865 0.8701 -0.3595 0.5122 2.103793

-1.832596 -0.4118977 2.103296 1.172295 -2.660472 -10.07193 -0.7723 -0.3217 1.0056 -0.1164135 -0.06911504 1.364324 -3.735648 7.733223 -2.123865 0.8701 -0.3595 0.5122 2.103793

-1.47236 -0.3499385 2.037847 0.8652421 -2.127789 -10.14746 -0.7277 -0.3482 1.0588 -0.1164135 -0.06911504 1.364324 -3.735648 7.733223 -2.123865 0.8701 -0.3595 0.5122 2.084997

-1.47236 -0.3499385 2.037847 0.8652421 -2.127789 -10.14746 -0.7277 -0.3482 1.0588 -0.1164135 -0.06911504 1.364324 -3.735648 7.733223 -2.123865 0.8701 -0.3595 0.5122 2.084997

-1.278628 -0.3176499 2.181836 0.597429 -1.764819 -10.16708 -0.7277 -0.3482 1.0588 -0.1164135 -0.06911504 1.364324 -3.735648 7.733223 -2.123865 0.8701 -0.3595 0.5122 2.084997

-1.473233 -0.2024582 2.332458 0.394362 -1.682415 -10.23477 -0.6981 -0.381 1.0891 -0.1164135 -0.06911504 1.364324 -3.735648 7.733223 -2.123865 0.8701 -0.3595 0.5122 2.084997

-1.473233 -0.2024582 2.332458 0.394362 -1.682415 -10.23477 -0.6981 -0.381 1.0891 -0.1164135 -0.06911504 1.364324 -3.735648 7.733223 -2.123865 0.8701 -0.3595 0.5122 2.029952

-1.572716 -0.3427826 2.344675 0.361989 -1.590201 -10.24556 -0.6627 -0.3989 1.0938 -0.1164135 -0.06911504 1.364324 -3.735648 7.733223 -2.123865 0.8701 -0.3595 0.5122 2.029952

-1.744806 -0.1569051 2.40105 0.135378 -1.2753 -10.37898 -0.6627 -0.3989 1.0938 -0.1164135 -0.06911504 1.364324 -3.735648 7.733223 -2.123865 0.8701 -0.3595 0.5122 2.029952

-1.744806 -0.1569051 2.40105 0.135378 -1.2753 -10.37898 -0.6627 -0.3989 1.0938 -0.1164135 -0.06911504 1.364324 -3.735648 7.733223 -2.123865 0.8701 -0.3595 0.5122 2.029952

-1.772207 0.2556907 2.527062 -0.072594 -0.606258 -10.47512 -0.6194 -0.4028 1.0958 -0.1164135 -0.06911504 1.364324 -3.735648 7.733223 -2.123865 0.8701 -0.3595 0.5122 1.950741

-1.22173 -0.1331686 2.778913 -0.180504 -0.05886 -10.48199 -0.6194 -0.4028 1.0958 -0.1164135 -0.06911504 1.364324 -3.735648 7.733223 -2.123865 0.8701 -0.3595 0.5122 1.950741

-1.22173 -0.1331686 2.778913 -0.180504 -0.05886 -10.48199 -0.6194 -0.4028 1.0958 -0.1164135 -0.06911504 1.364324 -3.735648 7.733223 -2.123865 0.8701 -0.3595 0.5122 1.950741

-1.738871 0.08621927 2.853613 -0.489519 -0.229554 -10.73705 -0.5786 -0.4112 1.1046 -0.1164135 -0.06911504 1.364324 -3.735648 7.733223 -2.123865 0.8701 -0.3595 0.5122 1.950741

-1.738871 0.08621927 2.853613 -0.489519 -0.229554 -10.73705 -0.5786 -0.4112 1.1046 -0.1164135 -0.06911504 1.364324 -3.735648 7.733223 -2.123865 0.8701 -0.3595 0.5122 1.864817

-2.083749 -0.5883505 2.783277 -0.286452 1.166409 -10.09253 -0.5427 -0.407 1.1076 -0.1164135 -0.06911504 1.364324 -3.735648 7.733223 -2.123865 0.8701 -0.3595 0.5122 1.864817

-2.083749 -0.5883505 2.783277 -0.286452 1.166409 -10.09253 -0.5427 -0.407 1.1076 -0.1164135 -0.06911504 1.364324 -3.735648 7.733223 -2.123865 0.8701 -0.3595 0.5122 1.864817

-2.145184 -0.5740388 2.500359 -0.297243 1.548018 -10.11411 -0.5427 -0.407 1.1076 -0.1164135 -0.06911504 1.364324 -3.735648 7.733223 -2.123865 0.8701 -0.3595 0.5122 1.864817

-1.798911 -0.7340855 2.312038 -0.226611 2.193516 -10.06114 -0.5073 -0.4309 1.1175 0.6553711 -1.504299 0.9676105 0.9633421 7.486012 -5.597586 0.2615 -0.7965 0.6604 1.737274

-1.798911 -0.7340855 2.312038 -0.226611 2.193516 -10.06114 -0.5073 -0.4309 1.1175 0.6553711 -1.504299 0.9676105 0.9633421 7.486012 -5.597586 0.2615 -0.7965 0.6604 1.737274

-1.627869 -0.9044296 2.395988 -0.329616 2.448576 -10.25734 -0.4594 -0.4579 1.1588 0.6719518 -1.603608 0.7461283 1.070271 7.596864 -6.138117 0.2615 -0.7965 0.6604 1.737274

-1.764179 -0.8124508 2.376789 -0.665118 2.376963 -10.48199 -0.4594 -0.4579 1.1588 0.6719518 -1.603608 0.7461283 1.070271 7.596864 -6.138117 0.2615 -0.7965 0.6604 1.668803

-1.764179 -0.8124508 2.376789 -0.665118 2.376963 -10.48199 -0.4594 -0.4579 1.1588 0.6719518 -1.603608 0.7461283 1.070271 7.596864 -6.138117 0.2615 -0.7965 0.6604 1.668803

-1.684941 -0.8016297 2.063328 -0.801477 2.39364 -10.50847 -0.3921 -0.496 1.1944 0.6719518 -1.603608 0.7461283 1.070271 7.596864 -6.138117 0.2615 -0.7965 0.6604 1.668803

-1.395914 -0.675966 1.845162 -1.03005 2.608479 -10.533 -0.3921 -0.496 1.1944 1.727352 -0.1610939 0.3721042 0.121644 5.860494 -6.285267 0.2898 -0.7182 0.7041 1.518436

-1.395914 -0.675966 1.845162 -1.03005 2.608479 -10.533 -0.3921 -0.496 1.1944 1.349489 -0.3429572 0.2076942 0.5640751 4.939335 -6.125364 0.2834 -0.684 0.7278 1.518436

-1.087515 -0.4872959 1.808161 -1.194858 2.901798 -10.52122 -0.3097 -0.5339 1.2306 1.040565 -0.5216789 0.06038839 0.825021 4.205547 -5.956633 0.2834 -0.684 0.7278 1.518436

-0.9580112 -0.3609341 1.953722 -1.260585 3.09996 -10.46825 -0.3097 -0.5339 1.2306 1.040565 -0.5216789 0.06038839 0.825021 4.205547 -5.956633 0.2834 -0.684 0.7278 1.518436

-0.9580112 -0.3609341 1.953722 -1.260585 3.09996 -10.46825 -0.3097 -0.5339 1.2306 0.8070403 -0.6951647 0.0008726646 0.9113491 3.778812 -5.922297 0.281 -0.6514 0.7855 1.361357

-0.8738863 -0.3673918 1.951453 -1.188972 3.226509 -10.40154 -0.2535 -0.5522 1.2486 0.7695157 -0.7339109 -0.02495821 0.909387 3.507075 -6.135174 0.281 -0.6514 0.7855 1.361357

-0.6337291 -0.3265511 1.898918 -1.192896 3.437424 -10.27499 -0.2535 -0.5522 1.2486 0.7695157 -0.7339109 -0.02495821 0.909387 3.507075 -6.135174 0.281 -0.6514 0.7855 1.361357

-0.6337291 -0.3265511 1.898918 -1.192896 3.437424 -10.27499 -0.2535 -0.5522 1.2486 0.6880087 -0.7382743 -0.05846853 0.8524891 3.373659 -6.3765 0.2935 -0.5863 0.8351 1.361357

-0.6337291 -0.3265511 1.898918 -1.192896 3.437424 -10.27499 -0.2535 -0.5522 1.2486 0.5192354 -0.8442158 -0.1307252 0.879957 3.206889 -6.561909 0.2935 -0.5863 0.8351 1.206962

-0.6337291 -0.3265511 1.898918 -1.192896 3.437424 -10.27499 -0.2535 -0.5522 1.2486 0.3249803 -1.014385 -0.1984439 0.919197 3.037176 -6.755167 0.3246 -0.5302 0.8608 1.206962

-0.3405137 0.1911135 1.902758 -1.302768 2.755629 -9.268489 -0.1734 -0.5791 1.2841 0.3249803 -1.014385 -0.1984439 0.919197 3.037176 -6.755167 0.3246 -0.5302 0.8608 1.206962

-0.3405137 0.1911135 1.902758 -1.302768 2.755629 -9.268489 -0.1734 -0.5791 1.2841 0.1612684 -1.040042 -0.1747075 0.680814 3.00186 -7.110288 0.3246 -0.5302 0.8608 1.206962

-0.5098106 0.12706 1.665044 -0.944703 2.622213 -9.002637 -0.1472 -0.5915 1.2818 0.1628392 -0.9974557 -0.1314233 0.22563 3.110751 -7.451676 0.3535 -0.5 0.8738 1.075391

-0.5386086 0.01972222 1.496096 -0.492462 2.752686 -8.758368 -0.1441 -0.5964 1.2676 0.1628392 -0.9974557 -0.1314233 0.22563 3.110751 -7.451676 0.3535 -0.5 0.8738 1.075391

-0.5386086 0.01972222 1.496096 -0.492462 2.752686 -8.758368 -0.1441 -0.5964 1.2676 0.2647665 -0.6647959 -0.084823 -0.309996 3.321666 -7.865658 0.3767 -0.4762 0.8815 1.075391

-0.2443461 -0.2062979 1.34338 0.011772 3.2373 -8.591599 -0.1441 -0.5964 1.2676 0.2647665 -0.6647959 -0.084823 -0.309996 3.321666 -7.865658 0.3767 -0.4762 0.8815 1.075391

-0.2443461 -0.2062979 1.34338 0.011772 3.2373 -8.591599 -0.1441 -0.5964 1.2676 0.4509931 -0.3000221 -0.1340413 -0.680814 3.480588 -8.235496 0.3767 -0.4762 0.8815 0.9545609

0.09180433 -0.4550073 1.180192 0.703377 3.77685 -8.610237 -0.1425 -0.6107 1.2802 0.4509931 -0.3000221 -0.1340413 -0.680814 3.480588 -8.235496 0.3767 -0.4762 0.8815 0.9545609

0.56985 -0.7190757 1.426632 1.105587 4.66956 -8.742672 -0.1425 -0.6107 1.2802 0.4495968 -0.3106686 -0.3157301 -0.464994 3.208851 -8.146224 0.4538 -0.4425 0.8467 0.9545609

0.8363618 -0.8813913 1.931032 1.214478 5.133573 -9.088965 -0.1427 -0.6227 1.2881 0.4164356 -0.4588471 -0.2343977 -0.5552461 2.953791 -8.173692 0.4841 -0.4224 0.8536 0.9545609

0.8363618 -0.8813913 1.931032 1.214478 5.133573 -9.088965 -0.1427 -0.6227 1.2881 0.4164356 -0.4588471 -0.2343977 -0.5552461 2.953791 -8.173692 0.4841 -0.4224 0.8536 0.8176196

0.6745698 -0.6471681 2.112372 0.8387551 4.814748 -9.472536 -0.1427 -0.6227 1.2881 0.5225516 -0.355 -0.2153736 -0.646479 2.886102 -8.284545 0.4841 -0.4224 0.8536 0.8176196

0.6745698 -0.6471681 2.112372 0.8387551 4.814748 -9.472536 -0.1427 -0.6227 1.2881 0.5225516 -0.355 -0.2153736 -0.646479 2.886102 -8.284545 0.4841 -0.4224 0.8536 0.8176196

0.4707153 -0.4082325 1.923877 0.61803 4.279122 -9.63342 -0.1373 -0.6024 1.2835 0.5031784 -0.5023057 -0.3384193 -0.367875 2.839995 -8.395398 0.4924 -0.4003 0.8659 0.8176196

0.2593559 -0.1642355 1.681101 0.576828 3.670902 -9.664812 -0.1373 -0.6024 1.2835 0.3659955 -1.041263 -0.4694936 0.076518 2.615346 -8.506251 0.4924 -0.4003 0.8659 0.672623

0.2593559 -0.1642355 1.681101 0.576828 3.670902 -9.664812 -0.1373 -0.6024 1.2835 0.1288053 -1.576905 -0.4073598 0.09123301 2.333799 -8.580808 0.5028 -0.3703 0.8592 0.672623

0.01867502 0.03682645 1.546536 0.55917 3.160782 -9.622629 -0.1168 -0.5759 1.2947 0.1288053 -1.576905 -0.4073598 0.09123301 2.333799 -8.580808 0.5028 -0.3703 0.8592 0.672623

0.01867502 0.03682645 1.546536 0.55917 3.160782 -9.622629 -0.1168 -0.5759 1.2947 0.09930924 -1.513026 -0.1466077 -0.762237 2.27592 -8.745615 0.5362 -0.3646 0.8447 0.672623

-0.4160865 -0.1766273 1.246689 1.358685 2.810565 -9.691299 -0.103 -0.5392 1.3026 0.09930924 -1.513026 -0.1466077 -0.762237 2.27592 -8.745615 0.5362 -0.3646 0.8447 0.5692459

-0.4160865 -0.1766273 1.246689 1.358685 2.810565 -9.691299 -0.103 -0.5392 1.3026 0.3312635 -0.853815 0.0148353 -2.076777 2.544714 -8.989884 0.5362 -0.3646 0.8447 0.5692459

-0.4160865 -0.1766273 1.246689 1.358685 2.810565 -9.691299 -0.103 -0.5392 1.3026 0.6656685 0.0148353 -0.1094321 -3.053853 2.937114 -9.153711 0.5729 -0.3531 0.829 0.5692459

-0.320617 -0.2858849 1.141794 1.468557 2.856672 -9.782533 -0.1051 -0.5416 1.3028 0.6656685 0.0148353 -0.1094321 -3.053853 2.937114 -9.153711 0.5729 -0.3531 0.829 0.4578133

-0.1371829 -0.2385865 0.9850638 1.358685 2.888064 -9.794304 -0.1051 -0.5416 1.3028 0.8543386 0.5848598 -0.3757694 -3.445272 3.004803 -9.15175 0.5729 -0.3531 0.829 0.4578133

-0.1371829 -0.2385865 0.9850638 1.358685 2.888064 -9.794304 -0.1051 -0.5416 1.3028 0.9855874 0.9384636 -0.5291838 -3.22749 2.714427 -8.98498 0.6047 -0.3225 0.8273 0.4578133

-0.08604473 -0.103149 0.9213593 1.234098 2.894931 -9.655984 -0.0943 -0.5576 1.3029 0.9855874 0.9384636 -0.5291838 -3.22749 2.714427 -8.98498 0.6047 -0.3225 0.8273 0.4578133

-0.2921681 -0.05218535 0.9676105 1.215459 2.789964 -9.497062 -0.0943 -0.5576 1.3029 0.9855874 0.9384636 -0.5291838 -3.22749 2.714427 -8.98498 0.6047 -0.3225 0.8273 0.3329551

-0.532849 -0.02932153 0.9531243 1.267452 2.647719 -9.386209 -0.091 -0.5589 1.2923 0.9855874 0.9384636 -0.5291838 -3.22749 2.714427 -8.98498 0.6047 -0.3225 0.8273 0.3329551

-0.532849 -0.02932153 0.9531243 1.267452 2.647719 -9.386209 -0.091 -0.5589 1.2923 0.5764822 0.2234021 -0.2501057 -1.08891 1.445994 -8.509194 0.6046 -0.2508 0.8554 0.3329551

-0.641583 -0.1050688 0.8770279 1.404792 2.584935 -9.31852 -0.091 -0.5589 1.2923 0.5342453 0.1736602 -0.2651155 -0.975114 1.358685 -8.551377 0.6046 -0.2508 0.8554 0.3329551

-0.8283333 0.1132719 1.003041 1.153656 2.563353 -9.424467 -0.0843 -0.5498 1.2853 0.5342453 0.1736602 -0.2651155 -0.975114 1.358685 -8.551377 0.6046 -0.2508 0.8554 0.2349482

-1.213178 0.5143485 1.237264 1.017297 2.441709 -9.79038 -0.0843 -0.5498 1.2853 0.476824 0.3979351 -0.1771509 -1.185048 1.24587 -8.588655 0.6024 -0.2094 0.8713 0.2349482

-1.213178 0.5143485 1.237264 1.017297 2.441709 -9.79038 -0.0843 -0.5498 1.2853 0.4827581 0.8431686 0.01780236 -1.679472 1.349856 -8.714224 0.5949 -0.1851 0.8898 0.2349482

-1.504474 0.9075712 1.12853 0.982962 2.335761 -9.933606 -0.0974 -0.561 1.2956 0.4827581 0.8431686 0.01780236 -1.679472 1.349856 -8.714224 0.5949 -0.1851 0.8898 0.2349482

-1.708154 1.185951 0.6564183 1.03986 2.219022 -9.715824 -0.0974 -0.561 1.2956 0.5333726 1.425061 0.03473205 -1.959057 1.311597 -8.929063 0.5949 -0.1851 0.8898 0.1919862

-1.708154 1.185951 0.6564183 1.03986 2.219022 -9.715824 -0.0974 -0.561 1.2956 0.4101524 1.616175 -0.2007129 -1.670643 0.894672 -8.781913 0.5806 -0.1589 0.9 0.1919862

-1.574636 1.26292 0.2886775 1.489158 2.409336 -9.167445 -0.1162 -0.6033 1.3133 0.3672173 1.919513 -0.2350959 -1.326312 0.628821 -8.431695 0.5806 -0.1589 0.9 0.1919862

-1.574636 1.26292 0.2886775 1.489158 2.409336 -9.167445 -0.1162 -0.6033 1.3133 0.3672173 1.919513 -0.2350959 -1.326312 0.628821 -8.431695 0.5806 -0.1589 0.9 0.1570796

-1.574636 1.26292 0.2886775 1.489158 2.409336 -9.167445 -0.1162 -0.6033 1.3133 0.4050909 1.929112 -0.2204351 -0.664137 0.554265 -8.072649 0.5546 -0.1365 0.9113 0.1570796

-1.574636 1.26292 0.2886775 1.489158 2.409336 -9.167445 -0.1162 -0.6033 1.3133 0.4050909 1.929112 -0.2204351 -0.664137 0.554265 -8.072649 0.5546 -0.1365 0.9113 0.1570796

-1.581792 1.363102 -0.3169518 3.414861 3.888684 -6.618807 -0.1814 -0.6761 1.272 0.2965314 1.618444 -0.1553343 -0.010791 0.40221 -7.9461 0.5546 -0.1365 0.9113 0.09934951

-1.570971 1.33221 -0.3609341 3.434481 3.961278 -6.177357 -0.2376 -0.7279 1.2366 0.2825688 1.54898 -0.150971 0.5944861 0.437526 -8.127585 0.5055 -0.1202 0.9373 0.09934951

-1.570971 1.33221 -0.3609341 3.434481 3.961278 -6.177357 -0.2376 -0.7279 1.2366 0.2825688 1.54898 -0.150971 0.5944861 0.437526 -8.127585 0.5055 -0.1202 0.9373 0.09934951

-1.831549 1.054353 -0.3265511 3.902418 3.946563 -5.737869 -0.2376 -0.7279 1.2366 0.1682497 1.329766 -0.2131047 1.214478 0.256041 -8.146224 0.5055 -0.1202 0.9373 0.09934951

-1.831549 1.054353 -0.3265511 3.902418 3.946563 -5.737869 -0.2376 -0.7279 1.2366 0.1213004 0.7902851 -0.0593412 1.573524 0.159903 -8.184484 0.4446 -0.0997 0.9719 0.06444293

-1.479865 0.6567674 -0.2527237 4.113333 4.456683 -5.234616 -0.2647 -0.7849 1.1871 0.1213004 0.7902851 -0.0593412 1.573524 0.159903 -8.184484 0.4446 -0.0997 0.9719 0.06444293

-1.138653 0.431969 -0.4194026 4.352697 4.800033 -5.009967 -0.2647 -0.7849 1.1871 0.1213004 0.7902851 -0.0593412 1.573524 0.159903 -8.184484 0.4446 -0.0997 0.9719 0.06444293

-1.138653 0.431969 -0.4194026 4.352697 4.800033 -5.009967 -0.2647 -0.7849 1.1871 -0.05689773 0.776497 -0.07888888 1.949247 0.183447 -8.251191 0.3158 -0.0811 1.026 0.06444293

-1.208117 0.5558873 -0.5787511 4.195737 4.840254 -5.048226 -0.3079 -0.8412 1.123 -0.05689773 0.776497 -0.07888888 1.949247 0.183447 -8.251191 0.3158 -0.0811 1.026 0.05235988

-1.029919 0.535467 -0.7190757 4.33602 5.2974 -4.853007 -0.344 -0.8966 1.0782 -0.04537856 0.9000663 -0.001745329 1.87371 0.213858 -8.19037 0.2777 -0.0765 1.0162 0.05235988

-1.029919 0.535467 -0.7190757 4.33602 5.2974 -4.853007 -0.344 -0.8966 1.0782 -0.07295476 0.9019862 -0.08761553 2.00124 0.224649 -8.184484 0.2777 -0.0765 1.0162 0.05235988

-0.7963938 0.4661774 -0.6501352 4.353678 5.886001 -4.622472 -0.344 -0.8966 1.0782 -0.07295476 0.9019862 -0.08761553 2.00124 0.224649 -8.184484 0.2777 -0.0765 1.0162 0.05235988

-0.7604399 0.4855506 -0.5075417 4.377223 6.311754 -4.507695 -0.3534 -0.9391 1.0351 -0.09599311 0.7801622 -0.105767 2.164086 0.260946 -8.153091 0.2241 -0.066 1.0257 0.04698963

-0.7604399 0.4855506 -0.5075417 4.377223 6.311754 -4.507695 -0.3534 -0.9391 1.0351 -0.10088 0.6269222 -0.1785472 2.470158 0.321768 -8.141319 0.2241 -0.066 1.0257 0.04698963

-0.5098106 0.3569199 -0.3389429 4.393899 6.804216 -4.322286 -0.3534 -0.9391 1.0351 -0.1335177 0.6084218 -0.1598722 2.559429 0.463032 -8.282583 0.1806 -0.061 1.0444 0.04698963

-0.5738643 0.4864233 -0.4202753 4.358583 6.802255 -4.362507 -0.3476 -0.9726 0.9962 -0.1335177 0.6084218 -0.1598722 2.559429 0.463032 -8.282583 0.1806 -0.061 1.0444 0.04698963

-0.5738643 0.4864233 -0.4202753 4.358583 6.802255 -4.362507 -0.3476 -0.9726 0.9962 -0.1439897 0.5960299 -0.129678 2.595726 0.439488 -8.321823 0.1806 -0.061 1.0444 0.04027683

-0.5738643 0.4864233 -0.4202753 4.358583 6.802255 -4.362507 -0.3476 -0.9726 0.9962 -0.1439897 0.5960299 -0.129678 2.595726 0.439488 -8.321823 0.1806 -0.061 1.0444 0.04027683

-0.5738643 0.4864233 -0.4202753 4.358583 6.802255 -4.362507 -0.3476 -0.9726 0.9962 -0.1172861 0.5981243 -0.08709192 2.57022 0.478728 -8.397361 0.1555 -0.0795 1.0499 0.04027683

0.03420845 -0.2234021 -0.3330088 4.873608 7.695945 -3.69837 -0.3162 -1.015 0.9347 -0.06789331 1.018051 -0.1563815 2.427975 0.561132 -8.310052 0.1555 -0.0795 1.0499 0.04027683

0.7201228 -0.4831071 0.05340707 4.603833 8.156034 -3.623814 -0.2931 -1.0516 0.9282 -0.06789331 1.018051 -0.1563815 2.427975 0.561132 -8.310052 0.1555 -0.0795 1.0499 0.02013841

1.181762 -1.57132 0.3162537 5.479867 8.209008 -3.153915 -0.2931 -1.0516 0.9282 -0.1411971 1.015956 -0.2937389 2.843919 0.5856571 -8.041257 0.1267 -0.0965 1.0427 0.02013841

1.181762 -1.57132 0.3162537 5.479867 8.209008 -3.153915 -0.2931 -1.0516 0.9282 -0.09058259 0.320966 -0.3703589 3.707199 0.879957 -8.045181 0.1267 -0.0965 1.0427 0.02013841

1.759641 -3.167598 0.5640904 5.989005 8.722072 -2.306331 -0.2686 -1.0611 0.9362 -0.003839724 0.0694641 -0.3042109 3.99267 1.087929 -7.959834 0.0969 -0.0898 1.035 0.02013841

3.085917 -4.075344 0.9103637 5.288571 9.548073 -2.0601 -0.2686 -1.0611 0.9362 -0.003839724 0.0694641 -0.3042109 3.99267 1.087929 -7.959834 0.0969 -0.0898 1.035 0.006712805

3.085917 -4.075344 0.9103637 5.288571 9.548073 -2.0601 -0.2686 -1.0611 0.9362 -0.003839724 0.0694641 -0.3042109 3.99267 1.087929 -7.959834 0.0969 -0.0898 1.035 0.006712805

3.085917 -4.075344 0.9103637 5.288571 9.548073 -2.0601 -0.2686 -1.0611 0.9362 -0.003839724 0.0694641 -0.3042109 3.99267 1.087929 -7.959834 0.0969 -0.0898 1.035 0.006712805

3.085917 -4.075344 0.9103637 5.288571 9.548073 -2.0601 -0.2686 -1.0611 0.9362 0.09477138 -0.6302384 -0.01064651 3.432519 0.577809 -8.669098 0.0613 -0.0937 1.0337 0.006712805

2.962696 -3.014358 0.9642944 3.216699 8.467011 -3.662073 -0.2345 -1.0399 0.9726 0.09477138 -0.6302384 -0.01064651 3.432519 0.577809 -8.669098 0.0613 -0.0937 1.0337 0.01342561

2.962696 -3.014358 0.9642944 3.216699 8.467011 -3.662073 -0.2345 -1.0399 0.9726 0.1359611 -0.2794272 0.06597345 2.971449 0.570942 -8.770141 0.0807 -0.1001 1.043 0.01342561

2.962696 -3.014358 0.9642944 3.216699 8.467011 -3.662073 -0.2345 -1.0399 0.9726 0.1596976 -0.6447246 -0.002443461 3.507075 0.541512 -8.72109 0.0807 -0.1001 1.043 0.01342561

2.318844 -2.060536 0.4438372 2.904741 7.363386 -4.992309 -0.2345 -1.0399 0.9726 0.1596976 -0.6447246 -0.002443461 3.507075 0.541512 -8.72109 0.0807 -0.1001 1.043 0.01342561

2.318844 -2.060536 0.4438372 2.904741 7.363386 -4.992309 -0.2345 -1.0399 0.9726 0.2181662 -1.22208 -0.05201081 3.969126 0.677871 -8.766216 0.1139 -0.094 1.0601 -0.008055366

2.48884 -2.313085 0.04171337 3.638529 6.948423 -5.524011 -0.1935 -0.979 1.057 0.2668608 -1.191362 -0.05113815 3.389355 0.770085 -8.743653 0.1139 -0.094 1.0601 -0.008055366

2.48884 -2.313085 0.04171337 3.638529 6.948423 -5.524011 -0.1935 -0.979 1.057 0.2668608 -1.191362 -0.05113815 3.389355 0.770085 -8.743653 0.1139 -0.094 1.0601 -0.008055366

3.490659 -2.562667 0.09372418 3.702294 7.587054 -5.831064 -0.1935 -0.979 1.057 0.3190462 -0.4574508 0.02478367 2.44269 0.720054 -8.806437 0.1434 -0.0819 1.0636 -0.008055366

3.490659 -2.562667 0.09372418 3.702294 7.587054 -5.831064 -0.1935 -0.979 1.057 0.3190462 -0.4574508 0.02478367 2.44269 0.720054 -8.806437 0.1434 -0.0819 1.0636 -0.008055366

3.490659 -2.562667 0.09372418 3.702294 7.587054 -5.831064 -0.1935 -0.979 1.057 0.2614503 -0.4516912 0.06126106 2.553543 0.604296 -8.773084 0.1434 -0.0819 1.0636 -0.008055366

3.490659 -2.562667 0.09372418 3.702294 7.587054 -5.831064 -0.1935 -0.979 1.057 0.2593559 -1.081755 0.0006981317 2.872368 0.589581 -8.91729 0.167 -0.07 1.0532 -0.008055366

3.490659 -2.562667 0.09372418 3.702294 7.587054 -5.831064 -0.1935 -0.979 1.057 0.2593559 -1.081755 0.0006981317 2.872368 0.589581 -8.91729 0.167 -0.07 1.0532 -0.008055366

3.490659 -2.562667 0.09372418 3.702294 7.587054 -5.831064 -0.1935 -0.979 1.057 0.2785546 -0.9187413 0.00296706 2.24649 0.5660371 -8.854506 0.2015 -0.0627 1.0418 0.004027683

0.8072148 -0.3700098 -0.2061234 1.273338 4.25754 -9.254755 0.1241 -0.6971 1.277 0.3070034 -0.2876303 0.06998771 1.407735 0.416925 -8.77995 0.2015 -0.0627 1.0418 0.004027683

0.9766862 -0.5457644 -0.1954769 1.204668 4.036815 -9.01539 0.1799 -0.6646 1.3107 0.3070034 -0.2876303 0.06998771 1.407735 0.416925 -8.77995 0.2015 -0.0627 1.0418 0.004027683

0.6387905 -0.3008948 -0.1719149 0.800496 3.438405 -9.080136 0.1799 -0.6646 1.3107 0.2979277 -0.174882 0.06143559 1.436184 0.338445 -8.762292 0.2431 -0.0505 1.0322 0.004027683

0.6387905 -0.3008948 -0.1719149 0.800496 3.438405 -9.080136 0.1799 -0.6646 1.3107 0.2979277 -0.174882 0.06143559 1.436184 0.338445 -8.762292 0.2431 -0.0505 1.0322 0

0.5771804 0.1043707 -0.2103122 0.651384 3.333438 -9.135073 0.1905 -0.6409 1.3115 0.1576032 -0.614705 0.07086036 1.459728 -0.008829 -8.602389 0.2777 -0.0204 1.0137 0

1.037947 0.08185595 -0.1822124 0.678852 3.493341 -9.046782 0.1905 -0.6409 1.3115 0.1576032 -0.614705 0.07086036 1.459728 -0.008829 -8.602389 0.2777 -0.0204 1.0137 0

0.6852162 -0.1459095 -0.2356194 0.916254 2.955753 -8.829981 0.1999 -0.598 1.3225 0.222704 -0.6340781 0.01291544 1.251756 -0.023544 -8.777007 0.2777 -0.0204 1.0137 0.006712805

0.6852162 -0.1459095 -0.2356194 0.916254 2.955753 -8.829981 0.1999 -0.598 1.3225 0.222704 -0.6340781 0.01291544 1.251756 -0.023544 -8.777007 0.2777 -0.0204 1.0137 0.006712805

0.5794493 -0.3972369 -0.4754277 0.946665 2.602593 -8.679889 0.1883 -0.5641 1.3297 0.1694715 -0.4029965 -0.0006981317 0.905463 -0.065727 -8.795647 0.3023 -0.0006 1.0063 0.006712805

0.672999 -0.1926844 -0.5440191 0.659232 2.524113 -8.92612 0.1883 -0.5641 1.3297 0.1694715 -0.4029965 -0.0006981317 0.905463 -0.065727 -8.795647 0.3023 -0.0006 1.0063 0.01074049

0.431969 0.302291 -0.4073598 0.35316 2.342628 -9.307729 0.1958 -0.5462 1.3115 0.1406735 -0.3066543 0.06894051 0.649422 -0.17658 -8.726976 0.3023 -0.0006 1.0063 0.01074049

0.431969 0.302291 -0.4073598 0.35316 2.342628 -9.307729 0.1958 -0.5462 1.3115 0.1406735 -0.3066543 0.06894051 0.649422 -0.17658 -8.726976 0.3023 -0.0006 1.0063 0.01074049

0.3108431 0.4288274 -0.1668535 0.481671 2.306331 -9.250831 0.1958 -0.5462 1.3115 0.119206 -0.3413864 0.06789331 0.582714 -0.226611 -8.594542 0.333 0.019 1.0055 0.01074049

0.4270821 0.2804744 -0.1630138 0.649422 2.291616 -9.138996 0.2132 -0.5217 1.3013 0.09215339 -0.05340707 -0.009250244 0.483633 -0.258984 -8.561187 0.333 0.019 1.0055 0.01208305

0.4270821 0.2804744 -0.1630138 0.649422 2.291616 -9.138996 0.2132 -0.5217 1.3013 0.09354965 -0.1024508 -0.03001966 0.52974 -0.265851 -8.634763 0.3504 0.0364 1.0052 0.01208305

0.4270821 0.2804744 -0.1630138 0.649422 2.291616 -9.138996 0.2132 -0.5217 1.3013 0.09354965 -0.1024508 -0.03001966 0.52974 -0.265851 -8.634763 0.3504 0.0364 1.0052 0.01208305

0.264941 -0.2797763 -0.4155629 0.8348311 1.772667 -8.777988 0.159 -0.492 1.343 0.0884882 -0.1692969 0.01064651 0.512082 -0.308034 -8.67106 0.3644 0.0414 1.0121 0.01208305

0.1441642 -0.1621411 -0.2405064 0.748503 1.825641 -8.890803 0.159 -0.492 1.343 0.0884882 -0.1692969 0.01064651 0.512082 -0.308034 -8.67106 0.3644 0.0414 1.0121 0.01342561

0.1441642 -0.1621411 -0.2405064 0.748503 1.825641 -8.890803 0.159 -0.492 1.343 0.0561996 -0.1417207 0.003665191 0.5640751 -0.258984 -8.775045 0.3644 0.0414 1.0121 0.01342561

0.1813397 0.06405359 -0.1680752 0.537588 1.838394 -9.202762 0.1454 -0.4774 1.341 0.07452556 -0.2630211 0.0286234 0.526797 -0.277623 -8.826057 0.3837 0.0344 1.0151 0.01342561

0.1813397 0.06405359 -0.1680752 0.537588 1.838394 -9.202762 0.1454 -0.4774 1.341 0.01553343 -0.1260128 0.04520402 0.3924 -0.361989 -8.707356 0.3837 0.0344 1.0151 0.01342561

0.1068141 0.2581342 -0.1237438 0.565056 1.948266 -9.268489 0.1454 -0.4774 1.341 0.01553343 -0.1260128 0.04520402 0.3924 -0.361989 -8.707356 0.3837 0.0344 1.0151 0.01208305

0.3190462 -0.03141592 -0.124791 0.748503 1.961019 -9.175293 0.1375 -0.4727 1.3375 -0.004537856 -0.1075123 0.029147 0.340407 -0.354141 -8.72109 0.3893 0.0294 1.0095 0.01208305

0.3190462 -0.03141592 -0.124791 0.748503 1.961019 -9.175293 0.1375 -0.4727 1.3375 -0.004537856 -0.1075123 0.029147 0.340407 -0.354141 -8.72109 0.3893 0.0294 1.0095 0.01208305

0.4305727 -0.193557 -0.1317724 0.8210971 1.899216 -9.176274 0.1202 -0.4574 1.3334 0.009075711 -0.02234021 0.02583087 0.15696 -0.386514 -8.720109 0.3893 0.0294 1.0095 0.01208305

0.4305727 -0.193557 -0.1317724 0.8210971 1.899216 -9.176274 0.1202 -0.4574 1.3334 -0.02059488 0.07190756 -0.02234021 0.377685 -0.380628 -8.718147 0.3918 0.0134 1.0022 0.01208305

0.4630359 -0.2872812 -0.08813913 0.82404 1.803078 -9.214534 0.1202 -0.4574 1.3334 0.01727876 -0.2539454 -0.01082104 0.677871 -0.329616 -8.860392 0.3918 0.0134 1.0022 0.01745329

0.2249729 -0.2593559 0.03263766 0.6798331 1.45188 -9.487251 0.1227 -0.4379 1.3242 0.01727876 -0.2539454 -0.01082104 0.677871 -0.329616 -8.860392 0.3918 0.0134 1.0022 0.01745329

0.2249729 -0.2593559 0.03263766 0.6798331 1.45188 -9.487251 0.1227 -0.4379 1.3242 0.01727876 -0.2539454 -0.01082104 0.677871 -0.329616 -8.860392 0.3918 0.0134 1.0022 0.01745329
