-0.3764675 0.4756022 0.1546362 -1.450899 -0.385533 -10.09547 0.3227 -0.2256 1.2363 0.04852015 -0.1441642 0.05009095 -0.9113491 -0.311958 -8.879031 0.5708 0.0363 0.9274 0.02953634

-0.3764675 0.4756022 0.1546362 -1.450899 -0.385533 -10.09547 0.3227 -0.2256 1.2363 0.04276057 -0.07766715 0.06684611 -0.986886 -0.355122 -8.844696 0.5716 0.0482 0.9393 0.02550866

-0.3764675 0.4756022 0.1546362 -1.450899 -0.385533 -10.09547 0.3227 -0.2256 1.2363 0.04276057 -0.07766715 0.06684611 -0.986886 -0.355122 -8.844696 0.5716 0.0482 0.9393 0.02550866

-0.3764675 0.4756022 0.1546362 -1.450899 -0.385533 -10.09547 0.3227 -0.2256 1.2363 0.04276057 -0.07766715 0.06684611 -0.986886 -0.355122 -8.844696 0.5716 0.0482 0.9393 0.02550866

-0.3764675 0.4756022 0.1546362 -1.450899 -0.385533 -10.09547 0.3227 -0.2256 1.2363 0.04276057 -0.07766715 0.06684611 -0.986886 -0.355122 -8.844696 0.5716 0.0482 0.9393 0.02550866

0.3080506 0.003490658 0.1455605 -1.037898 -0.221706 -9.523548 0.3227 -0.2621 1.2559 0.04276057 -0.07766715 0.06684611 -0.986886 -0.355122 -8.844696 0.5716 0.0482 0.9393 0.02550866

0.3080506 0.003490658 0.1455605 -1.037898 -0.221706 -9.523548 0.3227 -0.2621 1.2559 0.00296706 0.002094395 0.02600541 -1.086948 -0.391419 -8.748558 0.5742 0.0558 0.9394 -0.01476817

0.2513274 0.08237953 0.1750565 -1.055556 -0.297243 -9.468613 0.3227 -0.2621 1.2559 0.02216568 -0.111352 0.04171337 -0.9721711 -0.348255 -8.754445 0.5742 0.0558 0.9394 -0.01476817

0.07347836 0.02775074 0.2078687 0.434583 0.671985 -10.09449 0.1359 -0.3347 1.2942 0.03001966 -0.1665044 0.05951573 0.8936911 -0.162846 -8.951626 0.3554 0.0541 1.0283 -0.01476817

0.2855359 0.03473205 0.08674286 0.38259 0.5248351 -9.913005 0.1343 -0.3364 1.3019 0.03001966 -0.1665044 0.05951573 0.8936911 -0.162846 -8.951626 0.3554 0.0541 1.0283 -0.01476817

0.2855359 0.03473205 0.08674286 0.38259 0.5248351 -9.913005 0.1343 -0.3364 1.3019 -0.01570796 0 0.02844887 0.928026 -0.174618 -8.921214 0.3621 0.0534 1.0266 -0.01342561

0.3921755 -0.02443461 -0.06597345 0.423792 0.364932 -9.734463 0.1343 -0.3364 1.3019 0.03543018 -0.4403466 0.04433136 1.235079 -0.201105 -8.920234 0.3621 0.0534 1.0266 -0.01342561

0.4117232 -0.08901179 -0.08813913 0.495405 0.242307 -9.644212 0.152 -0.3397 1.3 -0.002094395 -0.4548328 0.05288348 1.058499 -0.220725 -8.784856 0.3714 0.0373 1.0048 -0.01342561

0.5003859 -0.09197885 -0.1219985 0.409077 0.232497 -9.582409 0.152 -0.3397 1.3 -0.02478367 -0.3443534 0.02338741 0.800496 -0.181485 -8.850582 0.3714 0.0373 1.0048 -0.01342561

0.5003859 -0.09197885 -0.1219985 0.409077 0.232497 -9.582409 0.152 -0.3397 1.3 -0.02478367 -0.3443534 0.02338741 0.800496 -0.181485 -8.850582 0.3714 0.0373 1.0048 -0.01476817

0.3185226 -0.06998771 -0.1120501 0.390438 0.090252 -9.603009 0.1598 -0.3317 1.2964 0.008726646 -0.3108431 0.03281219 0.51012 -0.243288 -8.847639 0.3819 0.0146 0.9932 -0.01476817

-0.02565634 0.02844887 -0.0541052 0.351198 -0.076518 -9.688356 0.1512 -0.3144 1.3002 -0.02094395 -0.005235988 0.01047198 0.211896 -0.249174 -8.829981 0.3886 0.0163 0.9766 -0.01476817

-0.0996583 0.02932153 -0.04537856 0.361989 0.004905 -9.68247 0.1512 -0.3144 1.3002 -0.02094395 -0.005235988 0.01047198 0.211896 -0.249174 -8.829981 0.3886 0.0163 0.9766 -0.01476817

-0.0996583 0.02932153 -0.04537856 0.361989 0.004905 -9.68247 0.1512 -0.3144 1.3002 -0.029147 0.1127483 -0.01745329 0.163827 -0.223668 -8.893746 0.3886 0.0163 0.9766 -0.01476817

-0.0996583 0.02932153 -0.04537856 0.361989 0.004905 -9.68247 0.1512 -0.3144 1.3002 -0.01797689 -0.02164208 0.03001966 0.321768 -0.239364 -8.904537 0.4026 0.0193 0.9672 -0.01476817

-0.1312488 0.1408481 -0.03525565 0.324711 0.121644 -9.926739 0.1616 -0.3191 1.3028 -0.01797689 -0.02164208 0.03001966 0.321768 -0.239364 -8.904537 0.4026 0.0193 0.9672 -0.01476817

-0.1530654 0.06161012 -0.02443461 0.460089 0.111834 -9.872785 0.1465 -0.3057 1.2818 -0.01797689 -0.02164208 0.03001966 0.321768 -0.239364 -8.904537 0.4026 0.0193 0.9672 -0.01476817

-0.1530654 0.06161012 -0.02443461 0.460089 0.111834 -9.872785 0.1465 -0.3057 1.2818 0 0.1176352 -0.02897247 0.405153 -0.213858 -8.944758 0.3996 0.044 0.9645 -0.01476817

0 0.03368485 -0.04223697 0.435564 0.369837 -9.828639 0.1465 -0.3057 1.2818 -0.005410521 -0.01186824 0.0127409 0.547398 -0.112815 -8.956531 0.3996 0.044 0.9645 -0.01476817

-0.04572763 0.00122173 -0.005585053 0.452241 0.363951 -9.891423 0.1435 -0.3041 1.2861 0.04450589 -0.0561996 0.0153589 0.532683 -0.13734 -8.910423 0.394 0.0311 0.962 -0.01476817

-0.03036873 0.1054179 -0.004363323 0.380628 0.370818 -9.902214 0.1435 -0.3041 1.2861 0.04450589 -0.0561996 0.0153589 0.532683 -0.13734 -8.910423 0.394 0.0311 0.962 -0.01476817

-0.03036873 0.1054179 -0.004363323 0.380628 0.370818 -9.902214 0.1435 -0.3041 1.2861 -0.02426008 0.0572468 -0.002617994 0.5856571 -0.179523 -8.881974 0.394 0.0311 0.962 -0.01476817

0.1158899 0.122173 -0.05427974 0.401229 0.465975 -9.821772 0.1327 -0.3011 1.2853 0.02565634 -0.1996657 -0.003490658 0.7318261 -0.160884 -8.909443 0.3938 0.0229 0.9683 -0.01476817

-0.135263 0.1223476 -0.03438299 0.475785 0.288414 -9.828639 0.1327 -0.3011 1.2853 0.0006981317 -0.02897247 0.01658063 0.509139 -0.165789 -8.914348 0.3938 0.0229 0.9683 -0.01476817

0.1172861 0.02094395 -0.04991641 0.547398 0.582714 -9.664812 0.115 -0.2953 1.2797 0.0006981317 -0.02897247 0.01658063 0.509139 -0.165789 -8.914348 0.3938 0.0229 0.9683 -0.01476817

0.1172861 0.02094395 -0.04991641 0.547398 0.582714 -9.664812 0.115 -0.2953 1.2797 -0.006457718 -0.003141593 0.01954769 0.419868 -0.17658 -8.94672 0.3983 0.0289 0.98 -0.01476817

0.06928957 -0.03508112 0.01029744 0.567018 0.479709 -9.640287 0.122 -0.3019 1.2878 0.01605703 0.01815142 -0.001745329 0.409077 -0.181485 -8.840773 0.3983 0.0289 0.98 -0.01476817

0.08133234 0.01117011 0.01047198 0.534645 0.518949 -9.627535 0.122 -0.3019 1.2878 -0.008552114 0.05201081 -0.01186824 0.481671 -0.212877 -8.768179 0.3935 0.0337 0.9874 -0.01476817

0.1780236 0.04415683 0.03717551 0.498348 0.540531 -9.617724 0.1265 -0.3084 1.2913 -0.008552114 0.05201081 -0.01186824 0.481671 -0.212877 -8.768179 0.3935 0.0337 0.9874 -0.01476817

0.1780236 0.04415683 0.03717551 0.498348 0.540531 -9.617724 0.1265 -0.3084 1.2913 0.02268928 -0.212232 0.0005235987 0.736731 -0.157941 -8.767198 0.3959 0.0312 0.9951 -0.01745329

0.03944444 0.06230825 0.09634218 0.489519 0.360027 -9.590256 0.1265 -0.3084 1.2913 -0.00296706 -0.294088 0.01413717 0.758313 -0.177561 -8.715204 0.3959 0.0312 0.9951 -0.01745329

0.06265732 0.05864306 0.05899213 0.50031 0.298224 -9.416619 0.1081 -0.3003 1.2716 -0.03630285 -0.1445132 -0.01797689 0.589581 -0.233478 -8.713243 0.4058 0.0301 0.9891 -0.01745329

0.1839577 0.03735005 -0.03351032 0.520911 0.220725 -9.18216 0.1081 -0.3003 1.2716 -0.03630285 -0.1445132 -0.01797689 0.589581 -0.233478 -8.713243 0.4058 0.0301 0.9891 -0.01745329

0.1839577 0.03735005 -0.03351032 0.520911 0.220725 -9.18216 0.1081 -0.3003 1.2716 -0.07539823 -0.1391027 -0.02775074 0.642555 -0.260946 -8.697547 0.4058 0.0301 0.9891 -0.01476817

0.206647 -0.07731808 -0.08098327 0.552303 0.044145 -9.026181 0.1057 -0.2873 1.2606 -0.1099557 -0.2232276 0.002443461 0.7102441 -0.234459 -8.658306 0.4145 0.0297 0.9725 -0.01476817

0.07731808 -0.08237953 -0.1288053 0.545436 -0.040221 -8.929063 0.1057 -0.2873 1.2606 -0.2036799 0.01640609 -0.008552114 0.154998 -0.185409 -8.616123 0.4317 0.0608 0.9654 -0.01476817

0.1418953 -0.08325221 -0.161792 0.482652 0.183447 -8.875107 0.1335 -0.2878 1.2587 -0.2036799 0.01640609 -0.008552114 0.154998 -0.185409 -8.616123 0.4317 0.0608 0.9654 -0.01476817

0.1418953 -0.08325221 -0.161792 0.482652 0.183447 -8.875107 0.1335 -0.2878 1.2587 -0.2078687 0.01204277 -0.01186824 0.151074 -0.182466 -8.748558 0.4317 0.0608 0.9654 -0.01476817

0.09215339 -0.1933825 -0.06754424 0.54936 0.282528 -8.85745 0.1335 -0.2878 1.2587 -0.2082178 0.05585054 0.03281219 0.144207 -0.153036 -8.753464 0.4433 0.0428 0.9624 -0.01476817

-0.1787217 -0.2689552 -0.03735005 0.57879 0.242307 -8.937891 0.1434 -0.3008 1.2685 -0.2129302 -0.01204277 0.02129302 0.359046 -0.069651 -8.782893 0.4433 0.0428 0.9624 -0.01476817

-0.503702 -0.1418953 0.01919862 0.376704 0.271737 -9.669718 0.1345 -0.2949 1.2703 -0.2129302 -0.01204277 0.02129302 0.359046 -0.069651 -8.782893 0.4433 0.0428 0.9624 -0.01476817

-0.503702 -0.1418953 0.01919862 0.376704 0.271737 -9.669718 0.1345 -0.2949 1.2703 -0.1914626 -0.1949533 0.003316126 0.417906 0.008829 -8.851563 0.4435 0.0061 0.966 -0.01476817

-0.4968952 -0.09372418 0.02059488 0.341388 0.341388 -9.755065 0.1107 -0.3006 1.2654 -0.1768019 0.01396263 0.01832596 0.1962 0.059841 -8.834887 0.4435 0.0061 0.966 -0.01476817

-0.2958333 -0.1651081 -0.01797689 0.380628 0.337464 -9.768799 0.1107 -0.3006 1.2654 -0.1768019 0.01396263 0.01832596 0.1962 0.059841 -8.834887 0.4435 0.0061 0.966 -0.01476817

-0.4256858 -0.2387611 -0.1354375 0.320787 0.009810001 -9.857088 0.1348 -0.3133 1.2925 -0.1911135 0.09843656 -0.01151917 0.368856 0.104967 -8.873145 0.4435 -0.0213 0.9721 -0.01476817

-0.4256858 -0.2387611 -0.1354375 0.320787 0.009810001 -9.857088 0.1348 -0.3133 1.2925 -0.1665044 -0.243997 -0.03228859 0.664137 0.136359 -8.973207 0.4371 -0.0126 0.9909 -0.01449964

-0.6848672 -0.02321288 -0.2682571 0.154017 -0.095157 -9.909081 0.1348 -0.3133 1.2925 -0.1665044 -0.243997 -0.03228859 0.664137 0.136359 -8.973207 0.4371 -0.0126 0.9909 -0.01449964

-0.350113 -0.1891937 -0.3092723 0.227592 0.050031 -9.813924 0.1722 -0.3356 1.3066 -0.1738348 -0.1638864 0.01047198 0.520911 0.232497 -8.948682 0.4371 -0.0126 0.9909 -0.01449964

-0.350113 -0.1891937 -0.3092723 0.227592 0.050031 -9.813924 0.1722 -0.3356 1.3066 -0.1446878 0.002094395 -0.009948377 0.45126 0.258003 -8.854506 0.432 -0.0111 0.9873 -0.01449964

-0.2624975 -0.2508038 -0.3616322 0.183447 -0.242307 -9.797248 0.1722 -0.3356 1.3066 -0.1446878 0.002094395 -0.009948377 0.45126 0.258003 -8.854506 0.432 -0.0111 0.9873 -0.01342561

-0.2624975 -0.2508038 -0.3616322 0.183447 -0.242307 -9.797248 0.1722 -0.3356 1.3066 -0.124791 -0.006457718 -0.087441 0.691605 0.248193 -8.770141 0.432 -0.0111 0.9873 -0.01342561

-0.2624975 -0.2508038 -0.3616322 0.183447 -0.242307 -9.797248 0.1722 -0.3356 1.3066 -0.1076868 -0.2085668 -0.1843068 1.127169 0.251136 -8.663211 0.4476 -0.0149 0.9671 -0.01342561

-0.1823869 -0.3495895 -0.4471534 0.011772 -0.8260021 -9.746235 0.1741 -0.3448 1.2992 -0.1076868 -0.2085668 -0.1843068 1.127169 0.251136 -8.663211 0.4476 -0.0149 0.9671 -0.01342561

-0.4440118 0.2124066 -0.6136578 -0.485595 -1.279224 -9.886518 0.1741 -0.3448 1.2992 -0.1076868 -0.2085668 -0.1843068 1.127169 0.251136 -8.663211 0.4476 -0.0149 0.9671 -0.01208305

-0.4440118 0.2124066 -0.6136578 -0.485595 -1.279224 -9.886518 0.1741 -0.3448 1.2992 -0.1076868 -0.2085668 -0.1843068 1.127169 0.251136 -8.663211 0.4476 -0.0149 0.9671 -0.01208305

-0.03211406 0.3888594 -0.9023352 -0.6710041 -1.092834 -9.821772 0.1686 -0.3511 1.312 -0.2604031 -1.536762 0.02391101 0.374742 0.325692 -8.262963 0.4652 0.003 0.9417 -0.01208305

0.7007497 0.1942551 -1.071807 -0.625878 -0.6690421 -9.523548 0.1647 -0.3657 1.3227 -0.2574361 -1.42541 -0.01047198 -0.267813 0.424773 -8.307109 0.4652 0.003 0.9417 -0.01208305

0.7007497 0.1942551 -1.071807 -0.625878 -0.6690421 -9.523548 0.1647 -0.3657 1.3227 -0.2574361 -1.42541 -0.01047198 -0.267813 0.424773 -8.307109 0.4652 0.003 0.9417 0.0002685286

0.7007497 0.1942551 -1.071807 -0.625878 -0.6690421 -9.523548 0.1647 -0.3657 1.3227 -0.3275983 -1.241104 -0.02146755 -0.819135 0.541512 -8.052049 0.5018 -0.0089 0.9196 0.0002685286

0.7007497 0.1942551 -1.071807 -0.625878 -0.6690421 -9.523548 0.1647 -0.3657 1.3227 -0.5457644 -1.254368 -0.04520402 -1.175238 0.575847 -7.72047 0.5018 -0.0089 0.9196 0.0002685286

-0.49323 0.681202 -0.4605924 -2.17782 -0.621954 -10.63208 0.1574 -0.3369 1.2921 -0.5457644 -1.254368 -0.04520402 -1.175238 0.575847 -7.72047 0.5018 -0.0089 0.9196 0.0002685286

0.3555236 0.7965683 -0.6654941 -1.684377 0.380628 -10.40743 0.1574 -0.3369 1.2921 -0.4731588 -1.411797 0.08691739 -1.405773 0.601353 -7.73911 0.5595 -0.0298 0.9125 0.0459156

0.6510078 0.2316052 -0.6857399 -1.085967 0.737712 -10.2593 0.1419 -0.3328 1.2958 -0.4731588 -1.411797 0.08691739 -1.405773 0.601353 -7.73911 0.5595 -0.0298 0.9125 0.0459156

0.6510078 0.2316052 -0.6857399 -1.085967 0.737712 -10.2593 0.1419 -0.3328 1.2958 -0.5443682 -2.017251 0.2631956 -1.560771 0.423792 -7.676326 0.6219 -0.041 0.8978 0.0459156

-0.1047198 0.5235988 -0.6002187 -0.9172351 0.801477 -10.5173 0.1419 -0.3328 1.2958 -0.760789 -1.900664 0.6077237 -2.289654 0.390438 -7.460505 0.6219 -0.041 0.8978 0.0459156

0.07574729 0.3637266 -0.495499 -0.438507 1.191915 -10.24851 0.1231 -0.3416 1.2972 -0.760789 -1.900664 0.6077237 -2.289654 0.390438 -7.460505 0.6219 -0.041 0.8978 0.026717

-0.2443461 0.7098254 -0.6806784 -0.289395 0.973152 -10.08174 0.1231 -0.3416 1.2972 -0.8194321 -1.704663 0.8274606 -2.977335 0.636669 -7.696927 0.6817 -0.0525 0.8705 0.026717

-0.2443461 0.7098254 -0.6806784 -0.289395 0.973152 -10.08174 0.1231 -0.3416 1.2972 -0.7285004 -1.565386 0.8868018 -3.616947 1.041822 -8.087364 0.6817 -0.0525 0.8705 0.026717

-0.1816888 0.2398082 -1.026777 0.10791 1.130112 -9.916929 0.078 -0.3362 1.2953 -0.7285004 -1.565386 0.8868018 -3.616947 1.041822 -8.087364 0.6817 -0.0525 0.8705 0.4900348

0.1872738 -0.220086 -1.190315 0.244269 1.695168 -9.942435 0.0317 -0.3177 1.2971 -0.8236209 -1.207593 0.9166469 -4.40469 1.326312 -7.89705 0.7337 -0.0709 0.8213 0.4900348

0.1872738 -0.220086 -1.190315 0.244269 1.695168 -9.942435 0.0317 -0.3177 1.2971 -0.6632251 -0.5818928 0.9281661 -5.054112 1.762857 -7.854867 0.7337 -0.0709 0.8213 0.4900348

0.6707301 -0.2330015 -1.037773 -0.01962 1.871748 -9.935568 0.0317 -0.3177 1.2971 -0.6632251 -0.5818928 0.9281661 -5.054112 1.762857 -7.854867 0.7337 -0.0709 0.8213 0.6766508

0.6707301 -0.2330015 -1.037773 -0.01962 1.871748 -9.935568 0.0317 -0.3177 1.2971 -0.6632251 -0.5818928 0.9281661 -5.054112 1.762857 -7.854867 0.7337 -0.0709 0.8213 0.6766508

0.8412487 -0.05009095 -1.030792 -0.213858 1.613745 -9.79038 0.0011 -0.3187 1.2952 -0.6450737 -0.2668608 0.4769985 -4.489056 2.220003 -7.559587 0.831 -0.1636 0.7309 0.6766508

0.8785987 -0.03961897 -1.204801 -0.345312 1.322388 -9.822753 0.0011 -0.3187 1.2952 -0.6485643 -0.2387611 0.6351253 -4.264407 2.394621 -7.37712 0.8385 -0.2065 0.7036 0.6766508

0.8785987 -0.03961897 -1.204801 -0.345312 1.322388 -9.822753 0.0011 -0.3187 1.2952 -0.6485643 -0.2387611 0.6351253 -4.264407 2.394621 -7.37712 0.8385 -0.2065 0.7036 0.8243324

0.8785987 -0.03961897 -1.204801 -0.345312 1.322388 -9.822753 0.0011 -0.3187 1.2952 -0.6899287 -0.3330088 0.7691666 -3.910266 2.532942 -7.296678 0.8385 -0.2065 0.7036 0.8243324

1.179494 0.01134464 -1.382824 -0.643536 0.905463 -9.923797 -0.0143 -0.2926 1.2514 -0.6899287 -0.3330088 0.7691666 -3.910266 2.532942 -7.296678 0.8385 -0.2065 0.7036 0.8243324

1.179494 0.01134464 -1.382824 -0.643536 0.905463 -9.923797 -0.0143 -0.2926 1.2514 -0.8288569 -0.5722935 0.7258824 -3.599289 2.596707 -7.06222 0.8391 -0.2543 0.6755 0.8243324

1.433264 0.03612831 -1.260302 -0.597429 0.987867 -9.88848 -0.0326 -0.2556 1.2362 -1.015083 -0.7586946 0.7080801 -3.623814 2.743857 -6.807159 0.8369 -0.2948 0.652 0.9934951

1.433264 0.03612831 -1.260302 -0.597429 0.987867 -9.88848 -0.0326 -0.2556 1.2362 -1.015083 -0.7586946 0.7080801 -3.623814 2.743857 -6.807159 0.8369 -0.2948 0.652 0.9934951

1.865582 -0.06475171 -1.221381 -0.2943 1.047708 -9.695224 -0.0326 -0.2556 1.2362 -1.13045 -0.7862708 0.8403761 -3.911247 3.046005 -6.725736 0.8369 -0.2948 0.652 0.9934951

2.328967 -0.1478294 -1.313186 0.072594 0.875052 -9.398962 -0.04 -0.2245 1.2246 -1.142318 -0.749968 0.869523 -4.249692 3.407994 -6.673743 0.829 -0.3328 0.6253 1.142519

2.73912 -0.3588397 -1.345649 0.406134 0.494424 -9.119376 -0.04 -0.2245 1.2246 -1.11736 -0.6305875 0.7361799 -4.582251 3.765078 -6.558967 0.829 -0.3328 0.6253 1.142519

2.73912 -0.3588397 -1.345649 0.406134 0.494424 -9.119376 -0.04 -0.2245 1.2246 -1.11736 -0.6305875 0.7361799 -4.582251 3.765078 -6.558967 0.829 -0.3328 0.6253 1.142519

2.818881 -0.5441937 -1.368687 0.707301 -0.111834 -9.072289 -0.0835 -0.1742 1.2064 -1.009673 -0.4717625 0.6326818 -4.840254 4.131972 -6.470676 0.8298 -0.3854 0.5905 1.142519

2.747323 -0.766025 -1.308299 0.9898291 -0.650403 -9.087984 -0.1444 -0.0973 1.1674 -0.8948303 -0.2885029 0.6424557 -5.028606 4.461588 -6.222483 0.8298 -0.3854 0.5905 1.235156

2.73528 -0.9309586 -1.278803 1.371438 -1.062423 -8.969284 -0.1444 -0.0973 1.1674 -0.8948303 -0.2885029 0.6424557 -5.028606 4.461588 -6.222483 0.8298 -0.3854 0.5905 1.235156

2.73528 -0.9309586 -1.278803 1.371438 -1.062423 -8.969284 -0.1444 -0.0973 1.1674 -0.8845329 -0.2508038 0.6794567 -5.037435 4.664655 -5.977233 0.8344 -0.4396 0.5521 1.235156

2.96322 -1.202183 -1.32296 1.668681 -1.492101 -8.712261 -0.1977 -0.0206 1.0955 -0.8845329 -0.2508038 0.6794567 -5.037435 4.664655 -5.977233 0.8344 -0.4396 0.5521 1.235156

3.205995 -1.418429 -1.379334 1.59903 -2.13858 -8.440524 -0.1977 -0.0206 1.0955 -0.8845329 -0.2508038 0.6794567 -5.037435 4.664655 -5.977233 0.8344 -0.4396 0.5521 1.235156

3.205995 -1.418429 -1.379334 1.59903 -2.13858 -8.440524 -0.1977 -0.0206 1.0955 -0.8845329 -0.2508038 0.6794567 -5.037435 4.664655 -5.977233 0.8344 -0.4396 0.5521 1.279461

2.891487 -1.086468 -1.415637 1.053594 -3.221604 -8.341443 -0.2346 0.0535 1.0034 -1.065174 -0.3279474 0.2448697 -4.970727 5.812425 -5.7879 0.845 -0.5095 0.4834 1.279461

2.891487 -1.086468 -1.415637 1.053594 -3.221604 -8.341443 -0.2346 0.0535 1.0034 -0.8681268 0.006457718 0.3551745 -5.211072 6.236217 -5.782014 0.84 -0.5553 0.446 1.279461

2.891487 -1.086468 -1.415637 1.053594 -3.221604 -8.341443 -0.2346 0.0535 1.0034 -0.8681268 0.006457718 0.3551745 -5.211072 6.236217 -5.782014 0.84 -0.5553 0.446 1.307654

2.891487 -1.086468 -1.415637 1.053594 -3.221604 -8.341443 -0.2346 0.0535 1.0034 -0.6131342 0.3726278 0.3518584 -5.165946 6.418683 -5.838912 0.84 -0.5553 0.446 1.307654

2.891487 -1.086468 -1.415637 1.053594 -3.221604 -8.341443 -0.2346 0.0535 1.0034 -0.5040511 0.527613 0.2806489 -4.939335 6.444189 -5.72904 0.8376 -0.5976 0.4065 1.307654

2.891487 -1.086468 -1.415637 1.053594 -3.221604 -8.341443 -0.2346 0.0535 1.0034 -0.5040511 0.527613 0.2806489 -4.939335 6.444189 -5.72904 0.8376 -0.5976 0.4065 1.307654

2.082003 -0.8614945 -1.209339 -0.546417 -6.942537 -6.793425 -0.3139 0.2225 0.8055 -0.6162758 0.5223771 0.2933898 -4.687218 6.422607 -5.51322 0.8376 -0.5976 0.4065 1.346589

2.078512 -0.9822713 -1.081755 -0.59841 -7.438923 -6.428493 -0.3139 0.2225 0.8055 -0.6162758 0.5223771 0.2933898 -4.687218 6.422607 -5.51322 0.8376 -0.5976 0.4065 1.346589

2.078512 -0.9822713 -1.081755 -0.59841 -7.438923 -6.428493 -0.3139 0.2225 0.8055 -0.7586946 0.397586 0.2698279 -4.36545 6.361785 -5.421007 0.8365 -0.629 0.3757 1.346589

1.586155 -1.047198 -0.9442231 -0.5856571 -8.172711 -6.213655 -0.3487 0.2816 0.7174 -0.8574803 0.3651229 0.2171189 -4.250673 6.351975 -5.33664 0.8365 -0.629 0.3757 1.372097

1.193456 -1.00339 -0.8363618 -0.5748661 -8.580808 -6.130269 -0.3768 0.3237 0.6321 -0.8574803 0.3651229 0.2171189 -4.250673 6.351975 -5.33664 0.8365 -0.629 0.3757 1.372097

1.123643 -0.7689921 -0.9833185 -0.556227 -8.750521 -6.138117 -0.3768 0.3237 0.6321 -0.9138544 0.3750713 0.2059489 -4.307571 6.587416 -5.174775 0.8188 -0.6414 0.3636 1.372097

1.123643 -0.7689921 -0.9833185 -0.556227 -8.750521 -6.138117 -0.3768 0.3237 0.6321 -0.9318312 0.3398156 0.1295034 -4.317381 6.829722 -5.214015 0.8188 -0.6414 0.3636 1.420429

1.229759 -0.7084292 -0.9508554 -0.347274 -8.772102 -5.998816 -0.4272 0.365 0.5404 -0.7969173 0.4708898 -0.00296706 -4.40469 6.93567 -5.33664 0.8036 -0.6587 0.3556 1.420429

1.229759 -0.7084292 -0.9508554 -0.347274 -8.772102 -5.998816 -0.4272 0.365 0.5404 -0.7969173 0.4708898 -0.00296706 -4.40469 6.93567 -5.33664 0.8036 -0.6587 0.3556 1.420429

1.229759 -0.7084292 -0.9508554 -0.347274 -8.772102 -5.998816 -0.4272 0.365 0.5404 -0.6421067 0.6668903 -0.06736971 -4.500828 7.083801 -5.253255 0.8036 -0.6587 0.3556 1.420429

1.090482 -0.8185595 -0.803375 -0.09123301 -8.997733 -5.887962 -0.4272 0.365 0.5404 -0.5811946 0.726406 -0.1153663 -4.462569 7.320222 -5.070789 0.804 -0.682 0.3403 1.459364

1.090482 -0.8185595 -0.803375 -0.09123301 -8.997733 -5.887962 -0.4272 0.365 0.5404 -0.5811946 0.726406 -0.1153663 -4.462569 7.320222 -5.070789 0.804 -0.682 0.3403 1.459364

0.8936086 -0.9594075 -0.7325147 0.12753 -9.15175 -5.808502 -0.4761 0.395 0.457 -0.5811946 0.726406 -0.1153663 -4.462569 7.320222 -5.070789 0.804 -0.682 0.3403 1.459364

0.7442084 -0.8712683 -0.7655014 0.113796 -9.306747 -5.783977 -0.4761 0.395 0.457 -0.5811946 0.726406 -0.1153663 -4.462569 7.320222 -5.070789 0.804 -0.682 0.3403 1.459364

0.7358308 -0.6024877 -0.7623598 -0.017658 -9.192951 -5.728059 -0.5278 0.4253 0.3929 -0.4790929 0.8306022 -0.3326598 -4.053492 7.535061 -4.81671 0.7838 -0.7136 0.3061 1.476817

0.7358308 -0.6024877 -0.7623598 -0.017658 -9.192951 -5.728059 -0.5278 0.4253 0.3929 -0.4790929 0.8306022 -0.3326598 -4.053492 7.535061 -4.81671 0.7838 -0.7136 0.3061 1.476817

0.8101818 -0.4000295 -0.7546804 0.02943 -9.13311 -5.619168 -0.5278 0.4253 0.3929 -0.4790929 0.8306022 -0.3326598 -4.053492 7.535061 -4.81671 0.7838 -0.7136 0.3061 1.476817

0.5745624 -0.760789 -0.2991494 0.648441 -8.784856 -4.801995 -0.6377 0.4032 0.2645 -0.4790929 0.8306022 -0.3326598 -4.053492 7.535061 -4.81671 0.7838 -0.7136 0.3061 1.476817

0.4197517 -0.7881907 -0.06213372 0.649422 -8.6122 -4.714686 -0.6377 0.4032 0.2645 -0.4790929 0.8306022 -0.3326598 -4.053492 7.535061 -4.81671 0.7838 -0.7136 0.3061 1.47816

0.4197517 -0.7881907 -0.06213372 0.649422 -8.6122 -4.714686 -0.6377 0.4032 0.2645 -0.4790929 0.8306022 -0.3326598 -4.053492 7.535061 -4.81671 0.7838 -0.7136 0.3061 1.47816

0.3715806 -0.7845255 -0.1569051 0.619011 -8.562168 -4.681332 -0.6523 0.3889 0.2247 -0.4790929 0.8306022 -0.3326598 -4.053492 7.535061 -4.81671 0.7838 -0.7136 0.3061 1.47816

0.3715806 -0.7845255 -0.1569051 0.619011 -8.562168 -4.681332 -0.6523 0.3889 0.2247 -0.4790929 0.8306022 -0.3326598 -4.053492 7.535061 -4.81671 0.7838 -0.7136 0.3061 1.47816

0.4029965 -0.8176867 -0.2527237 0.499329 -8.525871 -4.685256 -0.6523 0.3889 0.2247 -0.4790929 0.8306022 -0.3326598 -4.053492 7.535061 -4.81671 0.7838 -0.7136 0.3061 1.47816

0.5583308 -0.9489355 -0.3447025 0.360027 -8.493499 -4.650921 -0.6537 0.3735 0.204 -0.4790929 0.8306022 -0.3326598 -4.053492 7.535061 -4.81671 0.7838 -0.7136 0.3061 1.467419

0.7302458 -0.7586946 -0.2738422 -0.015696 -8.509194 -4.81671 -0.6537 0.3735 0.204 -0.4790929 0.8306022 -0.3326598 -4.053492 7.535061 -4.81671 0.7838 -0.7136 0.3061 1.467419

0.7302458 -0.7586946 -0.2738422 -0.015696 -8.509194 -4.81671 -0.6537 0.3735 0.204 -0.4790929 0.8306022 -0.3326598 -4.053492 7.535061 -4.81671 0.7838 -0.7136 0.3061 1.467419

0.5426229 -0.3494149 -0.1117011 -0.376704 -8.743653 -5.005063 -0.6601 0.3531 0.1836 -0.4790929 0.8306022 -0.3326598 -4.053492 7.535061 -4.81671 0.7838 -0.7136 0.3061 1.467419

0.4111996 -0.1965241 -0.01884956 -0.385533 -8.757387 -4.971708 -0.6601 0.3531 0.1836 -0.4712389 0.6862634 -0.5677556 -3.601251 7.612561 -4.618548 0.762 -0.7187 0.2898 1.447281

0.4111996 -0.1965241 -0.01884956 -0.385533 -8.757387 -4.971708 -0.6601 0.3531 0.1836 -0.4712389 0.6862634 -0.5677556 -3.601251 7.612561 -4.618548 0.762 -0.7187 0.2898 1.447281

0.4197517 -0.3359759 -0.1884956 -0.170694 -8.831944 -4.783356 -0.6645 0.3326 0.1805 -0.4712389 0.6862634 -0.5677556 -3.601251 7.612561 -4.618548 0.762 -0.7187 0.2898 1.447281

0.7649778 -0.6075491 -0.2302089 -0.08338501 -8.697547 -4.451778 -0.6645 0.3326 0.1805 -0.4712389 0.6862634 -0.5677556 -3.601251 7.612561 -4.618548 0.762 -0.7187 0.2898 1.447281

0.7649778 -0.6075491 -0.2302089 -0.08338501 -8.697547 -4.451778 -0.6645 0.3326 0.1805 -0.4712389 0.6862634 -0.5677556 -3.601251 7.612561 -4.618548 0.762 -0.7187 0.2898 1.423115

1.155757 -0.3600614 -0.1647591 -0.456165 -8.679889 -4.380165 -0.6689 0.3201 0.1578 -0.4712389 0.6862634 -0.5677556 -3.601251 7.612561 -4.618548 0.762 -0.7187 0.2898 1.423115

1.155757 -0.3600614 -0.1647591 -0.456165 -8.679889 -4.380165 -0.6689 0.3201 0.1578 -0.4712389 0.6862634 -0.5677556 -3.601251 7.612561 -4.618548 0.762 -0.7187 0.2898 1.423115

1.155757 -0.3600614 -0.1647591 -0.456165 -8.679889 -4.380165 -0.6689 0.3201 0.1578 -0.1521927 0.2136283 -0.132296 -3.057777 7.55272 -4.288932 0.8256 -0.6653 0.2902 1.423115

1.155757 -0.3600614 -0.1647591 -0.456165 -8.679889 -4.380165 -0.6689 0.3201 0.1578 -0.1331686 0.1347394 -0.130027 -3.063663 7.568415 -4.230072 0.8256 -0.6653 0.2902 1.420429

1.155757 -0.3600614 -0.1647591 -0.456165 -8.679889 -4.380165 -0.6689 0.3201 0.1578 -0.2268928 0.02460914 -0.1488766 -2.970468 7.511517 -4.191813 0.8224 -0.657 0.3037 1.420429

0.6408849 -0.2562144 -0.1144936 -0.231516 -9.495099 -3.378564 -0.6553 0.3013 0.0966 -0.2268928 0.02460914 -0.1488766 -2.970468 7.511517 -4.191813 0.8224 -0.657 0.3037 1.420429

0.6408849 -0.2562144 -0.1144936 -0.231516 -9.495099 -3.378564 -0.6553 0.3013 0.0966 -0.3611086 -0.08115781 -0.1242674 -2.932209 7.37614 -4.157478 0.8212 -0.6494 0.318 1.420429

0.6408849 -0.2562144 -0.1144936 -0.231516 -9.495099 -3.378564 -0.6553 0.3013 0.0966 -0.3895575 -0.1602212 -0.03281219 -2.990088 7.3575 -4.053492 0.8212 -0.6494 0.318 1.415059

0.4998623 -0.01553343 0.008726646 -0.272718 -9.57358 -3.322647 -0.6502 0.2847 0.0881 -0.3895575 -0.1602212 -0.03281219 -2.990088 7.3575 -4.053492 0.8212 -0.6494 0.318 1.415059

0.1310742 -0.06981317 0.03089233 -0.103986 -9.815886 -3.11958 -0.6502 0.2847 0.0881 -0.2926917 -0.1225221 0.03281219 -3.145086 7.447752 -4.004442 0.8364 -0.662 0.3176 1.415059

0.1310742 -0.06981317 0.03089233 -0.103986 -9.815886 -3.11958 -0.6502 0.2847 0.0881 -0.1117011 0.007504916 -0.0143117 -3.383469 7.593921 -4.093713 0.8364 -0.662 0.3176 1.415059

0.1310742 -0.06981317 0.03089233 -0.103986 -9.815886 -3.11958 -0.6502 0.2847 0.0881 -0.1117011 0.007504916 -0.0143117 -3.383469 7.593921 -4.093713 0.8364 -0.662 0.3176 1.415059

-0.1249656 -0.209265 0.07033677 0.041202 -9.84826 -2.904741 -0.6789 0.2626 0.0823 -0.003665191 0.1579523 -0.05899213 -3.527676 7.688097 -4.24773 0.8517 -0.6625 0.2936 1.415059

-0.1249656 -0.209265 0.07033677 0.041202 -9.84826 -2.904741 -0.6789 0.2626 0.0823 0.002792527 0.2055998 0.01047198 -3.623814 7.729299 -4.261464 0.8517 -0.6625 0.2936 1.415059

-0.1249656 -0.209265 0.07033677 0.041202 -9.84826 -2.904741 -0.6789 0.2626 0.0823 -0.002268928 0.1738348 0.07400195 -3.65913 7.712622 -4.141782 0.8449 -0.6452 0.2706 1.415059

-0.1249656 -0.209265 0.07033677 0.041202 -9.84826 -2.904741 -0.6789 0.2626 0.0823 -0.002268928 0.1738348 0.07400195 -3.65913 7.712622 -4.141782 0.8449 -0.6452 0.2706 1.417744

-0.1249656 -0.209265 0.07033677 0.041202 -9.84826 -2.904741 -0.6789 0.2626 0.0823 -0.01658063 0.08988446 0.1082104 -3.573783 7.689078 -4.005423 0.8449 -0.6452 0.2706 1.417744

-0.1249656 -0.209265 0.07033677 0.041202 -9.84826 -2.904741 -0.6789 0.2626 0.0823 -0.07749262 -0.03909538 0.07679449 -3.410937 7.694964 -3.961278 0.8394 -0.6394 0.2622 1.417744

-0.1249656 -0.209265 0.07033677 0.041202 -9.84826 -2.904741 -0.6789 0.2626 0.0823 -0.07749262 -0.03909538 0.07679449 -3.410937 7.694964 -3.961278 0.8394 -0.6394 0.2622 1.417744

-0.1249656 -0.209265 0.07033677 0.041202 -9.84826 -2.904741 -0.6789 0.2626 0.0823 -0.1923353 -0.1673771 0.007679448 -3.222585 7.718509 -3.975993 0.8326 -0.6462 0.2826 1.417744

-0.1249656 -0.209265 0.07033677 0.041202 -9.84826 -2.904741 -0.6789 0.2626 0.0823 -0.2672099 -0.2452188 -0.01640609 -3.154896 7.683193 -3.984822 0.8326 -0.6462 0.2826 1.417744

-0.1249656 -0.209265 0.07033677 0.041202 -9.84826 -2.904741 -0.6789 0.2626 0.0823 -0.2062979 -0.2241003 -0.02984513 -3.265749 7.678288 -3.989727 0.8385 -0.6445 0.268 1.417744

-0.1249656 -0.209265 0.07033677 0.041202 -9.84826 -2.904741 -0.6789 0.2626 0.0823 -0.2062979 -0.2241003 -0.02984513 -3.265749 7.678288 -3.989727 0.8385 -0.6445 0.268 1.417744

-0.1249656 -0.209265 0.07033677 0.041202 -9.84826 -2.904741 -0.6789 0.2626 0.0823 -0.04572763 -0.082205 -0.07295476 -3.461949 7.801893 -4.067226 0.8385 -0.6445 0.268 1.401634

-0.1249656 -0.209265 0.07033677 0.041202 -9.84826 -2.904741 -0.6789 0.2626 0.0823 0.1900664 0.1844813 -0.08604473 -3.695427 7.993188 -4.239882 0.846 -0.6298 0.2564 1.401634

-0.1249656 -0.209265 0.07033677 0.041202 -9.84826 -2.904741 -0.6789 0.2626 0.0823 0.1900664 0.1844813 -0.08604473 -3.695427 7.993188 -4.239882 0.846 -0.6298 0.2564 1.401634

-0.1249656 -0.209265 0.07033677 0.041202 -9.84826 -2.904741 -0.6789 0.2626 0.0823 0.1900664 0.1844813 -0.08604473 -3.695427 7.993188 -4.239882 0.846 -0.6298 0.2564 1.401634

-0.1249656 -0.209265 0.07033677 0.041202 -9.84826 -2.904741 -0.6789 0.2626 0.0823 0.1900664 0.1844813 -0.08604473 -3.695427 7.993188 -4.239882 0.846 -0.6298 0.2564 1.397606

-0.1249656 -0.209265 0.07033677 0.041202 -9.84826 -2.904741 -0.6789 0.2626 0.0823 0.222704 0.1755801 0.1877974 -2.925342 7.75971 -4.035834 0.8308 -0.6636 0.251 1.397606

-0.1249656 -0.209265 0.07033677 0.041202 -9.84826 -2.904741 -0.6789 0.2626 0.0823 0.222704 0.1755801 0.1877974 -2.925342 7.75971 -4.035834 0.8308 -0.6636 0.251 1.397606

-0.1249656 -0.209265 0.07033677 0.041202 -9.84826 -2.904741 -0.6789 0.2626 0.0823 0.1541126 0.08866272 0.2392846 -2.789964 7.665534 -3.970107 0.8308 -0.6636 0.251 1.397606

-0.1249656 -0.209265 0.07033677 0.041202 -9.84826 -2.904741 -0.6789 0.2626 0.0823 0.1068141 0.01518436 0.296706 -2.724237 7.587054 -3.886722 0.8244 -0.6655 0.2637 1.421772

-0.1249656 -0.209265 0.07033677 0.041202 -9.84826 -2.904741 -0.6789 0.2626 0.0823 0.1068141 0.01518436 0.296706 -2.724237 7.587054 -3.886722 0.8244 -0.6655 0.2637 1.421772

-0.1249656 -0.209265 0.07033677 0.041202 -9.84826 -2.904741 -0.6789 0.2626 0.0823 0.1068141 0.01518436 0.296706 -2.724237 7.587054 -3.886722 0.8244 -0.6655 0.2637 1.421772

-0.1249656 -0.209265 0.07033677 0.041202 -9.84826 -2.904741 -0.6789 0.2626 0.0823 0.09232792 -0.05916666 0.3462733 -2.698731 7.538985 -3.805299 0.8244 -0.6655 0.2637 1.421772

-0.1249656 -0.209265 0.07033677 0.041202 -9.84826 -2.904741 -0.6789 0.2626 0.0823 0.09232792 -0.05916666 0.3462733 -2.698731 7.538985 -3.805299 0.8244 -0.6655 0.2637 1.472789

-0.1249656 -0.209265 0.07033677 0.041202 -9.84826 -2.904741 -0.6789 0.2626 0.0823 0.009075711 -0.1518436 0.3427826 -2.667339 7.459524 -3.862197 0.8353 -0.6802 0.2975 1.472789

-0.2658136 -0.2452188 -0.1312488 0.48069 -10.2387 -2.130732 -0.6911 0.2089 0.0019 0.009075711 -0.1518436 0.3427826 -2.667339 7.459524 -3.862197 0.8353 -0.6802 0.2975 1.472789

-0.06440265 -0.2211332 -0.1286308 0.486576 -10.01503 -2.067948 -0.7267 0.2205 0.0142 0.009075711 -0.1518436 0.3427826 -2.667339 7.459524 -3.862197 0.8353 -0.6802 0.2975 1.472789

0.1336922 -0.2234021 -0.1343904 0.538569 -9.793324 -1.919817 -0.7618 0.2356 0.019 -0.06841691 -0.1776745 0.3436553 -2.689902 7.438923 -3.975993 0.8353 -0.6802 0.2975 1.525149

0.1336922 -0.2234021 -0.1343904 0.538569 -9.793324 -1.919817 -0.7618 0.2356 0.019 -0.08063421 -0.1775 0.3331833 -2.829204 7.582149 -4.038777 0.846 -0.6838 0.304 1.525149

0.1474803 -0.2588323 -0.1389282 0.663156 -9.821772 -1.759914 -0.7618 0.2356 0.019 -0.08063421 -0.1775 0.3331833 -2.829204 7.582149 -4.038777 0.846 -0.6838 0.304 1.525149

0.1474803 -0.2588323 -0.1389282 0.663156 -9.821772 -1.759914 -0.7618 0.2356 0.019 -0.0008726646 -0.09948377 0.3588397 -3.035214 7.821513 -4.091751 0.846 -0.6838 0.304 1.525149

0.1474803 -0.2588323 -0.1389282 0.663156 -9.821772 -1.759914 -0.7618 0.2356 0.019 0.1434661 0.06056292 0.41853 -3.238281 7.988283 -4.15944 0.8306 -0.6831 0.2903 1.580194

-0.3080506 -0.4848525 -0.1040216 0.957456 -9.613801 -1.391058 -0.7807 0.252 0.0314 0.1434661 0.06056292 0.41853 -3.238281 7.988283 -4.15944 0.8306 -0.6831 0.2903 1.580194

-0.2162463 -0.4883431 -0.07225662 0.9594181 -9.416619 -1.428336 -0.78 0.2504 0.0546 0.1434661 0.06056292 0.41853 -3.238281 7.988283 -4.15944 0.8306 -0.6831 0.2903 1.580194

-0.06544985 -0.5703736 -0.03124139 1.071252 -9.217476 -1.519569 -0.78 0.2504 0.0546 0.2420772 0.1516691 0.4417428 -3.284388 8.0236 -4.193775 0.8306 -0.6831 0.2903 1.65672

-0.06544985 -0.5703736 -0.03124139 1.071252 -9.217476 -1.519569 -0.78 0.2504 0.0546 0.236143 0.206996 0.4457571 -3.19806 8.002017 -4.177098 0.815 -0.6921 0.2847 1.65672

-0.1054179 -0.5691519 -0.07819075 1.112454 -9.249849 -1.666719 -0.7953 0.2528 0.0925 0.236143 0.206996 0.4457571 -3.19806 8.002017 -4.177098 0.815 -0.6921 0.2847 1.65672

-0.0577704 -0.5689773 -0.07958701 1.140903 -9.170388 -1.71675 -0.8165 0.2526 0.1249 0.236143 0.206996 0.4457571 -3.19806 8.002017 -4.177098 0.815 -0.6921 0.2847 1.65672

-0.0577704 -0.5689773 -0.07958701 1.140903 -9.170388 -1.71675 -0.8165 0.2526 0.1249 0.236143 0.206996 0.4457571 -3.19806 8.002017 -4.177098 0.815 -0.6921 0.2847 1.723848

0.02303835 -0.5970771 -0.1019272 1.189953 -9.177256 -1.782477 -0.8165 0.2526 0.1249 0.236143 0.206996 0.4457571 -3.19806 8.002017 -4.177098 0.815 -0.6921 0.2847 1.723848

0.02303835 -0.5970771 -0.1019272 1.189953 -9.177256 -1.782477 -0.8165 0.2526 0.1249 0.1872738 0.2061234 0.4382522 -3.015594 7.960815 -4.127067 0.8004 -0.7043 0.287 1.723848

0.1048943 -0.631111 -0.1075123 1.229193 -9.230229 -1.890387 -0.8386 0.2525 0.1402 0.1872738 0.2061234 0.4382522 -3.015594 7.960815 -4.127067 0.8004 -0.7043 0.287 1.723848

0.1048943 -0.631111 -0.1075123 1.229193 -9.230229 -1.890387 -0.8386 0.2525 0.1402 0.1872738 0.2061234 0.4382522 -3.015594 7.960815 -4.127067 0.8004 -0.7043 0.287 1.788291

0.1048943 -0.631111 -0.1075123 1.229193 -9.230229 -1.890387 -0.8386 0.2525 0.1402 0.1872738 0.2061234 0.4382522 -3.015594 7.960815 -4.127067 0.8004 -0.7043 0.287 1.788291

0.03403392 -0.6714282 -0.1553343 1.31454 -9.421524 -2.005164 -0.8386 0.2525 0.1402 0.1872738 0.2061234 0.4382522 -3.015594 7.960815 -4.127067 0.8004 -0.7043 0.287 1.788291

-0.01832596 -0.6454228 -0.1921608 1.239984 -9.551016 -2.043423 -0.853 0.2568 0.1545 -0.01256637 0.37926 0.5749114 -2.179782 7.56351 -3.923019 0.7328 -0.7431 0.3682 1.788291

0.1766273 -0.7944739 -0.1569051 1.355742 -9.40779 -1.94238 -0.853 0.2568 0.1545 -0.1246165 0.357967 0.5609488 -1.992411 7.589016 -3.98286 0.6973 -0.7677 0.3836 1.858104

0.1766273 -0.7944739 -0.1569051 1.355742 -9.40779 -1.94238 -0.853 0.2568 0.1545 -0.1246165 0.357967 0.5609488 -1.992411 7.589016 -3.98286 0.6973 -0.7677 0.3836 1.858104

0.2577851 -0.8358381 -0.1691224 1.31454 -9.483328 -1.91295 -0.8738 0.2724 0.1729 -0.1246165 0.357967 0.5609488 -1.992411 7.589016 -3.98286 0.6973 -0.7677 0.3836 1.858104

0.1275836 -0.8580039 -0.241379 1.318464 -9.686395 -1.910988 -0.8738 0.2724 0.1729 -0.2007129 0.3427826 0.5529203 -1.861938 7.659648 -4.068207 0.6973 -0.7677 0.3836 1.858104

0.07539823 -0.8785987 -0.2211332 1.567638 -9.676584 -1.933551 -0.8798 0.2722 0.2601 -0.2007129 0.3427826 0.5529203 -1.861938 7.659648 -4.068207 0.6973 -0.7677 0.3836 1.935973

0.07539823 -0.8785987 -0.2211332 1.567638 -9.676584 -1.933551 -0.8798 0.2722 0.2601 -0.2146755 0.3724533 0.5499532 -1.807002 7.726356 -4.144725 0.6574 -0.7804 0.3829 1.935973

0.07539823 -0.8785987 -0.2211332 1.567638 -9.676584 -1.933551 -0.8798 0.2722 0.2601 -0.2146755 0.3724533 0.5499532 -1.807002 7.726356 -4.144725 0.6574 -0.7804 0.3829 1.935973

0.02600541 -0.890467 -0.2467896 1.624536 -9.676584 -1.988487 -0.8798 0.2722 0.2601 -0.2146755 0.3724533 0.5499532 -1.807002 7.726356 -4.144725 0.6574 -0.7804 0.3829 1.935973

0.06684611 -0.8885471 -0.2511529 1.612764 -9.595161 -2.008107 -0.88 0.2654 0.282 -0.2146755 0.3724533 0.5499532 -1.807002 7.726356 -4.144725 0.6574 -0.7804 0.3829 1.99236

0.0970403 -0.8283333 -0.2789036 1.562733 -9.502947 -2.033613 -0.88 0.2654 0.282 -0.2146755 0.3724533 0.5499532 -1.807002 7.726356 -4.144725 0.6574 -0.7804 0.3829 1.99236

0.0970403 -0.8283333 -0.2789036 1.562733 -9.502947 -2.033613 -0.88 0.2654 0.282 -0.2146755 0.3724533 0.5499532 -1.807002 7.726356 -4.144725 0.6574 -0.7804 0.3829 1.99236

0.1820378 -0.8686504 -0.2516765 1.661814 -9.3195 -2.088549 -0.8857 0.2628 0.2904 -0.2146755 0.3724533 0.5499532 -1.807002 7.726356 -4.144725 0.6574 -0.7804 0.3829 1.99236

0.2528982 -0.8592256 -0.2260201 1.654947 -9.27928 -2.119941 -0.8857 0.2628 0.2904 -0.2146755 0.3724533 0.5499532 -1.807002 7.726356 -4.144725 0.6574 -0.7804 0.3829 2.047405

0.2528982 -0.8592256 -0.2260201 1.654947 -9.27928 -2.119941 -0.8857 0.2628 0.2904 -0.2146755 0.3724533 0.5499532 -1.807002 7.726356 -4.144725 0.6574 -0.7804 0.3829 2.047405

0.2939135 -0.8147197 -0.2457424 1.682415 -9.248868 -2.104245 -0.9008 0.259 0.3105 -0.2146755 0.3724533 0.5499532 -1.807002 7.726356 -4.144725 0.6574 -0.7804 0.3829 2.047405

0.280998 -0.8136725 -0.2979277 1.761876 -9.278298 -2.105226 -0.9008 0.259 0.3105 -0.2146755 0.3724533 0.5499532 -1.807002 7.726356 -4.144725 0.6574 -0.7804 0.3829 2.047405

0.280998 -0.8136725 -0.2979277 1.761876 -9.278298 -2.105226 -0.9008 0.259 0.3105 -0.2146755 0.3724533 0.5499532 -1.807002 7.726356 -4.144725 0.6574 -0.7804 0.3829 2.08634

0.2530727 -0.798139 -0.3473205 1.778553 -9.36757 -2.162124 -0.9036 0.2534 0.3323 -0.2146755 0.3724533 0.5499532 -1.807002 7.726356 -4.144725 0.6574 -0.7804 0.3829 2.08634

0.2408554 -0.779115 -0.4310963 1.847223 -9.335196 -2.242566 -0.8984 0.242 0.3433 -0.2146755 0.3724533 0.5499532 -1.807002 7.726356 -4.144725 0.6574 -0.7804 0.3829 2.08634

0.2408554 -0.779115 -0.4310963 1.847223 -9.335196 -2.242566 -0.8984 0.242 0.3433 -0.2146755 0.3724533 0.5499532 -1.807002 7.726356 -4.144725 0.6574 -0.7804 0.3829 2.08634

0.2417281 -0.7356563 -0.3530801 1.857033 -9.271432 -2.311236 -0.8984 0.242 0.3433 -0.2146755 0.3724533 0.5499532 -1.807002 7.726356 -4.144725 0.6574 -0.7804 0.3829 2.093053

0.3968879 -0.7824311 -0.2075197 1.954152 -9.137034 -2.276901 -0.8969 0.2297 0.3565 -0.2146755 0.3724533 0.5499532 -1.807002 7.726356 -4.144725 0.6574 -0.7804 0.3829 2.093053

0.3968879 -0.7824311 -0.2075197 1.954152 -9.137034 -2.276901 -0.8969 0.2297 0.3565 -0.2146755 0.3724533 0.5499532 -1.807002 7.726356 -4.144725 0.6574 -0.7804 0.3829 2.093053

0.3968879 -0.7824311 -0.2075197 1.954152 -9.137034 -2.276901 -0.8969 0.2297 0.3565 -0.03612831 0.705462 0.431969 -1.70694 8.20116 -4.308552 0.6246 -0.7897 0.3872 2.093053

0.3968879 -0.7824311 -0.2075197 1.954152 -9.137034 -2.276901 -0.8969 0.2297 0.3565 -0.03612831 0.705462 0.431969 -1.70694 8.20116 -4.308552 0.6246 -0.7897 0.3872 2.103793

0.3968879 -0.7824311 -0.2075197 1.954152 -9.137034 -2.276901 -0.8969 0.2297 0.3565 -0.03612831 0.705462 0.431969 -1.70694 8.20116 -4.308552 0.6246 -0.7897 0.3872 2.103793

0.2103122 -0.8801695 -0.03036873 1.713807 -9.613801 -2.143485 -0.9127 0.23 0.3941 -0.03612831 0.705462 0.431969 -1.70694 8.20116 -4.308552 0.6246 -0.7897 0.3872 2.103793

0.1448623 -0.8314748 -0.08569566 1.631403 -9.76095 -2.061081 -0.9127 0.23 0.3941 -0.03612831 0.705462 0.431969 -1.70694 8.20116 -4.308552 0.6246 -0.7897 0.3872 2.103793

0.1448623 -0.8314748 -0.08569566 1.631403 -9.76095 -2.061081 -0.9127 0.23 0.3941 -0.03612831 0.705462 0.431969 -1.70694 8.20116 -4.308552 0.6246 -0.7897 0.3872 2.098423

0.02129302 -0.8244936 -0.2281145 1.555866 -9.938512 -2.007126 -0.9176 0.234 0.4016 -0.03612831 0.705462 0.431969 -1.70694 8.20116 -4.308552 0.6246 -0.7897 0.3872 2.098423

0.07295476 -0.8007571 -0.2707006 1.490139 -9.865917 -1.959057 -0.9162 0.2317 0.4172 -0.03612831 0.705462 0.431969 -1.70694 8.20116 -4.308552 0.6246 -0.7897 0.3872 2.098423

0.07295476 -0.8007571 -0.2707006 1.490139 -9.865917 -1.959057 -0.9162 0.2317 0.4172 -0.03612831 0.705462 0.431969 -1.70694 8.20116 -4.308552 0.6246 -0.7897 0.3872 2.098423

0.153938 -0.6764896 -0.1345649 1.503873 -9.657946 -1.964943 -0.9162 0.2317 0.4172 -0.03612831 0.705462 0.431969 -1.70694 8.20116 -4.308552 0.6246 -0.7897 0.3872 2.098423

0.153938 -0.6764896 -0.1345649 1.503873 -9.657946 -1.964943 -0.9162 0.2317 0.4172 -0.03612831 0.705462 0.431969 -1.70694 8.20116 -4.308552 0.6246 -0.7897 0.3872 2.09708

0.3183481 -0.5729916 0.09285152 1.607859 -9.492156 -1.886463 -0.922 0.2272 0.4461 -0.03612831 0.705462 0.431969 -1.70694 8.20116 -4.308552 0.6246 -0.7897 0.3872 2.09708

0.1822124 -0.5789257 0.01204277 1.721655 -9.840412 -1.822698 -0.922 0.2272 0.4461 -0.03612831 0.705462 0.431969 -1.70694 8.20116 -4.308552 0.6246 -0.7897 0.3872 2.09708

0.1822124 -0.5789257 0.01204277 1.721655 -9.840412 -1.822698 -0.922 0.2272 0.4461 -0.03612831 0.705462 0.431969 -1.70694 8.20116 -4.308552 0.6246 -0.7897 0.3872 2.09708

0.09075712 -0.7147123 -0.1820378 1.675548 -10.21908 -1.658871 -0.9147 0.2371 0.4661 -0.03612831 0.705462 0.431969 -1.70694 8.20116 -4.308552 0.6246 -0.7897 0.3872 2.076942

-0.01658063 -0.7993608 -0.3712315 1.552923 -10.49474 -1.62846 -0.9147 0.2371 0.4661 -0.03612831 0.705462 0.431969 -1.70694 8.20116 -4.308552 0.6246 -0.7897 0.3872 2.076942

-0.01658063 -0.7993608 -0.3712315 1.552923 -10.49474 -1.62846 -0.9147 0.2371 0.4661 -0.03612831 0.705462 0.431969 -1.70694 8.20116 -4.308552 0.6246 -0.7897 0.3872 2.076942

-0.09285152 -0.7489208 -0.4422664 1.440108 -10.48199 -1.756971 -0.8876 0.2375 0.4739 -0.03612831 0.705462 0.431969 -1.70694 8.20116 -4.308552 0.6246 -0.7897 0.3872 2.076942

-0.0705113 -0.5969026 -0.4078835 1.404792 -10.22693 -1.972791 -0.8876 0.2375 0.4739 -0.03612831 0.705462 0.431969 -1.70694 8.20116 -4.308552 0.6246 -0.7897 0.3872 2.058146

-0.0705113 -0.5969026 -0.4078835 1.404792 -10.22693 -1.972791 -0.8876 0.2375 0.4739 -0.03612831 0.705462 0.431969 -1.70694 8.20116 -4.308552 0.6246 -0.7897 0.3872 2.058146

0.08779006 -0.6075491 -0.3741986 1.593144 -9.883576 -2.150352 -0.882 0.2307 0.4856 -0.03612831 0.705462 0.431969 -1.70694 8.20116 -4.308552 0.6246 -0.7897 0.3872 2.058146

0.08779006 -0.6075491 -0.3741986 1.593144 -9.883576 -2.150352 -0.882 0.2307 0.4856 -0.03612831 0.705462 0.431969 -1.70694 8.20116 -4.308552 0.6246 -0.7897 0.3872 2.058146

0.08779006 -0.6075491 -0.3741986 1.593144 -9.883576 -2.150352 -0.882 0.2307 0.4856 -0.03612831 0.705462 0.431969 -1.70694 8.20116 -4.308552 0.6246 -0.7897 0.3872 2.021897

0.3991568 -0.4557055 -0.326202 1.405773 -9.429373 -2.270034 -0.8821 0.2162 0.5148 -0.03612831 0.705462 0.431969 -1.70694 8.20116 -4.308552 0.6246 -0.7897 0.3872 2.021897

0.4288274 -0.3836234 -0.2359685 1.332198 -9.400924 -2.235699 -0.8883 0.2038 0.5105 -0.1403245 1.112647 -0.3761185 -0.34335 8.600428 -3.742515 0.4709 -0.8789 0.4355 2.021897

0.4288274 -0.3836234 -0.2359685 1.332198 -9.400924 -2.235699 -0.8883 0.2038 0.5105 -0.1403245 1.112647 -0.3761185 -0.34335 8.600428 -3.742515 0.4709 -0.8789 0.4355 2.021897

0.3911283 -0.3251548 -0.1366593 1.308654 -9.408772 -2.17782 -0.8883 0.2038 0.5105 -0.1403245 1.112647 -0.3761185 -0.34335 8.600428 -3.742515 0.4709 -0.8789 0.4355 1.98162

0.3295181 -0.2396337 -0.08080874 1.355742 -9.432315 -2.142504 -0.9012 0.1921 0.4961 -0.1403245 1.112647 -0.3761185 -0.34335 8.600428 -3.742515 0.4709 -0.8789 0.4355 1.98162

0.3295181 -0.2396337 -0.08080874 1.355742 -9.432315 -2.142504 -0.9012 0.1921 0.4961 -0.1403245 1.112647 -0.3761185 -0.34335 8.600428 -3.742515 0.4709 -0.8789 0.4355 1.98162

0.2837905 -0.2427753 -0.08464847 1.394001 -9.523548 -2.065986 -0.9012 0.1921 0.4961 -0.4614651 0.9238028 -0.9847147 0.134397 9.104661 -2.019879 0.4532 -0.8699 0.473 1.98162

0.2569125 -0.2342232 -0.1136209 1.406754 -9.650097 -2.004183 -0.9123 0.2077 0.4866 -0.4614651 0.9238028 -0.9847147 0.134397 9.104661 -2.019879 0.4532 -0.8699 0.473 1.93463

0.2569125 -0.2342232 -0.1136209 1.406754 -9.650097 -2.004183 -0.9123 0.2077 0.4866 -0.4614651 0.9238028 -0.9847147 0.134397 9.104661 -2.019879 0.4532 -0.8699 0.473 1.93463

0.1841322 -0.1918117 -0.1019272 1.544094 -9.727596 -1.962981 -0.9102 0.2184 0.4908 -0.4614651 0.9238028 -0.9847147 0.134397 9.104661 -2.019879 0.4532 -0.8699 0.473 1.93463

0.08237953 -0.1734857 -0.07347836 2.014974 -9.697186 -1.885482 -0.9102 0.2184 0.4908 -0.4614651 0.9238028 -0.9847147 0.134397 9.104661 -2.019879 0.4532 -0.8699 0.473 1.93463

0.08237953 -0.1734857 -0.07347836 2.014974 -9.697186 -1.885482 -0.9102 0.2184 0.4908 -0.4614651 0.9238028 -0.9847147 0.134397 9.104661 -2.019879 0.4532 -0.8699 0.473 1.872873

0.1926844 -0.2764601 0.01727876 2.522151 -9.480385 -1.768743 -0.924 0.2139 0.5026 -0.4614651 0.9238028 -0.9847147 0.134397 9.104661 -2.019879 0.4532 -0.8699 0.473 1.872873

0.2591814 -0.3188716 0.01099557 2.639871 -9.379341 -1.705959 -0.924 0.2139 0.5026 -0.4614651 0.9238028 -0.9847147 0.134397 9.104661 -2.019879 0.4532 -0.8699 0.473 1.872873

0.2591814 -0.3188716 0.01099557 2.639871 -9.379341 -1.705959 -0.924 0.2139 0.5026 -0.4614651 0.9238028 -0.9847147 0.134397 9.104661 -2.019879 0.4532 -0.8699 0.473 1.872873

0.3412119 -0.3656465 -0.03525565 2.509398 -9.489213 -1.674567 -0.9383 0.2121 0.4947 -0.4614651 0.9238028 -0.9847147 0.134397 9.104661 -2.019879 0.4532 -0.8699 0.473 1.776208

0.3412119 -0.3656465 -0.03525565 2.509398 -9.489213 -1.674567 -0.9383 0.2121 0.4947 -0.4614651 0.9238028 -0.9847147 0.134397 9.104661 -2.019879 0.4532 -0.8699 0.473 1.776208

0.2378884 -0.2898992 -0.1815142 2.214117 -9.732501 -1.72656 -0.9383 0.2121 0.4947 -0.4614651 0.9238028 -0.9847147 0.134397 9.104661 -2.019879 0.4532 -0.8699 0.473 1.776208

0.2378884 -0.2898992 -0.1815142 2.214117 -9.732501 -1.72656 -0.9383 0.2121 0.4947 -0.4614651 0.9238028 -0.9847147 0.134397 9.104661 -2.019879 0.4532 -0.8699 0.473 1.776208

0.2378884 -0.2898992 -0.1815142 2.214117 -9.732501 -1.72656 -0.9383 0.2121 0.4947 -0.4614651 0.9238028 -0.9847147 0.134397 9.104661 -2.019879 0.4532 -0.8699 0.473 1.674174

0.2378884 -0.2898992 -0.1815142 2.214117 -9.732501 -1.72656 -0.9383 0.2121 0.4947 -0.4614651 0.9238028 -0.9847147 0.134397 9.104661 -2.019879 0.4532 -0.8699 0.473 1.674174

-0.1972222 -0.1148427 -0.1469567 1.741275 -10.10332 -2.059119 -0.8945 0.2008 0.4625 -0.4614651 0.9238028 -0.9847147 0.134397 9.104661 -2.019879 0.4532 -0.8699 0.473 1.674174

-0.06318092 -0.1361357 -0.06073746 1.743237 -9.788419 -2.045385 -0.8945 0.2008 0.4625 0.1724385 0.5604252 -1.062033 -2.253357 9.839431 -1.872729 0.6107 -0.7313 0.4749 1.674174

-0.06318092 -0.1361357 -0.06073746 1.743237 -9.788419 -2.045385 -0.8945 0.2008 0.4625 0.1724385 0.5604252 -1.062033 -2.253357 9.839431 -1.872729 0.6107 -0.7313 0.4749 1.574824

0.0008726646 0.007330383 0.03106686 1.44207 -9.706995 -2.143485 -0.8838 0.1943 0.462 0.1724385 0.5604252 -1.062033 -2.253357 9.839431 -1.872729 0.6107 -0.7313 0.4749 1.574824

-0.09442231 0.2021091 0.01448623 1.208592 -9.732501 -2.240604 -0.8838 0.1943 0.462 0.1724385 0.5604252 -1.062033 -2.253357 9.839431 -1.872729 0.6107 -0.7313 0.4749 1.574824

-0.09442231 0.2021091 0.01448623 1.208592 -9.732501 -2.240604 -0.8838 0.1943 0.462 0.1724385 0.5604252 -1.062033 -2.253357 9.839431 -1.872729 0.6107 -0.7313 0.4749 1.574824

-0.001047197 0.1792453 0.0127409 1.286091 -9.538263 -2.179782 -0.8743 0.176 0.472 0.1724385 0.5604252 -1.062033 -2.253357 9.839431 -1.872729 0.6107 -0.7313 0.4749 1.47816

0.1118756 0.1785472 0.07435103 1.289034 -9.444087 -2.239623 -0.8743 0.176 0.472 0.1724385 0.5604252 -1.062033 -2.253357 9.839431 -1.872729 0.6107 -0.7313 0.4749 1.47816

0.1118756 0.1785472 0.07435103 1.289034 -9.444087 -2.239623 -0.8743 0.176 0.472 0.1612684 0.4284783 -0.9930924 -2.504493 9.343044 -1.741275 0.6649 -0.7242 0.4687 1.47816

0.1652827 0.3483677 0.1391027 1.133055 -9.370513 -2.21706 -0.884 0.1668 0.4687 0.1612684 0.4284783 -0.9930924 -2.504493 9.343044 -1.741275 0.6649 -0.7242 0.4687 1.47816

0.1740093 0.4358087 0.1884956 1.110492 -9.519624 -2.107188 -0.884 0.1668 0.4687 0.1612684 0.4284783 -0.9930924 -2.377944 9.27928 -1.72656 0.7018 -0.6952 0.473 1.392236

0.1740093 0.4358087 0.1884956 1.110492 -9.519624 -2.107188 -0.884 0.1668 0.4687 0.1612684 0.4284783 -0.9930924 -2.377944 9.27928 -1.72656 0.7018 -0.6952 0.473 1.392236

0.2539454 0.4359832 0.2106612 0.925083 -9.646173 -1.924722 -0.8935 0.1665 0.4457 0.08552113 0.03595378 -0.8161159 -3.085245 8.640649 -1.780515 0.7661 -0.5792 0.4967 1.392236

0.2392846 0.3991568 0.2010619 0.828945 -9.881614 -1.719693 -0.9011 0.1653 0.4217 -0.02216568 -0.09389871 -0.8018042 -3.236319 8.490555 -1.725579 0.7661 -0.5792 0.4967 1.392236

0.2392846 0.3991568 0.2010619 0.828945 -9.881614 -1.719693 -0.9011 0.1653 0.4217 -0.02216568 -0.09389871 -0.8018042 -3.236319 8.490555 -1.725579 0.7661 -0.5792 0.4967 1.31034

-0.005235988 0.3155555 0.1637119 0.9859051 -10.21712 -1.604916 -0.9011 0.1653 0.4217 0.1729621 0.05654867 -0.6265732 -4.173174 8.250211 -2.093454 0.824 -0.4856 0.5378 1.31034

-0.249233 0.275762 0.1230457 1.068309 -10.33385 -1.625517 -0.888 0.1693 0.4049 0.1729621 0.05654867 -0.6265732 -4.173174 8.250211 -2.093454 0.824 -0.4856 0.5378 1.31034

-0.1083849 0.350113 0.1893682 0.798534 -10.04053 -1.565676 -0.888 0.1693 0.4049 0.2026327 0.07644542 -0.5904449 -4.376241 8.100117 -2.113074 0.824 -0.4856 0.5378 1.248582

-0.1083849 0.350113 0.1893682 0.798534 -10.04053 -1.565676 -0.888 0.1693 0.4049 0.1336922 0.05951573 -0.604233 -4.417443 7.862716 -2.222946 0.8418 -0.4433 0.53 1.248582

-0.07295476 0.4087561 0.1315978 0.770085 -9.861994 -1.577448 -0.8573 0.1655 0.3738 0.09651671 -0.01117011 -0.5808455 -4.30659 7.7499 -2.243547 0.8418 -0.4433 0.53 1.248582

-0.07295476 0.4087561 0.1315978 0.770085 -9.861994 -1.577448 -0.8573 0.1655 0.3738 0.09651671 -0.01117011 -0.5808455 -4.30659 7.7499 -2.243547 0.8418 -0.4433 0.53 1.248582

0.1476549 0.1282817 0.2050762 1.312578 -9.341083 -1.603935 -0.8444 0.1779 0.3373 0.02076942 -0.1781981 -0.5180137 -4.311495 7.707717 -2.117979 0.8531 -0.4181 0.5317 1.193537

0.1476549 0.1282817 0.2050762 1.312578 -9.341083 -1.603935 -0.8444 0.1779 0.3373 -0.04206244 -0.2885029 -0.4539602 -4.543992 7.629237 -2.045385 0.8531 -0.4181 0.5317 1.193537

0.1185079 0.225322 0.2839651 1.034955 -9.403866 -1.624536 -0.8444 0.1779 0.3373 -0.04206244 -0.2885029 -0.4539602 -4.543992 7.629237 -2.045385 0.8531 -0.4181 0.5317 1.193537

0.1185079 0.225322 0.2839651 1.034955 -9.403866 -1.624536 -0.8444 0.1779 0.3373 0.005235988 -0.2789036 -0.4831071 -4.841235 7.597846 -2.108169 0.8669 -0.3937 0.5231 1.193537

0.02059488 0.3085742 0.294088 0.734769 -9.601048 -1.548018 -0.8342 0.1771 0.3191 0.005235988 -0.2789036 -0.4831071 -4.841235 7.597846 -2.108169 0.8669 -0.3937 0.5231 1.141177

-0.1041962 0.2548181 0.2019346 0.6690421 -9.774684 -1.476405 -0.84 0.1749 0.3018 0.005235988 -0.2789036 -0.4831071 -4.841235 7.597846 -2.108169 0.8669 -0.3937 0.5231 1.141177

-0.1041962 0.2548181 0.2019346 0.6690421 -9.774684 -1.476405 -0.84 0.1749 0.3018 0.03036873 -0.09791297 -0.2035054 -5.067846 7.361424 -2.195478 0.8854 -0.3515 0.5215 1.141177

-0.1534144 0.2673844 0.1919862 0.591543 -9.745255 -1.38321 -0.84 0.1749 0.3018 0.03036873 -0.09791297 -0.2035054 -5.067846 7.361424 -2.195478 0.8854 -0.3515 0.5215 1.141177

-0.1677261 0.3070034 0.1542871 0.50031 -9.618705 -1.290015 -0.8097 0.1655 0.2991 0.02408554 -0.1261873 -0.180467 -5.095314 7.251552 -2.123865 0.8877 -0.3226 0.5211 1.102243

-0.1677261 0.3070034 0.1542871 0.50031 -9.618705 -1.290015 -0.8097 0.1655 0.2991 0.02408554 -0.1261873 -0.180467 -5.095314 7.251552 -2.123865 0.8877 -0.3226 0.5211 1.102243

-0.04049164 0.2523746 0.1942551 0.485595 -9.371493 -1.171314 -0.8097 0.1655 0.2991 0.0884882 -0.01012291 -0.1698205 -5.205186 7.271172 -2.213136 0.8877 -0.3226 0.5211 1.102243

0.01012291 0.2370157 0.2525491 0.447336 -9.366589 -1.084986 -0.7935 0.1602 0.2952 0.1260128 0.06265732 -0.148353 -5.333697 7.280001 -2.287692 0.8887 -0.3094 0.5111 1.102243

-0.02722714 0.1975713 0.2062979 0.430659 -9.487251 -1.06929 -0.7935 0.1602 0.2952 0.1141445 0.07365289 -0.07522369 -5.432778 7.236837 -2.259243 0.8887 -0.3094 0.5111 1.065993

-0.02722714 0.1975713 0.2062979 0.430659 -9.487251 -1.06929 -0.7935 0.1602 0.2952 0.1141445 0.07365289 -0.07522369 -5.432778 7.236837 -2.259243 0.8887 -0.3094 0.5111 1.065993

-0.05585054 0.09424778 0.1438151 0.439488 -9.656964 -1.092834 -0.799 0.169 0.281 0.08080874 0.04747296 0.01012291 -5.450436 7.15149 -2.204307 0.9024 -0.3089 0.5166 1.065993

0.0153589 0.108734 0.1963495 0.36297 -9.688356 -1.080081 -0.799 0.169 0.281 -0.00837758 0.0001745329 0.0418879 -5.399425 6.968044 -2.204307 0.9024 -0.3089 0.5166 1.065993

0.0153589 0.108734 0.1963495 0.36297 -9.688356 -1.080081 -0.799 0.169 0.281 -0.1054179 -0.1015782 0.03281219 -5.351355 6.862095 -2.164086 0.915 -0.2975 0.5306 1.047198

0.10088 0.1050688 0.2295108 0.379647 -9.723672 -1.029069 -0.7894 0.1881 0.2744 -0.1054179 -0.1015782 0.03281219 -5.351355 6.862095 -2.164086 0.915 -0.2975 0.5306 1.047198

0.09721484 0.08970992 0.2247984 0.409077 -9.822753 -0.9859051 -0.7795 0.196 0.2716 -0.09721484 -0.09162979 0.0296706 -5.368032 6.936651 -2.135637 0.915 -0.2975 0.5306 1.047198

0.06108652 0.004886922 0.169646 0.515025 -9.942435 -0.897615 -0.7795 0.196 0.2716 -0.09721484 -0.09162979 0.0296706 -5.368032 6.936651 -2.135637 0.915 -0.2975 0.5306 1.047198

0.06108652 0.004886922 0.169646 0.515025 -9.942435 -0.897615 -0.7795 0.196 0.2716 -0.02251475 -0.01448623 0.01780236 -5.497524 7.029846 -2.181744 0.916 -0.2835 0.5227 1.0378

-0.06248279 -0.06387905 0.09110618 0.6572701 -10.09155 -0.870147 -0.7834 0.1977 0.268 -0.02251475 -0.01448623 0.01780236 -5.497524 7.029846 -2.181744 0.916 -0.2835 0.5227 1.0378

-0.1288053 -0.09581857 0.1089085 0.664137 -10.13177 -0.910368 -0.7834 0.1977 0.268 -0.003839724 0.05270894 0.01134464 -5.698629 7.089687 -2.228832 0.916 -0.2835 0.5227 1.0378

-0.1176352 -0.1024508 0.1314233 0.6356881 -10.10332 -0.9859051 -0.7858 0.1942 0.2582 0.0001745329 0.1043707 0.01413717 -5.879134 7.124022 -2.239623 0.9231 -0.2798 0.5123 1.0378

-0.1176352 -0.1024508 0.1314233 0.6356881 -10.10332 -0.9859051 -0.7858 0.1942 0.2582 0.05532694 0.1516691 0.02268928 -5.981157 7.174053 -2.277882 0.9231 -0.2798 0.5123 1.031087

-0.02111848 -0.1104793 0.1345649 0.6749281 -9.991486 -1.042803 -0.7858 0.1942 0.2582 0.05532694 0.1516691 0.02268928 -5.981157 7.174053 -2.277882 0.9231 -0.2798 0.5123 1.031087

0.3785619 -0.187972 -0.4276057 0.677871 -10.52417 -1.091853 -0.7815 0.1876 0.2516 -0.02600541 0.07976155 0.002792527 -5.953689 7.139719 -2.29554 0.9309 -0.2829 0.5223 1.031087

0.3785619 -0.187972 -0.4276057 0.677871 -10.52417 -1.091853 -0.7815 0.1876 0.2516 -0.1172861 -0.007330383 -0.0005235987 -5.841855 7.010227 -2.18763 0.9309 -0.2829 0.5223 1.031087

-0.03263766 0.009948377 -0.05532694 0.537588 -10.74097 -1.224288 -0.7815 0.1876 0.2516 -0.1172861 -0.007330383 -0.0005235987 -5.841855 7.010227 -2.18763 0.9309 -0.2829 0.5223 1.029744

-0.1654572 0.008726646 0.02268928 0.5964481 -10.46923 -1.160523 -0.7631 0.1959 0.2362 -0.1172861 -0.007330383 -0.0005235987 -5.841855 7.010227 -2.18763 0.9309 -0.2829 0.5223 1.029744

-0.1654572 0.008726646 0.02268928 0.5964481 -10.46923 -1.160523 -0.7631 0.1959 0.2362 -0.07487462 0.06632251 -0.04206244 -5.9841 7.133832 -2.328894 0.9064 -0.3151 0.5239 1.029744

-0.1963495 -0.0541052 -0.0408407 0.646479 -10.1818 -1.05948 -0.7601 0.2172 0.213 -0.07487462 0.06632251 -0.04206244 -5.9841 7.133832 -2.328894 0.9064 -0.3151 0.5239 1.029744

-0.1963495 -0.0541052 -0.0408407 0.646479 -10.1818 -1.05948 -0.7601 0.2172 0.213 0.02513274 0.1797689 -0.03403392 -6.025302 7.17111 -2.379906 0.9144 -0.3159 0.5361 1.029744

-0.1963495 -0.0541052 -0.0408407 0.646479 -10.1818 -1.05948 -0.7601 0.2172 0.213 0.02513274 0.1797689 -0.03403392 -6.025302 7.17111 -2.379906 0.9144 -0.3159 0.5361 1.029744

-0.1963495 -0.0541052 -0.0408407 0.646479 -10.1818 -1.05948 -0.7601 0.2172 0.213 0.01832596 0.2101376 -0.0122173 -6.059637 7.107345 -2.259243 0.9144 -0.3159 0.5361 1.029744

-0.08604473 -0.3862413 0.2963569 0.721035 -9.679527 -1.277262 -0.7725 0.2066 0.2447 -0.05480334 0.1288053 0.002792527 -5.96448 7.010227 -2.132694 0.9179 -0.3028 0.5506 1.029744

-0.08604473 -0.3862413 0.2963569 0.721035 -9.679527 -1.277262 -0.7725 0.2066 0.2447 -0.08813913 0.06143559 -0.01797689 -5.802615 6.919974 -2.095416 0.9179 -0.3028 0.5506 1.029744

0.1010546 0.1108284 0.1996657 0.336483 -9.732501 -1.960038 -0.7725 0.2066 0.2447 -0.08813913 0.06143559 -0.01797689 -5.802615 6.919974 -2.095416 0.9179 -0.3028 0.5506 1.029744

0.09128072 0.06108652 0.2398082 0.548379 -9.720729 -2.059119 -0.7748 0.2013 0.2621 -0.08552113 0.05497787 -0.02129302 -5.734926 6.859152 -2.067948 0.9033 -0.2849 0.5498 1.029744

0.09128072 0.06108652 0.2398082 0.548379 -9.720729 -2.059119 -0.7748 0.2013 0.2621 -0.1064651 -0.0827286 0.02338741 -5.624074 6.905259 -1.959057 0.9033 -0.2849 0.5498 1.029744

-0.001396263 -0.03351032 0.1556834 0.507177 -9.803133 -1.703016 -0.7748 0.2013 0.2621 -0.1064651 -0.0827286 0.02338741 -5.624074 6.905259 -1.959057 0.9033 -0.2849 0.5498 1.029744

-0.001396263 -0.03351032 0.1556834 0.507177 -9.803133 -1.703016 -0.7748 0.2013 0.2621 -0.1387537 -0.1731367 0.05166174 -5.55246 6.966081 -1.969848 0.9 -0.2714 0.5332 1.029744

-0.02740167 0.05462881 0.1312488 0.296262 -9.800191 -1.415583 -0.7786 0.1934 0.2935 -0.2298599 -0.2617994 -0.00593412 -5.589738 6.968044 -2.025765 0.9 -0.2714 0.5332 1.029744

0.01151917 0.01832596 0.1619665 0.318825 -9.791361 -1.339065 -0.7768 0.1998 0.2904 -0.2298599 -0.2617994 -0.00593412 -5.589738 6.968044 -2.025765 0.9 -0.2714 0.5332 1.029744

0.03822271 0.06841691 0.2206096 0.293319 -9.758008 -1.433241 -0.7768 0.1998 0.2904 -0.225322 -0.2340486 -0.03996804 -5.731002 7.057314 -2.067948 0.9029 -0.2746 0.5122 1.028402

0.03822271 0.06841691 0.2206096 0.293319 -9.758008 -1.433241 -0.7768 0.1998 0.2904 -0.1185079 -0.07871436 -0.02251475 -6.034132 7.18975 -2.075796 0.9029 -0.2746 0.5122 1.028402

-0.05340707 0.09756391 0.1668535 0.267813 -9.941454 -1.367514 -0.7635 0.2063 0.2675 -0.1185079 -0.07871436 -0.02251475 -6.034132 7.18975 -2.075796 0.9029 -0.2746 0.5122 1.028402

-0.3675663 0.09477138 0.05742133 0.040221 -10.20338 -1.35378 -0.7635 0.2063 0.2675 -0.1185079 -0.07871436 -0.02251475 -6.034132 7.18975 -2.075796 0.9029 -0.2746 0.5122 1.028402

-0.7859218 0.3775147 0.2012365 -0.288414 -10.27696 -1.788363 -0.7254 0.198 0.2796 -0.1185079 -0.07871436 -0.02251475 -6.034132 7.18975 -2.075796 0.9029 -0.2746 0.5122 1.023031

-0.7859218 0.3775147 0.2012365 -0.288414 -10.27696 -1.788363 -0.7254 0.198 0.2796 -0.05532694 -0.02600541 0.1607448 -5.528916 7.084782 -2.088549 0.9117 -0.2936 0.5143 1.023031

-1.251576 0.2755875 0.0842994 -0.366894 -10.47316 -2.116017 -0.7254 0.198 0.2796 -0.05532694 -0.02600541 0.1607448 -5.528916 7.084782 -2.088549 0.9117 -0.2936 0.5143 1.023031

-1.684068 0.3663446 -0.03333579 -0.709263 -10.4349 -2.150352 -0.7169 0.1907 0.3097 -0.1343904 -0.1487021 0.2378884 -5.184586 7.034751 -2.124846 0.9117 -0.2936 0.5143 1.023031

-1.684068 0.3663446 -0.03333579 -0.709263 -10.4349 -2.150352 -0.7169 0.1907 0.3097 -0.1343904 -0.1487021 0.2378884 -5.184586 7.034751 -2.124846 0.9117 -0.2936 0.5143 1.036457

-1.782679 0.3689626 -0.1802925 -0.7906861 -10.14158 -2.090511 -0.7169 0.1907 0.3097 -0.2431244 -0.2282891 0.2933898 -4.910886 7.000416 -2.156238 0.9145 -0.3002 0.501 1.036457

-1.388235 0.2509784 0.009250244 -0.825021 -9.484308 -2.137599 -0.7236 0.1827 0.3292 -0.2844886 -0.2125811 0.378911 -4.853988 7.040637 -2.07972 0.9145 -0.3002 0.501 1.036457

-1.388235 0.2509784 0.009250244 -0.825021 -9.484308 -2.137599 -0.7236 0.1827 0.3292 -0.148353 -0.01605703 0.5621705 -5.029587 7.185825 -1.945323 0.9134 -0.3005 0.4983 1.036457

-1.110029 0.08901179 0.254469 -0.739674 -9.16254 -2.476044 -0.7236 0.1827 0.3292 -0.148353 -0.01605703 0.5621705 -5.029587 7.185825 -1.945323 0.9134 -0.3005 0.4983 1.098215

-0.9997246 0.2494075 0.476824 -0.9849241 -9.115453 -3.11958 -0.719 0.1739 0.348 -0.03839725 0.153938 0.6768386 -5.293477 7.384968 -1.874691 0.9134 -0.3005 0.4983 1.098215

-0.9997246 0.2494075 0.476824 -0.9849241 -9.115453 -3.11958 -0.719 0.1739 0.348 -0.03839725 0.153938 0.6768386 -5.293477 7.384968 -1.874691 0.9134 -0.3005 0.4983 1.098215

-0.9997246 0.2494075 0.476824 -0.9849241 -9.115453 -3.11958 -0.719 0.1739 0.348 -0.05113815 0.209614 0.7124434 -5.352336 7.439905 -1.878615 0.9018 -0.3119 0.5182 1.098215

-1.095194 1.084024 0.07068584 -1.03986 -9.491175 -4.121181 -0.7276 0.1768 0.3973 -0.1870993 0.04974188 0.7124434 -5.194395 7.364367 -1.847223 0.9018 -0.3119 0.5182 1.181454

-1.095194 1.084024 0.07068584 -1.03986 -9.491175 -4.121181 -0.7276 0.1768 0.3973 -0.3803073 -0.2441716 0.7375761 -4.844178 7.304526 -1.743237 0.8989 -0.3371 0.515 1.181454

-1.198169 0.8417723 0.01972222 -0.655308 -9.529434 -4.175136 -0.7226 0.1726 0.4272 -0.3803073 -0.2441716 0.7375761 -4.844178 7.304526 -1.743237 0.8989 -0.3371 0.515 1.181454

-1.155234 0.7442084 -0.03420845 -0.609201 -9.284184 -4.227129 -0.7226 0.1726 0.4272 -0.3803073 -0.2441716 0.7375761 -4.844178 7.304526 -1.743237 0.8989 -0.3371 0.515 1.181454

-1.155234 0.7442084 -0.03420845 -0.609201 -9.284184 -4.227129 -0.7226 0.1726 0.4272 -0.3803073 -0.2441716 0.7375761 -4.844178 7.304526 -1.743237 0.8989 -0.3371 0.515 1.279461

-1.021541 1.037075 -0.1333431 -0.979038 -9.077193 -4.361526 -0.7338 0.172 0.4543 -0.3803073 -0.2441716 0.7375761 -4.844178 7.304526 -1.743237 0.8989 -0.3371 0.515 1.279461

-0.8916887 1.299049 -0.5255187 -1.140903 -9.11251 -4.539087 -0.7338 0.172 0.4543 -0.4232423 -0.2129302 0.8545132 -4.709781 8.40717 -1.69713 0.8724 -0.4144 0.5049 1.279461

-0.8916887 1.299049 -0.5255187 -1.140903 -9.11251 -4.539087 -0.7338 0.172 0.4543 -0.4232423 -0.2129302 0.8545132 -4.709781 8.40717 -1.69713 0.8724 -0.4144 0.5049 1.279461

-0.5696754 1.072679 -0.9665633 -0.7102441 -8.884917 -4.477284 -0.7352 0.1562 0.4938 -0.150971 0.1190315 1.101652 -4.776489 8.693623 -1.835451 0.8724 -0.4144 0.5049 1.374782

-0.02129302 0.6405358 -1.14895 -0.192276 -8.675964 -4.262445 -0.7697 0.1241 0.5269 -0.150971 0.1190315 1.101652 -4.776489 8.693623 -1.835451 0.8724 -0.4144 0.5049 1.374782

-0.02129302 0.6405358 -1.14895 -0.192276 -8.675964 -4.262445 -0.7697 0.1241 0.5269 -0.150971 0.1190315 1.101652 -4.776489 8.693623 -1.835451 0.8724 -0.4144 0.5049 1.374782

0.4082325 0.1211258 -1.274788 0.351198 -8.628877 -4.191813 -0.7697 0.1241 0.5269 -0.150971 0.1190315 1.101652 -4.776489 8.693623 -1.835451 0.8724 -0.4144 0.5049 1.374782

0.4082325 0.1211258 -1.274788 0.351198 -8.628877 -4.191813 -0.7697 0.1241 0.5269 -0.150971 0.1190315 1.101652 -4.776489 8.693623 -1.835451 0.8724 -0.4144 0.5049 1.476817

0.5742133 -0.4827581 -1.283515 0.878976 -8.639668 -4.244787 -0.8181 0.0952 0.5235 -0.150971 0.1190315 1.101652 -4.776489 8.693623 -1.835451 0.8724 -0.4144 0.5049 1.476817

0.4790929 -0.7195992 -1.206546 1.163466 -8.762292 -4.422348 -0.8181 0.0952 0.5235 -0.150971 0.1190315 1.101652 -4.776489 8.693623 -1.835451 0.8724 -0.4144 0.5049 1.476817

0.4790929 -0.7195992 -1.206546 1.163466 -8.762292 -4.422348 -0.8181 0.0952 0.5235 -0.150971 0.1190315 1.101652 -4.776489 8.693623 -1.835451 0.8724 -0.4144 0.5049 1.476817

0.4790929 -0.7195992 -1.206546 1.163466 -8.762292 -4.422348 -0.8181 0.0952 0.5235 -0.150971 0.1190315 1.101652 -4.776489 8.693623 -1.835451 0.8724 -0.4144 0.5049 1.589592

0.4790929 -0.7195992 -1.206546 1.163466 -8.762292 -4.422348 -0.8181 0.0952 0.5235 -0.150971 0.1190315 1.101652 -4.776489 8.693623 -1.835451 0.8724 -0.4144 0.5049 1.589592

0.3562217 -0.7244861 -1.263618 1.464633 -8.84862 -4.637187 -0.8513 0.0752 0.5324 0.1736602 0.3907792 1.291893 -4.290895 9.049726 -1.895292 0.8586 -0.4543 0.4951 1.589592

0.3562217 -0.7244861 -1.263618 1.464633 -8.84862 -4.637187 -0.8513 0.0752 0.5324 0.2103122 0.4675737 1.308124 -4.290895 9.049726 -1.895292 0.8586 -0.4543 0.4951 1.589592

-0.206647 -0.1389282 -0.7291985 2.750724 -8.259039 -5.76828 -0.958 0.0571 0.5883 0.2103122 0.4675737 1.308124 -4.290895 9.049726 -1.895292 0.8586 -0.4543 0.4951 1.70908

-0.206647 -0.1389282 -0.7291985 2.750724 -8.259039 -5.76828 -0.958 0.0571 0.5883 0.2103122 0.4675737 1.308124 -4.290895 9.049726 -1.895292 0.8586 -0.4543 0.4951 1.70908

0.05742133 -0.1134464 -0.4326671 3.138219 -7.813665 -5.570118 -0.9755 0.0334 0.6069 0.3633775 0.1094321 1.236915 -3.306951 9.207666 -1.43226 0.7653 -0.5672 0.4929 1.70908

0.1410226 -0.3265511 -0.4040437 3.729762 -7.741071 -5.302305 -0.9755 0.0334 0.6069 0.1452114 -0.1069887 1.16588 -2.892969 9.001657 -1.302768 0.7204 -0.603 0.5021 1.70908

0.1410226 -0.3265511 -0.4040437 3.729762 -7.741071 -5.302305 -0.9755 0.0334 0.6069 0.007330383 -0.2420772 1.099034 -2.562372 8.972226 -1.215459 0.7204 -0.603 0.5021 1.70908

0.07644542 -0.572468 -0.5791003 3.941658 -7.797969 -5.044302 -0.9682 0.004 0.6238 0.007330383 -0.2420772 1.099034 -2.562372 8.972226 -1.215459 0.7204 -0.603 0.5021 1.8138

-0.2188643 -0.7595673 -0.7082546 3.711123 -7.905879 -4.778451 -0.9682 0.004 0.6238 0.007330383 -0.2420772 1.099034 -2.562372 8.972226 -1.215459 0.7204 -0.603 0.5021 1.8138

-0.6735225 -0.6876597 -0.7908087 3.381507 -7.762653 -4.646997 -0.9686 -0.0168 0.6456 0.5052728 -0.2612758 1.10776 -1.548999 9.564751 -1.649061 0.6028 -0.7137 0.5453 1.8138

-0.6735225 -0.6876597 -0.7908087 3.381507 -7.762653 -4.646997 -0.9686 -0.0168 0.6456 0.5052728 -0.2612758 1.10776 -1.548999 9.564751 -1.649061 0.6028 -0.7137 0.5453 1.8138

-0.9375909 -0.4710644 -0.6457718 3.311856 -7.378101 -4.67839 -0.9686 -0.0168 0.6456 0.4504695 -0.363203 1.124865 -1.163466 9.470574 -1.682415 0.6028 -0.7137 0.5453 1.8138

-1.28718 -0.2399828 -0.1143191 3.319704 -6.988645 -4.87557 -0.992 -0.0347 0.6828 0.3157301 -0.5129523 1.052259 -0.849546 9.525511 -1.551942 0.577 -0.7231 0.5475 1.8138

-1.28718 -0.2399828 -0.1143191 3.319704 -6.988645 -4.87557 -0.992 -0.0347 0.6828 0.243648 -0.5127777 1.03306 -0.690624 9.731521 -1.455804 0.5559 -0.7321 0.5581 1.8138

-1.29102 -0.2268928 0.2724459 3.542391 -6.500106 -5.074713 -0.9807 -0.0589 0.738 0.243648 -0.5127777 1.03306 -0.690624 9.731521 -1.455804 0.5559 -0.7321 0.5581 1.968194

-1.29102 -0.2268928 0.2724459 3.542391 -6.500106 -5.074713 -0.9807 -0.0589 0.738 0.3361504 -0.6356489 1.01997 -0.380628 9.84924 -1.44207 0.5559 -0.7321 0.5581 1.968194

-0.9622 -0.2881539 0.2291617 3.594384 -6.035112 -5.371956 -0.9807 -0.0589 0.738 0.4644321 -0.7236135 1.048943 -0.03924 9.873766 -1.487196 0.5236 -0.7599 0.5645 1.968194

-0.8559095 -0.3057817 0.159174 3.435462 -5.891886 -5.782995 -0.9511 -0.0976 0.7827 0.4644321 -0.7236135 1.048943 -0.03924 9.873766 -1.487196 0.5236 -0.7599 0.5645 1.968194

-0.8559095 -0.3057817 0.159174 3.435462 -5.891886 -5.782995 -0.9511 -0.0976 0.7827 0.4858997 -0.8871509 1.089784 0.370818 9.719748 -1.467576 0.5236 -0.7599 0.5645 1.991018

-0.8559095 -0.3057817 0.159174 3.435462 -5.891886 -5.782995 -0.9511 -0.0976 0.7827 0.4858997 -0.8871509 1.089784 0.370818 9.719748 -1.467576 0.5236 -0.7599 0.5645 1.991018

-1.941853 0.6461209 1.125737 2.356362 -5.661351 -7.360443 -0.9452 -0.1489 0.8158 0.4858997 -0.8871509 1.089784 0.370818 9.719748 -1.467576 0.5236 -0.7599 0.5645 1.991018

-1.761037 0.8152432 1.282293 2.338704 -5.33566 -7.527214 -0.9452 -0.1489 0.8158 0.4858997 -0.8871509 1.089784 0.370818 9.719748 -1.467576 0.5236 -0.7599 0.5645 1.991018

-1.761037 0.8152432 1.282293 2.338704 -5.33566 -7.527214 -0.9452 -0.1489 0.8158 0.4858997 -0.8871509 1.089784 0.370818 9.719748 -1.467576 0.5236 -0.7599 0.5645 2.023239

-1.507964 0.8107054 1.407259 2.375001 -5.215977 -7.544871 -0.9035 -0.1703 0.8388 0.4858997 -0.8871509 1.089784 0.370818 9.719748 -1.467576 0.5236 -0.7599 0.5645 2.023239

-1.507964 0.8107054 1.407259 2.375001 -5.215977 -7.544871 -0.9035 -0.1703 0.8388 0.4858997 -0.8871509 1.089784 0.370818 9.719748 -1.467576 0.5236 -0.7599 0.5645 2.023239

-1.234471 0.6836454 1.507615 2.405412 -5.305248 -7.51348 -0.9035 -0.1703 0.8388 0.4858997 -0.8871509 1.089784 0.370818 9.719748 -1.467576 0.5236 -0.7599 0.5645 2.023239

-1.084897 0.5852089 1.568876 2.363229 -5.551479 -7.436961 -0.8993 -0.171 0.8563 0.4858997 -0.8871509 1.089784 0.370818 9.719748 -1.467576 0.5236 -0.7599 0.5645 2.035322

-1.084897 0.5852089 1.568876 2.363229 -5.551479 -7.436961 -0.8993 -0.171 0.8563 0.4858997 -0.8871509 1.089784 0.370818 9.719748 -1.467576 0.5236 -0.7599 0.5645 2.035322

-1.046325 0.5543166 1.570447 2.287692 -5.826159 -7.344748 -0.9053 -0.1594 0.8656 -0.001919862 -1.546711 1.140049 0.9084061 9.135073 -1.562733 0.4787 -0.7752 0.5651 2.035322

-1.098859 0.5447173 1.566433 2.233737 -6.104764 -7.317279 -0.9053 -0.1594 0.8656 -0.001919862 -1.546711 1.140049 0.9084061 9.135073 -1.562733 0.4787 -0.7752 0.5651 2.04472

-1.098859 0.5447173 1.566433 2.233737 -6.104764 -7.317279 -0.9053 -0.1594 0.8656 -0.001919862 -1.546711 1.140049 0.9084061 9.135073 -1.562733 0.4787 -0.7752 0.5651 2.04472

-1.28561 0.5190609 1.479341 2.193516 -6.328431 -7.383987 -0.9174 -0.1622 0.8755 -0.001919862 -1.546711 1.140049 0.9084061 9.135073 -1.562733 0.4787 -0.7752 0.5651 2.04472

-1.466775 0.4817109 1.437977 2.152314 -6.382386 -7.526232 -0.9174 -0.1622 0.8755 -0.001919862 -1.546711 1.140049 0.9084061 9.135073 -1.562733 0.4787 -0.7752 0.5651 2.047405

-1.466775 0.4817109 1.437977 2.152314 -6.382386 -7.526232 -0.9174 -0.1622 0.8755 -0.001919862 -1.546711 1.140049 0.9084061 9.135073 -1.562733 0.4787 -0.7752 0.5651 2.047405

-1.48353 0.4468043 1.393645 2.151333 -6.127326 -7.696927 -0.9248 -0.1665 0.8876 -0.001919862 -1.546711 1.140049 0.9084061 9.135073 -1.562733 0.4787 -0.7752 0.5651 2.047405

-1.510931 0.4626868 1.410051 2.134656 -5.756508 -7.949043 -0.9248 -0.1665 0.8876 -0.001919862 -1.546711 1.140049 0.9084061 9.135073 -1.562733 0.4787 -0.7752 0.5651 2.047405

-1.510931 0.4626868 1.410051 2.134656 -5.756508 -7.949043 -0.9248 -0.1665 0.8876 -0.001919862 -1.546711 1.140049 0.9084061 9.135073 -1.562733 0.4787 -0.7752 0.5651 2.038007

-1.510931 0.4626868 1.410051 2.134656 -5.756508 -7.949043 -0.9248 -0.1665 0.8876 -0.001919862 -1.546711 1.140049 0.9084061 9.135073 -1.562733 0.4787 -0.7752 0.5651 2.038007

-1.510931 0.4626868 1.410051 2.134656 -5.756508 -7.949043 -0.9248 -0.1665 0.8876 -0.001919862 -1.546711 1.140049 0.9084061 9.135073 -1.562733 0.4787 -0.7752 0.5651 2.038007

-1.218414 0.5311037 1.82544 1.389096 -4.459626 -9.36855 -0.8415 -0.1876 0.9517 -0.001919862 -1.546711 1.140049 0.9084061 9.135073 -1.562733 0.4787 -0.7752 0.5651 2.038007

-1.218414 0.5311037 1.82544 1.389096 -4.459626 -9.36855 -0.8415 -0.1876 0.9517 -0.001919862 -1.546711 1.140049 0.9084061 9.135073 -1.562733 0.4787 -0.7752 0.5651 2.003101

-1.294336 0.6133087 1.791755 1.279224 -4.297761 -9.482347 -0.8415 -0.1876 0.9517 -0.001919862 -1.546711 1.140049 0.9084061 9.135073 -1.562733 0.4787 -0.7752 0.5651 2.003101

-1.396612 0.6185446 1.841846 1.262547 -4.010328 -9.498043 -0.8292 -0.175 0.9647 -0.001919862 -1.546711 1.140049 0.9084061 9.135073 -1.562733 0.4787 -0.7752 0.5651 2.003101

-1.396612 0.6185446 1.841846 1.262547 -4.010328 -9.498043 -0.8292 -0.175 0.9647 -0.001919862 -1.546711 1.140049 0.9084061 9.135073 -1.562733 0.4787 -0.7752 0.5651 2.003101

-1.463808 0.6314601 1.899093 1.193877 -3.674826 -9.467631 -0.8292 -0.175 0.9647 -0.001919862 -1.546711 1.140049 0.9084061 9.135073 -1.562733 0.4787 -0.7752 0.5651 1.977592

-1.463808 0.6314601 1.899093 1.193877 -3.674826 -9.467631 -0.8292 -0.175 0.9647 -0.001919862 -1.546711 1.140049 0.9084061 9.135073 -1.562733 0.4787 -0.7752 0.5651 1.977592

-1.563117 0.6339036 1.986708 1.122264 -3.507075 -9.502947 -0.8224 -0.171 0.9541 -0.001919862 -1.546711 1.140049 0.9084061 9.135073 -1.562733 0.4787 -0.7752 0.5651 1.977592

-1.61251 0.7031932 2.022487 0.991791 -3.298122 -9.596143 -0.8224 -0.171 0.9541 -0.001919862 -1.546711 1.140049 0.9084061 9.135073 -1.562733 0.4787 -0.7752 0.5651 1.977592

-1.61251 0.7031932 2.022487 0.991791 -3.298122 -9.596143 -0.8224 -0.171 0.9541 -0.001919862 -1.546711 1.140049 0.9084061 9.135073 -1.562733 0.4787 -0.7752 0.5651 1.92389

-1.617397 0.7230899 2.00102 0.967266 -3.128409 -9.656964 -0.8091 -0.1743 0.9473 -0.001919862 -1.546711 1.140049 0.9084061 9.135073 -1.562733 0.4787 -0.7752 0.5651 1.92389

-1.605179 0.6942919 1.971873 0.9849241 -2.888064 -9.660889 -0.8091 -0.1743 0.9473 -0.001919862 -1.546711 1.140049 0.9084061 9.135073 -1.562733 0.4787 -0.7752 0.5651 1.92389

-1.605179 0.6942919 1.971873 0.9849241 -2.888064 -9.660889 -0.8091 -0.1743 0.9473 -0.001919862 -1.546711 1.140049 0.9084061 9.135073 -1.562733 0.4787 -0.7752 0.5651 1.92389

-1.489638 0.4911356 2.049715 1.024164 -2.657529 -9.676584 -0.8097 -0.1687 0.9574 -0.001919862 -1.546711 1.140049 0.9084061 9.135073 -1.562733 0.4787 -0.7752 0.5651 1.859447

-1.4481 0.5297074 2.223898 0.8740711 -2.44269 -9.748198 -0.8097 -0.1687 0.9574 -0.001919862 -1.546711 1.140049 0.9084061 9.135073 -1.562733 0.4787 -0.7752 0.5651 1.859447

-1.4481 0.5297074 2.223898 0.8740711 -2.44269 -9.748198 -0.8097 -0.1687 0.9574 -0.001919862 -1.546711 1.140049 0.9084061 9.135073 -1.562733 0.4787 -0.7752 0.5651 1.859447

-1.049466 0.5612979 2.158274 0.81423 -2.071872 -9.767817 -0.7938 -0.1644 0.9723 -0.001919862 -1.546711 1.140049 0.9084061 9.135073 -1.562733 0.4787 -0.7752 0.5651 1.859447

-1.049466 0.5612979 2.158274 0.81423 -2.071872 -9.767817 -0.7938 -0.1644 0.9723 -0.001919862 -1.546711 1.140049 0.9084061 9.135073 -1.562733 0.4787 -0.7752 0.5651 1.777551

-1.121723 0.7848746 1.980949 0.836793 -1.901178 -9.491175 -0.698 -0.1637 1.0039 -0.001919862 -1.546711 1.140049 0.9084061 9.135073 -1.562733 0.4787 -0.7752 0.5651 1.777551

-1.121723 0.7848746 1.980949 0.836793 -1.901178 -9.491175 -0.698 -0.1637 1.0039 -0.001919862 -1.546711 1.140049 0.9084061 9.135073 -1.562733 0.4787 -0.7752 0.5651 1.777551

-1.179668 0.4068362 2.105216 1.077138 -1.758933 -9.301843 -0.687 -0.1564 1.0234 -0.001919862 -1.546711 1.140049 0.9084061 9.135073 -1.562733 0.4787 -0.7752 0.5651 1.777551

-1.244769 0.2813471 2.071182 1.092834 -1.737351 -9.372475 -0.687 -0.1564 1.0234 -0.001919862 -1.546711 1.140049 0.9084061 9.135073 -1.562733 0.4787 -0.7752 0.5651 1.683571

-1.244769 0.2813471 2.071182 1.092834 -1.737351 -9.372475 -0.687 -0.1564 1.0234 -0.001919862 -1.546711 1.140049 0.9084061 9.135073 -1.562733 0.4787 -0.7752 0.5651 1.683571

-1.110029 0.3389429 1.890017 0.949608 -1.639251 -9.597123 -0.6686 -0.1674 1.0396 -0.001919862 -1.546711 1.140049 0.9084061 9.135073 -1.562733 0.4787 -0.7752 0.5651 1.683571

-0.9159487 0.5757841 1.837832 0.956475 -1.310616 -9.688356 -0.6686 -0.1674 1.0396 -0.001919862 -1.546711 1.140049 0.9084061 9.135073 -1.562733 0.4787 -0.7752 0.5651 1.683571

-0.9159487 0.5757841 1.837832 0.956475 -1.310616 -9.688356 -0.6686 -0.1674 1.0396 -0.001919862 -1.546711 1.140049 0.9084061 9.135073 -1.562733 0.4787 -0.7752 0.5651 1.560056

-0.4724606 0.1979203 1.887574 1.459728 -0.7602751 -9.511777 -0.6329 -0.1692 1.0517 -0.001919862 -1.546711 1.140049 0.9084061 9.135073 -1.562733 0.4787 -0.7752 0.5651 1.560056

0.249233 -0.5958554 2.222677 1.925703 -0.361989 -9.489213 -0.6329 -0.1692 1.0517 -0.001919862 -1.546711 1.140049 0.9084061 9.135073 -1.562733 0.4787 -0.7752 0.5651 1.560056

0.249233 -0.5958554 2.222677 1.925703 -0.361989 -9.489213 -0.6329 -0.1692 1.0517 -0.001919862 -1.546711 1.140049 0.9084061 9.135073 -1.562733 0.4787 -0.7752 0.5651 1.560056

0.8232718 -0.9313077 2.271022 1.886463 -0.31392 -9.803133 -0.5828 -0.1615 1.0875 -0.001919862 -1.546711 1.140049 0.9084061 9.135073 -1.562733 0.4787 -0.7752 0.5651 1.4258

1.2891 -1.082104 2.132618 1.276281 -1.017297 -10.35151 -0.5828 -0.1615 1.0875 -0.001919862 -1.546711 1.140049 0.9084061 9.135073 -1.562733 0.4787 -0.7752 0.5651 1.4258

1.2891 -1.082104 2.132618 1.276281 -1.017297 -10.35151 -0.5828 -0.1615 1.0875 -0.001919862 -1.546711 1.140049 0.9084061 9.135073 -1.562733 0.4787 -0.7752 0.5651 1.4258

-0.1640609 0.3003711 1.934174 0.356103 -2.326932 -11.15593 -0.5371 -0.1487 1.1194 0.853815 -1.073901 -0.378911 -1.521531 5.891886 -6.560928 0.441 -0.7892 0.5926 1.4258

-0.1640609 0.3003711 1.934174 0.356103 -2.326932 -11.15593 -0.5371 -0.1487 1.1194 0.853815 -1.073901 -0.378911 -1.521531 5.891886 -6.560928 0.441 -0.7892 0.5926 1.291544

-0.6527532 0.5804965 1.862615 0.290376 -2.659491 -11.27463 -0.5371 -0.1487 1.1194 0.853815 -1.073901 -0.378911 -1.521531 5.891886 -6.560928 0.441 -0.7892 0.5926 1.291544

-0.6527532 0.5804965 1.862615 0.290376 -2.659491 -11.27463 -0.5371 -0.1487 1.1194 0.853815 -1.073901 -0.378911 -1.521531 5.891886 -6.560928 0.441 -0.7892 0.5926 1.291544

-0.6527532 0.5804965 1.862615 0.290376 -2.659491 -11.27463 -0.5371 -0.1487 1.1194 0.826937 -0.789587 -0.5026548 -2.273958 5.576005 -6.709059 0.5198 -0.7143 0.5951 1.291544

-0.5157448 1.165705 1.533446 0.034335 -3.022461 -10.17689 -0.3934 -0.0982 1.1412 0.826937 -0.789587 -0.5026548 -2.273958 5.576005 -6.709059 0.5198 -0.7143 0.5951 1.162658

-0.5157448 1.165705 1.533446 0.034335 -3.022461 -10.17689 -0.3934 -0.0982 1.1412 0.7429867 -0.8318239 -0.4878195 -2.353419 5.263065 -6.728679 0.5198 -0.7143 0.5951 1.162658

-0.4808382 0.8785987 1.504823 0.51993 -2.774268 -9.631458 -0.3934 -0.0982 1.1412 0.6761405 -0.9496337 -0.5529203 -2.341647 5.024682 -6.838551 0.5489 -0.6705 0.5849 1.162658

-0.1884956 0.3600614 1.454557 0.900558 -2.556486 -9.24102 -0.3883 -0.081 1.1501 0.5590289 -0.9941395 -0.6155776 -2.528037 4.78728 -6.990606 0.5882 -0.6339 0.5967 1.162658

-0.1884956 0.3600614 1.454557 0.900558 -2.556486 -9.24102 -0.3883 -0.081 1.1501 0.5590289 -0.9941395 -0.6155776 -2.528037 4.78728 -6.990606 0.5882 -0.6339 0.5967 1.031087

-0.4042183 0.4541347 1.316851 0.8171731 -2.675187 -9.242983 -0.3883 -0.081 1.1501 0.4513422 -1.020319 -0.6555457 -2.889045 4.607757 -7.105383 0.5882 -0.6339 0.5967 1.031087

-0.4042183 0.4541347 1.316851 0.8171731 -2.675187 -9.242983 -0.3883 -0.081 1.1501 0.4513422 -1.020319 -0.6555457 -2.889045 4.607757 -7.105383 0.5882 -0.6339 0.5967 1.031087

-0.6862634 0.6827728 1.228712 0.66708 -2.827242 -9.312634 -0.3863 -0.0753 1.1646 0.8819149 0.3328343 -0.8974482 -4.633263 4.594023 -7.649838 0.688 -0.5814 0.5913 1.031087

-1.157851 0.8806931 1.026428 0.807363 -3.066606 -9.363646 -0.3863 -0.0753 1.1646 0.8819149 0.3328343 -0.8974482 -4.633263 4.594023 -7.649838 0.688 -0.5814 0.5913 0.8834051

-1.658063 0.856433 0.7819075 1.076157 -3.176478 -9.286146 -0.3801 -0.0772 1.1626 0.8143706 0.3977605 -0.9527752 -4.578327 4.204566 -7.590979 0.7278 -0.5462 0.586 0.8834051

-1.658063 0.856433 0.7819075 1.076157 -3.176478 -9.286146 -0.3801 -0.0772 1.1626 0.8143706 0.3977605 -0.9527752 -4.578327 4.204566 -7.590979 0.7278 -0.5462 0.586 0.8834051

-2.148326 0.659909 0.5445427 1.64808 -2.969487 -9.20178 -0.3801 -0.0772 1.1626 0.8143706 0.3977605 -0.9527752 -4.578327 4.204566 -7.590979 0.7278 -0.5462 0.586 0.8834051

-2.148326 0.659909 0.5445427 1.64808 -2.969487 -9.20178 -0.3801 -0.0772 1.1626 0.8599237 0.5817183 -0.9445722 -4.506714 3.89457 -7.574301 0.7278 -0.5462 0.586 0.7464639

-2.148326 0.659909 0.5445427 1.64808 -2.969487 -9.20178 -0.3801 -0.0772 1.1626 1.113171 0.7972664 -0.9932669 -4.601871 3.692484 -7.612561 0.7582 -0.495 0.6145 0.7464639

-2.278353 -0.02268928 0.2300344 2.572182 -2.586897 -9.44703 -0.3589 -0.086 1.1539 1.345823 1.096416 -1.062382 -4.658769 3.464892 -7.799931 0.7582 -0.495 0.6145 0.7464639

-2.278353 -0.02268928 0.2300344 2.572182 -2.586897 -9.44703 -0.3589 -0.086 1.1539 1.345823 1.096416 -1.062382 -4.658769 3.464892 -7.799931 0.7582 -0.495 0.6145 0.7464639

-2.64173 -0.1041962 -0.1946042 2.742876 -2.247471 -10.37211 -0.3589 -0.086 1.1539 1.341635 1.157851 -1.155932 -4.72842 3.167649 -7.963758 0.7667 -0.4421 0.6592 0.6001248

-3.054152 0.2748893 -0.2474877 2.482911 -1.45188 -11.32466 -0.3468 -0.1232 1.1635 1.341635 1.157851 -1.155932 -4.72842 3.167649 -7.963758 0.7667 -0.4421 0.6592 0.6001248

-3.054152 0.2748893 -0.2474877 2.482911 -1.45188 -11.32466 -0.3468 -0.1232 1.1635 1.242325 1.147379 -1.131497 -4.510638 2.976354 -7.920594 0.766 -0.3882 0.6873 0.6001248

-1.209164 0.4661774 0.6173229 1.799154 1.261566 -10.30737 -0.2779 -0.2796 1.2427 1.242325 1.147379 -1.131497 -4.510638 2.976354 -7.920594 0.766 -0.3882 0.6873 0.6001248

-1.328545 0.3537782 0.4468043 1.73637 0.842679 -9.494119 -0.2699 -0.3647 1.2671 1.242325 1.147379 -1.131497 -4.510638 2.976354 -7.920594 0.766 -0.3882 0.6873 0.4712389

-2.034705 0.5009095 0.2080432 1.532322 0.350217 -8.749539 -0.2699 -0.3647 1.2671 1.140573 1.084722 -1.036376 -4.045644 2.821356 -7.859772 0.766 -0.3882 0.6873 0.4712389

-2.034705 0.5009095 0.2080432 1.532322 0.350217 -8.749539 -0.2699 -0.3647 1.2671 1.140573 1.084722 -1.036376 -4.045644 2.821356 -7.859772 0.766 -0.3882 0.6873 0.4712389

-2.539803 0.6578146 -0.1295034 1.703997 0.680814 -8.097175 -0.2859 -0.4255 1.272 1.056971 1.082977 -0.9347984 -3.51198 2.48193 -7.923537 0.755 -0.3221 0.7203 0.3826299

-2.539803 0.6578146 -0.1295034 1.703997 0.680814 -8.097175 -0.2859 -0.4255 1.272 1.056971 1.082977 -0.9347984 -3.51198 2.48193 -7.923537 0.755 -0.3221 0.7203 0.3826299

-2.102773 0.009773844 -0.06928957 2.02086 1.445994 -7.44579 -0.2859 -0.4255 1.272 0.86132 0.7628834 -0.9279915 -3.077397 1.966905 -7.878411 0.755 -0.3221 0.7203 0.3826299

-2.548006 0.2605776 0.005410521 1.953171 1.855071 -7.349652 -0.2793 -0.4834 1.2688 0.588176 0.5839872 -0.8599237 -2.494683 1.380267 -7.792084 0.724 -0.2487 0.7578 0.3826299

-2.390752 0.1129228 0.1802925 2.132694 2.640852 -7.091649 -0.2793 -0.4834 1.2688 0.588176 0.5839872 -0.8599237 -2.494683 1.380267 -7.792084 0.724 -0.2487 0.7578 0.2953634

-2.390752 0.1129228 0.1802925 2.132694 2.640852 -7.091649 -0.2793 -0.4834 1.2688 0.588176 0.5839872 -0.8599237 -2.494683 1.380267 -7.792084 0.724 -0.2487 0.7578 0.2953634

-2.068215 -0.08168141 0.1546362 2.38383 3.279483 -6.970986 -0.2644 -0.5641 1.2808 0.5016076 1.622807 -0.7197738 -2.605536 0.231516 -7.635123 0.7147 -0.1306 0.8301 0.2953634

-1.787043 0.02373648 0.03228859 2.392659 3.902418 -7.067124 -0.2345 -0.653 1.2703 0.439823 1.729621 -0.6914994 -2.078739 0.139302 -7.777369 0.6875 -0.1064 0.8581 0.2953634

-1.787043 0.02373648 0.03228859 2.392659 3.902418 -7.067124 -0.2345 -0.653 1.2703 0.4066617 1.509884 -0.6012659 -1.567638 -0.030411 -7.849962 0.6875 -0.1064 0.8581 0.198699

-1.792628 0.3625049 -0.03735005 2.26611 4.181022 -7.201521 -0.2345 -0.653 1.2703 0.4066617 1.509884 -0.6012659 -1.567638 -0.030411 -7.849962 0.6875 -0.1064 0.8581 0.198699

-1.792628 0.3625049 -0.03735005 2.26611 4.181022 -7.201521 -0.2345 -0.653 1.2703 0.2560398 1.322087 -0.4117232 -1.162485 -0.270756 -7.753825 0.6364 -0.0555 0.8934 0.198699

-1.758419 0.4934046 0.0001745329 2.302407 4.536144 -7.075953 -0.2214 -0.717 1.2385 0.2181662 1.138129 -0.2499311 -0.8044201 -0.364932 -7.914709 0.6364 -0.0555 0.8934 0.198699

-1.758419 0.4934046 0.0001745329 2.302407 4.536144 -7.075953 -0.2214 -0.717 1.2385 0.1755801 1.080708 -0.3038618 -0.450279 -0.345312 -7.95591 0.5715 -0.004 0.9191 0.1396263

-1.758419 0.4934046 0.0001745329 2.302407 4.536144 -7.075953 -0.2214 -0.717 1.2385 0.1755801 1.080708 -0.3038618 -0.450279 -0.345312 -7.95591 0.5715 -0.004 0.9191 0.1396263

-0.7325147 -0.1427679 0.2923426 3.05091 5.978214 -5.766318 -0.2017 -0.8237 1.1913 0.1651081 1.058368 -0.3143338 -0.151074 -0.404172 -7.968664 0.5251 0.0016 0.9333 0.1396263

-0.7325147 -0.1427679 0.2923426 3.05091 5.978214 -5.766318 -0.2017 -0.8237 1.1913 0.1104793 0.9635963 -0.3167773 0.277623 -0.443412 -8.101098 0.5251 0.0016 0.9333 0.1396263

0.135263 -0.657291 0.3221878 3.400146 6.734565 -5.240502 -0.2017 -0.8237 1.1913 0.0710349 0.5853834 -0.2628466 0.695529 -0.455184 -8.160939 0.4851 0.0062 0.9558 0.07518341

0.135263 -0.657291 0.3221878 3.400146 6.734565 -5.240502 -0.2017 -0.8237 1.1913 0.0710349 0.5853834 -0.2628466 0.695529 -0.455184 -8.160939 0.4851 0.0062 0.9558 0.07518341

0.3405137 -0.9032079 0.5763077 3.380526 6.751242 -5.242464 -0.2059 -0.8881 1.1575 0.00418879 0.3307399 -0.1720895 1.102644 -0.494424 -8.11287 0.4851 0.0062 0.9558 0.07518341

0.06806784 -0.5120796 0.6007423 2.91357 6.354918 -5.669199 -0.2232 -0.9115 1.1355 0.00418879 0.3307399 -0.1720895 1.102644 -0.494424 -8.11287 0.4851 0.0062 0.9558 0.07518341

0.06806784 -0.5120796 0.6007423 2.91357 6.354918 -5.669199 -0.2232 -0.9115 1.1355 -0.06597345 -0.5654867 0.2267183 1.117359 -0.619992 -8.520967 0.4394 0.0174 0.9801 0.06847061

-0.4153883 -0.1495747 0.4942772 2.975373 5.822236 -6.226407 -0.2232 -0.9115 1.1355 -0.06597345 -0.5654867 0.2267183 1.117359 -0.619992 -8.520967 0.4394 0.0174 0.9801 0.06847061

-0.3096214 -0.2457424 0.4321435 3.329514 5.898753 -6.314697 -0.2059 -0.9116 1.1371 -0.06457718 0.09529497 0.1797689 0.36297 -0.526797 -8.707356 0.4356 0.0401 0.9664 0.06847061

-0.3096214 -0.2457424 0.4321435 3.329514 5.898753 -6.314697 -0.2059 -0.9116 1.1371 -0.07784168 0.4075344 0.08674286 -0.364932 -0.52974 -8.728938 0.4356 0.0401 0.9664 0.06847061

-0.1973967 -0.2143264 0.2377138 3.313818 5.871285 -6.348051 -0.2059 -0.9116 1.1371 -0.05445427 0.4201007 -0.02146755 -0.507177 -0.562113 -8.785836 0.4605 0.0498 0.9605 0.05773012

-0.1973967 -0.2143264 0.2377138 3.313818 5.871285 -6.348051 -0.2059 -0.9116 1.1371 -0.05445427 0.4201007 -0.02146755 -0.507177 -0.562113 -8.785836 0.4605 0.0498 0.9605 0.05773012

-0.572468 0.1876229 0.1912881 3.14901 5.668218 -6.763995 -0.1933 -0.908 1.1379 -0.1179843 0.5689773 -0.06963864 -0.369837 -0.488538 -8.73973 0.4605 0.0498 0.9605 0.05773012

-0.5244714 0.5935864 0.1260128 3.163725 5.771223 -7.011207 -0.1933 -0.908 1.1379 -0.1179843 0.5689773 -0.06963864 -0.369837 -0.488538 -8.73973 0.4605 0.0498 0.9605 0.05773012

-0.5244714 0.5935864 0.1260128 3.163725 5.771223 -7.011207 -0.1933 -0.908 1.1379 -0.06126106 0.5274385 0.01082104 -0.082404 -0.501291 -8.736787 0.4688 0.029 0.9557 0.03759171

-0.3979351 0.7304202 -0.07086036 3.54141 5.840874 -7.046523 -0.1941 -0.9064 1.1382 -0.07853982 0.4595452 0.07435103 0.130473 -0.436545 -8.787798 0.4634 0.0202 0.9583 0.03759171

-0.3979351 0.7304202 -0.07086036 3.54141 5.840874 -7.046523 -0.1941 -0.9064 1.1382 -0.07853982 0.4595452 0.07435103 0.130473 -0.436545 -8.787798 0.4634 0.0202 0.9583 0.03759171

-0.805993 0.8649852 -0.3433063 3.692484 5.524992 -7.015131 -0.1941 -0.9064 1.1382 -0.04276057 0.628493 0.05811946 0.327654 -0.419868 -8.852545 0.4634 0.0202 0.9583 0.03759171

-0.805993 0.8649852 -0.3433063 3.692484 5.524992 -7.015131 -0.1941 -0.9064 1.1382 -0.01675516 0.6358234 0.06457718 0.169713 -0.361008 -8.98498 0.4563 0.0114 0.9841 0.04027683

0.02670354 0.2834415 -0.3490658 4.315419 7.041618 -5.859513 -0.2231 -0.9433 1.1199 0.002617994 0.4886922 0.09651671 0.167751 -0.407115 -9.045801 0.4563 0.0114 0.9841 0.04027683

0.3775147 0.06038839 -0.1542871 4.22811 7.231933 -5.288571 -0.2231 -0.9433 1.1199 0.002617994 0.4886922 0.09651671 0.167751 -0.407115 -9.045801 0.4563 0.0114 0.9841 0.04027683

0.3775147 0.06038839 -0.1542871 4.22811 7.231933 -5.288571 -0.2231 -0.9433 1.1199 -0.05148721 0.180118 0.08831366 0.380628 -0.263889 -9.002637 0.4269 -0.0009 0.9985 0.04027683

-0.07435103 -0.5084144 -0.2588323 4.537125 6.551118 -4.922658 -0.2436 -0.957 1.0984 -0.03228859 -0.2907718 0.08307768 0.7298641 -0.295281 -9.01539 0.4269 -0.0009 0.9985 0.04564707

0.2104867 -0.8206538 -0.2719223 4.356621 6.809122 -4.79709 -0.2436 -0.957 1.0984 -0.01640609 0.1799435 0.04485496 0.835812 -0.454203 -8.976151 0.4078 -0.0038 0.9929 0.04564707

0.2104867 -0.8206538 -0.2719223 4.356621 6.809122 -4.79709 -0.2436 -0.957 1.0984 -0.01640609 0.1799435 0.04485496 0.835812 -0.454203 -8.976151 0.4078 -0.0038 0.9929 0.04564707

0.63338 -0.5733407 -0.1328196 3.770964 6.930765 -5.026644 -0.2337 -0.9618 1.0842 -0.01640609 0.1799435 0.04485496 0.835812 -0.454203 -8.976151 0.4078 -0.0038 0.9929 0.04564707

0.63338 -0.5733407 -0.1328196 3.770964 6.930765 -5.026644 -0.2337 -0.9618 1.0842 -0.01640609 0.1799435 0.04485496 0.835812 -0.454203 -8.976151 0.4078 -0.0038 0.9929 0.04027683

0.2350959 -0.773879 -0.06597345 4.035834 6.500106 -5.296419 -0.2337 -0.9618 1.0842 -0.01640609 0.1799435 0.04485496 0.835812 -0.454203 -8.976151 0.4078 -0.0038 0.9929 0.04027683

0.6054547 -1.007055 -0.01186824 3.947544 6.666876 -5.225787 -0.2178 -0.9587 1.0813 -0.1190315 0.2722714 -0.05515241 0.6268591 -0.548379 -8.744635 0.3914 0.0049 0.9878 0.04027683

0.8251916 -0.9936159 -0.2120575 3.661092 6.459886 -5.46417 -0.1902 -0.9417 1.088 -0.08883726 -0.3057817 -0.08395033 1.176219 -0.468918 -8.767198 0.3795 0.0121 1.0023 0.04027683

0.8251916 -0.9936159 -0.2120575 3.661092 6.459886 -5.46417 -0.1902 -0.9417 1.088 -0.08883726 -0.3057817 -0.08395033 1.176219 -0.468918 -8.767198 0.3795 0.0121 1.0023 0.0308789

0.7529351 -0.8571312 -0.3652974 3.465873 6.159699 -5.933088 -0.1902 -0.9417 1.088 -0.1361357 -0.3073525 -0.05829399 1.114416 -0.516987 -8.744635 0.3795 0.0121 1.0023 0.0308789

0.7529351 -0.8571312 -0.3652974 3.465873 6.159699 -5.933088 -0.1902 -0.9417 1.088 -0.1003564 -0.1029744 -0.04782202 0.7906861 -0.483633 -8.725015 0.3743 0.0061 1.0085 0.0308789

0.1659808 -0.3378958 -0.3253294 3.004803 5.826159 -6.603111 -0.1302 -0.9365 1.1212 -0.1003564 -0.1029744 -0.04782202 0.7906861 -0.483633 -8.725015 0.3743 0.0061 1.0085 0.03356402

0.3157301 -0.04625123 -0.1471313 3.022461 6.439284 -6.794406 -0.1302 -0.9365 1.1212 -0.1141445 -0.04118977 -0.07801621 0.8299261 -0.409077 -8.713243 0.3764 -0.0053 1.0111 0.03356402

0.3157301 -0.04625123 -0.1471313 3.022461 6.439284 -6.794406 -0.1302 -0.9365 1.1212 -0.08883726 -0.2488839 -0.04607669 0.840717 -0.339426 -8.829 0.3764 -0.0053 1.0111 0.03356402

0.4061381 0.2010619 -0.09599311 2.850786 6.639409 -6.959214 -0.0717 -0.9447 1.1448 -0.08883726 -0.2488839 -0.04607669 0.840717 -0.339426 -8.829 0.3764 -0.0053 1.0111 0.03356402

0.4061381 0.2010619 -0.09599311 2.850786 6.639409 -6.959214 -0.0717 -0.9447 1.1448 -0.07120943 -0.1314233 -0.05585054 0.569961 -0.303129 -8.906499 0.3797 -0.0034 1.0001 0.03356402

0.4061381 0.2010619 -0.09599311 2.850786 6.639409 -6.959214 -0.0717 -0.9447 1.1448 -0.07120943 -0.1314233 -0.05585054 0.569961 -0.303129 -8.906499 0.3797 -0.0034 1.0001 0.03356402

0.4061381 0.2010619 -0.09599311 2.850786 6.639409 -6.959214 -0.0717 -0.9447 1.1448 -0.08796459 0.1492257 -0.06335545 0.380628 -0.249174 -8.931025 0.3797 -0.0034 1.0001 0.02953634

-0.1050688 0.3673918 -0.1923353 3.837672 6.702192 -6.284286 -0.0699 -0.9402 1.156 -0.05096361 0.246615 -0.01308997 0.504234 -0.09417601 -9.021276 0.381 -0.0027 1.0006 0.02953634

-0.2275909 -0.07696902 -0.07138397 3.906342 6.957253 -5.903658 -0.1096 -0.9229 1.1537 -0.05096361 0.246615 -0.01308997 0.504234 -0.09417601 -9.021276 0.381 -0.0027 1.0006 0.02953634

-0.2275909 -0.07696902 -0.07138397 3.906342 6.957253 -5.903658 -0.1096 -0.9229 1.1537 -0.06073746 -0.1310742 -0.05148721 0.9594181 -0.07161301 -9.140959 0.381 -0.0027 1.0006 0.03356402

0.4082325 -0.1811652 0.135263 3.722895 7.707717 -5.790843 -0.1096 -0.9229 1.1537 -0.06073746 -0.1310742 -0.05148721 0.9594181 -0.07161301 -9.140959 0.381 -0.0027 1.0006 0.03356402

0.4082325 -0.1811652 0.135263 3.722895 7.707717 -5.790843 -0.1096 -0.9229 1.1537 -0.06073746 -0.1310742 -0.05148721 0.9594181 -0.07161301 -9.140959 0.381 -0.0027 1.0006 0.03356402

1.079835 -0.6984808 0.2994985 4.096656 7.875468 -5.582871 -0.1474 -0.9099 1.1285 0.03839725 -0.3420845 -0.04817109 0.619992 -0.01962 -9.026181 0.4027 0.0029 0.9909 0.03356402

0.458498 -0.9334021 0.217468 3.81609 6.810102 -5.824197 -0.1474 -0.9099 1.1285 0.03839725 -0.3420845 -0.04817109 0.619992 -0.01962 -9.026181 0.4027 0.0029 0.9909 0.0308789

0.458498 -0.9334021 0.217468 3.81609 6.810102 -5.824197 -0.1474 -0.9099 1.1285 0.03106686 -0.2665118 -0.01762783 0.703377 -0.003924 -9.126244 0.4064 0.0022 1.013 0.0308789

0.01570796 -0.6801548 0.001047197 3.367773 6.2784 -6.26859 -0.1612 -0.9126 1.1442 0.03106686 -0.2665118 -0.01762783 0.703377 -0.003924 -9.126244 0.4064 0.0022 1.013 0.0308789

0.4321435 -0.6478662 0.05148721 3.242205 6.55308 -6.40593 -0.1612 -0.9126 1.1442 0.01047198 0.1106539 -0.0541052 0.413982 -0.06670801 -9.049726 0.4064 0.0022 1.013 0.0308789

0.9374163 -1.038994 0.1000074 3.48255 6.624693 -6.357862 -0.1569 -0.9084 1.1757 0.01047198 0.1106539 -0.0541052 0.413982 -0.06670801 -9.049726 0.4064 0.0022 1.013 0.0308789

0.9374163 -1.038994 0.1000074 3.48255 6.624693 -6.357862 -0.1569 -0.9084 1.1757 0.02234021 0.1881465 -0.03455752 0.06867 -0.073575 -8.989884 0.3901 -0.0071 1.0131 0.0308789

0.7333874 -1.401325 -0.09878563 3.497265 6.051789 -6.419664 -0.1569 -0.9084 1.1757 0.0541052 -0.026529 -0.05969026 0.164808 -0.000981 -8.937891 0.3901 -0.0071 1.0131 0.0308789

0.7763224 -1.43693 -0.2898992 2.965563 5.848722 -6.555042 -0.1449 -0.8914 1.1753 0.04206244 0.02338741 -0.08691739 0.370818 0.014715 -8.98596 0.3875 -0.0156 1.0037 0.03356402

0.7763224 -1.43693 -0.2898992 2.965563 5.848722 -6.555042 -0.1449 -0.8914 1.1753 0.0408407 -0.02478367 -0.07941248 0.27468 -0.023544 -8.969284 0.3977 0.001 0.9975 0.03356402

0.8770279 -1.605354 -0.3595378 2.702655 5.645655 -6.730641 -0.1271 -0.871 1.1877 0.0408407 -0.02478367 -0.07941248 0.27468 -0.023544 -8.969284 0.3977 0.001 0.9975 0.03356402

0.7408923 -1.454034 -0.4773476 2.419146 5.36607 -7.310412 -0.1271 -0.871 1.1877 0.0541052 0.06841691 -0.1111775 0.408096 -0.063765 -8.930043 0.3977 0.001 0.9975 0.03356402

0.7408923 -1.454034 -0.4773476 2.419146 5.36607 -7.310412 -0.1271 -0.871 1.1877 0.03700098 0.5661848 -0.1082104 0.256041 -0.003924 -8.875107 0.4087 0.006 0.9924 0.03356402

1.10427 -1.355946 -0.4988151 2.023803 5.725116 -7.423227 -0.075 -0.8493 1.2232 0.03700098 0.5661848 -0.1082104 0.256041 -0.003924 -8.875107 0.4087 0.006 0.9924 0.03356402

1.10427 -1.355946 -0.4988151 2.023803 5.725116 -7.423227 -0.075 -0.8493 1.2232 0.05515241 0.3928736 -0.1022763 -0.051993 -0.053955 -8.854506 0.4087 0.006 0.9924 0.03356402

1.10427 -1.355946 -0.4988151 2.023803 5.725116 -7.423227 -0.075 -0.8493 1.2232 -0.006283185 0.1359611 -0.06405359 0.242307 -0.192276 -8.810362 0.4089 -0.0009 0.9856 0.03356402

1.45159 -1.002517 0.1246165 1.244889 5.732964 -7.668478 0.0862 -0.8176 1.2724 0.03176499 -0.4328416 -0.0827286 0.797553 -0.207972 -8.703432 0.4089 -0.0009 0.9856 0.03356402

1.445831 -1.038296 0.2897246 1.090872 5.54265 -7.692021 0.0862 -0.8176 1.2724 0.03176499 -0.4328416 -0.0827286 0.797553 -0.207972 -8.703432 0.4089 -0.0009 0.9856 0.03356402

1.445831 -1.038296 0.2897246 1.090872 5.54265 -7.692021 0.0862 -0.8176 1.2724 0.0148353 -0.5571091 -0.003490658 1.210554 -0.198162 -8.702451 0.402 0.0078 0.9801 0.03356402

1.33029 -0.9677851 0.4141666 0.844641 5.114934 -7.928442 0.1356 -0.7801 1.2903 0.0148353 -0.5571091 -0.003490658 1.210554 -0.198162 -8.702451 0.402 0.0078 0.9801 0.03624915

1.219462 -0.7866199 0.3855432 0.625878 4.662694 -8.187426 0.1356 -0.7801 1.2903 0.0148353 -0.5571091 -0.003490658 1.210554 -0.198162 -8.702451 0.402 0.0078 0.9801 0.03624915

1.219462 -0.7866199 0.3855432 0.625878 4.662694 -8.187426 0.1356 -0.7801 1.2903 0.0148353 -0.5571091 -0.003490658 1.210554 -0.198162 -8.702451 0.402 0.0078 0.9801 0.03624915

1.496096 -1.011244 0.4251622 0.739674 4.538106 -8.254134 0.1818 -0.7234 1.2978 -0.0001745329 -0.1799435 -0.026529 0.371799 -0.361989 -8.891785 0.4138 -0.0007 1.0055 0.03624915

1.195202 -0.840027 0.3869395 0.417906 3.847482 -8.7309 0.2242 -0.6587 1.3167 -0.0001745329 -0.1799435 -0.026529 0.371799 -0.361989 -8.891785 0.4138 -0.0007 1.0055 0.0241661

1.195202 -0.840027 0.3869395 0.417906 3.847482 -8.7309 0.2242 -0.6587 1.3167 -0.0001745329 -0.1799435 -0.026529 0.371799 -0.361989 -8.891785 0.4138 -0.0007 1.0055 0.0241661

0.9742427 -0.4436627 0.3670428 0.188352 3.575745 -9.097795 0.2242 -0.6587 1.3167 -0.05864306 -0.2965314 -0.04537856 0.629802 -0.395343 -8.882956 0.42 0.0098 0.9818 0.0241661

0.8098328 -0.6087708 0.1795944 0.041202 2.943 -9.362664 0.25 -0.6177 1.3433 -0.05864306 -0.2965314 -0.04537856 0.629802 -0.395343 -8.882956 0.42 0.0098 0.9818 0.0241661

0.8098328 -0.6087708 0.1795944 0.041202 2.943 -9.362664 0.25 -0.6177 1.3433 -0.04328417 -0.5349434 0.0122173 0.7386931 -0.330597 -8.989884 0.42 0.0098 0.9818 0.02953634

-0.1583014 0.05113815 0.02879793 -0.259965 2.40345 -9.720729 0.25 -0.6177 1.3433 -0.01448623 -0.5178392 0.01570796 0.32373 -0.28449 -9.002637 0.4204 0.0029 0.9788 0.02953634

-0.1583014 0.05113815 0.02879793 -0.259965 2.40345 -9.720729 0.25 -0.6177 1.3433 -0.01448623 -0.5178392 0.01570796 0.32373 -0.28449 -9.002637 0.4204 0.0029 0.9788 0.02953634

0.4921829 -0.2481858 -0.06789331 -0.04905 2.90376 -9.467631 0.2712 -0.5821 1.3544 -0.04782202 0.06667157 -0.05009095 -0.178542 -0.229554 -8.956531 0.4382 -0.0089 0.9821 0.0241661

0.6426302 -0.08499753 -0.07661995 -0.163827 2.848824 -9.572598 0.2712 -0.5821 1.3544 -0.04171337 0.1797689 -0.0275762 -0.092214 -0.201105 -9.007543 0.4382 -0.0089 0.9821 0.0241661

0.6426302 -0.08499753 -0.07661995 -0.163827 2.848824 -9.572598 0.2712 -0.5821 1.3544 -0.05026548 -0.0858702 -0.0003490658 0.240345 -0.136359 -8.977131 0.446 0.0085 0.9882 0.0241661

0.6426302 -0.08499753 -0.07661995 -0.163827 2.848824 -9.572598 0.2712 -0.5821 1.3544 -0.05026548 -0.0858702 -0.0003490658 0.240345 -0.136359 -8.977131 0.446 0.0085 0.9882 0.0241661

0.134914 0.07679449 0.03281219 -0.163827 2.899836 -9.438202 0.2923 -0.5473 1.3747 -0.02740167 -0.2874557 -0.02356195 0.331578 -0.080442 -8.970264 0.446 0.0085 0.9882 0.02685122

0.134914 0.07679449 0.03281219 -0.163827 2.899836 -9.438202 0.2923 -0.5473 1.3747 0.01186824 -0.2204351 -0.0143117 0.054936 -0.085347 -8.893746 0.4471 0.0137 0.9838 0.02685122

-0.03281219 0.0731293 0.124442 -0.167751 2.853729 -9.335196 0.2891 -0.5379 1.3676 -0.01256637 0.03490658 -0.0153589 -0.184428 -0.06867 -8.862354 0.4471 0.0137 0.9838 0.02685122

0.0418879 -0.05637414 0.1776745 -0.06670801 3.08034 -9.269469 0.2719 -0.5203 1.3488 -0.01256637 0.03490658 -0.0153589 -0.184428 -0.06867 -8.862354 0.4471 0.0137 0.9838 0.02685122

0.0418879 -0.05637414 0.1776745 -0.06670801 3.08034 -9.269469 0.2719 -0.5203 1.3488 -0.01256637 0.03490658 -0.0153589 -0.184428 -0.06867 -8.862354 0.4471 0.0137 0.9838 0.02148098

-0.08831366 -0.1424189 0.2827434 -0.051993 2.938095 -9.335196 0.2719 -0.5203 1.3488 0.06876598 -0.04450589 -0.05846853 -0.085347 -0.021582 -8.864316 0.4664 0.011 0.9535 0.02148098

-0.1354375 0.1158899 0.2813471 -0.199143 2.768382 -9.518643 0.282 -0.5154 1.3223 0.06876598 -0.04450589 -0.05846853 -0.085347 -0.021582 -8.864316 0.4664 0.011 0.9535 0.02148098

0.02268928 0.3853687 0.2022837 -0.265851 2.702655 -9.501966 0.282 -0.5154 1.3223 0.01169371 0.1731367 -0.1055924 -0.205029 -0.027468 -8.719129 0.458 0.017 0.948 0.02148098
