0.01142932 -0.01896017 -0.5094949 270.4977 310.8524 48.96901

0.0174313 0.0001356697 -0.5096776 270.4252 288.3428 70.95481

0.0174313 0.0001356697 -0.5096776 270.4252 288.3428 70.95481

0.0174313 0.0001356697 -0.5096776 270.4252 288.3428 70.95481

0.0112436 -0.01924284 -0.5094884 270.7336 339.7424 19.4572

0.0144737 0.0003662682 -0.5097701 271.459 23.03533 336.2959

-0.00680192 -0.01828182 -0.5099248 271.0948 9.94679 348.9817

-0.00680192 -0.01828182 -0.5099248 271.0948 9.94679 348.9817

-0.003787425 -0.004029121 -0.5102679 271.6425 18.41317 340.5516

-0.0009117533 0.007375717 -0.5102437 271.8238 299.0653 59.89038

0.001971765 0.01806152 -0.5099743 273.7732 273.0365 85.87091

0.001971765 0.01806152 -0.5099743 273.7732 273.0365 85.87091

0.001971765 0.01806152 -0.5099743 276.0917 265.4858 93.35681

0.001971765 0.01806152 -0.5099743 278.4851 262.8633 95.93795

0.003915486 0.02357689 -0.5097378 280.9187 261.9688 96.79495

0.003915486 0.02357689 -0.5097378 280.9187 261.9688 96.79495

0.003915486 0.02357689 -0.5097378 283.382 261.2987 97.41229

0.003831621 0.02291897 -0.5097685 286.0501 261.1799 97.52095

0.003831621 0.02291897 -0.5097685 288.744 261.4179 97.27302

0.001271324 0.02997914 -0.5094149 288.744 261.4179 97.27301

0.001271324 0.02997914 -0.5094149 290.9129 262.1742 96.52231

0.001271324 0.02997914 -0.5094149 292.7814 262.8774 95.78018

-0.001374045 0.01974649 -0.5099137 294.6434 262.9789 95.55276

-0.001374045 0.01974649 -0.5099137 294.6434 262.9789 95.55276

-0.001374045 0.01974649 -0.5099137 296.7485 261.1143 96.92295

-0.001374045 0.01974649 -0.5099137 298.5757 259.1049 98.2897

0.004633728 0.0385512 -0.5088184 299.6213 257.517 98.99165

0.004633728 0.0385512 -0.5088184 299.6213 257.517 98.99165

-0.002215565 0.019044 -0.5099375 300.0373 257.4266 98.16129

0.003893043 0.03802465 -0.5088642 299.9698 257.1526 97.50455

0.004521354 0.0379145 -0.5088622 299.7351 258.5935 95.3922

0.004521354 0.0379145 -0.5088622 299.7351 258.5935 95.3922

0.004521354 0.0379145 -0.5088622 299.8103 258.0526 94.97991

0.004521354 0.0379145 -0.5088622 299.976 258.6833 93.49879

-0.002233839 0.01838293 -0.5099567 300.3373 257.9802 93.19048

-0.004907818 0.01839249 -0.5099376 300.3373 257.9802 93.19048

-0.004907818 0.01839249 -0.5099376 300.2288 256.4834 93.6258

-0.004907818 0.01839249 -0.5099376 300.459 257.0071 92.233

-0.01459565 0.0335113 -0.5089821 300.8871 255.804 92.29037

-0.01459565 0.0335113 -0.5089821 300.8871 255.804 92.29037

-0.02001228 0.01596548 -0.5096502 300.9431 255.2885 91.59124

-0.02001228 0.01596548 -0.5096502 300.9431 255.2885 91.59124

-0.02001228 0.01596548 -0.5096502 300.5445 254.9389 90.70196

-0.01969612 0.0159248 -0.5096609 298.9644 256.1716 89.18647

-0.01969612 0.0159248 -0.5096609 298.6289 257.1632 87.39602

-0.01350633 0.03509605 -0.5089024 298.6289 257.1632 87.39603

-0.01350633 0.03509605 -0.5089024 298.9674 256.8274 86.71512

-0.02034169 0.01569408 -0.509645 298.7769 255.9311 86.53537

-0.02034169 0.01569408 -0.509645 298.5983 256.9016 84.74425

-0.02034169 0.01569408 -0.509645 298.5983 256.9016 84.74425

-0.02034169 0.01569408 -0.509645 298.3568 255.2734 85.29602

-0.0138681 0.03487124 -0.5089076 298.3696 255.2526 84.35111

-0.0138681 0.03487124 -0.5089076 299.1245 255.2982 83.36957

-0.0138681 0.03487124 -0.5089076 299.1245 255.2982 83.36957

-0.0138681 0.03487124 -0.5089076 299.5103 254.1385 83.41846

-0.01355196 0.03482986 -0.5089157 299.4323 254.0592 82.4268

-0.01355196 0.03482986 -0.5089157 299.4323 254.0592 82.4268

-0.01355196 0.03482986 -0.5089157 299.1869 254.2229 81.20643

-0.02006415 0.01538572 -0.5096594 299.1869 254.2229 81.20643

-0.01981131 0.01535242 -0.5096676 298.9083 253.9914 80.30743

-0.01363547 0.03457237 -0.5089284 298.9082 253.9914 80.30743

-0.01363547 0.03457237 -0.5089284 298.8859 254.4032 78.81405

-0.01363547 0.03457237 -0.5089284 297.9463 256.6604 75.87463

-0.01363547 0.03457237 -0.5089284 297.9463 256.6604 75.87463

-0.02012216 0.01511742 -0.5096624 297.7554 257.5981 73.89217

-0.02012216 0.01511742 -0.5096624 297.4189 257.196 73.12011

-0.02012216 0.01511742 -0.5096624 297.4189 257.196 73.12011

-0.02005895 0.01510906 -0.5096645 297.7515 259.0106 70.43525

-0.01387657 0.03432778 -0.5089377 298.0327 256.3026 71.82568

-0.01387657 0.03432778 -0.5089377 298.0327 256.3026 71.82568

-0.01387657 0.03432778 -0.5089377 298.6487 256.9114 70.07391

-0.01368689 0.03430289 -0.5089424 298.268 254.9958 70.64414

-0.02014676 0.01483818 -0.5096669 298.268 254.9958 70.64414

-0.02014676 0.01483818 -0.5096669 298.632 256.1578 68.39079

-0.02014676 0.01483818 -0.5096669 298.6598 255.0887 68.0869

-0.01415162 0.03408231 -0.5089467 298.8712 255.9289 66.03151

-0.01415162 0.03408231 -0.5089467 298.8712 255.9289 66.03151

-0.01415162 0.03408231 -0.5089467 299.6063 255.8928 64.6975

-0.01415162 0.03408231 -0.5089467 300.2392 254.3515 64.70422

-0.02020643 0.01455837 -0.5096704 300.2392 254.3515 64.7042

-0.02020643 0.01455837 -0.5096704 301.7037 254.5673 63.21513

-0.02020643 0.01455837 -0.5096704 301.7339 253.0758 62.92751

-0.02020643 0.01455837 -0.5096704 301.7339 253.0758 62.92751

-0.01339022 0.03369616 -0.5089806 301.6246 254.7775 59.88369

-0.01339022 0.03369616 -0.5089806 301.6246 254.7775 59.88369

-0.01339022 0.03369616 -0.5089806 301.6246 254.7775 59.88369

-0.01979946 0.01421282 -0.5096881 303.7392 252.7754 60.46513

-0.01878797 0.01407938 -0.5097154 303.7392 252.7754 60.46513

-0.01878797 0.01407938 -0.5097154 305.7444 250.4971 60.97074

-0.01260719 0.03330308 -0.5090118 307.4748 248.0197 61.42404

-0.01260719 0.03330308 -0.5090118 307.4748 248.0197 61.42404

-0.01671582 0.01351015 -0.5097615 309.2539 245.8233 61.29762

-0.01671582 0.01351015 -0.5097615 310.5192 244.2185 60.08826

-0.01671582 0.01351015 -0.5097615 310.5192 244.2185 60.08826

-0.009963149 0.03354129 -0.5090132 312.285 246.0398 56.31802

-0.006988057 0.03317053 -0.5090148 312.285 246.0398 56.31802

-0.006988057 0.03317053 -0.5090148 310.6654 243.8873 56.2656

-0.006988057 0.03317053 -0.5090148 311.1041 246.1512 52.94754

-0.01137761 0.01451494 -0.5098089 309.597 246.4679 51.93925

-5.040737E-05 0.01311436 -0.509514 309.597 246.4679 51.93926

-5.040737E-05 0.01311436 -0.509514 310.2384 248.3952 49.78906

-5.040737E-05 0.01311436 -0.509514 308.8173 248.6644 49.06755

0.004909556 0.03001184 -0.5087747 308.8173 248.6644 49.06755

0.02144623 0.0276414 -0.5072713 309.442 249.7189 48.18904

0.02144623 0.0276414 -0.5072713 309.442 249.7189 48.18904

0.02144623 0.0276414 -0.5072713 309.4982 252.6648 44.75843

0.02144623 0.0276414 -0.5072713 308.1795 254.1691 42.91454

0.03031344 0.007484436 -0.5060201 308.1795 254.1691 42.91455

0.03031344 0.007484436 -0.5060201 309.0525 256.5504 40.37839

0.03031344 0.007484436 -0.5060201 307.7596 257.5992 38.59771

0.03635453 0.02667206 -0.5049735 307.7596 257.5992 38.59772

0.01178676 0.03007253 -0.5083138 309.0148 259.6825 35.91943

0.01178676 0.03007253 -0.5083138 308.2732 261.0207 34.50728

0.007055424 0.01140461 -0.5091624 308.2732 261.0207 34.50729

0.007055424 0.01140461 -0.5091624 310.5075 261.7728 33.51483

0.1045248 0.01555555 -0.4806314 310.523 263.044 32.78409

0.1045248 0.01555555 -0.4806314 310.523 263.044 32.78409

0.09999917 -0.001264458 -0.4818428 312.6846 263.3832 31.84165

0.09999917 -0.001264458 -0.4818428 312.6846 263.3832 31.84165

0.1314536 0.01149805 -0.4635577 312.6846 263.3832 31.84165

0.1253921 0.007692861 -0.4653125 314.4739 263.4197 31.49951

0.1206028 0.003307858 -0.4666284 313.8391 263.0211 32.48392

0.1206028 0.003307858 -0.4666284 315.6638 262.7971 33.02428

0.1355058 -0.0009454536 -0.4533888 315.6638 262.7971 33.02429

0.1331357 -0.00513093 -0.4540624 317.6133 261.5439 33.85939

0.1318697 -0.008107967 -0.4543883 318.8121 260.5479 35.3207

0.1318697 -0.008107967 -0.4543883 318.8121 260.5479 35.3207

0.1428593 -0.01589664 -0.4442892 319.6599 260.0478 36.72697

0.1433178 -0.02593912 -0.4436683 319.6599 260.0478 36.72697

0.1433178 -0.02593912 -0.4436683 319.6583 260.0822 37.81775

0.1455037 -0.03509614 -0.4423249 320.2583 260.1967 38.77187

0.1542071 -0.03186195 -0.4335775 320.6502 259.8153 40.23278

0.1561829 -0.04126127 -0.4320751 320.6502 259.8152 40.23279

0.1597452 -0.04888178 -0.4299726 322.0857 259.5005 41.22283

0.1631641 -0.05718178 -0.427659 322.6204 258.7211 42.98645

0.1682602 -0.05409179 -0.4218932 322.6204 258.721 42.98645

0.173085 -0.06050714 -0.4190606 322.6204 258.7211 42.98645

0.1788203 -0.06660221 -0.4157147 324.0291 258.4448 44.06816

0.1788203 -0.06660221 -0.4157147 325.253 258.4638 45.09719

0.1925843 -0.0675137 -0.4041859 325.2531 258.4638 45.09719

0.2064395 -0.07907607 -0.395149 325.8755 258.4798 46.31201

0.2175316 -0.08347332 -0.3882335 326.1402 258.6346 47.36093

0.2175316 -0.08347332 -0.3882335 326.1402 258.6346 47.36093

0.2213181 -0.07943976 -0.3820568 327.8688 256.8427 49.45226

0.236708 -0.08972938 -0.3703752 327.8688 256.8427 49.45227

0.2388764 -0.1019783 -0.3657845 329.7341 255.972 51.11854

0.2388764 -0.1019783 -0.3657845 331.0718 255.6413 52.78583

0.2464804 -0.111545 -0.3524567 332.626 255.6019 54.23242

0.257262 -0.1162665 -0.3431019 332.626 255.6019 54.23242

0.257262 -0.1162665 -0.3431019 332.626 255.6019 54.23242

0.2642987 -0.1308627 -0.3323277 334.0509 255.3575 55.99067

0.2653921 -0.1286586 -0.3298266 334.0509 255.3575 55.99067

0.2744774 -0.1224886 -0.3247004 335.9058 254.9838 57.65504

0.2815243 -0.1267411 -0.3169422 335.9058 254.9838 57.65505

0.2815243 -0.1267411 -0.3169422 338.081 254.4834 59.18525

0.2942398 -0.115279 -0.3089549 340.0142 254.0096 60.97535

0.2965461 -0.1283409 -0.3015103 340.0142 254.0096 60.97535

0.2965461 -0.1283409 -0.3015103 342.1528 253.6528 62.61586

0.3065567 -0.1210046 -0.2944491 344.3139 253.2488 64.36436

0.3078654 -0.1324979 -0.2885901 344.3139 253.2488 64.36436

0.3078654 -0.1324979 -0.2885901 346.8346 252.9157 65.75699

0.3078654 -0.1324979 -0.2885901 350.7612 252.5322 66.09442

0.3143487 -0.1260564 -0.2844567 350.7612 252.5322 66.09442

0.3141402 -0.1269446 -0.2853485 354.5148 252.4516 66.28265

0.3144692 -0.1392765 -0.2791665 354.5148 252.4516 66.28265

0.3144692 -0.1392765 -0.2791665 357.9678 252.5399 66.74191

0.3162928 -0.151012 -0.2708819 357.9678 252.5399 66.74191

0.3163929 -0.1505273 -0.2704794 1.263993 252.8768 67.21471

0.3163929 -0.1505273 -0.2704794 4.394276 253.6016 67.76411

0.3220658 -0.1468023 -0.265791 7.407887 254.5567 68.23885

0.3220658 -0.1468023 -0.265791 7.407887 254.5567 68.23885

0.3217377 -0.1484783 -0.267229 10.17155 255.8008 68.87125

0.3311505 -0.1499173 -0.25463 10.17155 255.8008 68.87125

0.332342 -0.1590117 -0.2474599 12.6101 257.3079 69.70857

0.3339038 -0.1665184 -0.2403168 12.6101 257.3079 69.70858

0.3337902 -0.1672904 -0.2408706 14.61075 258.9904 70.7308

0.3436061 -0.1557571 -0.2347236 16.55393 260.9047 71.74834

0.3421236 -0.1681626 -0.2282397 18.19243 263.1138 72.7695

0.3421236 -0.1681626 -0.2282397 18.19243 263.1138 72.7695

0.338779 -0.1878345 -0.2226941 19.88517 265.5111 73.78167

0.3387354 -0.195256 -0.2162848 19.88517 265.5111 73.78169

0.3422562 -0.1900208 -0.215403 21.29468 268.0654 74.98995

0.3422562 -0.1900208 -0.215403 23.31096 269.6852 75.96758

0.3337478 -0.2054844 -0.2176144 25.18626 271.588 76.92651

0.3378702 -0.1985228 -0.2177151 25.18627 271.588 76.92651

0.3357845 -0.2051363 -0.2147913 26.82152 274.0349 78.18526

0.3357845 -0.2051363 -0.2147913 28.43845 276.6442 79.71573

0.338328 -0.200807 -0.2165826 28.43847 276.6442 79.71572

0.338328 -0.200807 -0.2165826 29.79179 279.3315 81.38556

0.3313061 -0.2041381 -0.2241902 30.85246 281.9431 82.84887

0.3338517 -0.2041601 -0.220361 30.85246 281.9431 82.84888

0.333447 -0.2063952 -0.2215233 31.67271 284.6736 84.20309

0.333447 -0.2063952 -0.2215233 31.67271 284.6736 84.20309

0.3361239 -0.2057581 -0.2180431 32.3973 287.5723 85.57475

0.3398882 -0.2057395 -0.2121456 32.3973 287.5723 85.57476

0.3372429 -0.2105429 -0.2150282 32.80282 290.1952 86.94189

0.3372429 -0.2105429 -0.2150282 32.98078 292.7265 88.56607

0.3288808 -0.2254067 -0.2129023 32.87223 295.4786 90.34034

0.3288808 -0.2254067 -0.2129023 32.87223 295.4786 90.34034

0.3373396 -0.2123299 -0.2147816 33.00639 297.7983 91.70784

0.3413383 -0.2086083 -0.212094 33.0064 297.7983 91.70784

0.3444751 -0.2018652 -0.2135427 33.0064 297.7983 91.70783

0.3444751 -0.2018652 -0.2135427 32.99549 300.1566 93.09736

0.3440095 -0.2047122 -0.214903 32.99245 302.3758 94.46721

0.3392467 -0.2164809 -0.2109043 32.99246 302.3758 94.46721

0.3426106 -0.2115246 -0.2104952 33.03269 304.3054 95.67776

0.3426106 -0.2115246 -0.2104952 32.56366 306.1996 96.90818

0.3421795 -0.2155578 -0.2043188 32.56366 306.1996 96.90817

0.3420565 -0.2161813 -0.2038655 31.98532 308.2088 98.28164

0.3420565 -0.2161813 -0.2038655 31.29098 310.3987 99.67697

0.338327 -0.2266127 -0.1986949 31.29098 310.3987 99.67696

0.3419561 -0.2145092 -0.1953599 30.45274 312.4387 100.8354

0.3395155 -0.2204497 -0.1929891 29.49015 314.1879 101.6505

0.3395155 -0.2204497 -0.1929891 29.49015 314.1879 101.6505

0.3410744 -0.208392 -0.187369 28.41185 315.8925 102.5329

0.3448787 -0.2000599 -0.1894752 27.25654 317.7269 103.6667

0.3448787 -0.2000599 -0.1894752 27.25654 317.7269 103.6667

0.3371295 -0.2140735 -0.1881022 26.1078 319.5693 104.749

0.3342941 -0.2015167 -0.1822955 26.10779 319.5693 104.749

0.3342941 -0.2015167 -0.1822955 24.83771 320.8929 105.1207

0.3278566 -0.2125624 -0.1814398 24.83771 320.8929 105.1207

0.3285093 -0.2100131 -0.1832193 23.52662 322.1451 105.4866

0.3290651 -0.1944282 -0.1751948 23.52662 322.1451 105.4867

0.3321773 -0.1936677 -0.1700894 22.30409 322.3595 105.9082

0.3295935 -0.19862 -0.1694036 21.46233 323.3467 105.5552

0.3295935 -0.19862 -0.1694036 21.46233 323.3467 105.5552

0.3265712 -0.1867374 -0.1539041 21.46232 323.3467 105.5552

0.3299466 -0.1851057 -0.148584 21.29745 321.941 103.2384

0.3294655 -0.1903137 -0.1429659 21.29743 321.941 103.2384

0.33332 -0.1852462 -0.1406688 21.29744 321.941 103.2384

0.3304097 -0.167855 -0.1317304 21.29744 321.941 103.2384

0.3256571 -0.1787915 -0.1291502 21.29744 321.941 103.2384

0.3162717 -0.1959955 -0.1275017 21.29745 321.941 103.2384

0.3151331 -0.1885854 -0.1239583 23.01029 321.6458 104.4073

0.3200635 -0.1809243 -0.1227385 23.01029 321.6458 104.4073

0.3156591 -0.1880623 -0.1234135 23.01029 321.6458 104.4073

0.3156591 -0.1880623 -0.1234135 22.20879 320.6713 102.3445

0.3146575 -0.1921106 -0.1196793 22.20878 320.6713 102.3445

0.3181275 -0.1867776 -0.1189454 22.20877 320.6713 102.3445

0.3119297 -0.1624378 -0.1071866 22.41416 319.8347 104.145

0.309729 -0.1688754 -0.1035574 22.41417 319.8347 104.145

0.3085085 -0.1708373 -0.1039822 22.41416 319.8347 104.145

0.3085085 -0.1708373 -0.1039822 22.90292 320.1473 102.0846

0.3085085 -0.1708373 -0.1039822 22.06963 320.2018 103.6862

0.2949767 -0.1639167 -0.08989089 22.97771 320.4442 101.7733

0.2949767 -0.1639167 -0.08989089 22.97771 320.4442 101.7733

0.286663 -0.1795301 -0.08691117 22.26974 319.7159 103.1337

0.286663 -0.1795301 -0.08691117 22.49995 316.8625 100.9825

0.2840702 -0.1842428 -0.08555126 22.49995 316.8625 100.9825

0.2831443 -0.188178 -0.07986641 22.71667 314.1091 98.72382

0.2752602 -0.1654999 -0.06944422 22.71666 314.1092 98.72382

0.2752602 -0.1654999 -0.06944422 22.71666 314.1092 98.72382

0.2752602 -0.1654999 -0.06944422 23.22768 311.4481 96.1597

0.273436 -0.1705219 -0.06431144 24.30006 308.9579 93.41943

0.2660616 -0.1605533 -0.05845091 26.07785 308.9409 93.78712

0.2660616 -0.1605533 -0.05845091 26.07785 308.9409 93.78712

0.2638928 -0.1660924 -0.05250277 26.00812 305.7529 92.67751

0.2638928 -0.1660924 -0.05250277 27.24334 306.5052 92.40981

0.2589113 -0.1560709 -0.04876234 26.11545 304.4942 91.51991

0.2589113 -0.1560709 -0.04876234 26.11545 304.4942 91.51991

0.252909 -0.1659001 -0.04780335 27.31608 305.063 90.74475

0.252909 -0.1659001 -0.04780335 26.45992 303.5604 88.76334

0.2485014 -0.1572041 -0.04478531 27.5757 304.5308 89.90887

0.2485014 -0.1572041 -0.04478531 27.5757 304.5308 89.90887

0.2485014 -0.1572041 -0.04478531 26.48023 302.4848 89.275

0.2488003 -0.1518634 -0.04127675 27.274 303.7642 89.62139

0.2488003 -0.1518634 -0.04127675 27.274 303.7642 89.62139

0.2519865 -0.1476905 -0.03685318 26.45304 300.9868 88.17583

0.2485968 -0.1422089 -0.03503066 27.75444 301.222 89.36274

0.2485968 -0.1422089 -0.03503066 27.75444 301.222 89.36274

0.2485968 -0.1422089 -0.03503066 26.23434 300.5753 88.43438

0.2485968 -0.1422089 -0.03503066 26.23434 300.5753 88.43438

0.2462474 -0.138603 -0.03384088 27.65909 300.4426 88.76932

0.2462474 -0.138603 -0.03384088 26.28184 299.7116 88.27835

0.2462474 -0.138603 -0.03384088 26.28184 299.7116 88.27835

0.2462474 -0.138603 -0.03384088 28.00097 300.0826 88.99538

0.2462474 -0.138603 -0.03384088 27.28357 297.4305 87.82298

0.2453746 -0.1404619 -0.03248854 27.28357 297.4305 87.82298

0.2453746 -0.1404619 -0.03248854 28.67651 298.0627 87.30679

0.2450866 -0.1419811 -0.02770708 27.65461 295.5696 85.99501

0.2454235 -0.142499 -0.02786598 27.65461 295.5697 85.99503

0.2454235 -0.142499 -0.02786598 29.13363 296.0914 85.69004

0.2454235 -0.142499 -0.02786598 27.99238 293.8275 83.94875

0.2471051 -0.1396457 -0.02744628 27.99238 293.8276 83.94874

0.2506287 -0.145061 -0.02921187 27.99238 293.8275 83.94873

0.2495471 -0.1477171 -0.02483381 29.40795 294.4059 84.33953

0.2506354 -0.145853 -0.02489184 29.40794 294.4059 84.33954

0.2470801 -0.1529323 -0.01655213 28.19918 292.0579 83.48807

0.251393 -0.160463 -0.01865746 29.53231 293.004 83.68383

0.247299 -0.1674629 -0.009710069 29.53232 293.004 83.68383

0.2432279 -0.1735947 -4.563331E-06 28.06837 292.0047 83.14545

0.2387518 -0.1793981 0.01043089 29.10671 293.2418 83.03693

0.2451501 -0.1944295 0.007587547 29.10672 293.2418 83.03692

0.2401053 -0.19986 0.01908925 27.72074 291.5211 82.88361

0.237178 -0.2012944 0.03444005 27.86143 292.8035 85.21987

0.2412855 -0.1926072 0.05140782 27.86143 292.8035 85.21987

0.2473942 -0.2092901 0.04960926 26.47601 291.0106 84.80994

0.2460548 -0.2057178 0.06785691 27.82247 291.7515 84.27936

0.2458439 -0.2029373 0.07644963 27.82248 291.7515 84.27937

0.244417 -0.1984593 0.09133197 26.72697 290.0015 82.44141

0.2495764 -0.2138669 0.09063949 28.18021 291.0452 82.71022

0.2473035 -0.2142835 0.0957418 27.0434 290.251 83.61911

0.2473035 -0.2142835 0.0957418 27.0434 290.251 83.61911

0.2561862 -0.1983523 0.1061506 27.19562 291.9433 85.65388

0.2614003 -0.2140738 0.105371 27.19562 291.9433 85.65388

0.2667818 -0.200495 0.1178556 26.0588 290.7267 83.68143

0.2646688 -0.1963157 0.1291176 27.11366 290.8158 85.28527

0.2636801 -0.1947458 0.1334451 27.11366 290.8158 85.28527

0.2698893 -0.2138408 0.1328541 27.11366 290.8158 85.28528

0.2716844 -0.2054202 0.1421564 25.92075 290.1288 83.32995

0.2716844 -0.2054202 0.1421564 27.20956 291.1701 84.49131

0.2719406 -0.2027878 0.1454088 27.20955 291.1701 84.49132

0.2818045 -0.2110344 0.1522761 25.92217 289.4327 82.67098

0.2818045 -0.2110344 0.1522761 25.92217 289.4327 82.67098

0.2786449 -0.2144471 0.1533192 26.83672 289.8205 81.13232

0.2786449 -0.2144471 0.1533192 25.99222 289.4263 82.83076

0.2838219 -0.237048 0.1513006 25.99222 289.4263 82.83076

0.2846941 -0.2315537 0.1580212 26.38261 290.0392 85.41264

0.2846941 -0.2315537 0.1580212 26.52489 290.6054 88.25616

0.2846941 -0.2315537 0.1580212 25.80742 291.2288 90.90612

0.2854716 -0.2568717 0.1545662 25.6224 291.342 89.09753

0.2854716 -0.2568717 0.1545662 25.6224 291.342 89.09753

0.2856467 -0.2530241 0.1604761 24.93478 291.1514 87.52169

0.2805793 -0.2744453 0.1650933 25.73276 292.1962 90.50597

0.2805793 -0.2744453 0.1650933 25.73276 292.1962 90.50597

0.2800781 -0.2743563 0.1660892 24.91133 290.9958 89.52039

0.2934712 -0.2570113 0.1706477 26.64215 292.4961 90.80128

0.307301 -0.25561 0.1719827 26.64215 292.4961 90.80128

0.3196246 -0.2371155 0.1759683 25.85256 290.8422 90.85963

0.3196246 -0.2371155 0.1759683 27.41709 292.1288 91.23468

0.3317181 -0.2177612 0.1785822 27.41707 292.1288 91.23467

0.3466995 -0.2157515 0.1759818 28.51599 293.0346 90.29344

0.3562247 -0.2007685 0.1746851 28.51599 293.0346 90.29344

0.3562247 -0.2007685 0.1746851 28.51599 293.0346 90.29344

0.3590897 -0.1948669 0.1755003 27.36794 291.9599 91.10987

0.3583954 -0.2193627 0.1669558 27.36794 291.9599 91.10986

0.3669559 -0.2045685 0.1671424 28.44132 293.6 92.47295

0.3669559 -0.2045685 0.1671424 29.55849 295.0878 93.97112

0.3724625 -0.1956186 0.1656699 30.71609 296.0617 94.69896

0.3745286 -0.1894881 0.1681191 30.71609 296.0617 94.69895

0.3770281 -0.2059384 0.1651566 31.98866 295.4225 94.7757

0.3770281 -0.2059384 0.1651566 30.95312 294.3001 96.4213

0.3710243 -0.2163146 0.1654884 30.95312 294.3001 96.42129

0.3829876 -0.2134707 0.163797 32.59116 295.4263 97.92046

0.3829876 -0.2134707 0.163797 32.13799 295.8904 100.6917

0.3897071 -0.1993798 0.165695 32.13799 295.8904 100.6917

0.3897071 -0.1993798 0.165695 30.96004 296.4243 101.375

0.3884827 -0.2129163 0.1659849 31.35926 298.3689 104.1052

0.3820665 -0.2210731 0.1701615 31.35925 298.3689 104.1052

0.3820665 -0.2210731 0.1701615 30.72261 296.1979 103.722

0.3854227 -0.212118 0.1739492 31.87912 297.6523 103.7983

0.3833753 -0.2200588 0.1741206 31.87912 297.6523 103.7983

0.3833753 -0.2200588 0.1741206 31.87912 297.6523 103.7983

0.3843706 -0.2150888 0.1780915 30.71289 295.8442 103.2926

0.3843706 -0.2150888 0.1780915 30.71289 295.8442 103.2926

0.3868549 -0.2132878 0.1801273 30.02012 296.6877 101.734

0.3914676 -0.1978001 0.1876765 30.02012 296.6877 101.734

0.3914676 -0.1978001 0.1876765 30.02012 296.6877 101.734

0.3889274 -0.2030924 0.1873051 30.02013 296.6877 101.734

0.3894006 -0.2082804 0.1858024 28.19775 296.9881 101.2099

0.3938455 -0.1997062 0.1858475 26.4183 297.7744 101.7923

0.3938455 -0.1997062 0.1858475 27.82272 298.7764 103.6123

0.3875363 -0.2149729 0.1820396 27.82272 298.7764 103.6123

0.3960798 -0.2034794 0.1796116 27.11755 297.2646 102.7342

0.3891608 -0.2152591 0.1809993 26.8674 296.6192 100.8348

0.3891608 -0.2152591 0.1809993 28.30134 297.9573 102.8434

0.3984315 -0.202127 0.1758991 28.30134 297.9573 102.8434

0.3898114 -0.2163309 0.1767303 29.84917 298.0282 103.3044

0.3898114 -0.2163309 0.1767303 30.14794 300.5324 104.5652

0.3988338 -0.200664 0.1750746 29.97446 297.9209 102.9235

0.3988338 -0.200664 0.1750746 29.97446 297.9209 102.9235

0.3942222 -0.2120293 0.1730702 30.86518 299.8263 103.2412

0.3942222 -0.2120293 0.1730702 29.82247 298.9925 101.2965

0.3981093 -0.2006044 0.1777291 29.82248 298.9925 101.2965

0.3953894 -0.2051593 0.1785993 30.89291 300.2309 103.2094

0.3955037 -0.2066831 0.178143 30.89292 300.2309 103.2094

0.3963692 -0.2019713 0.18159 29.28169 299.8643 104.2569

0.3963692 -0.2019713 0.18159 29.28169 299.8643 104.2569

0.3935677 -0.2078195 0.1810842 27.92154 301.2398 106.4431

0.395864 -0.1956476 0.1888599 27.96529 300.2424 103.9839

0.395864 -0.1956476 0.1888599 27.96529 300.2424 103.9839

0.3918051 -0.203635 0.188881 26.56721 298.6613 104.936

0.3910582 -0.2029417 0.1911612 27.3471 298.7716 105.8306

0.3866411 -0.2118269 0.1893336 26.97382 296.9373 103.1268

0.3866411 -0.2118269 0.1893336 26.97382 296.9373 103.1268

0.386473 -0.2138256 0.1874204 26.59277 298.6612 104.3558

0.381544 -0.2274536 0.1813786 26.59277 298.6612 104.3558

0.3812948 -0.2200888 0.1834491 25.35607 297.9619 105.4104

0.3812948 -0.2200888 0.1834491 24.19631 297.0814 106.6716

0.3856919 -0.2144868 0.1808744 24.19631 297.0814 106.6716

0.3722892 -0.243634 0.1718185 23.21314 296.9946 108.748

0.3717324 -0.2201149 0.177616 23.21314 296.9946 108.748

0.356596 -0.2502446 0.1685228 21.83482 296.5654 110.6

0.338141 -0.2802057 0.1591492 21.83481 296.5654 110.5999

0.338141 -0.2802057 0.1591492 20.76127 296.0143 112.497

0.3235635 -0.2559512 0.1555877 18.40898 297.4562 114.5713

0.3237657 -0.2568625 0.1536534 18.40898 297.4562 114.5714

0.3237657 -0.2568625 0.1536534 16.69766 298.4594 116.4403

0.3188769 -0.2624955 0.1543552 16.69765 298.4594 116.4403

0.3106367 -0.2081163 0.1588419 16.02572 299.0129 117.2735

0.3106367 -0.2081163 0.1588419 16.44783 298.9724 116.6273

0.3106367 -0.2081163 0.1588419 16.44783 298.9724 116.6273

0.3082507 -0.2112962 0.1592915 17.55347 298.331 114.4885

0.2921232 -0.1567607 0.1561915 18.66748 297.036 111.336

0.2921232 -0.1567607 0.1561915 18.66748 297.036 111.336

0.2921232 -0.1567607 0.1561915 19.4364 295.1478 107.4576

0.290513 -0.1598217 0.1560925 19.32799 293.3614 103.6159

0.2745346 -0.1266427 0.1503007 19.32799 293.3614 103.6159

0.2745346 -0.1266427 0.1503007 18.35025 292.2379 100.186

0.2745346 -0.1266427 0.1503007 16.97369 291.4905 97.22182

0.2732164 -0.1295826 0.1501967 16.97367 291.4905 97.22181

0.2605931 -0.1092087 0.1448894 15.39301 291.06 94.4828

0.251521 -0.1325749 0.1413836 15.39302 291.06 94.4828

0.251521 -0.1325749 0.1413836 13.8986 290.8924 91.81813

0.2444336 -0.1529101 0.1330375 13.8986 290.8924 91.81812

0.2345743 -0.134806 0.1288097 11.45148 290.4391 89.97305

0.2364176 -0.135755 0.1243664 8.598712 290.1239 88.01266

0.2364176 -0.135755 0.1243664 8.598712 290.1239 88.01266

0.2289447 -0.1531637 0.1179613 5.813347 290.0836 85.80374

0.2171308 -0.1543742 0.111515 3.168668 289.9601 83.76556

0.2171308 -0.1543742 0.111515 3.168668 289.9601 83.76556

0.2093196 -0.1680795 0.106524 0.6513562 290.0978 81.81448

0.2093196 -0.1680795 0.106524 358.3102 289.9929 80.13579

0.2056549 -0.1604194 0.105094 358.3102 289.9929 80.13578

0.1978496 -0.1726635 0.100578 356.1494 289.4138 79.15294

0.1978496 -0.1726635 0.100578 354.6002 288.5829 78.82944

0.1978496 -0.1726635 0.100578 354.6002 288.5829 78.82944

0.1881608 -0.1741544 0.09522161 353.9688 287.9697 78.73739

0.1881608 -0.1741544 0.09522161 353.9688 287.9697 78.73739

0.1881608 -0.1741544 0.09522161 353.9652 287.8138 78.91965

0.1881608 -0.1741544 0.09522161 353.0521 286.9121 79.27966

0.1810576 -0.1741943 0.09580663 353.0521 286.9121 79.27967

0.1810576 -0.1741943 0.09580663 353.0521 286.9121 79.27967

0.1807216 -0.1725791 0.0993004 353.2994 286.9944 79.27752

0.1807216 -0.1725791 0.0993004 351.5418 286.2781 79.98714

0.1802206 -0.1714253 0.09908687 351.5418 286.2781 79.98714

0.1786048 -0.171784 0.1013653 350.3783 285.8211 79.65858

0.1786048 -0.171784 0.1013653 351.1198 286.6353 80.82944

0.1786048 -0.171784 0.1013653 351.1198 286.6353 80.82944

0.1788541 -0.1723608 0.1014746 350.7213 285.7384 81.69056

0.1788541 -0.1723608 0.1014746 350.9124 286.8668 80.87951

0.1788541 -0.1723608 0.1014746 350.9124 286.8668 80.87951

0.1788541 -0.1723608 0.1014746 349.0886 285.9115 81.32082

0.179304 -0.1734107 0.1056994 349.0886 285.9116 81.32083

0.179304 -0.1734107 0.1056994 349.805 287.4091 81.57818

0.179304 -0.1734107 0.1056994 347.858 286.3633 82.60083

0.179304 -0.1734107 0.1056994 347.858 286.3633 82.60083

0.1766359 -0.1840154 0.09627724 348.4786 287.2454 82.65619

0.1766359 -0.1840154 0.09627724 346.3181 286.5446 82.94111

0.1728736 -0.1923025 0.08640431 346.3181 286.5446 82.94111

0.1686143 -0.2000636 0.07664859 346.7224 287.8995 82.50247

0.1694622 -0.2028017 0.07680202 344.9031 286.7099 83.40274

0.1694622 -0.2028017 0.07680202 344.9031 286.7099 83.40274

0.1641982 -0.2101787 0.06788488 344.9031 286.7099 83.40274

0.1684165 -0.2105816 0.05509775 345.5277 288.1605 83.52517

0.1694409 -0.2142668 0.05496221 342.5701 289.234 83.1964

0.1694409 -0.2142668 0.05496221 342.5701 289.234 83.1964

0.1694409 -0.2142668 0.05496221 339.5762 290.36 83.02383

0.1694409 -0.2142668 0.05496221 336.5994 291.7888 83.1554

0.1781395 -0.213748 0.04063484 336.5994 291.7888 83.15538

0.1781395 -0.213748 0.04063484 333.7469 293.6162 82.94302

0.1781395 -0.213748 0.04063484 333.3259 297.1704 83.11636

0.1781161 -0.215055 0.03315245 333.3259 297.1704 83.11636

0.180237 -0.2233531 0.03226095 331.2795 296.1434 84.27542

0.180237 -0.2233531 0.03226095 331.4514 295.424 85.76079

0.180237 -0.2233531 0.03226095 331.4514 295.424 85.76079

0.180237 -0.2233531 0.03226095 330.5716 294.4859 85.83627

0.1823318 -0.2329414 0.03106826 330.5716 294.4859 85.83627

0.1835433 -0.2336058 0.01455993 331.1137 294.8879 85.76868

0.1835433 -0.2336058 0.01455993 329.3911 294.9015 84.58772

0.1835433 -0.2336058 0.01455993 329.3911 294.9015 84.58772

0.1859223 -0.2478033 0.01173843 328.4787 296.5996 82.5051

0.1859223 -0.2478033 0.01173843 328.4787 296.5996 82.5051

0.1858676 -0.2479947 0.007952356 328.9526 296.712 82.50875

0.1858676 -0.2479947 0.007952356 328.9526 296.712 82.50875

0.1872565 -0.261961 0.004960069 326.1586 296.3796 82.73505

0.1890543 -0.2607087 0.001616621 326.5904 296.9165 84.84742

0.1890543 -0.2607087 0.001616621 326.5904 296.9165 84.84742

0.1890543 -0.2607087 0.001616621 323.8434 297.4517 84.43401

0.1874908 -0.2744928 -0.0150648 321.0179 298.8127 83.47022

0.1874908 -0.2744928 -0.0150648 321.0179 298.8127 83.47022

0.1874908 -0.2744928 -0.0150648 319.0828 300.1982 81.74484

0.1874908 -0.2744928 -0.0150648 320.0947 302.023 82.11802

0.187156 -0.2879831 -0.01891025 320.0947 302.023 82.11802

0.1867359 -0.2881857 -0.01994894 318.3973 300.8979 83.29417

0.1867359 -0.2881857 -0.01994894 318.3973 300.8979 83.29417

0.1867359 -0.2881857 -0.01994894 318.4622 299.8269 84.38203

0.1849886 -0.3055704 -0.02495596 317.2639 300.9586 82.70556

0.184398 -0.3046991 -0.03705033 317.7939 303.1895 81.34633

0.183489 -0.305157 -0.03778664 317.7939 303.1894 81.34634

0.183489 -0.305157 -0.03778664 317.7939 303.1894 81.34634

0.1822875 -0.3231305 -0.04332275 317.1011 303.0704 80.82905

0.1940482 -0.3140259 -0.05702617 317.1011 303.0705 80.82904

0.1940482 -0.3140259 -0.05702617 318.0729 303.4399 80.78221

0.2057165 -0.3038467 -0.06983417 319.3046 303.773 80.57732

0.2142234 -0.3111534 -0.09065683 320.1828 303.8949 80.55061

0.2270451 -0.2982976 -0.1019602 320.1828 303.8949 80.55062

0.2270451 -0.2982976 -0.1019602 320.6056 302.8123 81.5093

0.2398182 -0.2843081 -0.1121734 320.6056 302.8123 81.5093

0.2482087 -0.2928987 -0.1359387 321.2224 302.9979 81.85004

0.2618101 -0.2759236 -0.1455961 321.2554 304.2971 80.64273

0.2618101 -0.2759236 -0.1455961 320.7754 306.2571 79.04514

0.2618101 -0.2759236 -0.1455961 320.7754 306.2571 79.04514

0.2712311 -0.2802995 -0.1693679 320.1531 307.3694 77.83732

0.2712311 -0.2802995 -0.1693679 318.1628 306.4641 77.57289

0.2867206 -0.2597072 -0.1765307 316.951 303.8574 79.64771

0.3013811 -0.23817 -0.1823846 316.951 303.8574 79.64769

0.3086784 -0.24153 -0.2107073 316.6583 302.4089 81.2433

0.3086784 -0.24153 -0.2107073 316.6583 302.4089 81.2433

0.3216492 -0.2180979 -0.2167758 315.1591 300.8441 81.77058

0.3243882 -0.2176756 -0.24667 315.1591 300.8441 81.77056

0.3342339 -0.1933085 -0.2537242 315.2794 301.3771 81.73641

0.3342339 -0.1933085 -0.2537242 315.2794 301.3771 81.73641

0.3410312 -0.169534 -0.2615577 315.293 301.5656 81.78706

0.3291542 -0.1748488 -0.2954293 315.293 301.5656 81.78705

0.3291542 -0.1748488 -0.2954293 315.293 301.5656 81.78705

0.3244167 -0.1606403 -0.3084503 315.2516 301.6331 81.85553

0.3244167 -0.1606403 -0.3084503 313.1193 299.6856 83.8147

0.3049761 -0.1685942 -0.3372211 311.1627 297.472 85.8923

0.3049761 -0.1685942 -0.3372211 311.1627 297.472 85.8923

0.2963357 -0.1671074 -0.3455617 309.2802 294.7607 88.23969

0.2963357 -0.1671074 -0.3455617 307.6014 292.072 90.06617

0.2910397 -0.1543732 -0.3639571 307.0075 290.7644 90.82049

0.2910397 -0.1543732 -0.3639571 307.0075 290.7644 90.82049

0.2938371 -0.1316894 -0.370564 305.5669 290.9272 89.57032

0.2938371 -0.1316894 -0.370564 303.6503 293.7997 86.44566

0.2844659 -0.1185075 -0.3885984 300.9791 296.3654 83.45303

0.2771071 -0.1098387 -0.3963846 300.9791 296.3654 83.45303

0.2771071 -0.1098387 -0.3963846 298.5928 299.3727 80.5579

0.2680392 -0.09762368 -0.405707 298.5928 299.3727 80.55791

0.2380205 -0.1114498 -0.4275461 298.5928 299.3727 80.55789

0.2380205 -0.1114498 -0.4275461 298.5488 303.2063 77.62897

0.2307197 -0.09102613 -0.4362948 296.2498 299.5998 81.13795

0.2170504 -0.0921316 -0.4430253 296.2498 299.5999 81.13793

0.1994774 -0.07892887 -0.4572016 294.5423 294.6378 86.00452

0.1994774 -0.07892887 -0.4572016 293.3096 289.272 91.06492

0.1994774 -0.07892887 -0.4572016 293.7104 288.9844 91.49491

0.1859359 -0.07518465 -0.463497 293.7104 288.9845 91.4949

0.1570937 -0.06889045 -0.4779555 293.1048 284.7081 95.12706
