-0.01466233 -5.722046E-08 -0.5098563 270.0198 -2.561322E-06 0

-0.009059323 0.01968281 -0.5096067 270.1968 330.7037 29.22725

-0.009059323 0.01968281 -0.5096067 270.1968 330.7037 29.22725

-0.009059323 0.01968281 -0.5096067 270.1968 330.7037 29.22725

-0.01257266 0.00129324 -0.5099105 270.0343 359.9423 0

-0.009497049 0.01824097 -0.509683 270.8458 38.29011 321.7153

-0.01407625 -0.0009220504 -0.5099026 270.6585 42.51657 317.3479

-0.01407625 -0.0009220504 -0.5099026 270.6585 42.51657 317.3479

-0.01215411 0.002945881 -0.5099444 272.7067 62.10798 298.5462

-0.01074222 0.005554104 -0.5099543 274.8034 61.17606 300.3481

-0.009569033 0.008894748 -0.5099304 276.7551 58.53326 303.7804

-0.009569033 0.008894748 -0.5099304 276.7551 58.53326 303.7804

-0.0116228 0.004538155 -0.5099351 277.979 52.04478 310.6525

-0.0116228 0.004538155 -0.5099351 277.979 52.04478 310.6525

-0.01281236 -0.0009869956 -0.5099259 277.7551 60.21723 302.5825

-0.01445979 0.01340527 -0.5097065 278.0808 58.3572 304.7574

-0.0205322 -0.006513977 -0.5096326 277.6612 63.14396 300.0936

-0.02084731 -0.00655735 -0.5096091 277.6612 63.14395 300.0936

-0.01895834 0.01181946 -0.5095881 277.1992 57.19225 305.8859

-0.02543411 -0.008531227 -0.5093716 277.5747 62.36238 300.9328

-0.02275611 0.008357505 -0.5095012 277.5747 62.36243 300.9328

-0.02212668 0.008450146 -0.5095475 277.6672 67.23094 296.3218

-0.02839024 -0.01119867 -0.5091838 276.8225 60.7485 302.6126

-0.02440702 0.007865181 -0.5094528 276.4967 61.37933 301.8513

-0.02440702 0.007865181 -0.5094528 276.4967 61.37933 301.8513

-0.02462333 -0.0114929 -0.5093635 276.999 65.55016 297.8586

-0.01991853 0.006306839 -0.5096597 277.3029 56.03299 307.4757

-0.01991853 0.006306839 -0.5096597 277.3029 56.03299 307.4757

-0.02468172 -0.01335571 -0.5093152 277.2661 63.32729 300.4163

-0.02207465 0.004410667 -0.5095908 276.7177 55.03753 308.551

-0.02207465 0.004410667 -0.5095908 276.7177 55.03753 308.551

-0.02489773 -0.006460418 -0.5094388 276.6395 60.44943 303.1274

-0.01958118 0.007435398 -0.5096575 276.9254 56.55019 306.9906

-0.0225286 -0.01220472 -0.5094537 277.2925 60.86022 302.8719

-0.0225286 -0.01220472 -0.5094537 277.2925 60.86022 302.8719

-0.01795265 0.007345791 -0.5097287 277.1068 49.08786 314.3893

-0.01795265 0.007345791 -0.5097287 277.1068 49.08786 314.3893

-0.02173495 -0.01171005 -0.5094999 276.9454 56.50837 306.9055

-0.02021847 0.004687557 -0.5096551 277.1682 51.34206 312.0686

-0.02021847 0.004687557 -0.5096551 277.1682 51.34206 312.0686

-0.02281017 -0.0007366562 -0.5095667 277.4523 58.71955 304.9823

-0.02281017 -0.0007366562 -0.5095667 277.4523 58.71955 304.9823

-0.02019592 0.001189384 -0.5096762 276.7774 46.99085 316.3707

-0.02085033 -0.002943306 -0.5096629 276.9683 54.27313 309.189

-0.02592308 -0.001885929 -0.5094351 277.3197 60.27656 303.4498

-0.02592308 -0.001885929 -0.5094351 277.3197 60.27656 303.4498

-0.02428859 -0.01262535 -0.5093626 276.6946 55.48913 308.1049

-0.02148708 0.004891777 -0.5096055 276.4521 58.52295 304.9887

-0.02272345 0.003775177 -0.5095613 276.4521 58.52299 304.9886

-0.02272345 0.003775177 -0.5095613 276.7242 57.92886 305.5878

-0.02544765 -0.01052141 -0.5093378 277.813 55.09523 308.7675

-0.02125205 0.009185142 -0.5095701 277.4873 54.49929 309.334

-0.02125205 0.009185142 -0.5095701 277.4873 54.49929 309.334

-0.02851909 -0.009980793 -0.5092 277.2801 51.11922 312.5956

-0.02941117 0.01018799 -0.5091452 277.4707 53.66027 310.1509

-0.03439313 -0.008305606 -0.5088612 277.2247 51.9632 311.6577

-0.03176665 0.01102695 -0.5089802 277.2247 51.96321 311.6577

-0.03176665 0.01102695 -0.5089802 277.7434 54.01163 309.7857

-0.03615509 -0.008891487 -0.5087291 277.7662 50.69761 313.1775

-0.03232876 0.00705677 -0.5090193 277.3834 55.72883 308.1235

-0.03232876 0.00705677 -0.5090193 277.3834 55.72883 308.1235

-0.03501446 -0.01010096 -0.5087904 277.3104 50.8877 312.856

-0.03048536 0.007934875 -0.5091201 277.3602 55.87117 307.9502

-0.03048536 0.007934875 -0.5091201 277.3602 55.87117 307.9502

-0.03534182 -0.007345047 -0.5088028 276.9113 48.20526 315.2282

-0.03056291 0.01224146 -0.5090181 276.8322 48.34473 314.5897

-0.0349787 -0.007199592 -0.5088301 276.9078 45.54766 316.5082

-0.0349787 -0.007199592 -0.5088301 276.9078 45.54766 316.5082

-0.03058202 0.01177208 -0.5090479 277.2193 42.84465 318.1984

-0.03458212 -0.008409633 -0.5088584 277.6854 34.73635 325.1172

-0.02963688 0.008611965 -0.5091671 277.8318 35.08126 323.7025

-0.02963688 0.008611965 -0.5091671 277.8318 35.08126 323.7025

-0.03319877 -0.005003815 -0.5090128 278.9216 11.71071 345.1726

-0.0292613 0.01376667 -0.5090927 279.9806 2.548621 353.1881

-0.0347787 -0.005781441 -0.508899 279.9805 2.548629 353.1881

-0.0347787 -0.005781441 -0.508899 280.6118 347.549 7.30706

-0.03449654 0.008832207 -0.508898 280.6981 338.2746 15.38629

-0.03800291 -0.001493683 -0.5087226 280.6981 338.2746 15.38629

-0.03800291 -0.001493683 -0.5087226 281.0469 329.7163 22.32497

-0.03729063 -0.005820465 -0.5087442 281.0469 329.7163 22.32496

-0.03165013 -0.00212471 -0.5092351 280.8795 322.4838 27.68882

-0.03165013 -0.00212471 -0.5092351 281.0902 319.3847 28.77599

-0.03227695 -0.007841205 -0.5091397 281.0902 319.3848 28.77597

-0.03503009 -0.02179167 -0.5085515 281.0527 316.7133 29.82201

-0.02328216 -0.008239346 -0.5097016 280.6209 311.0051 34.02525

-0.02328216 -0.008239346 -0.5097016 280.6209 311.0051 34.02525

-0.0194722 -0.008364772 -0.5098593 281.8424 299.134 43.67822

-0.01920045 -0.03013252 -0.5090472 282.6807 287.1719 53.34611

-0.0008594709 -0.01783024 -0.5099698 282.6807 287.1719 53.34612

-0.0008594709 -0.01783024 -0.5099698 282.6807 287.1719 53.34612

-0.0007625087 -0.03596243 -0.5090128 285.9752 274.7646 63.18027

-0.0007625087 -0.03596243 -0.5090128 285.9752 274.7646 63.18027

0.0003953227 -0.0407119 -0.5086554 289.6202 266.6393 68.4992

0.01311703 -0.05166613 -0.5073107 289.6202 266.6393 68.4992

0.0202262 -0.0634798 -0.505734 292.1852 259.1299 73.28271

0.0298038 -0.07292822 -0.503983 292.1852 259.1299 73.28271

0.0298038 -0.07292822 -0.503983 295.7562 253.2172 76.18978

0.04927202 -0.07800247 -0.5012456 299.6456 248.4957 77.97701

0.0608028 -0.0884622 -0.4982335 302.4615 243.6915 79.49588

0.0608028 -0.0884622 -0.4982335 302.4615 243.6915 79.49588

0.08229279 -0.09739872 -0.4922709 306.5026 239.8943 80.18746

0.08229279 -0.09739872 -0.4922709 306.5026 239.8943 80.18746

0.09625328 -0.106832 -0.4877616 309.2694 235.6384 80.74739

0.09625328 -0.106832 -0.4877616 309.2694 235.6384 80.74739

0.1112353 -0.1232479 -0.4797165 313.4295 232.7664 80.7829

0.1280442 -0.1156458 -0.4774117 313.4295 232.7664 80.78291

0.1280442 -0.1156458 -0.4774117 316.2554 229.5247 80.04069

0.14109 -0.1362571 -0.4682081 320.3339 227.4372 80.21686

0.14109 -0.1362571 -0.4682081 320.3339 227.4372 80.21686

0.1583269 -0.1381515 -0.4621017 320.3339 227.4372 80.21687

0.1627374 -0.132425 -0.4613057 324.3542 226.2323 79.21155

0.1774606 -0.1434881 -0.4524839 327.2219 224.9755 79.32363

0.1774606 -0.1434881 -0.4524839 327.2219 224.9755 79.32363

0.19865 -0.1372113 -0.4455716 330.1268 223.842 79.49303

0.2151985 -0.1452185 -0.4324388 330.1268 223.842 79.49302

0.2151985 -0.1452185 -0.4324388 332.9354 222.7918 79.47886

0.2298077 -0.1342249 -0.4284556 332.9354 222.7918 79.47887

0.2298077 -0.1342249 -0.4284556 332.9354 222.7918 79.47887

0.2446668 -0.141984 -0.4149624 335.5132 222.1376 79.26154

0.2446668 -0.141984 -0.4149624 338.0065 221.6703 78.87402

0.2446668 -0.141984 -0.4149624 338.0065 221.6703 78.87402

0.2467517 -0.1378592 -0.4140026 340.4558 221.2419 78.5446

0.2555046 -0.1442253 -0.4064556 340.4558 221.2419 78.54462

0.2678201 -0.1517757 -0.395634 342.8167 220.8767 78.08261

0.2814094 -0.1564811 -0.3842033 344.9679 220.7883 77.50228

0.2814094 -0.1564811 -0.3842033 347.0209 220.8802 76.83106

0.2924206 -0.1649212 -0.3722646 347.0209 220.8802 76.83106

0.3049363 -0.1535375 -0.3670556 349.1445 221.1195 76.10236

0.313798 -0.162005 -0.3552823 351.3806 221.4056 75.33295

0.313798 -0.162005 -0.3552823 351.3806 221.4056 75.33295

0.3235918 -0.1744206 -0.3403029 352.9615 222.1141 74.55207

0.3235918 -0.1744206 -0.3403029 352.9615 222.1141 74.55207

0.3235918 -0.1744206 -0.3403029 354.6295 222.9358 73.83894

0.3235045 -0.1746572 -0.3403413 354.6295 222.9358 73.83893

0.3417537 -0.152294 -0.3331717 356.4586 223.5177 73.31305

0.3417537 -0.152294 -0.3331717 356.4586 223.5177 73.31305

0.3552811 -0.1501412 -0.3197272 358.0862 224.2136 72.88477

0.3625132 -0.1642168 -0.3059195 359.2004 225.2862 72.37796

0.382022 -0.1460969 -0.2910062 0.2236619 226.3701 71.83853

0.382022 -0.1460969 -0.2910062 0.2236619 226.3701 71.83853

0.3856478 -0.1558039 -0.2810172 1.092733 227.473 71.49311

0.3909581 -0.1565961 -0.2746896 2.005635 228.6113 71.26118

0.3963276 -0.1588351 -0.2655575 3.119403 229.7049 71.14352

0.3963276 -0.1588351 -0.2655575 3.119403 229.7049 71.14352

0.4012519 -0.1544949 -0.2606782 4.152597 231.0041 70.98929

0.3995672 -0.1605493 -0.2617712 4.152606 231.0041 70.98929

0.4045112 -0.1605748 -0.2540485 5.118922 232.3945 70.79964

0.4045112 -0.1605748 -0.2540485 6.008208 233.7412 70.74677

0.4137301 -0.1471155 -0.2472623 6.008202 233.7412 70.74677

0.4137301 -0.1471155 -0.2472623 6.863392 235.1387 70.82094

0.4156064 -0.1568532 -0.2405827 6.863392 235.1387 70.82094

0.4193464 -0.1535153 -0.2362061 6.863389 235.1387 70.82094

0.4193464 -0.1535153 -0.2362061 6.863389 235.1387 70.82094

0.4189242 -0.1611179 -0.2318516 6.863397 235.1387 70.82094

0.416803 -0.1687547 -0.2327203 7.606377 236.5315 70.69827

0.4231565 -0.1575789 -0.2290614 7.606379 236.5315 70.69827

0.4193097 -0.1726783 -0.225218 8.382396 238.0215 70.54849

0.4193097 -0.1726783 -0.225218 8.382396 238.0215 70.54849

0.4193097 -0.1726783 -0.225218 9.032304 239.5188 70.27193

0.4174437 -0.1786833 -0.2257989 9.032308 239.5188 70.27193

0.4233017 -0.1662218 -0.2244061 9.682308 241.0297 70.00969

0.4275161 -0.1543853 -0.2248716 10.33143 242.5553 69.76199

0.421925 -0.1652581 -0.2276864 10.33143 242.5553 69.76199

0.4206569 -0.1693135 -0.2281461 10.23367 244.2915 68.95304

0.423061 -0.166276 -0.2259238 10.4174 246.0628 68.07906

0.4260559 -0.160119 -0.2247402 10.52128 247.7711 66.99831

0.4253852 -0.1659267 -0.2217785 10.6471 249.5039 65.93404

0.4248593 -0.1676952 -0.2219134 10.64709 249.5039 65.93404

0.4274846 -0.1618981 -0.2211755 10.86259 250.5566 64.29978

0.4274846 -0.1618981 -0.2211755 10.86259 250.5566 64.29978

0.4257304 -0.170873 -0.2177814 10.71035 251.3368 62.73075

0.4257304 -0.170873 -0.2177814 10.71035 251.3368 62.73075

0.4301744 -0.1605602 -0.2169732 10.31204 252.4063 61.11702

0.4301744 -0.1605602 -0.2169732 10.124 253.0334 59.5389

0.430091 -0.1641917 -0.2144055 10.12401 253.0335 59.5389

0.4313428 -0.1567004 -0.2174746 10.08109 253.2856 58.04836

0.4312728 -0.1569445 -0.2174998 10.09714 253.2381 56.56515

0.4282736 -0.1640384 -0.2181907 10.01586 253.4684 54.99689

0.4282736 -0.1640384 -0.2181907 10.01586 253.4684 54.99689

0.4370231 -0.1459954 -0.2136121 10.15293 253.5332 53.33702

0.4417582 -0.1398356 -0.2079013 10.14751 253.5373 51.66797

0.4462258 -0.1300668 -0.2046763 10.14752 253.5373 51.66797

0.4462258 -0.1300668 -0.2046763 10.14752 253.5373 51.66797

0.4474044 -0.1290057 -0.2027661 9.942141 253.4986 49.94956

0.4474541 -0.1287561 -0.2027481 9.553969 253.5127 48.19907

0.4538912 -0.1111234 -0.1988328 9.553973 253.5127 48.19907

0.4508787 -0.124671 -0.1976503 9.095414 253.4667 46.41483

0.4508787 -0.124671 -0.1976503 8.57884 253.4928 44.64257

0.4585429 -0.1053368 -0.1910357 8.578845 253.4928 44.64257

0.4609134 -0.1035706 -0.1862363 8.101555 253.4615 43.00275

0.4609134 -0.1035706 -0.1862363 8.101555 253.4615 43.00275

0.4690166 -0.08699996 -0.1740876 7.869396 253.2314 41.74466

0.4692494 -0.08485921 -0.173829 7.86939 253.2314 41.74466

0.4767289 -0.06768133 -0.1605038 7.706472 252.9912 40.94219

0.4767289 -0.06768133 -0.1605038 7.706472 252.9912 40.94219

0.4781262 -0.077718 -0.1515518 7.446571 252.6932 40.16543

0.4781262 -0.077718 -0.1515518 7.446571 252.6932 40.16543

0.4841095 -0.055903 -0.1410867 7.341575 252.4616 39.73754

0.4841095 -0.055903 -0.1410867 7.263397 252.165 39.32253

0.4853448 -0.05639335 -0.1365753 7.263401 252.165 39.32252

0.4892079 -0.0465992 -0.1260823 7.318917 251.6505 39.1903

0.4910274 -0.04045438 -0.1202113 7.398443 251.1285 39.22102

0.4910274 -0.04045438 -0.1202113 7.398443 251.1285 39.22102

0.4941486 -0.03179194 -0.1095526 7.348234 250.743 39.26846

0.494131 -0.03103781 -0.1094224 7.518906 250.0915 39.45057

0.494131 -0.03103781 -0.1094224 7.518906 250.0915 39.45057

0.4952242 -0.03235763 -0.1039614 7.826401 249.4142 39.6728

0.4952242 -0.03235763 -0.1039614 7.826401 249.4142 39.6728

0.4988378 -0.01281236 -0.08928899 8.462537 248.4359 39.9794

0.5004496 0.009909717 -0.08017395 8.462543 248.4359 39.9794

0.5004496 0.009909717 -0.08017395 8.462543 248.4359 39.9794

0.5012703 -0.002288282 -0.0755947 9.110931 247.4784 40.27216

0.501837 0.02351655 -0.06781147 9.782218 246.3655 40.89609

0.501837 0.02351655 -0.06781147 9.782218 246.3655 40.89609

0.5036936 0.01745571 -0.05502068 10.49024 245.5479 41.68405

0.5036936 0.01745571 -0.05502068 10.49024 245.5479 41.68405

0.5041704 0.02279979 -0.04828777 8.995447 244.2921 42.95679

0.5041704 0.02279979 -0.04828777 8.995447 244.2921 42.95679

0.5041136 0.02317055 -0.04821159 7.26966 241.493 42.28847

0.5050477 0.03325817 -0.02850259 7.355074 237.4434 41.56198

0.505155 0.04202282 -0.006650852 7.355082 237.4434 41.56199

0.505155 0.04202282 -0.006650852 5.496552 235.3378 41.87422

0.5042764 0.05188064 0.008753829 4.959898 233.511 44.03483

0.503463 0.05172636 0.0302039 3.284615 230.9591 43.76851

0.503463 0.05172636 0.0302039 3.284615 230.9591 43.76851

0.5031353 0.04430555 0.04421254 4.77697 229.4776 43.48972

0.5005153 0.0479643 0.0654069 4.776969 229.4776 43.48971

0.5005153 0.0479643 0.0654069 2.907441 227.0407 43.57808

0.4985618 0.03481647 0.08554608 2.907436 227.0407 43.57808

0.4985618 0.03481647 0.08554608 2.557674 226.7957 45.5656

0.4939539 0.05444837 0.1007713 2.557684 226.7957 45.56559

0.4939539 0.05444837 0.1007713 1.156137 224.0951 45.29372

0.4900956 0.03813865 0.1243451 1.156137 224.0951 45.2937

0.4871782 0.04389326 0.1335689 2.365703 222.4753 44.18191

0.4871782 0.04389326 0.1335689 0.919733 221.7636 45.26583

0.4820341 0.0398154 0.1524647 0.9197227 221.7636 45.26583

0.4719213 0.0353499 0.1822864 2.133639 221.8065 45.43423

0.4719213 0.0353499 0.1822864 0.425821 220.0269 46.54207

0.4719213 0.0353499 0.1822864 0.425821 220.0269 46.54207

0.4719213 0.0353499 0.1822864 0.1644046 217.5243 49.17401

0.4694718 0.03897587 0.1880136 0.1644037 217.5243 49.17401

0.463281 0.0257839 0.2048848 1.107444 215.7671 47.9136

0.4570137 0.006622367 0.219924 0.1095734 215.4792 49.77158

0.4572035 0.005759397 0.2197942 0.1095734 215.4792 49.77158

0.4492908 -0.01638436 0.2350468 1.660013 214.639 49.85704

0.4459755 -0.01035809 0.2416119 1.660012 214.639 49.85704

0.4459755 -0.01035809 0.2416119 1.029155 215.045 51.7971

0.4385559 -0.02233765 0.2540618 2.002943 215.6057 51.9493

0.4386561 -0.02289566 0.2539713 2.002943 215.6057 51.9493

0.4384296 -0.01888178 0.2546913 1.844631 216.5825 52.7244

0.4312795 -0.02860163 0.265753 1.844627 216.5825 52.7244

0.4312795 -0.02860163 0.265753 1.844627 216.5825 52.7244

0.4298672 -0.03729352 0.2670437 1.982299 217.2295 52.2952

0.4225317 -0.04876825 0.2767266 1.309425 217.8028 54.12821

0.4225317 -0.04876825 0.2767266 1.309425 217.8028 54.12821

0.4133337 -0.05541036 0.2890916 1.432846 218.9564 55.34457

0.4101731 -0.05741796 0.2932975 1.432867 218.9564 55.34456

0.4017437 -0.07373542 0.3012094 1.431999 220.1924 56.44905

0.4017437 -0.07373542 0.3012094 1.153429 221.1559 56.29778

0.4004861 -0.06625158 0.304687 1.15342 221.1558 56.29778

0.4004861 -0.06625158 0.304687 1.015516 222.2111 55.88758

0.3932524 -0.07594545 0.3117652 1.015516 222.2111 55.88758

0.3932524 -0.07594545 0.3117652 0.896031 223.3491 55.57901

0.391916 -0.06895223 0.3150214 0.3304959 224.6705 55.87124

0.391916 -0.06895223 0.3150214 0.5337102 226.3509 56.92973

0.391916 -0.06895223 0.3150214 0.5337102 226.3509 56.92973

0.384266 -0.09465278 0.3177603 0.2792517 227.9628 58.91608

0.3752467 -0.1198034 0.320089 0.2792602 227.9628 58.91608

0.3752467 -0.1198034 0.320089 0.7877642 229.9282 60.11063

0.3683914 -0.1364896 0.3213693 0.283203 231.74 60.01976

0.3634448 -0.1480449 0.3218856 0.2832269 231.74 60.01976

0.3634476 -0.1482284 0.3218314 358.9048 229.6949 60.62921

0.3667729 -0.1379387 0.322633 0.4133427 230.1315 60.84169

0.3616389 -0.1487442 0.3236262 0.4133513 230.1315 60.84169

0.3616389 -0.1487442 0.3236262 1.986497 230.8828 60.53156

0.362331 -0.1395997 0.3269091 1.986492 230.8828 60.53155

0.3569386 -0.1540066 0.3263711 1.193003 229.4166 62.28115

0.3532181 -0.1534881 0.3307855 1.192991 229.4165 62.28114

0.3532181 -0.1534881 0.3307855 2.885899 230.1234 62.00403

0.3464876 -0.1677025 0.3310028 4.191722 230.1349 60.98004

0.3464876 -0.1677025 0.3310028 4.191722 230.1349 60.98004

0.3449571 -0.1579035 0.3374534 5.621185 230.728 60.4976

0.3373034 -0.1740121 0.3372682 4.234201 230.9554 62.19603

0.3373034 -0.1740121 0.3372682 5.888627 231.0325 61.77741

0.3326566 -0.168589 0.3445592 5.888626 231.0325 61.77739

0.326019 -0.1800908 0.3451236 7.326442 230.3787 60.87518

0.3230795 -0.1713675 0.352256 8.439059 232.3803 61.31257

0.3230795 -0.1713675 0.352256 7.780887 232.6292 59.46312

0.3151247 -0.1839367 0.3531221 7.780889 232.6292 59.46312

0.3131974 -0.1733957 0.3601012 8.801145 232.9895 61.577

0.3073835 -0.1803631 0.3616848 8.252679 232.6384 59.51157

0.3073835 -0.1803631 0.3616848 9.651332 232.988 60.88996

0.3057682 -0.1685028 0.3687058 9.651333 232.9879 60.88994

0.2963643 -0.1807126 0.370607 9.573338 233.5007 58.8555

0.2963643 -0.1807126 0.370607 9.71011 233.5526 61.27227

0.2946121 -0.1710109 0.3765598 10.64953 233.1064 59.48486

0.2868699 -0.1809708 0.3778803 10.64953 233.1064 59.48486

0.2868674 -0.1811531 0.3778222 9.472266 233.3255 61.01352

0.2857639 -0.1714245 0.38316 9.472258 233.3255 61.01352

0.2790757 -0.1835544 0.3824703 11.00526 233.7753 60.3249

0.2790757 -0.1835544 0.3824703 9.345703 233.6851 59.93794

0.2799227 -0.1696133 0.3882087 10.93472 234.2698 60.26083

0.275391 -0.1789523 0.3872561 10.93472 234.2698 60.26083

0.275391 -0.1789523 0.3872561 11.12386 232.6778 57.61568

0.2591637 -0.1891802 0.3935434 11.12386 232.6778 57.61567

0.2591637 -0.1891802 0.3935434 10.59902 233.9238 59.5157

0.2623862 -0.1712214 0.3995849 11.8297 235.5157 60.64189

0.2571211 -0.1858351 0.3964661 11.8297 235.5157 60.6419

0.2571211 -0.1858351 0.3964661 9.974467 235.2715 60.19783

0.2603522 -0.1682676 0.4021619 9.974467 235.2715 60.19783

0.2603523 -0.168329 0.4021448 11.18638 236.1115 59.80743

0.2562177 -0.1807356 0.3994064 9.396061 236.1091 60.33046

0.2432604 -0.1774699 0.4088608 9.396056 236.1091 60.33047

0.2392389 -0.1869378 0.4070101 10.93118 237.0672 61.62043

0.239242 -0.1871195 0.4069502 9.474003 236.5152 61.18292

0.2356354 -0.1787171 0.4127894 9.474005 236.5152 61.18292

0.2325302 -0.1917862 0.4086645 8.55218 235.3351 59.76381

0.2325302 -0.1917862 0.4086645 9.799301 236.4254 61.23054

0.2374328 -0.175628 0.4130519 7.980466 237.1683 62.33539

0.2374328 -0.175628 0.4130519 7.980466 237.1683 62.33539

0.2348055 -0.19084 0.4077719 7.261163 238.7445 64.29478

0.2383312 -0.2012279 0.4006706 7.261177 238.7445 64.29477

0.2383312 -0.2012279 0.4006706 7.110913 239.785 66.56382

0.2531388 -0.1867298 0.3986026 5.658301 239.1851 67.13603

0.2531388 -0.1867298 0.3986026 5.658301 239.1851 67.13603

0.2556405 -0.2033058 0.3887751 4.411253 240.8295 68.26404

0.2608553 -0.2199948 0.3760161 2.929636 243.1179 68.70883

0.2608553 -0.2199948 0.3760161 3.235257 245.2393 69.45587

0.2734611 -0.2314382 0.3598427 3.235248 245.2393 69.45587

0.2914225 -0.2275537 0.3480283 2.154201 243.3602 68.8292

0.3103185 -0.2315208 0.32853 0.3576447 242.0273 67.99239

0.3103279 -0.2312911 0.3286405 0.3576498 242.0273 67.99239

0.3103279 -0.2312911 0.3286405 0.3576498 242.0273 67.99239

0.3203088 -0.2297129 0.3200592 0.1940563 243.9598 69.20582

0.333492 -0.2323296 0.3043185 357.6003 243.6523 69.2594

0.3336073 -0.2307221 0.3050885 357.6003 243.6522 69.25939

0.3493021 -0.2169189 0.2975561 357.6003 243.6522 69.25939

0.3483325 -0.2356563 0.2841408 355.8362 242.0821 69.91602

0.3483325 -0.2356563 0.2841408 355.8362 242.0821 69.91602

0.3555892 -0.2294631 0.2792518 352.8386 243.3683 69.85912

0.3555892 -0.2294631 0.2792518 349.6639 244.5854 69.77415

0.3584832 -0.2455593 0.2612836 349.6639 244.5854 69.77414

0.3584832 -0.2455593 0.2612836 346.4037 246.0325 69.25661

0.3707053 -0.2354057 0.2534566 346.4036 246.0325 69.25661

0.379856 -0.2149483 0.2562563 343.1686 247.0381 68.7281

0.379856 -0.2149483 0.2562563 343.1686 247.0381 68.7281

0.3777776 -0.2314627 0.2446827 340.1465 248.1418 68.1696

0.3777776 -0.2314627 0.2446827 340.1465 248.1418 68.1696

0.386539 -0.2266209 0.2353533 337.4607 249.1818 68.08954

0.3867153 -0.2209068 0.2384598 337.4607 249.1818 68.08954

0.3907847 -0.2191728 0.2333717 335.637 249.6188 68.62852

0.400863 -0.2059951 0.228225 333.7003 250.2057 68.68284

0.400863 -0.2059951 0.228225 332.2306 250.4647 69.00861

0.4070553 -0.2098241 0.2119447 332.2306 250.4647 69.00861

0.4186901 -0.1952354 0.2030333 330.1827 251.0954 68.87763

0.4186901 -0.1952354 0.2030333 330.1827 251.0954 68.87763

0.4165722 -0.2086405 0.193849 330.1827 251.0954 68.87763

0.4165722 -0.2086405 0.193849 330.1827 251.0954 68.87763

0.4165672 -0.2084249 0.1939854 327.7689 252.1044 68.69879

0.4287853 -0.1937058 0.1822657 325.4946 253.0321 68.55101

0.442811 -0.1800443 0.1615614 323.2321 254.5099 68.65231

0.442811 -0.1800443 0.1615614 323.2321 254.5099 68.65231

0.4552984 -0.1640202 0.1428295 321.3728 256.0041 68.66119

0.4649525 -0.1522408 0.1234567 321.3728 256.0041 68.66119

0.4668465 -0.1627713 0.1007937 319.2716 257.7102 68.56558

0.4668465 -0.1627713 0.1007937 317.1551 259.5547 68.33231

0.4728049 -0.1581996 0.0776398 317.155 259.5547 68.33231

0.4782015 -0.1506097 0.05691823 315.1599 261.3077 68.1487

0.4782015 -0.1506097 0.05691823 315.1599 261.3077 68.1487

0.4825715 -0.1431891 0.03494566 312.9015 263.1413 67.93034

0.4825715 -0.1431891 0.03494566 310.4969 265.2404 67.40549

0.4872386 -0.1298943 0.01804426 310.497 265.2404 67.40549

0.4866211 -0.1333384 -0.004509544 308.3799 267.2049 67.05613

0.4866211 -0.1333384 -0.004509544 308.3799 267.2049 67.05613

0.4861062 -0.1327604 -0.02598053 306.458 269.0065 66.86551

0.4861062 -0.1327604 -0.02598053 304.3381 270.9351 66.66638

0.4842947 -0.1333748 -0.04785426 304.3381 270.9351 66.66637

0.483395 -0.1262738 -0.07074221 302.317 272.9535 66.24686

0.4818131 -0.1123666 -0.09924763 302.317 272.9535 66.24686

0.4818131 -0.1123666 -0.09924763 302.317 272.9535 66.24686

0.4818131 -0.1123666 -0.09924763 300.3896 275.2496 65.51336

0.4694192 -0.1282739 -0.1340714 298.368 276.1433 65.94154

0.4694192 -0.1282739 -0.1340714 298.368 276.1433 65.94154

0.4694192 -0.1282739 -0.1340714 296.4102 277.4601 65.87357

0.4637576 -0.1259899 -0.1543991 296.4102 277.4601 65.87356

0.4565493 -0.1237873 -0.1774271 294.8983 279.0127 65.57928

0.4565493 -0.1237873 -0.1774271 293.3056 280.5507 65.388

0.4499953 -0.1178888 -0.1970974 291.4106 282.0336 65.07352

0.4499953 -0.1178888 -0.1970974 291.4106 282.0336 65.07352

0.4401621 -0.1131958 -0.2224813 289.3527 284.1426 64.05737

0.4286964 -0.1001614 -0.2494812 287.5884 286.1324 63.07077

0.4122807 -0.1061977 -0.2734967 287.5884 286.1323 63.07079

0.3991756 -0.09284345 -0.2968041 286.0238 288.1335 62.1314

0.3991756 -0.09284345 -0.2968041 284.5282 290.4098 60.92913

0.3779359 -0.1036084 -0.3201306 284.5282 290.4098 60.92912

0.3724166 -0.1068539 -0.3274111 283.0331 293.652 58.90434

0.3568943 -0.1045651 -0.3449673 283.0331 293.652 58.90434

0.3568943 -0.1045651 -0.3449673 282.0903 297.3274 56.12567

0.340412 -0.1030031 -0.3616903 282.0903 297.3274 56.12566

0.340412 -0.1030031 -0.3616903 281.3657 300.7985 53.57816

0.3122246 -0.09959584 -0.3885249 281.3657 300.7985 53.57817

0.2913322 -0.09973022 -0.4043941 281.3313 301.7417 54.07634
