0.0009568443 -5.722046E-08 -0.5103073 270.0198 -2.641363E-06 0

-0.004073306 -0.01999317 -0.5098938 270.3039 288.1156 70.79925

-0.004073306 -0.01999317 -0.5098938 270.3039 288.1156 70.79925

-0.004073306 -0.01999317 -0.5098938 270.3039 288.1156 70.79925

-0.001211005 -0.0009389877 -0.5102996 270.2017 237.4497 120.3493

-0.004355567 -0.01204582 -0.5101411 270.7997 68.54889 288.3542

-0.003278967 -0.01596863 -0.5100117 271.0149 39.6579 316.2511

-0.003278967 -0.01596863 -0.5100117 271.0149 39.6579 316.2511

-0.003198656 -0.009489613 -0.5101739 272.2041 326.8007 28.78389

-0.005686052 -0.008448315 -0.5101706 272.5874 291.468 63.30517

-0.009275107 -0.005564518 -0.5101615 273.0348 283.2831 70.34683

-0.009275107 -0.005564518 -0.5101615 273.0348 283.2831 70.34683

-0.01237946 -0.01519541 -0.5098997 273.4914 279.3744 73.05986

-0.009479366 0.002727127 -0.5101809 273.9221 278.6558 72.45204

-0.01438166 -0.01147654 -0.5099404 273.3907 282.9407 66.8377

-0.01438166 -0.01147654 -0.5099404 273.3907 282.9407 66.8377

-0.009893773 0.006727238 -0.5101319 272.8129 288.4677 60.07415

-0.01262795 -0.01168493 -0.509982 272.2545 312.7573 34.78759

-0.006932787 0.007290859 -0.510173 271.7543 321.0097 25.45684

-0.006932787 0.007290859 -0.510173 271.7543 321.0097 25.45684

-0.008643361 -0.01080769 -0.5100845 272.4608 338.7457 6.775957

-0.0007370298 0.004404373 -0.5102526 271.684 326.9796 17.52751

-0.004857869 -0.01570164 -0.5100114 273.7417 309.4647 34.6918

-0.004857869 -0.01570164 -0.5100114 273.7417 309.4647 34.6918

0.001209951 0.00333435 -0.5102639 273.3335 286.3336 56.81894

-0.002460538 -0.01647222 -0.5100043 273.5765 294.3831 47.54845

0.001887525 0.003084755 -0.5102634 273.4938 286.6021 54.13004

0.001887525 0.003084755 -0.5102634 273.4938 286.6021 54.13004

-0.001697001 -0.01675506 -0.5099982 274.2665 287.5207 52.04597

-0.00212192 -0.003091163 -0.5102624 273.573 275.1178 63.33382

-0.001803434 -0.003074169 -0.5102597 273.573 275.1177 63.33383

-0.007991011 -0.01984085 -0.5098237 274.7272 290.8018 46.72991

-0.00682911 -0.0006500816 -0.5102261 273.8809 274.7483 61.73983

-0.01160837 -0.01982163 -0.5097549 274.9268 284.5415 50.85653

-0.01160837 -0.01982163 -0.5097549 274.9268 284.5415 50.85653

-0.00737782 7.278442E-05 -0.5102189 274.5521 268.1921 66.12051

-0.0114512 -0.01898535 -0.5097904 276.082 276.6747 56.64387

-0.00632415 0.0001870537 -0.510233 276.2732 261.1166 71.07477

-0.00670689 -0.01563389 -0.5099843 276.2733 261.1166 71.07475

-0.00670689 -0.01563389 -0.5099843 277.4134 259.7557 71.00758

-0.001951768 0.004684181 -0.5102427 277.4135 259.7557 71.00759

-0.001951768 0.004684181 -0.5102427 277.6837 251.0516 78.26457

-0.005203783 -0.01476522 -0.5100278 278.3492 253.0512 74.54681

0.004179529 0.005615959 -0.5101778 279.6132 251.3746 74.48499

0.003644127 -0.01270117 -0.5100547 279.6132 251.3746 74.48499

0.003644127 -0.01270117 -0.5100547 280.5213 247.2899 76.73391

0.01133183 0.006957264 -0.5100525 281.7368 252.9683 69.24788

0.006794568 -0.01131197 -0.5100901 282.406 244.1447 76.52106

0.01290151 0.01021214 -0.5099953 282.4061 244.1447 76.52107

0.01290151 0.01021214 -0.5099953 284.918 246.6389 72.51765

0.01167239 -0.006783314 -0.5100821 285.8422 242.3984 75.13467

0.0145058 -0.006338768 -0.5099634 285.7935 254.4718 61.85241

0.0145058 -0.006338768 -0.5099634 285.0577 262.267 52.74535

0.01921516 -0.0005255699 -0.5098468 285.0577 262.267 52.74535

0.01921516 -0.0005255699 -0.5098468 285.4929 270.9862 42.95949

0.02532795 0.0003248405 -0.5094052 285.3794 278.3592 34.4493

0.02435488 -0.01569803 -0.5092108 285.3794 278.3592 34.44933

0.02435488 -0.01569803 -0.5092108 286.8663 285.6607 26.60447

0.02435488 -0.01569803 -0.5092108 284.9829 287.7623 23.85823

0.04527955 0.007303848 -0.5071092 284.9829 287.7623 23.85822

0.04527955 0.007303848 -0.5071092 286.9421 293.0661 17.84713

0.04527955 0.007303848 -0.5071092 287.4001 298.846 11.31105

0.04527955 0.007303848 -0.5071092 287.4001 298.846 11.31105

0.06650843 0.01047495 -0.5025856 289.4547 298.97 10.75817

0.06510866 -0.005262966 -0.5028505 287.4658 297.0994 12.25722

0.06510866 -0.005262966 -0.5028505 289.6387 294.5467 14.32121

0.06510866 -0.005262966 -0.5028505 289.6387 294.5467 14.32121

0.03935352 -0.009331856 -0.5078768 291.205 293.8362 14.92235

0.03935352 -0.009331856 -0.5078768 291.205 293.8362 14.92235

0.04411644 0.005678215 -0.5075392 290.5423 294.984 13.81808

0.04411644 0.005678215 -0.5075392 290.5423 294.984 13.81808

0.1132218 0.0005055427 -0.4853877 290.5422 294.984 13.81808

0.1132218 0.0005055427 -0.4853877 290.996 294.8052 14.10354

0.1132218 0.0005055427 -0.4853877 289.169 284.2172 23.28534

0.1176032 0.01620623 -0.4840738 289.169 284.2172 23.28532

0.1251161 0.01732278 -0.4800166 288.2681 273.772 32.5511

0.1251161 0.01732278 -0.4800166 288.2567 263.634 41.66385

0.1251161 0.01732278 -0.4800166 288.2567 263.634 41.66385

0.1251161 0.01732278 -0.4800166 289.0476 254.2289 50.024

0.1229108 0.002104082 -0.4808935 289.0476 254.2288 50.02401

0.134049 0.004032612 -0.4743221 290.805 247.1565 56.2217

0.134049 0.004032612 -0.4743221 292.9569 242.341 60.37208

0.1380759 0.01840233 -0.4728247 292.9569 242.341 60.37206

0.1380759 0.01840233 -0.4728247 294.8982 239.3765 63.06779

0.147243 0.01977396 -0.4666057 296.6259 237.9854 64.46127

0.147243 0.01977396 -0.4666057 296.6259 237.9854 64.46127

0.147243 0.01977396 -0.4666057 297.9287 237.2829 65.50975

0.147243 0.01977396 -0.4666057 298.9138 236.8361 66.54561

0.1596409 0.007749166 -0.4564596 298.9138 236.8361 66.54561

0.1596409 0.007749166 -0.4564596 299.7445 236.7564 67.30877

0.1633682 0.02192911 -0.4546763 299.7446 236.7564 67.30877

0.1609292 0.007714347 -0.4560075 300.385 235.8781 68.64859

0.1720311 0.009781523 -0.4461527 300.385 235.8781 68.64858

0.1755314 0.02337396 -0.4442804 300.385 235.8781 68.64858

0.1771061 0.03558025 -0.4428431 300.385 235.8781 68.64858

0.1779218 0.04742497 -0.4414038 300.9557 235.625 69.45137

0.1928033 0.05029252 -0.4250203 300.9557 235.625 69.45137

0.1929201 0.06248606 -0.4233462 301.4097 235.6888 69.9971

0.1927439 0.07416086 -0.4215384 301.4097 235.6888 69.99712

0.1924622 0.08519016 -0.4195779 301.4097 235.6888 69.9971

0.2007364 0.09789465 -0.4056014 301.4097 235.6888 69.9971

0.2007364 0.09789465 -0.4056014 300.7294 236.473 69.45779

0.2007641 0.1088204 -0.4027938 300.7294 236.473 69.45779

0.2006574 0.118976 -0.3999653 300.7294 236.4729 69.45781

0.2010729 0.1295633 -0.3949319 300.232 237.1688 69.11961

0.2010729 0.1295633 -0.3949319 300.232 237.1688 69.11961

0.1988898 0.1381687 -0.3931162 300.232 237.1688 69.11961

0.1974086 0.1495865 -0.3896689 300.232 237.1688 69.11961

0.1969355 0.1494263 -0.390485 300.232 237.1688 69.11961

0.193794 0.1582934 -0.3885583 300.232 237.1688 69.11961

0.2049033 0.1520845 -0.3853251 299.8966 237.7553 68.96772

0.2049033 0.1520845 -0.3853251 299.8966 237.7553 68.96772

0.2132272 0.14185 -0.3848856 299.6896 238.2407 68.96097

0.2129688 0.1583292 -0.3785504 299.5752 238.6489 69.05284

0.2129688 0.1583292 -0.3785504 299.5233 239.0043 69.20587

0.2151848 0.1420578 -0.3837177 299.5233 239.0043 69.20587

0.2178023 0.1564164 -0.3772983 299.5116 239.3256 69.39471

0.2151583 0.1442086 -0.3836257 299.5116 239.3256 69.39471

0.2151583 0.1442086 -0.3836257 299.5116 239.3256 69.39471

0.2151583 0.1442086 -0.3836257 297.3089 236.0096 73.86532

0.2191326 0.1589665 -0.3758116 295.3003 231.9608 79.26572

0.2191326 0.1589665 -0.3758116 293.4559 228.2023 84.6911

0.2172766 0.1468781 -0.3817612 293.4559 228.2023 84.69112

0.2172766 0.1468781 -0.3817612 291.9658 225.7869 89.19247

0.2233471 0.1558588 -0.3763889 291.0883 219.9333 96.3857

0.2233471 0.1558588 -0.3763889 290.5103 214.6008 103.4458

0.2233471 0.1558588 -0.3763889 290.5103 214.6008 103.4458

0.2233471 0.1558588 -0.3763889 290.1677 212.4469 107.9402

0.2233471 0.1558588 -0.3763889 290.1677 212.4469 107.9402

0.2208926 0.1392233 -0.384957 289.8285 209.2968 113.4393

0.2244345 0.1538918 -0.3772466 289.9286 209.8274 115.3951

0.2244345 0.1538918 -0.3772466 290.2318 211.2374 116.3971

0.2244345 0.1538918 -0.3772466 290.2318 211.2374 116.3971

0.2242837 0.1538533 -0.377525 290.8878 206.1342 122.5658

0.2181342 0.1425971 -0.3854643 291.7613 201.9989 128.0744

0.2181342 0.1425971 -0.3854643 292.2861 205.7405 125.9394

0.2181342 0.1425971 -0.3854643 292.2861 205.7405 125.9394

0.2175162 0.1423957 -0.386562 293.1809 204.978 128.1679

0.2175162 0.1423957 -0.386562 294.1259 210.1459 123.9333

0.2175162 0.1423957 -0.386562 294.1259 210.1459 123.9333

0.2226878 0.1553152 -0.3785596 293.9967 209.1588 126.4973

0.2240471 0.1556603 -0.3760549 292.9862 211.8032 125.2564

0.2240471 0.1556603 -0.3760549 292.9862 211.8032 125.2564

0.2240471 0.1556603 -0.3760549 293.3215 209.4804 128.8759

0.2240471 0.1556603 -0.3760549 293.7923 214.711 124.5405

0.2223822 0.1552364 -0.379114 293.7923 214.711 124.5405

0.2181429 0.1410093 -0.3870524 294.8538 212.4084 128.132

0.2181429 0.1410093 -0.3870524 294.8538 212.4084 128.132

0.2246988 0.1529579 -0.3786738 294.8538 212.4084 128.132

0.2236219 0.152683 -0.3806103 294.3736 217.1885 123.7369

0.2236219 0.152683 -0.3806103 294.3736 217.1885 123.7369

0.2244432 0.1393555 -0.3852119 296.2551 220.4919 120.1065

0.2244432 0.1393555 -0.3852119 297.087 224.4275 116.9798

0.2230502 0.1388828 -0.3876768 296.5556 220.2192 121.5346

0.2230502 0.1388828 -0.3876768 296.5556 220.2192 121.5346

0.2230502 0.1388828 -0.3876768 296.6621 224.9576 116.8023

0.2230502 0.1388828 -0.3876768 298.0311 225.8446 117.1757

0.2228938 0.1388294 -0.3879496 298.0311 225.8446 117.1757

0.2228938 0.1388294 -0.3879496 297.2987 229.4792 113.9314

0.228506 0.1518378 -0.3797241 297.2986 229.4792 113.9314

0.228506 0.1518378 -0.3797241 297.2584 224.846 118.6193

0.2289653 0.1519632 -0.3788941 297.5116 229.3659 113.835

0.2289653 0.1519632 -0.3788941 298.1889 225.2622 117.2388

0.2289653 0.1519632 -0.3788941 298.1889 225.2622 117.2388

0.2289653 0.1519632 -0.3788941 298.328 229.4734 112.4945

0.2268649 0.1392257 -0.3850028 298.328 229.4734 112.4944

0.2282266 0.1397001 -0.3825208 298.8393 225.4749 115.7401

0.2282266 0.1397001 -0.3825208 298.4432 229.7262 111.2469

0.2282266 0.1397001 -0.3825208 298.4432 229.7262 111.2469

0.2336411 0.1524095 -0.3743111 298.4432 229.7262 111.2469

0.2374864 0.1534312 -0.3666742 298.2916 225.2178 115.5841

0.2374864 0.1534312 -0.3666742 298.2916 225.2178 115.5841

0.2374864 0.1534312 -0.3666742 297.6302 229.3514 111.0584

0.2374864 0.1534312 -0.3666742 296.5423 232.9227 107.3205

0.2370453 0.1413516 -0.3688813 296.5423 232.9227 107.3205

0.2370453 0.1413516 -0.3688813 298.1534 231.4142 109.0803

0.2370453 0.1413516 -0.3688813 297.9804 235.257 105.437

0.2370453 0.1413516 -0.3688813 297.9804 235.257 105.437

0.2405229 0.1424871 -0.361086 298.0989 230.9276 109.3386

0.2363382 0.1493659 -0.3610692 297.3531 234.8425 105.1795

0.2363382 0.1493659 -0.3610692 297.3531 234.8425 105.1795

0.2363382 0.1493659 -0.3610692 295.6483 231.8668 108.1223

0.2403593 0.1508924 -0.350769 295.6626 236.2589 103.5533

0.2421757 0.1604289 -0.3452441 295.6626 236.259 103.5533

0.2421757 0.1604289 -0.3452441 296.0708 234.0176 106.4933

0.2528594 0.1510509 -0.3417978 296.7441 237.2299 103.194

0.2563019 0.1526645 -0.3299555 295.1448 233.0402 107.0678

0.2563019 0.1526645 -0.3299555 295.1448 233.0402 107.0678

0.2563019 0.1526645 -0.3299555 294.3215 235.9012 103.9713

0.2623212 0.1653457 -0.3189297 292.743 234.4736 105.576

0.2655465 0.1667641 -0.3027264 292.743 234.4736 105.576

0.2655465 0.1667641 -0.3027264 292.743 234.4736 105.576

0.2678961 0.1536367 -0.3075645 293.207 236.8965 103.4129

0.2678961 0.1536367 -0.3075645 293.207 236.8965 103.4129

0.2702684 0.1551973 -0.2892895 291.5171 238.5303 101.5056

0.2702684 0.1551973 -0.2892895 289.7378 237.5451 102.4425

0.2756898 0.1640653 -0.2791009 289.7378 237.5451 102.4425

0.2756898 0.1640653 -0.2791009 288.9789 239.1993 101.101

0.2759163 0.1549141 -0.2711931 287.7742 233.1749 106.8635

0.2759163 0.1549141 -0.2711931 287.7742 233.1749 106.8635

0.2741336 0.1679761 -0.2651579 287.8009 236.53 103.7181

0.270583 0.1809194 -0.260244 286.7912 233.0763 107.5051

0.2704873 0.1805619 -0.2465361 286.7912 233.0764 107.5051

0.2613288 0.187983 -0.2508301 286.5614 236.4559 104.3331

0.2680985 0.1799857 -0.2495484 286.1 231.0641 109.9962

0.2655978 0.1721584 -0.2576146 286.1 231.0641 109.9963

0.2655978 0.1721584 -0.2576146 286.7471 233.9349 107.5205

0.2581647 0.1802806 -0.2459438 286.7471 233.9349 107.5205

0.2581647 0.1802806 -0.2459438 285.8902 227.6868 113.7264

0.2668311 0.1718813 -0.242686 285.8902 227.6868 113.7264

0.2702617 0.1578386 -0.2483628 285.8902 227.6868 113.7264

0.2714809 0.1670194 -0.2266919 285.8902 227.6868 113.7264

0.2714809 0.1670194 -0.2266919 286.2592 233.9454 107.1393

0.2667214 0.1665844 -0.2325853 285.9052 227.7765 113.4686

0.2698314 0.1698083 -0.2092033 285.9053 227.7765 113.4686

0.270124 0.1592795 -0.216963 285.9647 234.5246 106.1034

0.270124 0.1592795 -0.216963 285.0863 237.1879 103.538

0.2732171 0.1661259 -0.2077607 285.8714 229.5536 110.8982

0.2750184 0.15413 -0.2058714 285.8714 229.5536 110.8982

0.2844028 0.142712 -0.2013021 286.0225 236.2411 103.6253

0.2844028 0.142712 -0.2013021 285.1073 228.4067 110.864

0.2844028 0.142712 -0.2013021 286.0013 235.0986 103.5012

0.281604 0.1422901 -0.1914969 286.0013 235.0986 103.5012

0.2840878 0.1513076 -0.1806057 287.543 229.3268 108.4707

0.2840878 0.1513076 -0.1806057 287.5271 235.4047 102.0403

0.2840878 0.1513076 -0.1806057 287.5271 235.4047 102.0403

0.2840878 0.1513076 -0.1806057 287.8784 228.559 108.691

0.2814884 0.1505632 -0.1731048 287.8784 228.559 108.691

0.2822255 0.1449662 -0.1766461 287.8838 234.679 102.2407

0.2822255 0.1449662 -0.1766461 287.8838 234.679 102.2407

0.2891886 0.1444421 -0.1654592 287.228 232.7272 104.933

0.2862329 0.1437535 -0.158432 287.228 232.7272 104.933

0.2862329 0.1437535 -0.158432 286.0916 237.4737 99.91019

0.2862329 0.1437535 -0.158432 284.496 233.1363 104.4808

0.2862329 0.1437535 -0.158432 284.496 233.1363 104.4808

0.2874018 0.1349497 -0.1596639 286.5307 236.7543 100.8261

0.2874018 0.1349497 -0.1596639 286.5307 236.7543 100.8261

0.2874018 0.1349497 -0.1596639 285.4925 228.9063 108.8226

0.2908014 0.1401377 -0.14866 287.0612 233.1319 104.3999

0.2899618 0.1399597 -0.1469495 287.0612 233.1319 104.4

0.2899618 0.1399597 -0.1469495 288.5912 226.2879 111.3028

0.2900928 0.1352599 -0.1510353 287.9421 230.6484 107.068

0.2900928 0.1352599 -0.1510353 287.9421 230.6484 107.068

0.2900928 0.1352599 -0.1510353 288.9012 223.0039 114.4485

0.2931128 0.1396534 -0.1402452 288.9012 223.0039 114.4485

0.2926058 0.1358834 -0.1449292 289.1497 228.132 109.3433

0.2926058 0.1358834 -0.1449292 289.8117 221.1202 116.1975

0.295612 0.139786 -0.1347602 289.8116 221.1202 116.1975

0.295148 0.1397017 -0.1339277 289.7581 225.9138 111.6986

0.3046336 0.1247307 -0.1273034 289.7581 225.9138 111.6986

0.3046336 0.1247307 -0.1273034 289.6379 221.9324 116.6983

0.3046336 0.1247307 -0.1273034 289.6379 221.9324 116.6983

0.3049579 0.1247713 -0.1278512 287.6894 223.5097 114.9856

0.3134293 0.1090362 -0.121599 289.2861 218.8033 119.2591

0.3134293 0.1090362 -0.121599 289.2861 218.8033 119.2591

0.3134293 0.1090362 -0.121599 288.3691 224.1976 113.5565

0.3139338 0.1090669 -0.1224114 286.2649 223.8235 113.4585

0.3139338 0.1090669 -0.1224114 286.2649 223.8235 113.4585

0.3212663 0.09303317 -0.1164791 288.596 224.2915 112.5601

0.32718 0.07894527 -0.1102518 286.674 222.418 114.4181

0.3286141 0.07882716 -0.1123589 286.674 222.418 114.4181

0.3286141 0.07882716 -0.1123589 288.2468 227.4566 109.3619

0.3286141 0.07882716 -0.1123589 287.1826 220.3927 115.8592

0.3321457 0.08871064 -0.1043854 287.1826 220.3927 115.8592

0.3342355 0.08184221 -0.1033206 287.5667 226.483 109.5071

0.3342355 0.08184221 -0.1033206 287.4965 217.8869 116.8698

0.3340896 0.09239344 -0.0945212 287.4965 217.8869 116.8699

0.3393756 0.07983304 -0.08681905 287.0765 222.6712 112.1693

0.3401455 0.07980242 -0.08783594 285.317 221.0197 114.1914

0.3446386 0.06557453 -0.08189508 285.317 221.0197 114.1914

0.3446386 0.06557453 -0.08189508 285.317 221.0197 114.1914

0.3512188 0.05795711 -0.07650173 286.437 225.5119 110.2913

0.3542234 0.05066633 -0.06726739 287.0579 216.9037 118.7496

0.3567873 0.04312979 -0.05838523 287.0579 216.9037 118.7496

0.3567873 0.04312979 -0.05838523 288.912 216.5364 120.2377

0.3589362 0.03530209 -0.04984751 288.912 216.5364 120.2377

0.3601847 0.03529092 -0.05129781 290.1297 209.8531 126.4755

0.3619752 0.02709484 -0.04300869 290.2137 214.8 121.6374

0.3636509 0.01381001 -0.03431102 290.2137 214.8 121.6374

0.3636509 0.01381001 -0.03431102 290.9635 207.9324 128.2008

0.3662194 -3.344357E-05 -0.02665904 290.5253 212.0849 124.3647

0.3666095 -0.01327131 -0.01577026 290.5253 212.0849 124.3647

0.3668365 -0.015632 -0.00373722 291.6893 205.6548 130.6153

0.3668365 -0.015632 -0.00373722 290.7634 209.2626 126.6818

0.3664077 -0.01720297 0.01014421 290.7634 209.2625 126.6818

0.3662387 -0.01916055 0.01247178 289.1422 205.8083 129.0503

0.3656389 -0.02484177 0.01856275 288.0121 201.0552 134.2254

0.3656389 -0.02484177 0.01856275 288.0121 201.0552 134.2254

0.365409 -0.03515922 0.01553536 288.871 206.809 128.3397

0.364904 -0.04012118 0.01538215 288.871 206.809 128.3397

0.3654138 -0.03645509 0.01204247 289.8723 201.7344 133.0105

0.365894 -0.03214988 0.009447291 289.8723 201.7344 133.0105

0.3666125 -0.03225396 0.008824056 289.8112 208.0972 127.0097

0.3662701 -0.03176713 0.01897312 289.8112 208.0972 127.0097

0.3662701 -0.03176713 0.01897312 290.7576 202.7568 131.893

0.3663926 -0.03065122 0.01843466 290.8919 208.8357 126.0347

0.3672062 -0.03061979 0.02098357 290.8919 208.8357 126.0347

0.3672062 -0.03061979 0.02098357 291.5584 203.59 130.8774

0.3675444 -0.0271697 0.01977938 291.7384 209.6858 124.9369

0.3672286 -0.02722176 0.02490884 291.7384 209.6859 124.9369

0.3674763 -0.02725279 0.02471036 292.2914 204.5156 129.8274

0.3672795 -0.02606302 0.0286111 291.7368 209.8727 124.802

0.3665291 -0.03010855 0.03379407 292.5877 204.8667 129.6292

0.3665291 -0.03010855 0.03379407 292.5877 204.8667 129.6292

0.3669979 -0.02748747 0.03080747 292.1875 210.0101 124.8629

0.3668049 -0.02891601 0.0317831 291.5122 205.2357 130.5251

0.3668049 -0.02891601 0.0317831 291.5122 205.2357 130.5251

0.3675822 -0.02302161 0.02730279 291.9336 211.166 124.9208

0.3670754 -0.02537743 0.03168263 292.4714 206.6558 128.7098

0.3671542 -0.02335526 0.03231761 292.4714 206.6558 128.7098

0.3671542 -0.02335526 0.03231761 291.8617 211.871 123.2386

0.3666309 -0.02419182 0.03726443 292.4854 207.4607 126.9136

0.3679983 -0.01959327 0.0357865 292.7994 209.299 123.5088

0.3675472 -0.02116648 0.03934899 292.7994 209.299 123.5088

0.3675472 -0.02116648 0.03934899 293.3342 205.3275 126.5809

0.3678724 -0.01829458 0.03771681 293.4745 210.839 121.5166

0.36867 -0.02013148 0.04041331 295.1947 208.1813 123.8717

0.3689329 -0.01745987 0.0392394 295.1946 208.1813 123.8717

0.3689329 -0.01745987 0.0392394 295.4014 212.9783 119.512

0.3683445 -0.01948965 0.0435717 297.301 212.0697 120.1688

0.3685493 -0.01734444 0.04273882 297.301 212.0697 120.1688

0.3677823 -0.01721692 0.04329649 296.6898 215.0667 118.1315

0.3671258 -0.02014501 0.0474093 296.6898 215.0667 118.1315

0.3674399 -0.01650272 0.04637296 295.3278 211.1191 122.4678

0.3667075 -0.01931703 0.05086597 295.0972 215.3149 118.8598

0.3667075 -0.01931703 0.05086597 295.0972 215.3149 118.8598

0.3669498 -0.01874325 0.04930953 295.0972 215.3149 118.8598

0.3662836 -0.02195999 0.05281051 295.483 210.1382 123.9389

0.3666619 -0.02044464 0.05075322 294.034 205.6974 128.2

0.3661432 -0.02034863 0.0511118 294.034 205.6974 128.2

0.3655248 -0.0237668 0.05398227 294.44 210.4446 123.8818

0.3655248 -0.0237668 0.05398227 294.44 210.4446 123.8818

0.366114 -0.02095156 0.05107718 294.8133 204.7592 129.4031

0.3655022 -0.02488906 0.05362853 294.8133 204.7592 129.4031

0.365763 -0.02493217 0.05345007 294.1461 208.1205 126.4129

0.3660535 -0.02662322 0.05056828 293.2021 208.9403 126.8439

0.3664596 -0.02774748 0.05045839 293.7715 202.9287 132.8412

0.3664596 -0.02774748 0.05045839 293.7715 202.9287 132.8412

0.3664596 -0.02774748 0.05045839 295.076 206.9 129.8623

0.3671832 -0.0261336 0.04584925 295.2716 201.9193 134.607

0.3652447 -0.03093446 0.04696035 295.2716 201.9193 134.607

0.3652447 -0.03093446 0.04696035 294.1288 197.9057 139.3004

0.364917 -0.04156416 0.04091319 294.1288 197.9057 139.3004

0.3669888 -0.0306308 0.03077135 294.6651 202.7275 134.3614

0.3664902 -0.03053568 0.03115765 295.3826 199.2028 137.6432

0.3660333 -0.03590562 0.03080079 295.3826 199.2028 137.6432

0.3660333 -0.03590562 0.03080079 293.6088 201.9528 135.8237

0.3665248 -0.03512178 0.02538327 293.8679 197.9981 139.6875

0.3650459 -0.03480555 0.02655593 293.8679 197.998 139.6875

0.3650459 -0.03480555 0.02655593 292.6738 193.3201 144.3894

0.3650459 -0.03480555 0.02655593 292.7582 198.6109 138.7359

0.3649466 -0.03556505 0.02691164 292.7582 198.6109 138.7359

0.3632034 -0.03524179 0.02826853 293.0218 194.1711 142.8319

0.3636774 -0.03258631 0.02519233 293.0218 194.1711 142.8319

0.3636774 -0.03258631 0.02519233 291.0925 198.6482 139.3611

0.3637628 -0.03134017 0.02553898 291.3948 194.8549 143.1672

0.3617637 -0.03097937 0.02708308 291.3948 194.8549 143.1672

0.3617637 -0.03097937 0.02708308 290.7921 202.3005 136.1562

0.3625392 -0.02644446 0.02078885 291.7483 200.3914 138.2962

0.3627965 -0.02418972 0.0189662 290.4045 206.8917 132.7231

0.3593076 -0.02362059 0.02169411 290.4045 206.8918 132.7231

0.3593076 -0.02362059 0.02169411 290.0049 202.423 136.8863

0.3593076 -0.02362059 0.02169411 288.9288 209.7863 130.4688

0.3596521 -0.02317478 0.01561363 288.9288 209.7863 130.4688

0.3544008 -0.02217408 0.01964873 288.9288 209.7863 130.4688

0.3543664 -0.02317019 0.01911311 288.5409 205.1747 135.3372

0.3543664 -0.02317019 0.01911311 288.5409 205.1747 135.3372

0.3554115 -0.01005264 0.007700766 285.8868 209.9394 130.9576

0.3526691 -0.009642761 0.009850239 286.3276 206.4336 134.4413

0.3526691 -0.009642761 0.009850239 284.5704 215.7628 125.5105

0.352883 0.006058084 -0.001554218 284.3089 211.1227 130.3974

0.352883 0.006058084 -0.001554218 284.3089 211.1227 130.3974

0.351403 0.006233167 -0.0003537226 281.769 219.8691 122.4174

0.3505472 0.02246892 -0.01161405 281.7003 215.389 127.1094

0.3505472 0.02246892 -0.01161405 281.1999 230.8667 113.104

0.3505472 0.02246892 -0.01161405 281.1999 230.8667 113.104

0.3522629 0.01324142 -0.02546776 282.662 227.7626 117.489

0.3522629 0.01324142 -0.02546776 283.2253 241.5626 104.4598

0.3522629 0.01324142 -0.02546776 283.2253 241.5626 104.4598

0.350863 0.02900323 -0.03109853 283.607 237.8345 108.7963

0.3529118 0.02889557 -0.0331061 284.9085 242.6521 104.0498

0.3529118 0.02889557 -0.0331061 284.9085 242.6521 104.0498

0.3529118 0.02889557 -0.0331061 284.9085 242.6521 104.0498

0.3531451 0.0181115 -0.03792424 284.3813 240.3077 106.6404

0.3531451 0.0181115 -0.03792424 284.3813 240.3077 106.6404

0.3566729 0.01774945 -0.04159371 285.1885 252.51 95.96841

0.3564373 0.02050098 -0.0423413 286.3663 263.2567 86.39607

0.3564373 0.02050098 -0.0423413 286.3663 263.2567 86.39607

0.3564373 0.02050098 -0.0423413 286.5805 265.3093 84.20773

0.3609306 0.02015634 -0.04729614 286.5805 265.3093 84.20774

0.3609306 0.02015634 -0.04729614 288.1293 269.9008 80.07086

0.3600956 0.01717196 -0.05431757 288.1265 269.4386 80.56815

0.3600956 0.01717196 -0.05431757 289.6368 274.5392 75.86581

0.3637585 0.01665879 -0.05870829 289.6368 274.5392 75.86581

0.3610979 0.02440714 -0.07111326 289.8517 274.833 75.47345

0.3610979 0.02440714 -0.07111326 290.3016 275.3027 74.91866

0.358074 0.03237002 -0.08233877 290.3016 275.3027 74.91866

0.3633539 0.03130711 -0.08985778 291.787 278.3166 72.16656

0.3633539 0.03130711 -0.08985778 291.0533 276.5691 74.12322

0.359647 0.04067072 -0.1004017 291.0533 276.5691 74.12321

0.359647 0.04067072 -0.1004017 293.0425 280.638 70.97571

0.3580105 0.05203728 -0.1131391 293.0425 280.6379 70.97571

0.3542705 0.06675673 -0.1171147 291.8448 279.0392 72.86868

0.3531671 0.0761736 -0.1146754 291.8448 279.0392 72.8687

0.3531671 0.0761736 -0.1146754 291.8448 279.0392 72.8687

0.3572452 0.07255305 -0.1141943 292.0738 279.129 72.62511

0.3530175 0.07135268 -0.1273413 293.2802 286.4952 67.27708

0.3483102 0.07072534 -0.1400227 293.2802 286.4952 67.27708

0.3483102 0.07072534 -0.1400227 293.8481 294.6308 60.93452

0.3459486 0.06932285 -0.158318 291.664 297.417 58.99652

0.3400095 0.07055942 -0.1701927 292.2202 305.8168 51.79805

0.333398 0.07299511 -0.1818464 292.2202 305.8168 51.79804

0.333398 0.07299511 -0.1818464 290.6621 305.8884 52.17468

0.3292131 0.0853956 -0.1944914 293.237 306.6569 52.48405

0.3223322 0.07682718 -0.2090459 293.237 306.6569 52.48407

0.3189811 0.08577038 -0.2107015 292.0302 304.1693 55.7142

0.3189811 0.08577038 -0.2107015 292.0302 304.1693 55.7142

0.3118861 0.08300653 -0.2221208 293.6049 303.488 57.31168

0.3144624 0.08019112 -0.2312412 293.6049 303.488 57.3117

0.3121711 0.09172388 -0.2300557 292.5895 305.2812 55.43144

0.3121711 0.09172388 -0.2300557 294.4319 311.4971 50.32264

0.3082499 0.08268604 -0.23861 294.4319 311.4971 50.32264

0.3120862 0.09081925 -0.2461006 293.6992 314.5128 47.70972

0.308251 0.08100995 -0.2542245 295.9108 316.1347 46.88312

0.308251 0.08100995 -0.2542245 295.9108 316.1347 46.88312

0.3055141 0.09428295 -0.2529491 295.9108 316.1347 46.88312

0.3060429 0.07415745 -0.2791827 295.9108 316.1347 46.88313

0.306134 0.08041254 -0.2773451 294.6398 315.5669 47.89494

0.306134 0.08041254 -0.2773451 294.6398 315.5669 47.89494

0.3013383 0.07309971 -0.284528 294.6398 315.5669 47.89494

0.297222 0.08231638 -0.2994773 294.6398 315.5669 47.89494

0.297222 0.08231638 -0.2994773 294.3961 316.5949 46.80606

0.2929217 0.06905502 -0.3069721 294.3961 316.5949 46.80606

0.2909501 0.07433244 -0.3076138 296.2486 314.8237 50.55642

0.2834226 0.05414406 -0.333167 296.2486 314.8237 50.55639

0.2834226 0.05414406 -0.333167 296.2486 314.8237 50.55639

0.2807774 0.06607335 -0.3332546 297.7125 312.4648 54.66636

0.2739514 0.0525 -0.3412545 297.7125 312.4648 54.66636

0.2688902 0.05486818 -0.3565271 297.7125 312.4648 54.66634

0.2688902 0.05486818 -0.3565271 298.3112 309.3999 58.87707

0.2612346 0.04169657 -0.3639256 298.3112 309.3998 58.87708

0.2612346 0.04169657 -0.3639256 298.1362 306.938 61.62014

0.2533399 0.04815808 -0.3790742 298.1362 306.938 61.62013

0.2440745 0.03569841 -0.3864593 298.0269 305.4048 63.10521

0.2431586 0.04883114 -0.3855994 298.1767 304.9474 63.3583

0.2431586 0.04883114 -0.3855994 298.2082 304.6447 63.39885

0.2283168 0.02192702 -0.4073799 296.3822 308.2973 60.13242

0.2264142 0.04069556 -0.4069991 296.3822 308.2973 60.13243

0.2264142 0.04069556 -0.4069991 296.3822 308.2973 60.13243

0.2210623 0.03318844 -0.4106066 296.3822 308.2973 60.13242

0.2128515 0.04017469 -0.4246486 296.3822 308.2973 60.13242

0.2128515 0.04017469 -0.4246486 297.3459 310.4214 58.00742

0.2098784 0.02672748 -0.4271802 297.3459 310.4214 58.00742

0.2100777 0.03806133 -0.4262217 297.3459 310.4214 58.00742

0.1923929 0.009480429 -0.4454873 297.3459 310.4214 58.00742

0.1855257 0.01533666 -0.4482286 295.6826 309.3223 59.42027

0.1855257 0.01533666 -0.4482286 295.6826 309.3223 59.42027

0.1756774 0.003074884 -0.4524288 295.6826 309.3223 59.42026

0.1597061 0.01020204 -0.4653642 295.6826 309.3223 59.42027

0.1510504 0.01438963 -0.4681353 296.5481 314.8703 54.7779

0.1510504 0.01438963 -0.4681353 294.8021 313.4702 56.66005

0.1484333 0.02450131 -0.4685522 294.8021 313.4702 56.66007

0.1289093 0.01132513 -0.4801609 296.2475 314.9718 56.11027

0.1258253 0.02694065 -0.4803567 294.4976 314.4443 56.7244

0.1258253 0.02694065 -0.4803567 291.7977 317.1956 54.82782

0.122044 0.007721014 -0.4820228 288.8702 323.1803 49.76998

0.1048415 0.00597662 -0.4911951 288.8702 323.1803 49.76999

0.1048415 0.00597662 -0.4911951 288.6821 330.9048 43.01991

0.1004168 -0.00730339 -0.4921008 288.6821 330.9048 43.01994

0.1004168 -0.00730339 -0.4921008 285.3316 333.623 41.04012

0.1002956 -0.0001908302 -0.4921797 282.0768 339.0597 35.96815
