-0.05637414 0.0270526 -0.006981317 0.153036 -0.192276 -9.442125 0.0677 -0.2298 1.2576 -0.029147 -0.3047345 0.01797689 0.256041 -0.957456 -8.767198 0.4579 0.1314 0.9728 0.004027683

-0.2139774 0.03438299 -0.04712389 0.183447 -0.305091 -9.325387 0.0677 -0.2298 1.2576 -0.08604473 -0.2954842 0.00418879 0.229554 -1.016316 -8.748558 0.4616 0.1248 0.9679 0.01074049

-0.2139774 0.03438299 -0.04712389 0.183447 -0.305091 -9.325387 0.0677 -0.2298 1.2576 -0.08604473 -0.2954842 0.00418879 0.229554 -1.016316 -8.748558 0.4616 0.1248 0.9679 0.01074049

-0.2139774 0.03438299 -0.04712389 0.183447 -0.305091 -9.325387 0.0677 -0.2298 1.2576 -0.08604473 -0.2954842 0.00418879 0.229554 -1.016316 -8.748558 0.4616 0.1248 0.9679 0.01074049

-0.2139774 0.03438299 -0.04712389 0.183447 -0.305091 -9.325387 0.0677 -0.2298 1.2576 -0.08604473 -0.2954842 0.00418879 0.229554 -1.016316 -8.748558 0.4616 0.1248 0.9679 0.01074049

0.03822271 -0.055676 -0.05148721 0.354141 -0.092214 -8.844696 0.0815 -0.238 1.2329 -0.2986259 -0.6087708 0.06300639 0.7848 -1.012392 -7.976511 0.4762 0.0985 0.9505 0.01074049

0.03822271 -0.055676 -0.05148721 0.354141 -0.092214 -8.844696 0.0815 -0.238 1.2329 -0.3933972 -0.9327039 0.1120501 0.9241021 -0.935874 -7.777369 0.4762 0.0985 0.9505 0.0241661

0.03822271 -0.055676 -0.05148721 0.354141 -0.092214 -8.844696 0.0815 -0.238 1.2329 -0.3933972 -0.9327039 0.1120501 0.9241021 -0.935874 -7.777369 0.4762 0.0985 0.9505 0.0241661

0.009773844 -0.04729842 0.02094395 0.420849 -0.6239161 -9.761931 0.041 -0.2019 1.2264 0.03089233 0.01972222 -0.03193953 -0.616068 -1.005525 -8.853525 0.516 0.1381 0.9428 0.0241661

-0.1038471 0.06300639 -0.02391101 0.36297 -0.739674 -9.758008 0.041 -0.2019 1.2264 0.01972222 -0.05445427 -0.01448623 -0.449298 -0.980019 -8.863336 0.5286 0.1208 0.9293 0.0241661

-0.005585053 -0.01186824 -0.05393067 0.391419 -0.770085 -9.685413 0.0384 -0.2011 1.2152 0.01972222 -0.06824237 -0.0158825 -0.348255 -1.003563 -8.914348 0.5286 0.1208 0.9293 0.02282354

-0.005585053 -0.01186824 -0.05393067 0.391419 -0.770085 -9.685413 0.0384 -0.2011 1.2152 0.01972222 -0.06824237 -0.0158825 -0.348255 -1.003563 -8.914348 0.5286 0.1208 0.9293 0.02282354

-0.0137881 0.009599311 -0.08185595 0.395343 -0.8652421 -9.605952 0.0384 -0.2011 1.2152 -0.01308997 -0.05078908 -0.01762783 -0.309996 -1.005525 -8.877069 0.545 0.1113 0.9165 0.02282354

0.01308997 0.0991347 -0.1706932 0.349236 -0.894672 -9.506871 0.0372 -0.1869 1.2157 -0.04852015 0.07976155 -0.006283185 -0.369837 -1.050651 -8.847639 0.5386 0.1255 0.9206 0.02282354

0.07470009 0.006108652 -0.2012365 0.422811 -0.7661611 -9.386209 0.0372 -0.1869 1.2157 -0.04694936 0.1694715 -0.01308997 -0.545436 -1.047708 -8.864316 0.5386 0.1255 0.9206 0.0241661

0.07470009 0.006108652 -0.2012365 0.422811 -0.7661611 -9.386209 0.0372 -0.1869 1.2157 -0.04694936 0.1694715 -0.01308997 -0.545436 -1.047708 -8.864316 0.5386 0.1255 0.9206 0.0241661

-0.1420698 -0.02146755 -0.130027 0.433602 -0.678852 -9.386209 0.0488 -0.1792 1.2054 -0.04764749 0.307178 -0.02199115 -0.691605 -1.04967 -8.859411 0.5315 0.1407 0.9318 0.0241661

-0.09738937 -0.09110618 -0.04904375 0.445374 -0.464013 -9.438202 0.0488 -0.1792 1.2054 -0.05794493 0.2054253 -0.00837758 -0.749484 -0.992772 -8.816247 0.5315 0.1407 0.9318 0.0241661

-0.09930924 -0.0286234 -0.004363323 0.433602 -0.371799 -9.576522 0.0534 -0.1924 1.2116 -0.05794493 0.2054253 -0.00837758 -0.749484 -0.992772 -8.816247 0.5315 0.1407 0.9318 0.0241661

-0.09930924 -0.0286234 -0.004363323 0.433602 -0.371799 -9.576522 0.0534 -0.1924 1.2116 -0.05794493 0.2054253 -0.00837758 -0.749484 -0.992772 -8.816247 0.5315 0.1407 0.9318 0.0241661

-0.07958701 -0.0403171 0.02076942 0.437526 -0.279585 -9.665793 0.0534 -0.1924 1.2116 -0.01151917 -0.03141592 0.05166174 -0.478728 -0.940779 -8.936911 0.5023 0.1322 0.9284 0.0241661

-0.07958701 -0.0403171 0.02076942 0.437526 -0.279585 -9.665793 0.0534 -0.1924 1.2116 -0.01692969 0.02251475 0.04939282 -0.47088 -0.9044821 -8.945739 0.5023 0.1322 0.9284 0.0241661

-0.01169371 0.02059488 0.02234021 0.327654 -0.689643 -9.982657 0.0115 -0.1838 1.2076 -0.007853981 -0.0837758 0.04799655 -0.369837 -0.898596 -8.967321 0.5117 0.1298 0.9303 0.02282354

-0.01169371 0.02059488 0.02234021 0.327654 -0.689643 -9.982657 0.0115 -0.1838 1.2076 -0.007853981 -0.0837758 0.04799655 -0.369837 -0.898596 -8.967321 0.5117 0.1298 0.9303 0.02282354

0.04380776 -0.04153884 0.00593412 0.361989 -0.6886621 -9.928701 0.0115 -0.1838 1.2076 -0.001047197 -0.04049164 0.05270894 -0.427716 -0.8779951 -9.014409 0.5066 0.1333 0.9264 0.02282354

0.01047198 0.03403392 -0.0005235987 0.319806 -0.697491 -9.913005 0.0228 -0.1878 1.2179 0.0006981317 -0.01919862 0.05480334 -0.501291 -0.89271 -8.98498 0.5066 0.1333 0.9264 0.02282354

0.04834562 -0.03577925 0.03141592 0.363951 -0.709263 -9.868861 0.0228 -0.1878 1.2179 0.004886922 -0.01151917 0.03455752 -0.543474 -0.905463 -8.957511 0.5202 0.128 0.9224 0.02282354

0.04834562 -0.03577925 0.03141592 0.363951 -0.709263 -9.868861 0.0228 -0.1878 1.2179 0.004886922 -0.01151917 0.03455752 -0.543474 -0.905463 -8.957511 0.5202 0.128 0.9224 0.02282354

-0.02792527 -0.004886922 0.02146755 0.338445 -0.797553 -9.891423 0.0216 -0.1895 1.2221 0.01291544 0.0005235987 0.02949606 -0.518949 -0.8907481 -8.941815 0.5202 0.128 0.9224 0.02282354

-0.0143117 0.03926991 0.01361357 0.307053 -0.806382 -9.853165 0.0216 -0.1895 1.2221 0.01308997 -0.05951573 0.04555309 -0.464013 -0.871128 -8.929063 0.519 0.1097 0.9278 0.02282354

-0.0143117 0.03926991 0.01361357 0.307053 -0.806382 -9.853165 0.0216 -0.1895 1.2221 0.01308997 -0.05951573 0.04555309 -0.464013 -0.871128 -8.929063 0.519 0.1097 0.9278 0.0241661

0.03036873 0.01308997 0.006283185 0.36297 -0.81423 -9.784494 0.0227 -0.1931 1.2187 0.008901179 -0.1015782 0.03996804 -0.481671 -0.9084061 -8.940835 0.519 0.1097 0.9278 0.0241661

0.1169371 -0.04625123 -0.008028515 0.399267 -0.811287 -9.739368 0.0227 -0.1931 1.2187 0.01256637 -0.009773844 0.02216568 -0.5729041 -0.936855 -8.92612 0.5074 0.1089 0.9325 0.0241661

0.09075712 0.00296706 -0.002094395 0.371799 -0.8740711 -9.765856 0.0269 -0.196 1.2145 0.006283185 -0.084823 0.03665191 -0.516006 -0.945684 -8.914348 0.5074 0.1089 0.9325 0.0241661

0.09075712 0.00296706 -0.002094395 0.371799 -0.8740711 -9.765856 0.0269 -0.196 1.2145 0.02024582 -0.2015855 0.03281219 -0.493443 -0.945684 -8.892765 0.525 0.1223 0.925 0.0241661

0.1110029 -0.02303835 -0.01064651 0.380628 -0.9505891 -9.76095 0.0269 -0.196 1.2145 0.02024582 -0.2015855 0.03281219 -0.493443 -0.945684 -8.892765 0.525 0.1223 0.925 0.0241661

0.1602212 -0.01850049 -0.05183628 0.368856 -1.084005 -9.733482 0.019 -0.1958 1.2155 0.01308997 -0.09110618 0.00715585 -0.602334 -0.9260641 -8.870203 0.525 0.1223 0.925 0.0241661

0.1708677 -0.03333579 -0.1148427 0.357084 -1.281186 -9.761931 0.019 -0.1958 1.2155 0.02303835 -0.09983283 0.004537856 -0.520911 -0.9476461 -8.85745 0.5302 0.1302 0.9289 0.0241661

0.1708677 -0.03333579 -0.1148427 0.357084 -1.281186 -9.761931 0.019 -0.1958 1.2155 0.03246313 -0.2857104 -0.01029744 -0.374742 -0.935874 -8.855488 0.5302 0.1302 0.9289 0.02550866

0.1485275 0.009075711 -0.1811652 0.316863 -1.457766 -9.806076 0.0246 -0.2022 1.2106 0.03246313 -0.2857104 -0.01029744 -0.374742 -0.935874 -8.855488 0.5302 0.1302 0.9289 0.02550866

0.1839577 0.04276057 -0.2380629 0.309996 -1.573524 -9.84826 0.0418 -0.1976 1.2085 0.03769911 -0.3834488 -0.03665191 -0.380628 -0.913311 -8.841754 0.5211 0.122 0.9376 0.02550866

0.1839577 0.04276057 -0.2380629 0.309996 -1.573524 -9.84826 0.0418 -0.1976 1.2085 0.03769911 -0.3834488 -0.03665191 -0.380628 -0.913311 -8.841754 0.5211 0.122 0.9376 0.02550866

0.3385939 0.02548181 -0.3040363 0.289395 -1.632384 -9.914968 0.0418 -0.1976 1.2085 0.03071779 -0.3991568 -0.05829399 -0.47088 -0.9113491 -8.882956 0.5398 0.1278 0.9271 0.02550866

0.4653048 0.01745329 -0.3645993 0.309996 -1.827603 -9.964998 0.0313 -0.1866 1.2052 0.06527531 -0.4530874 -0.06056292 -0.533664 -0.883881 -8.88786 0.5398 0.1278 0.9271 0.03624915

0.4653048 0.01745329 -0.3645993 0.309996 -1.827603 -9.964998 0.0313 -0.1866 1.2052 0.06597345 -0.6337291 -0.09564404 -0.465975 -0.913311 -8.834887 0.5601 0.1431 0.914 0.03624915

0.4586725 0.03926991 -0.4272566 0.308034 -2.043423 -10.0837 0.0313 -0.1866 1.2052 0.06597345 -0.6337291 -0.09564404 -0.465975 -0.913311 -8.834887 0.5601 0.1431 0.914 0.03624915

0.5080653 0.145735 -0.4780457 0.257022 -2.186649 -10.20927 0.0093 -0.1753 1.2009 0.1014036 -0.8145451 -0.1153663 -0.525816 -0.9329311 -8.852545 0.5601 0.1431 0.914 0.03624915

0.5998697 0.1366593 -0.5682792 0.262908 -2.415222 -10.22987 0.0093 -0.1753 1.2009 0.1289798 -0.9688323 -0.1017527 -0.695529 -0.9417601 -8.788779 0.5675 0.1481 0.9149 0.02765672

0.5998697 0.1366593 -0.5682792 0.262908 -2.415222 -10.22987 0.0093 -0.1753 1.2009 0.1672025 -1.048245 -0.1054179 -0.8868241 -0.943722 -8.725996 0.5675 0.1481 0.9149 0.02765672

0.4014257 0.2513274 -0.8257153 0.168732 -2.931228 -10.37702 -0.0072 -0.1521 1.1991 0.1672025 -1.048245 -0.1054179 -0.8868241 -0.943722 -8.725996 0.5675 0.1481 0.9149 0.02765672

-0.1953023 0.6222099 -1.231155 -0.065727 -3.579669 -10.52024 -0.0072 -0.1521 1.1991 0.1672025 -1.048245 -0.1054179 -0.8868241 -0.943722 -8.725996 0.5675 0.1481 0.9149 0.02765672

-0.2106612 0.9857619 -1.439548 0.332559 -2.552562 -10.47119 -0.1129 -0.126 1.1585 0.1672025 -1.048245 -0.1054179 -0.8868241 -0.943722 -8.725996 0.5675 0.1481 0.9149 0.03973977

0.3607596 0.6965609 -1.293987 0.675909 -1.914912 -10.23379 -0.1129 -0.126 1.1585 0.1672025 -1.048245 -0.1054179 -0.8868241 -0.943722 -8.725996 0.5675 0.1481 0.9149 0.03973977

0.3607596 0.6965609 -1.293987 0.675909 -1.914912 -10.23379 -0.1129 -0.126 1.1585 0.1672025 -1.048245 -0.1054179 -0.8868241 -0.943722 -8.725996 0.5675 0.1481 0.9149 0.03973977

0.4607669 0.5633923 -1.202357 0.943722 -1.621593 -10.12686 -0.1906 -0.1426 1.1814 0.1672025 -1.048245 -0.1054179 -0.8868241 -0.943722 -8.725996 0.5675 0.1481 0.9149 0.03973977

0.4413938 0.3780383 -1.120152 1.24587 -1.529379 -9.959112 -0.1906 -0.1426 1.1814 0.1672025 -1.048245 -0.1054179 -0.8868241 -0.943722 -8.725996 0.5675 0.1481 0.9149 0.06578549

0.4413938 0.3780383 -1.120152 1.24587 -1.529379 -9.959112 -0.1906 -0.1426 1.1814 0.1672025 -1.048245 -0.1054179 -0.8868241 -0.943722 -8.725996 0.5675 0.1481 0.9149 0.06578549

-0.01762783 0.3255039 -1.025905 1.414602 -1.717731 -9.991486 -0.2442 -0.1586 1.2015 0.1672025 -1.048245 -0.1054179 -0.8868241 -0.943722 -8.725996 0.5675 0.1481 0.9149 0.06578549

-0.3396411 0.4302236 -0.9738937 1.507797 -1.581372 -9.986581 -0.2442 -0.1586 1.2015 0.1672025 -1.048245 -0.1054179 -0.8868241 -0.943722 -8.725996 0.5675 0.1481 0.9149 0.06578549

-0.3396411 0.4302236 -0.9738937 1.507797 -1.581372 -9.986581 -0.2442 -0.1586 1.2015 0.1672025 -1.048245 -0.1054179 -0.8868241 -0.943722 -8.725996 0.5675 0.1481 0.9149 0.1334506

0.1303761 0.1977458 -0.9213593 1.702035 -1.067328 -9.735444 -0.2969 -0.1548 1.202 0.1672025 -1.048245 -0.1054179 -0.8868241 -0.943722 -8.725996 0.5675 0.1481 0.9149 0.1334506

0.4794419 0.03682645 -0.8370599 1.860957 -0.8515081 -9.523548 -0.2969 -0.1548 1.202 0.1672025 -1.048245 -0.1054179 -0.8868241 -0.943722 -8.725996 0.5675 0.1481 0.9149 0.1334506

0.4794419 0.03682645 -0.8370599 1.860957 -0.8515081 -9.523548 -0.2969 -0.1548 1.202 0.1672025 -1.048245 -0.1054179 -0.8868241 -0.943722 -8.725996 0.5675 0.1481 0.9149 0.1334506

0.6702064 -0.1434661 -0.8213519 1.979658 -0.848565 -9.48529 -0.3534 -0.1586 1.1783 0.1672025 -1.048245 -0.1054179 -0.8868241 -0.943722 -8.725996 0.5675 0.1481 0.9149 0.2258188

0.7759734 -0.1569051 -0.8332202 1.941399 -0.940779 -9.531396 -0.3534 -0.1586 1.1783 0.1672025 -1.048245 -0.1054179 -0.8868241 -0.943722 -8.725996 0.5675 0.1481 0.9149 0.2258188

0.9070476 -0.2551671 -0.7576474 2.043423 -1.017297 -9.393075 -0.3867 -0.1605 1.1474 0.1672025 -1.048245 -0.1054179 -0.8868241 -0.943722 -8.725996 0.5675 0.1481 0.9149 0.2258188

0.9070476 -0.2551671 -0.7576474 2.043423 -1.017297 -9.393075 -0.3867 -0.1605 1.1474 0.1672025 -1.048245 -0.1054179 -0.8868241 -0.943722 -8.725996 0.5675 0.1481 0.9149 0.2258188

0.9723229 -0.6082472 -0.5665339 2.192535 -1.086948 -9.160578 -0.3867 -0.1605 1.1474 0.1672025 -1.048245 -0.1054179 -0.8868241 -0.943722 -8.725996 0.5675 0.1481 0.9149 0.1139835

0.9723229 -0.6082472 -0.5665339 2.192535 -1.086948 -9.160578 -0.3867 -0.1605 1.1474 0.1672025 -1.048245 -0.1054179 -0.8868241 -0.943722 -8.725996 0.5675 0.1481 0.9149 0.1139835

1.251576 -1.205499 -0.3173009 2.195478 -0.957456 -8.818209 -0.3895 -0.1508 1.1265 0.1672025 -1.048245 -0.1054179 -0.8868241 -0.943722 -8.725996 0.5675 0.1481 0.9149 0.1139835

1.251576 -1.205499 -0.3173009 2.195478 -0.957456 -8.818209 -0.3895 -0.1508 1.1265 0.1672025 -1.048245 -0.1054179 -0.8868241 -0.943722 -8.725996 0.5675 0.1481 0.9149 0.1139835

1.251576 -1.205499 -0.3173009 2.195478 -0.957456 -8.818209 -0.3895 -0.1508 1.1265 0.1672025 -1.048245 -0.1054179 -0.8868241 -0.943722 -8.725996 0.5675 0.1481 0.9149 0.4336472

1.251576 -1.205499 -0.3173009 2.195478 -0.957456 -8.818209 -0.3895 -0.1508 1.1265 0.1672025 -1.048245 -0.1054179 -0.8868241 -0.943722 -8.725996 0.5675 0.1481 0.9149 0.4336472

1.110378 -1.323832 -1.288227 0.054936 -3.885741 -9.143902 -0.35 -0.0926 1.0819 0.1672025 -1.048245 -0.1054179 -0.8868241 -0.943722 -8.725996 0.5675 0.1481 0.9149 0.4336472

1.110378 -1.323832 -1.288227 0.054936 -3.885741 -9.143902 -0.35 -0.0926 1.0819 0.1672025 -1.048245 -0.1054179 -0.8868241 -0.943722 -8.725996 0.5675 0.1481 0.9149 0.4336472

0.8883726 -0.8318239 -1.179494 -0.409077 -4.017195 -9.389152 -0.3054 -0.0519 1.0723 0.1672025 -1.048245 -0.1054179 -0.8868241 -0.943722 -8.725996 0.5675 0.1481 0.9149 0.4698963

0.7436848 -0.72117 -1.184206 -0.518949 -4.072131 -9.243963 -0.3054 -0.0519 1.0723 0.1672025 -1.048245 -0.1054179 -0.8868241 -0.943722 -8.725996 0.5675 0.1481 0.9149 0.4698963

0.7436848 -0.72117 -1.184206 -0.518949 -4.072131 -9.243963 -0.3054 -0.0519 1.0723 0.1672025 -1.048245 -0.1054179 -0.8868241 -0.943722 -8.725996 0.5675 0.1481 0.9149 0.4698963

0.7400196 -0.7318165 -1.258033 -0.45126 -4.115295 -8.98596 -0.2805 -0.0068 1.0445 0.1672025 -1.048245 -0.1054179 -0.8868241 -0.943722 -8.725996 0.5675 0.1481 0.9149 0.4698963

0.7400196 -0.7318165 -1.258033 -0.45126 -4.115295 -8.98596 -0.2805 -0.0068 1.0445 0.1672025 -1.048245 -0.1054179 -0.8868241 -0.943722 -8.725996 0.5675 0.1481 0.9149 0.4698963

0.7920305 -0.7250098 -1.274963 -0.322749 -4.162383 -8.783875 -0.2805 -0.0068 1.0445 0.1672025 -1.048245 -0.1054179 -0.8868241 -0.943722 -8.725996 0.5675 0.1481 0.9149 0.5249413

0.7908087 -0.758171 -1.254194 -0.296262 -4.255579 -8.623972 -0.2709 0.0193 1.0114 0.1672025 -1.048245 -0.1054179 -0.8868241 -0.943722 -8.725996 0.5675 0.1481 0.9149 0.5249413

0.7908087 -0.758171 -1.254194 -0.296262 -4.255579 -8.623972 -0.2709 0.0193 1.0114 0.1672025 -1.048245 -0.1054179 -0.8868241 -0.943722 -8.725996 0.5675 0.1481 0.9149 0.5249413

0.5445427 -0.7218682 -1.220334 -0.43164 -4.511619 -8.59356 -0.2709 0.0193 1.0114 0.1672025 -1.048245 -0.1054179 -0.8868241 -0.943722 -8.725996 0.5675 0.1481 0.9149 0.5249413

0.3829252 -0.6897541 -1.204103 -0.476766 -4.646997 -8.496442 -0.2757 0.0377 0.9976 0.1672025 -1.048245 -0.1054179 -0.8868241 -0.943722 -8.725996 0.5675 0.1481 0.9149 0.571931

0.3829252 -0.6897541 -1.204103 -0.476766 -4.646997 -8.496442 -0.2757 0.0377 0.9976 0.1672025 -1.048245 -0.1054179 -0.8868241 -0.943722 -8.725996 0.5675 0.1481 0.9149 0.571931

0.2612758 -0.7609635 -1.118931 -0.466956 -4.719591 -8.371854 -0.2757 0.0377 0.9976 0.1672025 -1.048245 -0.1054179 -0.8868241 -0.943722 -8.725996 0.5675 0.1481 0.9149 0.571931

0.3056071 -0.8330457 -1.041787 -0.534645 -4.698009 -8.31888 -0.2772 0.0637 0.9705 0.1672025 -1.048245 -0.1054179 -0.8868241 -0.943722 -8.725996 0.5675 0.1481 0.9149 0.571931

0.3056071 -0.8330457 -1.041787 -0.534645 -4.698009 -8.31888 -0.2772 0.0637 0.9705 0.1672025 -1.048245 -0.1054179 -0.8868241 -0.943722 -8.725996 0.5675 0.1481 0.9149 0.6511421

0.217468 -0.8751081 -0.9475393 -0.617049 -4.764717 -8.270811 -0.2862 0.0844 0.9433 0.1672025 -1.048245 -0.1054179 -0.8868241 -0.943722 -8.725996 0.5675 0.1481 0.9149 0.6511421

0.217468 -0.8751081 -0.9475393 -0.617049 -4.764717 -8.270811 -0.2862 0.0844 0.9433 0.1672025 -1.048245 -0.1054179 -0.8868241 -0.943722 -8.725996 0.5675 0.1481 0.9149 0.6511421

-0.3672173 -0.7508407 -1.08926 -0.915273 -5.212053 -7.909803 -0.2928 0.0765 0.9585 0.1672025 -1.048245 -0.1054179 -0.8868241 -0.943722 -8.725996 0.5675 0.1481 0.9149 0.6511421

-0.3672173 -0.7508407 -1.08926 -0.915273 -5.212053 -7.909803 -0.2928 0.0765 0.9585 0.1672025 -1.048245 -0.1054179 -0.8868241 -0.943722 -8.725996 0.5675 0.1481 0.9149 0.7142425

-0.3672173 -0.7508407 -1.08926 -0.915273 -5.212053 -7.909803 -0.2928 0.0765 0.9585 0.1672025 -1.048245 -0.1054179 -0.8868241 -0.943722 -8.725996 0.5675 0.1481 0.9149 0.7142425

-0.3672173 -0.7508407 -1.08926 -0.915273 -5.212053 -7.909803 -0.2928 0.0765 0.9585 -0.009075711 0.01553343 -0.2485349 -4.471398 -2.192535 -7.812685 0.8612 0.2822 0.6682 0.7142425

-0.3672173 -0.7508407 -1.08926 -0.915273 -5.212053 -7.909803 -0.2928 0.0765 0.9585 -0.009075711 0.01553343 -0.2485349 -4.471398 -2.192535 -7.812685 0.8612 0.2822 0.6682 0.7142425

-0.3672173 -0.7508407 -1.08926 -0.915273 -5.212053 -7.909803 -0.2928 0.0765 0.9585 -0.009075711 0.01553343 -0.2485349 -4.471398 -2.192535 -7.812685 0.8612 0.2822 0.6682 0.8082217

-0.3672173 -0.7508407 -1.08926 -0.915273 -5.212053 -7.909803 -0.2928 0.0765 0.9585 -0.03595378 0.1715659 -0.1577778 -4.301685 -2.348514 -7.656705 0.8657 0.3139 0.6751 0.8082217

-0.3672173 -0.7508407 -1.08926 -0.915273 -5.212053 -7.909803 -0.2928 0.0765 0.9585 -0.03124139 0.1638864 -0.2015855 -4.442949 -2.323989 -7.638066 0.8445 0.3162 0.6682 0.8082217

-0.3672173 -0.7508407 -1.08926 -0.915273 -5.212053 -7.909803 -0.2928 0.0765 0.9585 -0.03351032 0.1836087 -0.2462659 -4.570479 -2.281806 -7.678288 0.8334 0.324 0.6629 0.8082217

-0.3672173 -0.7508407 -1.08926 -0.915273 -5.212053 -7.909803 -0.2928 0.0765 0.9585 -0.0439823 0.1679007 -0.3380703 -4.565574 -2.287692 -7.735186 0.8334 0.324 0.6629 0.8699795

-0.03595378 -0.9161233 -1.162913 -0.771066 -4.334058 -7.991226 -0.3016 0.0694 0.9621 -0.0439823 0.1679007 -0.3380703 -4.565574 -2.287692 -7.735186 0.8334 0.324 0.6629 0.8699795

-0.03595378 -0.9161233 -1.162913 -0.771066 -4.334058 -7.991226 -0.3016 0.0694 0.9621 -0.05305801 0.1480039 -0.4618141 -4.468455 -2.341647 -7.756768 0.8333 0.3273 0.6655 0.8699795

-0.03595378 -0.9161233 -1.162913 -0.771066 -4.334058 -7.991226 -0.3016 0.0694 0.9621 -0.1315978 0.1169371 -0.5216789 -4.344849 -2.38383 -7.757748 0.8333 0.3273 0.6655 0.8699795

-0.03595378 -0.9161233 -1.162913 -0.771066 -4.334058 -7.991226 -0.3016 0.0694 0.9621 -0.06178465 0.1141445 -0.4953244 -4.243806 -2.375001 -7.860753 0.8311 0.3355 0.6736 0.8820626

-0.03595378 -0.9161233 -1.162913 -0.771066 -4.334058 -7.991226 -0.3016 0.0694 0.9621 -0.06178465 0.1141445 -0.4953244 -4.243806 -2.375001 -7.860753 0.8311 0.3355 0.6736 0.8820626

-0.03595378 -0.9161233 -1.162913 -0.771066 -4.334058 -7.991226 -0.3016 0.0694 0.9621 -0.04468043 0.1661554 -0.4700172 -4.212414 -2.384811 -7.833285 0.8311 0.3355 0.6736 0.8820626

-0.03595378 -0.9161233 -1.162913 -0.771066 -4.334058 -7.991226 -0.3016 0.0694 0.9621 -0.06527531 0.1837832 -0.4468043 -4.11039 -2.480949 -7.784235 0.8197 0.354 0.6836 0.8820626

-0.03595378 -0.9161233 -1.162913 -0.771066 -4.334058 -7.991226 -0.3016 0.0694 0.9621 -0.06527531 0.1837832 -0.4468043 -4.11039 -2.480949 -7.784235 0.8197 0.354 0.6836 0.8780349

-0.03595378 -0.9161233 -1.162913 -0.771066 -4.334058 -7.991226 -0.3016 0.0694 0.9621 -0.06003933 0.1659808 -0.4448844 -3.829824 -2.490759 -7.780311 0.8197 0.354 0.6836 0.8780349

-0.03595378 -0.9161233 -1.162913 -0.771066 -4.334058 -7.991226 -0.3016 0.0694 0.9621 -0.02495821 0.150971 -0.4207989 -3.563973 -2.464272 -7.833285 0.8075 0.365 0.6907 0.8780349

-0.03595378 -0.9161233 -1.162913 -0.771066 -4.334058 -7.991226 -0.3016 0.0694 0.9621 -0.02495821 0.150971 -0.4207989 -3.563973 -2.464272 -7.833285 0.8075 0.365 0.6907 0.8780349

-0.03595378 -0.9161233 -1.162913 -0.771066 -4.334058 -7.991226 -0.3016 0.0694 0.9621 -0.05427974 0.07033677 -0.3855432 -3.40407 -2.496645 -7.802875 0.8075 0.365 0.6907 0.8766923

-0.03595378 -0.9161233 -1.162913 -0.771066 -4.334058 -7.991226 -0.3016 0.0694 0.9621 -0.1635374 -0.07853982 -0.3652974 -3.262806 -2.59965 -7.748919 0.8024 0.3696 0.7031 0.8766923

-0.03595378 -0.9161233 -1.162913 -0.771066 -4.334058 -7.991226 -0.3016 0.0694 0.9621 -0.1635374 -0.07853982 -0.3652974 -3.262806 -2.59965 -7.748919 0.8024 0.3696 0.7031 0.8766923

-0.03595378 -0.9161233 -1.162913 -0.771066 -4.334058 -7.991226 -0.3016 0.0694 0.9621 -0.2192134 -0.1621411 -0.3543018 -3.150972 -2.676168 -7.802875 0.8117 0.3784 0.7107 0.8766923

-0.03595378 -0.9161233 -1.162913 -0.771066 -4.334058 -7.991226 -0.3016 0.0694 0.9621 -0.2042035 -0.1860521 -0.3462733 -3.152934 -2.701674 -7.865658 0.8117 0.3784 0.7107 0.8713221

-0.03595378 -0.9161233 -1.162913 -0.771066 -4.334058 -7.991226 -0.3016 0.0694 0.9621 -0.2195624 -0.182736 -0.3593633 -3.27654 -2.654586 -7.864677 0.8088 0.389 0.7209 0.8713221

-0.03595378 -0.9161233 -1.162913 -0.771066 -4.334058 -7.991226 -0.3016 0.0694 0.9621 -0.2195624 -0.182736 -0.3593633 -3.27654 -2.654586 -7.864677 0.8088 0.389 0.7209 0.8713221

-0.1815142 -0.6581637 0.4117232 -1.892349 -3.174516 -8.769159 -0.1675 -0.0303 1.0488 -0.2195624 -0.182736 -0.3593633 -3.27654 -2.654586 -7.864677 0.8088 0.389 0.7209 0.8713221

-0.2302089 -0.6492625 0.5174901 -2.022822 -3.271635 -8.726976 -0.1265 -0.0501 1.0611 -0.2195624 -0.182736 -0.3593633 -3.27654 -2.654586 -7.864677 0.8088 0.389 0.7209 0.868637

-0.2302089 -0.6492625 0.5174901 -2.022822 -3.271635 -8.726976 -0.1265 -0.0501 1.0611 -0.2195624 -0.182736 -0.3593633 -3.27654 -2.654586 -7.864677 0.8088 0.389 0.7209 0.868637

-0.2302089 -0.6492625 0.5174901 -2.022822 -3.271635 -8.726976 -0.1265 -0.0501 1.0611 -0.09756391 0.1054179 -0.2743658 -3.459987 -2.585916 -7.938252 0.8169 0.4069 0.6991 0.868637

-0.2302089 -0.6492625 0.5174901 -2.022822 -3.271635 -8.726976 -0.1265 -0.0501 1.0611 -0.09756391 0.1054179 -0.2743658 -3.459987 -2.585916 -7.938252 0.8169 0.4069 0.6991 0.868637

-0.055676 -0.5038766 0.2682571 -2.735028 -3.111732 -8.814285 -0.0508 -0.0424 1.0608 -0.1382301 0.0270526 -0.1966986 -3.235338 -2.639871 -7.926481 0.8169 0.4069 0.6991 0.8552113

-0.02129302 -0.5338962 0.2984513 -2.822337 -3.02148 -8.747578 -0.0321 -0.0511 1.066 -0.1382301 0.0270526 -0.1966986 -3.235338 -2.639871 -7.926481 0.8169 0.4069 0.6991 0.8552113

-0.02129302 -0.5338962 0.2984513 -2.822337 -3.02148 -8.747578 -0.0321 -0.0511 1.066 -0.1382301 0.0270526 -0.1966986 -3.235338 -2.639871 -7.926481 0.8169 0.4069 0.6991 0.8552113

-0.06003933 -0.5307546 0.3860669 -2.911608 -2.928285 -8.709318 -0.0321 -0.0511 1.066 -0.1382301 0.0270526 -0.1966986 -3.235338 -2.639871 -7.926481 0.8169 0.4069 0.6991 0.8552113

-0.06003933 -0.5307546 0.3860669 -2.911608 -2.928285 -8.709318 -0.0321 -0.0511 1.066 -0.1382301 0.0270526 -0.1966986 -3.235338 -2.639871 -7.926481 0.8169 0.4069 0.6991 0.8552113

-0.1560324 -0.4096287 0.4433136 -3.051891 -2.823318 -8.748558 0.0027 -0.0579 1.0761 -0.1677261 0.0280998 -0.1478294 -3.1392 -2.681073 -7.859772 0.8178 0.4124 0.6948 0.8498411

-0.111352 -0.1886701 0.3930482 -3.220623 -2.772306 -8.767198 0.0027 -0.0579 1.0761 -0.1497492 0.06422812 -0.1549852 -3.166668 -2.715408 -7.883317 0.8178 0.4124 0.6948 0.8498411

-0.111352 -0.1886701 0.3930482 -3.220623 -2.772306 -8.767198 0.0027 -0.0579 1.0761 -0.1497492 0.06422812 -0.1549852 -3.166668 -2.715408 -7.883317 0.8178 0.4124 0.6948 0.8498411

-0.111352 -0.1886701 0.3930482 -3.220623 -2.772306 -8.767198 0.0027 -0.0579 1.0761 -0.1497492 0.06422812 -0.1549852 -3.166668 -2.715408 -7.883317 0.8178 0.4124 0.6948 0.8498411

-0.2391101 0.01902409 0.1487021 -3.564954 -2.934171 -8.829 0.0778 -0.0731 1.0633 -0.1497492 0.06422812 -0.1549852 -3.166668 -2.715408 -7.883317 0.8178 0.4124 0.6948 0.8484985

0.07435103 -0.08813913 0.05585054 -3.563973 -2.735028 -8.755425 0.106 -0.0791 1.0672 -0.1497492 0.06422812 -0.1549852 -3.166668 -2.715408 -7.883317 0.8178 0.4124 0.6948 0.8484985

0.2844886 0.02879793 -0.1336922 -3.602232 -2.771325 -8.79859 0.106 -0.0791 1.0672 -0.1497492 0.06422812 -0.1549852 -3.166668 -2.715408 -7.883317 0.8178 0.4124 0.6948 0.8484985

0.2844886 0.02879793 -0.1336922 -3.602232 -2.771325 -8.79859 0.106 -0.0791 1.0672 -0.1497492 0.06422812 -0.1549852 -3.166668 -2.715408 -7.883317 0.8178 0.4124 0.6948 0.8484985

0.4628613 0.2595305 -0.3569199 -3.635586 -2.941038 -8.997733 0.1183 -0.0833 1.0582 -0.1497492 0.06422812 -0.1549852 -3.166668 -2.715408 -7.883317 0.8178 0.4124 0.6948 0.8431283

0.2811725 0.3183481 -0.4056145 -3.640491 -3.206889 -9.01539 0.1183 -0.0833 1.0582 -0.1497492 0.06422812 -0.1549852 -3.166668 -2.715408 -7.883317 0.8178 0.4124 0.6948 0.8431283

0.2811725 0.3183481 -0.4056145 -3.640491 -3.206889 -9.01539 0.1183 -0.0833 1.0582 -0.1497492 0.06422812 -0.1549852 -3.166668 -2.715408 -7.883317 0.8178 0.4124 0.6948 0.8431283

-0.09232792 0.4403466 -0.2806489 -3.716028 -3.249072 -9.091908 0.0945 -0.0817 1.0675 -0.1497492 0.06422812 -0.1549852 -3.166668 -2.715408 -7.883317 0.8178 0.4124 0.6948 0.8431283

0.2155482 0.5131268 -0.2260201 -3.631662 -3.047967 -9.198837 0.0945 -0.0817 1.0675 -0.1497492 0.06422812 -0.1549852 -3.166668 -2.715408 -7.883317 0.8178 0.4124 0.6948 0.8552113

0.2155482 0.5131268 -0.2260201 -3.631662 -3.047967 -9.198837 0.0945 -0.0817 1.0675 -0.1497492 0.06422812 -0.1549852 -3.166668 -2.715408 -7.883317 0.8178 0.4124 0.6948 0.8552113

0.2961824 0.2741912 -0.236143 -3.608118 -3.046986 -9.261621 0.0941 -0.0825 1.0689 -0.1497492 0.06422812 -0.1549852 -3.166668 -2.715408 -7.883317 0.8178 0.4124 0.6948 0.8552113

0.3007202 0.1083849 -0.2450442 -3.608118 -3.149991 -9.293994 0.0941 -0.0825 1.0689 -0.1497492 0.06422812 -0.1549852 -3.166668 -2.715408 -7.883317 0.8178 0.4124 0.6948 0.8552113

0.3007202 0.1083849 -0.2450442 -3.608118 -3.149991 -9.293994 0.0941 -0.0825 1.0689 -0.1497492 0.06422812 -0.1549852 -3.166668 -2.715408 -7.883317 0.8178 0.4124 0.6948 0.8404432

0.1082104 0.06422812 -0.1966986 -3.44331 -3.314799 -9.170388 0.085 -0.0763 1.0404 -0.1497492 0.06422812 -0.1549852 -3.166668 -2.715408 -7.883317 0.8178 0.4124 0.6948 0.8404432

0.1082104 0.06422812 -0.1966986 -3.44331 -3.314799 -9.170388 0.085 -0.0763 1.0404 -0.1497492 0.06422812 -0.1549852 -3.166668 -2.715408 -7.883317 0.8178 0.4124 0.6948 0.8404432

0.1082104 0.06422812 -0.1966986 -3.44331 -3.314799 -9.170388 0.085 -0.0763 1.0404 -0.1202532 0.1424189 -0.1000074 -3.180402 -2.651643 -8.050086 0.7831 0.4269 0.7113 0.8404432

0.1082104 0.06422812 -0.1966986 -3.44331 -3.314799 -9.170388 0.085 -0.0763 1.0404 -0.1202532 0.1424189 -0.1000074 -3.180402 -2.651643 -8.050086 0.7831 0.4269 0.7113 0.8310453

0.1082104 0.06422812 -0.1966986 -3.44331 -3.314799 -9.170388 0.085 -0.0763 1.0404 -0.1202532 0.1424189 -0.1000074 -3.180402 -2.651643 -8.050086 0.7831 0.4269 0.7113 0.8310453

0.07295476 0.1040216 -0.3958407 -3.303027 -3.875931 -8.960454 0.0596 -0.0673 1.036 -0.1202532 0.1424189 -0.1000074 -3.180402 -2.651643 -8.050086 0.7831 0.4269 0.7113 0.8310453

0.03298672 0.06841691 -0.360585 -3.19806 -3.843558 -8.876088 0.0333 -0.055 1.0475 -0.1202532 0.1424189 -0.1000074 -3.180402 -2.651643 -8.050086 0.7831 0.4269 0.7113 0.8310453

-0.02268928 0.02635447 -0.3092723 -3.106827 -3.828843 -8.818209 0.0333 -0.055 1.0475 -0.1202532 0.1424189 -0.1000074 -3.180402 -2.651643 -8.050086 0.7831 0.4269 0.7113 0.8189622

-0.02268928 0.02635447 -0.3092723 -3.106827 -3.828843 -8.818209 0.0333 -0.055 1.0475 -0.1202532 0.1424189 -0.1000074 -3.180402 -2.651643 -8.050086 0.7831 0.4269 0.7113 0.8189622

-0.08098327 0.04572763 -0.3003711 -2.975373 -3.847482 -8.705394 0.0124 -0.0474 1.0499 -0.1202532 0.1424189 -0.1000074 -3.180402 -2.651643 -8.050086 0.7831 0.4269 0.7113 0.8189622

-0.1103048 0.06178465 -0.3289946 -2.948886 -3.921057 -8.669098 0.0124 -0.0474 1.0499 -0.1202532 0.1424189 -0.1000074 -3.180402 -2.651643 -8.050086 0.7831 0.4269 0.7113 0.8189622

-0.1103048 0.06178465 -0.3289946 -2.948886 -3.921057 -8.669098 0.0124 -0.0474 1.0499 -0.1202532 0.1424189 -0.1000074 -3.180402 -2.651643 -8.050086 0.7831 0.4269 0.7113 0.8176196

-0.05253441 0.0137881 -0.2576106 -2.882178 -4.030929 -8.674983 -0.0005 -0.0462 1.0402 -0.1202532 0.1424189 -0.1000074 -3.180402 -2.651643 -8.050086 0.7831 0.4269 0.7113 0.8176196

-0.05253441 0.0137881 -0.2576106 -2.882178 -4.030929 -8.674983 -0.0005 -0.0462 1.0402 -0.1202532 0.1424189 -0.1000074 -3.180402 -2.651643 -8.050086 0.7831 0.4269 0.7113 0.8176196

-0.06841691 0.02234021 -0.1946042 -2.781135 -4.00248 -8.622991 -0.0005 -0.0462 1.0402 -0.1202532 0.1424189 -0.1000074 -3.180402 -2.651643 -8.050086 0.7831 0.4269 0.7113 0.8176196

-0.03804818 -0.03979351 -0.2218314 -2.713446 -4.023081 -8.569036 0.0001 -0.0579 1.0548 -0.1202532 0.1424189 -0.1000074 -3.180402 -2.651643 -8.050086 0.7831 0.4269 0.7113 0.8216473

-0.1249656 -0.01884956 -0.3012438 -2.649681 -4.144725 -8.51508 0.0001 -0.0579 1.0548 -0.1202532 0.1424189 -0.1000074 -3.180402 -2.651643 -8.050086 0.7831 0.4269 0.7113 0.8216473

-0.1249656 -0.01884956 -0.3012438 -2.649681 -4.144725 -8.51508 0.0001 -0.0579 1.0548 -0.1202532 0.1424189 -0.1000074 -3.180402 -2.651643 -8.050086 0.7831 0.4269 0.7113 0.8216473

-0.2094395 -0.02094395 -0.3036873 -2.624175 -4.318362 -8.572959 -0.0084 -0.0702 1.0608 -0.1202532 0.1424189 -0.1000074 -3.180402 -2.651643 -8.050086 0.7831 0.4269 0.7113 0.8216473

-0.2094395 -0.02094395 -0.3036873 -2.624175 -4.318362 -8.572959 -0.0084 -0.0702 1.0608 -0.1202532 0.1424189 -0.1000074 -3.180402 -2.651643 -8.050086 0.7831 0.4269 0.7113 0.8216473

-0.2520255 0.01692969 -0.3028146 -2.664396 -4.435102 -8.676946 -0.0084 -0.0702 1.0608 -0.1202532 0.1424189 -0.1000074 -3.180402 -2.651643 -8.050086 0.7831 0.4269 0.7113 0.8337303

-0.2665118 0.06981317 -0.3370231 -2.728161 -4.487094 -8.869222 -0.0217 -0.0786 1.0633 -0.1202532 0.1424189 -0.1000074 -3.180402 -2.651643 -8.050086 0.7831 0.4269 0.7113 0.8337303

-0.2665118 0.06981317 -0.3370231 -2.728161 -4.487094 -8.869222 -0.0217 -0.0786 1.0633 -0.1202532 0.1424189 -0.1000074 -3.180402 -2.651643 -8.050086 0.7831 0.4269 0.7113 0.8337303

-0.2665118 0.06981317 -0.3370231 -2.728161 -4.487094 -8.869222 -0.0217 -0.0786 1.0633 -0.1202532 0.1424189 -0.1000074 -3.180402 -2.651643 -8.050086 0.7831 0.4269 0.7113 0.8337303

-0.2665118 0.06981317 -0.3370231 -2.728161 -4.487094 -8.869222 -0.0217 -0.0786 1.0633 -0.1202532 0.1424189 -0.1000074 -3.180402 -2.651643 -8.050086 0.7831 0.4269 0.7113 0.8699795

-0.2665118 0.06981317 -0.3370231 -2.728161 -4.487094 -8.869222 -0.0217 -0.0786 1.0633 -0.1202532 0.1424189 -0.1000074 -3.180402 -2.651643 -8.050086 0.7831 0.4269 0.7113 0.8699795

-0.1284562 0.02286381 -0.5281366 -2.456424 -4.259502 -8.954569 -0.0416 -0.0731 1.0692 -0.1202532 0.1424189 -0.1000074 -3.180402 -2.651643 -8.050086 0.7831 0.4269 0.7113 0.8699795

-0.1370083 0.0270526 -0.5445427 -2.392659 -4.278141 -8.9271 -0.0416 -0.0731 1.0692 -0.1202532 0.1424189 -0.1000074 -3.180402 -2.651643 -8.050086 0.7831 0.4269 0.7113 0.8699795

-0.1370083 0.0270526 -0.5445427 -2.392659 -4.278141 -8.9271 -0.0416 -0.0731 1.0692 -0.1202532 0.1424189 -0.1000074 -3.180402 -2.651643 -8.050086 0.7831 0.4269 0.7113 0.8914605

-0.2110103 0.06579891 -0.598997 -2.375982 -4.376241 -8.851563 -0.0698 -0.0789 1.0695 -0.1202532 0.1424189 -0.1000074 -3.180402 -2.651643 -8.050086 0.7831 0.4269 0.7113 0.8914605

-0.2933898 0.05201081 -0.6253515 -2.346552 -4.433139 -8.727958 -0.0698 -0.0789 1.0695 -0.1202532 0.1424189 -0.1000074 -3.180402 -2.651643 -8.050086 0.7831 0.4269 0.7113 0.8914605

-0.2933898 0.05201081 -0.6253515 -2.346552 -4.433139 -8.727958 -0.0698 -0.0789 1.0695 -0.1202532 0.1424189 -0.1000074 -3.180402 -2.651643 -8.050086 0.7831 0.4269 0.7113 0.8914605

-0.4138176 0.05585054 -0.699528 -2.299464 -4.488075 -8.637706 -0.0855 -0.0946 1.0724 0.01780236 -0.2254965 -0.04817109 -3.926943 -2.206269 -8.033409 0.7831 0.4269 0.7113 0.9277096

-0.4012512 0.04206244 -0.7222173 -2.214117 -4.281084 -8.592579 -0.0855 -0.0946 1.0724 0.01780236 -0.2254965 -0.04817109 -3.926943 -2.206269 -8.033409 0.7831 0.4269 0.7113 0.9277096

-0.4012512 0.04206244 -0.7222173 -2.214117 -4.281084 -8.592579 -0.0855 -0.0946 1.0724 0.01780236 -0.2254965 -0.04817109 -3.926943 -2.206269 -8.033409 0.7831 0.4269 0.7113 0.9277096

-0.3073525 0.02548181 -0.7216936 -2.117979 -4.027005 -8.55334 -0.0967 -0.1067 1.0842 0.01780236 -0.2254965 -0.04817109 -3.926943 -2.206269 -8.033409 0.7831 0.4269 0.7113 0.9277096

-0.2898992 0.004886922 -0.7709119 -2.000259 -3.892608 -8.452296 -0.0967 -0.1067 1.0842 0.01780236 -0.2254965 -0.04817109 -3.926943 -2.206269 -8.033409 0.7831 0.4269 0.7113 0.9746993

-0.2898992 0.004886922 -0.7709119 -2.000259 -3.892608 -8.452296 -0.0967 -0.1067 1.0842 0.01780236 -0.2254965 -0.04817109 -3.926943 -2.206269 -8.033409 0.7831 0.4269 0.7113 0.9746993

-0.339292 -0.04625123 -0.8241445 -1.910988 -3.880836 -8.291412 -0.1196 -0.1134 1.0998 0.01780236 -0.2254965 -0.04817109 -3.926943 -2.206269 -8.033409 0.7831 0.4269 0.7113 0.9746993

-0.482409 -0.1130973 -0.879995 -1.962981 -3.954411 -8.184484 -0.13 -0.1265 1.1059 0.01780236 -0.2254965 -0.04817109 -3.926943 -2.206269 -8.033409 0.7831 0.4269 0.7113 0.9746993

-0.437205 -0.2460914 -0.9255481 -1.936494 -3.74742 -8.192331 -0.13 -0.1265 1.1059 0.01780236 -0.2254965 -0.04817109 -3.926943 -2.206269 -8.033409 0.7831 0.4269 0.7113 1.027059

-0.437205 -0.2460914 -0.9255481 -1.936494 -3.74742 -8.192331 -0.13 -0.1265 1.1059 0.01780236 -0.2254965 -0.04817109 -3.926943 -2.206269 -8.033409 0.7831 0.4269 0.7113 1.027059

-0.3979351 -0.3216642 -0.9349729 -1.868805 -3.540429 -8.290431 -0.1379 -0.1393 1.1035 0.01780236 -0.2254965 -0.04817109 -3.926943 -2.206269 -8.033409 0.7831 0.4269 0.7113 1.027059

-0.4071853 -0.2869321 -0.9431759 -1.876653 -3.390336 -8.384607 -0.1379 -0.1393 1.1035 0.01780236 -0.2254965 -0.04817109 -3.926943 -2.206269 -8.033409 0.7831 0.4269 0.7113 1.027059

-0.4071853 -0.2869321 -0.9431759 -1.876653 -3.390336 -8.384607 -0.1379 -0.1393 1.1035 0.01780236 -0.2254965 -0.04817109 -3.926943 -2.206269 -8.033409 0.7831 0.4269 0.7113 1.096872

-0.4071853 -0.2869321 -0.9431759 -1.876653 -3.390336 -8.384607 -0.1379 -0.1393 1.1035 0.01780236 -0.2254965 -0.04817109 -3.926943 -2.206269 -8.033409 0.7831 0.4269 0.7113 1.096872

-0.4071853 -0.2869321 -0.9431759 -1.876653 -3.390336 -8.384607 -0.1379 -0.1393 1.1035 0.01780236 -0.2254965 -0.04817109 -3.926943 -2.206269 -8.033409 0.7831 0.4269 0.7113 1.096872

-0.4071853 -0.2869321 -0.9431759 -1.876653 -3.390336 -8.384607 -0.1379 -0.1393 1.1035 0.01780236 -0.2254965 -0.04817109 -3.926943 -2.206269 -8.033409 0.7831 0.4269 0.7113 1.096872

-0.4239405 -0.2935644 -1.002692 -1.64808 -3.100941 -8.633781 -0.1702 -0.1476 1.0924 0.01780236 -0.2254965 -0.04817109 -3.926943 -2.206269 -8.033409 0.7831 0.4269 0.7113 1.174741

-0.3600614 -0.278031 -1.024334 -1.635327 -3.014613 -8.729919 -0.164 -0.172 1.1085 0.01780236 -0.2254965 -0.04817109 -3.926943 -2.206269 -8.033409 0.7831 0.4269 0.7113 1.174741

-0.3600614 -0.278031 -1.024334 -1.635327 -3.014613 -8.729919 -0.164 -0.172 1.1085 0.01780236 -0.2254965 -0.04817109 -3.926943 -2.206269 -8.033409 0.7831 0.4269 0.7113 1.174741

-0.3115413 -0.243648 -1.039693 -1.653966 -2.876292 -8.823114 -0.164 -0.172 1.1085 0.01780236 -0.2254965 -0.04817109 -3.926943 -2.206269 -8.033409 0.7831 0.4269 0.7113 1.174741

-0.3169518 -0.1982694 -1.047721 -1.714788 -2.734047 -8.901594 -0.1542 -0.2017 1.1205 0.01780236 -0.2254965 -0.04817109 -3.926943 -2.206269 -8.033409 0.7831 0.4269 0.7113 1.233814

-0.3169518 -0.1982694 -1.047721 -1.714788 -2.734047 -8.901594 -0.1542 -0.2017 1.1205 0.01780236 -0.2254965 -0.04817109 -3.926943 -2.206269 -8.033409 0.7831 0.4269 0.7113 1.233814

-0.2754129 -0.2214823 -1.037075 -1.782477 -2.652624 -8.957511 -0.1669 -0.235 1.1415 -0.3359759 -0.3138102 -0.0005235987 -3.913209 -2.803698 -7.338861 0.8039 0.4295 0.6623 1.233814

-0.2638938 -0.2687807 -1.021541 -1.753047 -2.546676 -8.958492 -0.1669 -0.235 1.1415 -0.3359759 -0.3138102 -0.0005235987 -3.913209 -2.803698 -7.338861 0.8039 0.4295 0.6623 1.233814

-0.2638938 -0.2687807 -1.021541 -1.753047 -2.546676 -8.958492 -0.1669 -0.235 1.1415 -0.3359759 -0.3138102 -0.0005235987 -3.913209 -2.803698 -7.338861 0.8039 0.4295 0.6623 1.291544

-0.2768092 -0.2050762 -1.049641 -1.730484 -2.484873 -9.035992 -0.1678 -0.2602 1.1503 -0.3359759 -0.3138102 -0.0005235987 -3.913209 -2.803698 -7.338861 0.8039 0.4295 0.6623 1.291544

-0.2534218 -0.1155408 -1.024857 -1.78542 -2.465253 -9.141939 -0.1678 -0.2602 1.1503 -0.1085595 0.145735 -0.1473058 -3.913209 -2.803698 -7.338861 0.8039 0.4295 0.6623 1.291544

-0.2534218 -0.1155408 -1.024857 -1.78542 -2.465253 -9.141939 -0.1678 -0.2602 1.1503 -0.1499238 0.1062906 -0.1443387 -4.220262 -2.483892 -7.604712 0.8307 0.4147 0.6303 1.291544

-0.1687733 -0.1225221 -1.000946 -1.848204 -2.455443 -9.130167 -0.1533 -0.2773 1.1487 -0.1499238 0.1062906 -0.1443387 -4.220262 -2.483892 -7.604712 0.8307 0.4147 0.6303 1.291544

-0.1687733 -0.1225221 -1.000946 -1.848204 -2.455443 -9.130167 -0.1533 -0.2773 1.1487 -0.2199115 0.03525565 -0.1490511 -4.113333 -2.531961 -7.554681 0.8307 0.4147 0.6303 1.346589

-0.1527163 -0.1303761 -0.9878563 -1.843299 -2.394621 -9.067384 -0.1533 -0.2773 1.1487 -0.2199115 0.03525565 -0.1490511 -4.113333 -2.531961 -7.554681 0.8307 0.4147 0.6303 1.346589

-0.1527163 -0.1303761 -0.9878563 -1.843299 -2.394621 -9.067384 -0.1533 -0.2773 1.1487 -0.2844886 -0.02617994 -0.1631883 -4.016214 -2.527056 -7.56253 0.8372 0.4248 0.6518 1.346589

-0.1527163 -0.1303761 -0.9878563 -1.843299 -2.394621 -9.067384 -0.1533 -0.2773 1.1487 -0.3277729 -0.05602507 -0.1673771 -3.950487 -2.437785 -7.589016 0.8355 0.4336 0.6749 1.346589

-0.1527163 -0.1303761 -0.9878563 -1.843299 -2.394621 -9.067384 -0.1533 -0.2773 1.1487 -0.3441789 -0.05969026 -0.1775 -3.941658 -2.392659 -7.597846 0.8355 0.4336 0.6749 1.398949

-0.1137955 -0.1485275 -0.9796533 -1.78542 -2.407374 -9.095833 -0.1583 -0.294 1.1556 -0.3441789 -0.05969026 -0.1775 -3.941658 -2.392659 -7.597846 0.8355 0.4336 0.6749 1.398949

-0.1137955 -0.1485275 -0.9796533 -1.78542 -2.407374 -9.095833 -0.1583 -0.294 1.1556 -0.3857178 -0.08866272 -0.2054253 -3.940677 -2.401488 -7.569396 0.839 0.4328 0.6707 1.398949

-0.1137955 -0.1485275 -0.9796533 -1.78542 -2.407374 -9.095833 -0.1583 -0.294 1.1556 -0.4522148 -0.1307252 -0.2104867 -3.948525 -2.425032 -7.551738 0.839 0.4328 0.6707 1.458021

-0.07068584 -0.1726131 -1.036551 -1.588239 -2.39364 -9.072289 -0.1797 -0.3307 1.1723 -0.5389577 -0.1729621 -0.190939 -3.977955 -2.379906 -7.588036 0.8225 0.4186 0.6687 1.458021

-0.05497787 -0.1870993 -1.039518 -1.524474 -2.395602 -9.088965 -0.1797 -0.3307 1.1723 -0.5389577 -0.1729621 -0.190939 -3.977955 -2.379906 -7.588036 0.8225 0.4186 0.6687 1.458021

-0.01867502 -0.1998402 -1.021192 -1.492101 -2.389716 -9.101718 -0.1888 -0.3555 1.1845 -0.5389577 -0.1729621 -0.190939 -3.977955 -2.379906 -7.588036 0.8225 0.4186 0.6687 1.458021

-0.01867502 -0.1998402 -1.021192 -1.492101 -2.389716 -9.101718 -0.1888 -0.3555 1.1845 -0.5192354 -0.003316126 -0.3279474 -4.177098 -1.790325 -7.81857 0.7989 0.3963 0.6827 1.486215

0.00715585 -0.2202605 -0.9801769 -1.470519 -2.440728 -9.078175 -0.1888 -0.3555 1.1845 -0.556411 -0.001745329 -0.3548254 -4.161402 -1.715769 -7.80876 0.7989 0.3963 0.6827 1.486215

0.004014257 -0.2117084 -0.9798278 -1.465614 -2.496645 -9.15175 -0.1814 -0.3701 1.1816 -0.556411 -0.001745329 -0.3548254 -4.161402 -1.715769 -7.80876 0.7989 0.3963 0.6827 1.486215

-0.02565634 -0.1895428 -0.9787807 -1.489158 -2.585916 -9.19197 -0.1814 -0.3701 1.1816 -0.556411 -0.001745329 -0.3548254 -4.161402 -1.715769 -7.80876 0.7989 0.3963 0.6827 1.486215

-0.02565634 -0.1895428 -0.9787807 -1.489158 -2.585916 -9.19197 -0.1814 -0.3701 1.1816 -0.556411 -0.001745329 -0.3548254 -4.161402 -1.715769 -7.80876 0.7989 0.3963 0.6827 1.529177

-0.06719518 -0.1232202 -1.008277 -1.550961 -2.698731 -9.189027 -0.1678 -0.3725 1.1804 -0.556411 -0.001745329 -0.3548254 -4.161402 -1.715769 -7.80876 0.7989 0.3963 0.6827 1.529177

-0.1289798 -0.07417649 -0.9534734 -1.596087 -2.791926 -9.141939 -0.1678 -0.3725 1.1804 -0.556411 -0.001745329 -0.3548254 -4.161402 -1.715769 -7.80876 0.7989 0.3963 0.6827 1.529177

-0.1289798 -0.07417649 -0.9534734 -1.596087 -2.791926 -9.141939 -0.1678 -0.3725 1.1804 -0.556411 -0.001745329 -0.3548254 -4.161402 -1.715769 -7.80876 0.7989 0.3963 0.6827 1.529177

-0.137881 -0.09232792 -0.8672541 -1.532322 -2.833128 -9.026181 -0.1722 -0.3747 1.164 -0.556411 -0.001745329 -0.3548254 -4.161402 -1.715769 -7.80876 0.7989 0.3963 0.6827 1.529177

-0.137881 -0.09232792 -0.8672541 -1.532322 -2.833128 -9.026181 -0.1722 -0.3747 1.164 -0.556411 -0.001745329 -0.3548254 -4.161402 -1.715769 -7.80876 0.7989 0.3963 0.6827 1.562741

-0.130027 -0.140499 -0.7333874 -1.449918 -2.82528 -8.939854 -0.1722 -0.3747 1.164 -0.556411 -0.001745329 -0.3548254 -4.161402 -1.715769 -7.80876 0.7989 0.3963 0.6827 1.562741

-0.130027 -0.140499 -0.7333874 -1.449918 -2.82528 -8.939854 -0.1722 -0.3747 1.164 -0.556411 -0.001745329 -0.3548254 -4.161402 -1.715769 -7.80876 0.7989 0.3963 0.6827 1.562741

-0.130027 -0.140499 -0.7333874 -1.449918 -2.82528 -8.939854 -0.1722 -0.3747 1.164 -0.5995206 0.02391101 -0.355349 -4.147668 -1.537227 -7.844076 0.8121 0.3877 0.6978 1.562741

-0.130027 -0.140499 -0.7333874 -1.449918 -2.82528 -8.939854 -0.1722 -0.3747 1.164 -0.5995206 0.02391101 -0.355349 -4.147668 -1.537227 -7.844076 0.8121 0.3877 0.6978 1.594962

0.09058259 -0.2754129 -0.4565781 -1.103625 -2.398545 -8.767198 -0.1795 -0.3888 1.1533 -0.5995206 0.02391101 -0.355349 -4.147668 -1.537227 -7.844076 0.8121 0.3877 0.6978 1.594962

0.03298672 -0.2401573 -0.445408 -1.192896 -2.490759 -8.79957 -0.1795 -0.3888 1.1533 -0.5995206 0.02391101 -0.355349 -4.147668 -1.537227 -7.844076 0.8121 0.3877 0.6978 1.594962

0.03298672 -0.2401573 -0.445408 -1.192896 -2.490759 -8.79957 -0.1795 -0.3888 1.1533 -0.5995206 0.02391101 -0.355349 -4.147668 -1.537227 -7.844076 0.8121 0.3877 0.6978 1.594962

0.132645 -0.3747222 -0.4194026 -1.328274 -2.564334 -8.871183 -0.182 -0.3894 1.1451 -0.5906194 0.06859144 -0.3867649 -4.112352 -1.462671 -7.95591 0.818 0.3929 0.6871 1.605703

0.132645 -0.3747222 -0.4194026 -1.328274 -2.564334 -8.871183 -0.182 -0.3894 1.1451 -0.5906194 0.06859144 -0.3867649 -4.112352 -1.462671 -7.95591 0.818 0.3929 0.6871 1.605703

-0.02373648 -0.4337143 -0.4218461 -1.366533 -2.471139 -8.793684 -0.182 -0.3894 1.1451 -0.5906194 0.06859144 -0.3867649 -4.112352 -1.462671 -7.95591 0.818 0.3929 0.6871 1.605703

-0.07731808 -0.4394739 -0.4108505 -1.466595 -2.690883 -8.85745 -0.167 -0.4008 1.1412 -0.5906194 0.06859144 -0.3867649 -4.112352 -1.462671 -7.95591 0.818 0.3929 0.6871 1.605703

-0.07731808 -0.4394739 -0.4108505 -1.466595 -2.690883 -8.85745 -0.167 -0.4008 1.1412 -0.5906194 0.06859144 -0.3867649 -4.112352 -1.462671 -7.95591 0.818 0.3929 0.6871 1.613758

-0.06300639 -0.448026 -0.34191 -1.604916 -2.78604 -8.950644 -0.167 -0.4008 1.1412 -0.5906194 0.06859144 -0.3867649 -4.112352 -1.462671 -7.95591 0.818 0.3929 0.6871 1.613758

-0.09791297 -0.3890339 -0.3452261 -1.721655 -2.810565 -9.007543 -0.1535 -0.411 1.1502 -0.5906194 0.06859144 -0.3867649 -4.112352 -1.462671 -7.95591 0.818 0.3929 0.6871 1.613758

-0.09791297 -0.3890339 -0.3452261 -1.721655 -2.810565 -9.007543 -0.1535 -0.411 1.1502 -0.5906194 0.06859144 -0.3867649 -4.112352 -1.462671 -7.95591 0.818 0.3929 0.6871 1.613758

-0.09529497 -0.3780383 -0.3750713 -1.851147 -2.896893 -9.048744 -0.1535 -0.411 1.1502 -0.5906194 0.06859144 -0.3867649 -4.112352 -1.462671 -7.95591 0.818 0.3929 0.6871 1.613758

-0.09529497 -0.3780383 -0.3750713 -1.851147 -2.896893 -9.048744 -0.1535 -0.411 1.1502 -0.5906194 0.06859144 -0.3867649 -4.112352 -1.462671 -7.95591 0.818 0.3929 0.6871 1.615101

-0.1567306 -0.29147 -0.4415683 -1.935513 -2.968506 -9.03501 -0.142 -0.4161 1.1593 -0.5906194 0.06859144 -0.3867649 -4.112352 -1.462671 -7.95591 0.818 0.3929 0.6871 1.615101

-0.1111775 -0.2391101 -0.4157374 -2.065986 -3.035214 -9.081118 -0.142 -0.4161 1.1593 -0.5906194 0.06859144 -0.3867649 -4.112352 -1.462671 -7.95591 0.818 0.3929 0.6871 1.615101

-0.1111775 -0.2391101 -0.4157374 -2.065986 -3.035214 -9.081118 -0.142 -0.4161 1.1593 -0.5906194 0.06859144 -0.3867649 -4.112352 -1.462671 -7.95591 0.818 0.3929 0.6871 1.615101

-0.1350885 -0.1954769 -0.4279547 -2.143485 -3.030309 -9.100738 -0.1441 -0.4111 1.1419 -0.5906194 0.06859144 -0.3867649 -4.112352 -1.462671 -7.95591 0.818 0.3929 0.6871 1.619129

-0.1350885 -0.1954769 -0.4279547 -2.143485 -3.030309 -9.100738 -0.1441 -0.4111 1.1419 -0.3855432 0.7176794 -0.7648033 -3.042081 -0.33354 -8.428752 0.7066 0.3654 0.7514 1.619129

-0.1350885 -0.1954769 -0.4279547 -2.143485 -3.030309 -9.100738 -0.1441 -0.4111 1.1419 -0.3855432 0.7176794 -0.7648033 -3.042081 -0.33354 -8.428752 0.7066 0.3654 0.7514 1.619129

-0.1350885 -0.1954769 -0.4279547 -2.143485 -3.030309 -9.100738 -0.1441 -0.4111 1.1419 -0.3855432 0.7176794 -0.7648033 -3.042081 -0.33354 -8.428752 0.7066 0.3654 0.7514 1.619129

-0.06754424 -0.04153884 -0.4804892 -2.198421 -2.873349 -9.361683 -0.1265 -0.4324 1.1454 -0.3855432 0.7176794 -0.7648033 -3.042081 -0.33354 -8.428752 0.7066 0.3654 0.7514 1.616443

-0.03211406 -0.02897247 -0.4972443 -2.142504 -2.818413 -9.380322 -0.1265 -0.4324 1.1454 -0.3855432 0.7176794 -0.7648033 -3.042081 -0.33354 -8.428752 0.7066 0.3654 0.7514 1.616443

-0.03211406 -0.02897247 -0.4972443 -2.142504 -2.818413 -9.380322 -0.1265 -0.4324 1.1454 -0.3855432 0.7176794 -0.7648033 -3.042081 -0.33354 -8.428752 0.7066 0.3654 0.7514 1.616443

-0.07906342 -0.0858702 -0.5208063 -1.992411 -2.824299 -9.337158 -0.1311 -0.4424 1.1387 -0.3855432 0.7176794 -0.7648033 -3.042081 -0.33354 -8.428752 0.7066 0.3654 0.7514 1.616443

-0.006283185 -0.1188569 -0.5443682 -1.929627 -2.732085 -9.251811 -0.1311 -0.4424 1.1387 -0.3855432 0.7176794 -0.7648033 -3.042081 -0.33354 -8.428752 0.7066 0.3654 0.7514 1.612416

-0.006283185 -0.1188569 -0.5443682 -1.929627 -2.732085 -9.251811 -0.1311 -0.4424 1.1387 -0.3855432 0.7176794 -0.7648033 -3.042081 -0.33354 -8.428752 0.7066 0.3654 0.7514 1.612416

0.01902409 -0.1527163 -0.4953244 -1.936494 -2.73699 -9.270451 -0.126 -0.4381 1.1518 -0.3855432 0.7176794 -0.7648033 -3.042081 -0.33354 -8.428752 0.7066 0.3654 0.7514 1.612416

0.008028515 -0.1569051 -0.4098033 -1.982601 -2.773287 -9.399942 -0.126 -0.4381 1.1518 -0.3855432 0.7176794 -0.7648033 -3.042081 -0.33354 -8.428752 0.7066 0.3654 0.7514 1.612416

0.008028515 -0.1569051 -0.4098033 -1.982601 -2.773287 -9.399942 -0.126 -0.4381 1.1518 -0.3855432 0.7176794 -0.7648033 -3.042081 -0.33354 -8.428752 0.7066 0.3654 0.7514 1.601675

0.0006981317 -0.1340413 -0.4003785 -1.976715 -2.849805 -9.517662 -0.1257 -0.436 1.144 -0.3855432 0.7176794 -0.7648033 -3.042081 -0.33354 -8.428752 0.7066 0.3654 0.7514 1.601675

0.01518436 -0.1888446 -0.4127704 -1.920798 -2.861577 -9.526491 -0.1295 -0.4362 1.1259 -0.3855432 0.7176794 -0.7648033 -3.042081 -0.33354 -8.428752 0.7066 0.3654 0.7514 1.601675

0.01518436 -0.1888446 -0.4127704 -1.920798 -2.861577 -9.526491 -0.1295 -0.4362 1.1259 -0.3855432 0.7176794 -0.7648033 -3.042081 -0.33354 -8.428752 0.7066 0.3654 0.7514 1.584222

-0.06003933 -0.2701769 -0.5290093 -1.869786 -2.926323 -9.587314 -0.1295 -0.4362 1.1259 -0.3855432 0.7176794 -0.7648033 -3.042081 -0.33354 -8.428752 0.7066 0.3654 0.7514 1.584222

-0.1487021 -0.3740241 -0.5808455 -1.895292 -2.974392 -9.734463 -0.1189 -0.4469 1.1252 -0.3855432 0.7176794 -0.7648033 -3.042081 -0.33354 -8.428752 0.7066 0.3654 0.7514 1.584222

-0.1487021 -0.3740241 -0.5808455 -1.895292 -2.974392 -9.734463 -0.1189 -0.4469 1.1252 -0.3855432 0.7176794 -0.7648033 -3.042081 -0.33354 -8.428752 0.7066 0.3654 0.7514 1.584222

-0.1846558 -0.397586 -0.4070108 -2.00124 -2.867463 -9.913005 -0.1189 -0.4469 1.1252 0.07068584 0.8002334 -0.7099999 -0.367875 -0.072594 -8.692641 0.7066 0.3654 0.7514 1.578852

-0.05550147 -0.4064872 -0.2307325 -1.97181 -2.67813 -9.9856 -0.1155 -0.4582 1.1329 0.07068584 0.8002334 -0.7099999 -0.367875 -0.072594 -8.692641 0.7066 0.3654 0.7514 1.578852

-0.05550147 -0.4064872 -0.2307325 -1.97181 -2.67813 -9.9856 -0.1155 -0.4582 1.1329 0.07068584 0.8002334 -0.7099999 -0.367875 -0.072594 -8.692641 0.7066 0.3654 0.7514 1.578852

-0.05550147 -0.4064872 -0.2307325 -1.97181 -2.67813 -9.9856 -0.1155 -0.4582 1.1329 0.07068584 0.8002334 -0.7099999 -0.367875 -0.072594 -8.692641 0.7066 0.3654 0.7514 1.578852

-0.05550147 -0.4064872 -0.2307325 -1.97181 -2.67813 -9.9856 -0.1155 -0.4582 1.1329 0.07819075 0.6005678 -0.5841617 0.314901 -0.263889 -8.507233 0.3684 0.4308 0.9087 1.557371

0.02129302 -0.3303908 -0.1094321 -2.235699 -2.650662 -9.520605 -0.1126 -0.4693 1.1332 -0.03804818 0.4003785 -0.5886995 0.700434 -0.436545 -8.401284 0.3159 0.4403 0.9196 1.557371

0.02129302 -0.3303908 -0.1094321 -2.235699 -2.650662 -9.520605 -0.1126 -0.4693 1.1332 -0.2624975 0.1188569 -0.5995206 0.975114 -0.5729041 -8.324766 0.3159 0.4403 0.9196 1.557371

-0.04677482 -0.3035128 -0.1679007 -2.454462 -2.711484 -9.355798 -0.1126 -0.4693 1.1332 -0.2624975 0.1188569 -0.5995206 0.975114 -0.5729041 -8.324766 0.3159 0.4403 0.9196 1.557371

-0.04677482 -0.3035128 -0.1679007 -2.454462 -2.711484 -9.355798 -0.1126 -0.4693 1.1332 -0.4223697 -0.06318092 -0.5429719 0.96138 -0.546417 -8.303185 0.2761 0.447 0.9073 1.557371

-0.1342158 -0.3591888 -0.2363176 -2.518227 -2.846862 -9.239058 -0.0851 -0.482 1.123 -0.4223697 -0.06318092 -0.5429719 0.96138 -0.546417 -8.303185 0.2761 0.447 0.9073 1.549315

-0.1071632 -0.3347541 -0.230558 -2.561391 -2.964582 -9.131148 -0.0851 -0.482 1.123 -0.4223697 -0.06318092 -0.5429719 0.96138 -0.546417 -8.303185 0.2761 0.447 0.9073 1.549315

-0.1071632 -0.3347541 -0.230558 -2.561391 -2.964582 -9.131148 -0.0851 -0.482 1.123 -0.1780236 0.1865757 -0.3890339 0.37278 0.162846 -9.051687 0.2637 0.457 0.8987 1.549315

-0.145735 -0.3115413 -0.1265364 -2.69775 -2.918475 -9.089946 -0.0647 -0.48 1.1186 -0.1780236 0.1865757 -0.3890339 0.37278 0.162846 -9.051687 0.2637 0.457 0.8987 1.549315

-0.2703515 -0.3382448 -0.06597345 -2.768382 -2.88414 -9.042858 -0.0545 -0.4811 1.1063 -0.1624902 0.1802925 -0.3857178 0.465975 0.189333 -9.106624 0.2581 0.456 0.9013 1.539917

-0.2703515 -0.3382448 -0.06597345 -2.768382 -2.88414 -9.042858 -0.0545 -0.4811 1.1063 -0.15132 0.2057743 -0.3822271 0.511101 0.207972 -9.161559 0.2581 0.456 0.9013 1.539917

-0.2974041 -0.3724533 -0.1125737 -2.797812 -2.905722 -9.057573 -0.0545 -0.4811 1.1063 -0.1438151 0.2286381 -0.3281219 0.486576 0.272718 -9.179217 0.2557 0.4556 0.9071 1.539917

-0.3080506 -0.3996804 -0.1628392 -2.793888 -2.920437 -9.14292 -0.0309 -0.5001 1.101 -0.1438151 0.2286381 -0.3281219 0.486576 0.272718 -9.179217 0.2557 0.4556 0.9071 1.539917

-0.3080506 -0.3996804 -0.1628392 -2.793888 -2.920437 -9.14292 -0.0309 -0.5001 1.101 -0.07260569 0.2956588 -0.2703515 0.473823 0.381609 -9.203742 0.2557 0.4556 0.9071 1.54126

0.05148721 -0.1129228 -0.03176499 -2.784078 -2.836071 -9.165483 -0.0309 -0.5001 1.101 0.009424779 0.3560472 -0.2438225 0.51993 0.471861 -9.197857 0.2591 0.4418 0.9236 1.54126

0.1258382 0.1480039 -0.187972 -3.094074 -2.456424 -9.823734 -0.0246 -0.5154 1.104 0.00296706 0.3028146 -0.2654646 0.724959 0.482652 -9.143902 0.2591 0.4418 0.9236 1.54126

0.1258382 0.1480039 -0.187972 -3.094074 -2.456424 -9.823734 -0.0246 -0.5154 1.104 0.00296706 0.3028146 -0.2654646 0.724959 0.482652 -9.143902 0.2591 0.4418 0.9236 1.54126

-0.2953097 0.1401499 -0.2220059 -3.471759 -3.136257 -11.05685 -0.0246 -0.5154 1.104 0.02373648 0.2700024 -0.1951278 0.9986581 0.473823 -9.070327 0.2426 0.4269 0.9306 1.538575

-0.2953097 0.1401499 -0.2220059 -3.471759 -3.136257 -11.05685 -0.0246 -0.5154 1.104 0.1230457 -0.05986479 -0.06091199 1.58922 0.506196 -8.980075 0.2426 0.4269 0.9306 1.538575

-0.2953097 0.1401499 -0.2220059 -3.471759 -3.136257 -11.05685 -0.0246 -0.5154 1.104 -0.1223476 -0.1937315 -0.1507965 1.460709 0.279585 -8.832924 0.2156 0.4228 0.9266 1.538575

-0.2953097 0.1401499 -0.2220059 -3.471759 -3.136257 -11.05685 -0.0246 -0.5154 1.104 -0.2949606 -0.2138028 -0.1226966 1.109511 0.293319 -8.79957 0.2156 0.4228 0.9266 1.538575

0.1635374 -0.04450589 0.01204277 -2.937114 -2.740914 -9.349912 -0.012 -0.5063 1.123 -0.2949606 -0.2138028 -0.1226966 1.109511 0.293319 -8.79957 0.2156 0.4228 0.9266 1.534547

0.1635374 -0.04450589 0.01204277 -2.937114 -2.740914 -9.349912 -0.012 -0.5063 1.123 -0.1932079 -0.158825 -0.1141445 0.9721711 0.502272 -8.938872 0.1941 0.4162 0.9346 1.534547

0.1534144 -0.08360127 -0.04276057 -2.95281 -2.71737 -9.129187 -0.0072 -0.5106 1.1081 -0.1932079 -0.158825 -0.1141445 0.9721711 0.502272 -8.938872 0.1941 0.4162 0.9346 1.534547

0.1295034 -0.06038839 -0.06056292 -2.941038 -2.770344 -8.956531 -0.0072 -0.5106 1.1081 0.08011062 0.04118977 -0.05864306 0.925083 0.573885 -9.030106 0.1913 0.3933 0.9383 1.534547

0.1295034 -0.06038839 -0.06056292 -2.941038 -2.770344 -8.956531 -0.0072 -0.5106 1.1081 -0.09058259 -0.06318092 -0.06475171 1.012392 0.428697 -8.911405 0.1893 0.4085 0.9345 1.529177

0.1867502 -0.03159046 -0.02443461 -2.978316 -2.788002 -8.91729 0.0012 -0.5082 1.1098 -0.09058259 -0.06318092 -0.06475171 1.012392 0.428697 -8.911405 0.1893 0.4085 0.9345 1.529177

0.1525418 -0.01692969 0.05759586 -2.979297 -2.90376 -8.913366 0.0012 -0.5082 1.1098 -0.1635374 -0.1146681 -0.01151917 0.966285 0.434583 -8.829 0.1893 0.4085 0.9345 1.529177

0.1525418 -0.01692969 0.05759586 -2.979297 -2.90376 -8.913366 0.0012 -0.5082 1.1098 -0.1118756 -0.03071779 0.02670354 0.773028 0.488538 -8.888841 0.1729 0.4127 0.9353 1.529177

0.1373574 -0.03089233 0.132645 -2.96262 -2.97243 -8.911405 -0.0005 -0.5029 1.1184 -0.1118756 -0.03071779 0.02670354 0.773028 0.488538 -8.888841 0.1729 0.4127 0.9353 1.527834

0.1473058 -0.03054326 0.1356121 -2.938095 -2.980278 -8.908462 -0.0005 -0.5029 1.1184 0.01308997 0.08709192 0.03647738 0.6886621 0.613125 -8.935929 0.1729 0.4127 0.9353 1.527834

0.1132719 -0.04014257 0.1055924 -2.924361 -3.037176 -8.930043 -0.0166 -0.4976 1.1141 0.03700098 0.06248279 0.02495821 0.801477 0.616068 -8.919252 0.1836 0.4054 0.9309 1.527834

0.1132719 -0.04014257 0.1055924 -2.924361 -3.037176 -8.930043 -0.0166 -0.4976 1.1141 -0.05654867 -0.0429351 0.01937315 0.952551 0.514044 -8.826057 0.1836 0.4054 0.9309 1.527834

0.08761553 -0.09110618 0.09878563 -2.88414 -3.073473 -8.908462 -0.0166 -0.4976 1.1141 -0.05654867 -0.0429351 0.01937315 0.952551 0.514044 -8.826057 0.1836 0.4054 0.9309 1.527834

0.08447394 -0.08412487 0.1036726 -2.896893 -3.06072 -8.923177 -0.0315 -0.4976 1.1149 -0.1652827 -0.1473058 0.0434587 0.991791 0.434583 -8.747578 0.1926 0.4023 0.9337 1.527834

0.08447394 -0.08412487 0.1036726 -2.896893 -3.06072 -8.923177 -0.0315 -0.4976 1.1149 -0.1652827 -0.1473058 0.0434587 0.991791 0.434583 -8.747578 0.1926 0.4023 0.9337 1.527834

0.1308997 -0.06981317 0.1425934 -2.888064 -3.012651 -8.884917 -0.0315 -0.4976 1.1149 -0.166679 -0.1523672 0.0694641 0.883881 0.459108 -8.786818 0.1926 0.4023 0.9337 1.527834

0.1207768 -0.04590216 0.1389282 -2.860596 -3.029328 -8.846658 -0.0135 -0.5073 1.1179 -0.1047198 -0.07330383 0.06073746 0.7102441 0.5444551 -8.894728 0.1898 0.4078 0.9279 1.527834

0.1207768 -0.04590216 0.1389282 -2.860596 -3.029328 -8.846658 -0.0135 -0.5073 1.1179 -0.04991641 -0.02146755 0.05602507 0.615087 0.6239161 -8.932986 0.1898 0.4078 0.9279 1.527834

0.1675516 -0.07243116 0.1256637 -2.799774 -3.030309 -8.822133 -0.0135 -0.5073 1.1179 -0.04991641 -0.02146755 0.05602507 0.615087 0.6239161 -8.932986 0.1898 0.4078 0.9279 1.527834

0.2080432 -0.05445427 0.09494592 -2.806641 -3.082302 -8.844696 0.0089 -0.5178 1.1139 -0.05096361 -0.03560472 0.04799655 0.6052771 0.611163 -8.911405 0.1931 0.4056 0.9254 1.527834

0.2382374 -0.03839725 0.0986111 -2.819394 -3.163725 -8.853525 0.0089 -0.5053 1.1096 -0.08098327 -0.06021386 0.04677482 0.601353 0.5640751 -8.892765 0.1931 0.4056 0.9254 1.522464

0.2382374 -0.03839725 0.0986111 -2.819394 -3.163725 -8.853525 0.0089 -0.5053 1.1096 -0.1066396 -0.07470009 0.03385939 0.579771 0.546417 -8.893746 0.1897 0.3904 0.9292 1.522464

0.2535963 -0.0561996 0.09389871 -2.818413 -3.248091 -8.818209 0.0089 -0.5053 1.1096 -0.1066396 -0.07470009 0.03385939 0.579771 0.546417 -8.893746 0.1897 0.3904 0.9292 1.522464

0.2153736 -0.02548181 0.05270894 -2.842938 -3.399165 -8.826057 0.0064 -0.4753 1.1263 -0.09180433 -0.07365289 0.03351032 0.551322 0.558189 -8.864316 0.1862 0.3779 0.9237 1.522464

0.1954769 -0.02094395 0.04852015 -2.855691 -3.493341 -8.79859 0.0064 -0.4753 1.1263 -0.09354965 -0.07661995 0.03560472 0.508158 0.5729041 -8.872165 0.1862 0.3779 0.9237 1.515751

0.1954769 -0.02094395 0.04852015 -2.855691 -3.493341 -8.79859 0.0064 -0.4753 1.1263 -0.0980875 -0.08360127 0.01308997 0.464013 0.6033151 -8.891785 0.1914 0.3793 0.9143 1.515751

0.3454007 -0.1420698 -0.06475171 -2.881197 -3.647358 -8.669098 -0.0046 -0.4685 1.143 -0.0980875 -0.08360127 0.01308997 0.464013 0.6033151 -8.891785 0.1914 0.3793 0.9143 1.515751

-0.08360127 -0.01291544 -0.04834562 -3.064644 -4.128048 -8.688717 -0.0046 -0.4685 1.143 -0.06667157 -0.0577704 0.01117011 0.426735 0.633726 -8.916309 0.1914 0.3793 0.9143 1.515751

-0.08360127 -0.01291544 -0.04834562 -3.064644 -4.128048 -8.688717 -0.0046 -0.4685 1.143 -0.04642576 -0.06143559 0.005585053 0.447336 0.645498 -8.954569 0.1913 0.3777 0.9173 1.515751

-0.06283185 -0.05497787 -0.01204277 -3.022461 -3.990708 -8.698527 -0.0304 -0.47 1.135 -0.04642576 -0.06143559 0.005585053 0.447336 0.645498 -8.954569 0.1913 0.3777 0.9173 1.519779

-0.06283185 -0.05497787 -0.01204277 -3.022461 -3.990708 -8.698527 -0.0304 -0.47 1.135 -0.05235988 -0.07033677 0.0008726646 0.42183 0.6925861 -8.960454 0.1913 0.3777 0.9173 1.519779

-0.05689773 -0.09616765 -0.003141593 -2.911608 -3.784698 -8.68185 -0.0304 -0.47 1.135 -0.03909538 -0.04764749 0.0005235987 0.342369 0.71613 -8.983018 0.1867 0.3588 0.9233 1.519779

-0.07138397 -0.09721484 0.00715585 -2.902779 -3.692484 -8.750521 -0.0373 -0.4713 1.1237 -0.03438299 -0.03525565 -0.01762783 0.326673 0.741636 -8.973207 0.1867 0.3588 0.9233 1.519779

-0.07138397 -0.09721484 0.00715585 -2.902779 -3.692484 -8.750521 -0.0373 -0.4713 1.1237 -0.03438299 -0.03525565 -0.01762783 0.326673 0.741636 -8.973207 0.1867 0.3588 0.9233 1.519779

-0.07138397 -0.09721484 0.00715585 -2.902779 -3.692484 -8.750521 -0.0373 -0.4713 1.1237 -0.02740167 -0.05846853 -0.02670354 0.379647 0.7749901 -8.977131 0.1915 0.3531 0.9188 1.519779

-0.07138397 -0.09721484 0.00715585 -2.902779 -3.692484 -8.750521 -0.0373 -0.4713 1.1237 -0.01989675 -0.04276057 -0.02181662 0.37278 0.810306 -8.978112 0.1915 0.3531 0.9188 1.519779

-0.05218535 -0.05131268 0.03124139 -3.08034 -3.38445 -8.708338 0.0091 -0.4677 1.1015 -0.004537856 -0.00296706 -0.01012291 0.384552 0.835812 -9.006561 0.198 0.3597 0.9169 1.519779

-0.05218535 -0.05131268 0.03124139 -3.08034 -3.38445 -8.708338 0.0091 -0.4677 1.1015 -0.004537856 -0.00296706 -0.01012291 0.384552 0.835812 -9.006561 0.198 0.3597 0.9169 1.522464

-0.1228712 -0.06108652 0.0153589 -3.146067 -3.392298 -8.736787 0.0026 -0.4589 1.0964 -0.004886922 -0.002443461 -0.01256637 0.415944 0.8475841 -8.989884 0.198 0.3597 0.9169 1.522464

-0.1228712 -0.06108652 0.0153589 -3.146067 -3.392298 -8.736787 0.0026 -0.4589 1.0964 -0.004886922 -0.002443461 -0.01256637 0.415944 0.8475841 -8.989884 0.198 0.3597 0.9169 1.522464

-0.2956588 -0.1563815 0.0567232 -3.126447 -3.395241 -8.729919 0.0026 -0.4589 1.0964 0.0001745329 0.008901179 -0.0153589 0.435564 0.826983 -8.968303 0.2031 0.3693 0.9278 1.522464

-0.2956588 -0.1563815 0.0567232 -3.126447 -3.395241 -8.729919 0.0026 -0.4589 1.0964 0.0143117 0.006806784 -0.005061455 0.481671 0.850527 -8.974188 0.2008 0.3688 0.9324 1.522464

-0.4218461 -0.3015929 0.132645 -3.07053 -3.383469 -8.771121 -0.0023 -0.4575 1.0969 0.0143117 0.006806784 -0.005061455 0.481671 0.850527 -8.974188 0.2008 0.3688 0.9324 1.521122

-0.03351032 -0.5106834 0.3562217 -3.097017 -3.228471 -8.744635 -0.0023 -0.4575 1.0969 0.03263766 -0.02181662 -0.0005235987 0.531702 0.883881 -8.973207 0.2008 0.3688 0.9324 1.521122

0.0286234 -0.3665192 0.2665118 -3.213756 -2.901798 -8.619066 0.0177 -0.468 1.0971 0.06894051 -0.02251475 0.01780236 0.567999 0.864261 -8.941815 0.2153 0.3709 0.918 1.518436

0.0286234 -0.3665192 0.2665118 -3.213756 -2.901798 -8.619066 0.0177 -0.468 1.0971 0.06894051 -0.02251475 0.01780236 0.567999 0.864261 -8.941815 0.2153 0.3709 0.918 1.518436

0.04433136 -0.185354 0.1213004 -3.512961 -3.058758 -8.835867 0.0177 -0.468 1.0971 0.06894051 -0.02251475 0.01780236 0.567999 0.864261 -8.941815 0.2153 0.3709 0.918 1.518436

0.01553343 -0.03595378 0.03351032 -3.817071 -3.125466 -9.109567 0.0425 -0.4687 1.0972 0.06894051 -0.02251475 0.01780236 0.567999 0.864261 -8.941815 0.2153 0.3709 0.918 1.518436

0.01553343 -0.03595378 0.03351032 -3.817071 -3.125466 -9.109567 0.0425 -0.4687 1.0972 0.1111775 -0.1520182 0.166679 0.827964 0.9025201 -8.983018 0.213 0.3844 0.918 1.526492

-0.1064651 0.1466077 -0.04276057 -3.977955 -3.176478 -9.311652 0.0425 -0.4687 1.0972 0.1111775 -0.1520182 0.166679 0.827964 0.9025201 -8.983018 0.213 0.3844 0.918 1.526492

-0.1064651 0.1466077 -0.04276057 -3.977955 -3.176478 -9.311652 0.0425 -0.4687 1.0972 0.087441 -0.2375393 0.2033308 0.900558 0.8936911 -8.983018 0.213 0.3844 0.918 1.526492

-0.2855359 0.2871067 -0.07470009 -4.109409 -3.272616 -9.493137 0.0475 -0.4647 1.1052 0.08307768 -0.3052581 0.2548181 0.9113491 0.8721091 -8.987923 0.2162 0.3866 0.9306 1.526492

-0.1090831 0.3361504 -0.008028515 -4.17906 -3.284388 -9.63244 0.0537 -0.4597 1.1084 0.08307768 -0.3052581 0.2548181 0.9113491 0.8721091 -8.987923 0.2162 0.3866 0.9306 1.529177

-0.1090831 0.3361504 -0.008028515 -4.17906 -3.284388 -9.63244 0.0537 -0.4597 1.1084 0.09459685 -0.352731 0.3061308 0.8868241 0.877014 -9.059535 0.2162 0.3866 0.9306 1.529177

0.02146755 0.4216715 0.07435103 -4.195737 -3.068568 -9.650097 0.0537 -0.4597 1.1084 0.09459685 -0.352731 0.3061308 0.8868241 0.877014 -9.059535 0.2162 0.3866 0.9306 1.529177

0.1117011 0.3940953 0.1167625 -4.189851 -2.834109 -9.659907 0.0754 -0.4652 1.1019 0.129678 -0.3790855 0.352382 0.836793 0.915273 -9.13311 0.2265 0.3921 0.9312 1.529177

0.1117011 0.3940953 0.1167625 -4.189851 -2.834109 -9.659907 0.0754 -0.4652 1.1019 0.129678 -0.3790855 0.352382 0.836793 0.915273 -9.13311 0.2265 0.3921 0.9312 1.537232

-0.005235988 0.3331833 0.1570796 -4.089789 -2.691864 -9.608895 0.0754 -0.4652 1.1019 0.129678 -0.3790855 0.352382 0.836793 0.915273 -9.13311 0.2265 0.3921 0.9312 1.537232

-0.2548181 0.387114 0.1473058 -4.020138 -2.699712 -9.55396 0.0804 -0.4818 1.1072 0.129678 -0.3790855 0.352382 0.836793 0.915273 -9.13311 0.2265 0.3921 0.9312 1.537232

-0.2548181 0.387114 0.1473058 -4.020138 -2.699712 -9.55396 0.0804 -0.4818 1.1072 0.2036799 -0.3768166 0.4089307 0.767142 0.9810001 -9.204723 0.2265 0.3921 0.9312 1.537232

-0.2548181 0.387114 0.1473058 -4.020138 -2.699712 -9.55396 0.0804 -0.4818 1.1072 0.2036799 -0.3768166 0.4089307 0.767142 0.9810001 -9.204723 0.2265 0.3921 0.9312 1.54663

-0.2548181 0.387114 0.1473058 -4.020138 -2.699712 -9.55396 0.0804 -0.4818 1.1072 0.2844886 -0.3761185 0.4452335 0.7053391 0.991791 -9.258678 0.2286 0.3921 0.9292 1.54663

0.04310963 0.6366961 0.3164282 -3.754287 -2.365191 -9.345006 0.0484 -0.4873 1.1212 0.2844886 -0.3761185 0.4452335 0.7053391 0.991791 -9.258678 0.2286 0.3921 0.9292 1.54663

0.08342674 0.5551892 0.3712315 -3.583593 -2.375982 -9.233172 0.0396 -0.4902 1.11 0.3319616 -0.365472 0.4946263 0.634707 0.9770761 -9.270451 0.2286 0.3921 0.9292 1.54663

0.08342674 0.5551892 0.3712315 -3.583593 -2.375982 -9.233172 0.0396 -0.4902 1.11 0.3319616 -0.365472 0.4946263 0.634707 0.9770761 -9.270451 0.2286 0.3921 0.9292 1.557371

0.07801621 0.6161012 0.3651229 -3.550239 -2.438766 -9.181179 0.0396 -0.4902 1.11 0.3319616 -0.365472 0.4946263 0.634707 0.9770761 -9.270451 0.2286 0.3921 0.9292 1.557371

-0.01623156 0.7291985 0.3204425 -3.476664 -2.546676 -9.190989 0.0063 -0.4766 1.1052 0.3570943 -0.3522075 0.55676 0.5552461 0.9260641 -9.243963 0.2472 0.3786 0.9237 1.557371

-0.05899213 0.6986552 0.3129375 -3.287331 -2.548638 -9.13311 -0.0277 -0.474 1.1112 0.3728023 -0.3422591 0.6061528 0.488538 0.8416981 -9.199819 0.2708 0.3931 0.9236 1.557371

-0.05899213 0.6986552 0.3129375 -3.287331 -2.548638 -9.13311 -0.0277 -0.474 1.1112 0.3728023 -0.3422591 0.6061528 0.488538 0.8416981 -9.199819 0.2708 0.3931 0.9236 1.576167

-0.1001819 0.5860816 0.3459243 -3.073473 -2.494683 -9.023238 -0.0277 -0.474 1.1112 0.3728023 -0.3422591 0.6061528 0.488538 0.8416981 -9.199819 0.2708 0.3931 0.9236 1.576167

-0.09320059 0.662876 0.4019493 -3.052872 -2.384811 -9.043839 -0.0447 -0.484 1.106 0.3728023 -0.3422591 0.6061528 0.488538 0.8416981 -9.199819 0.2708 0.3931 0.9236 1.576167

-0.09320059 0.662876 0.4019493 -3.052872 -2.384811 -9.043839 -0.0447 -0.484 1.106 0.3728023 -0.3422591 0.6061528 0.488538 0.8416981 -9.199819 0.2708 0.3931 0.9236 1.576167

-0.09320059 0.662876 0.4019493 -3.052872 -2.384811 -9.043839 -0.0447 -0.484 1.106 0.3728023 -0.3422591 0.6061528 0.488538 0.8416981 -9.199819 0.2708 0.3931 0.9236 1.60436

-0.05393067 0.7756243 0.4633849 -2.991069 -2.264148 -9.106624 -0.0447 -0.484 1.106 0.3728023 -0.3422591 0.6061528 0.488538 0.8416981 -9.199819 0.2708 0.3931 0.9236 1.60436

-0.05393067 0.7756243 0.4633849 -2.991069 -2.264148 -9.106624 -0.0447 -0.484 1.106 0.3728023 -0.3422591 0.6061528 0.488538 0.8416981 -9.199819 0.2708 0.3931 0.9236 1.60436

-0.0418879 0.7730063 0.5068436 -2.819394 -2.141523 -9.087984 -0.0543 -0.4851 1.1036 0.3408628 -0.5548402 0.861669 -0.130473 0.1962 -8.7309 0.3617 0.4058 0.8995 1.60436

-0.01012291 0.7356563 0.5049238 -2.623194 -2.065005 -9.072289 -0.0543 -0.4851 1.1036 0.3408628 -0.5548402 0.861669 -0.130473 0.1962 -8.7309 0.3617 0.4058 0.8995 1.619129

0.03054326 0.7698647 0.524646 -2.486835 -1.943361 -9.067384 -0.0734 -0.4807 1.1185 0.3408628 -0.5548402 0.861669 -0.130473 0.1962 -8.7309 0.3617 0.4058 0.8995 1.619129

0.0694641 0.9112364 0.5799729 -2.345571 -1.822698 -9.082099 -0.0734 -0.4807 1.1185 0.3408628 -0.5548402 0.861669 -0.130473 0.1962 -8.7309 0.3617 0.4058 0.8995 1.619129

0.0694641 0.9112364 0.5799729 -2.345571 -1.822698 -9.082099 -0.0734 -0.4807 1.1185 0.3408628 -0.5548402 0.861669 -0.130473 0.1962 -8.7309 0.3617 0.4058 0.8995 1.619129

0.0954695 0.9791297 0.6660177 -2.088549 -1.714788 -9.111528 -0.1058 -0.4692 1.1221 0.3408628 -0.5548402 0.861669 -0.130473 0.1962 -8.7309 0.3617 0.4058 0.8995 1.627184

0.1364847 0.9100146 0.7974409 -1.820736 -1.616688 -9.073269 -0.1058 -0.4692 1.1221 0.3010693 -0.5274385 0.970403 -0.406134 0.015696 -8.686755 0.3886 0.4071 0.897 1.627184

0.2569125 0.8049458 0.8981464 -1.619631 -1.557828 -9.05463 -0.1624 -0.4477 1.1342 0.3010693 -0.5274385 0.970403 -0.406134 0.015696 -8.686755 0.3886 0.4071 0.897 1.627184

0.2569125 0.8049458 0.8981464 -1.619631 -1.557828 -9.05463 -0.1624 -0.4477 1.1342 0.3010693 -0.5274385 0.970403 -0.406134 0.015696 -8.686755 0.3886 0.4071 0.897 1.627184

0.2633702 0.7806858 1.004786 -1.538208 -1.686339 -9.145864 -0.2061 -0.44 1.1366 0.2750639 -0.5562364 0.9880309 -0.488538 0.002943 -8.626915 0.4134 0.4122 0.8818 1.616443

0.246615 0.8576548 1.022414 -1.516626 -1.944342 -9.217476 -0.2061 -0.44 1.1366 0.2750639 -0.5562364 0.9880309 -0.488538 0.002943 -8.626915 0.4134 0.4122 0.8818 1.616443

0.246615 0.8576548 1.022414 -1.516626 -1.944342 -9.217476 -0.2061 -0.44 1.1366 0.2750639 -0.5562364 0.9880309 -0.488538 0.002943 -8.626915 0.4134 0.4122 0.8818 1.616443

0.2302089 0.925199 1.009848 -1.455804 -2.161143 -9.24004 -0.2442 -0.4357 1.1191 0.2750639 -0.5562364 0.9880309 -0.488538 0.002943 -8.626915 0.4134 0.4122 0.8818 1.616443

0.1754056 1.008277 0.9918706 -1.347894 -2.352438 -9.245925 -0.2442 -0.4357 1.1191 0.2750639 -0.5562364 0.9880309 -0.488538 0.002943 -8.626915 0.4134 0.4122 0.8818 1.60436

0.1754056 1.008277 0.9918706 -1.347894 -2.352438 -9.245925 -0.2442 -0.4357 1.1191 0.2750639 -0.5562364 0.9880309 -0.488538 0.002943 -8.626915 0.4134 0.4122 0.8818 1.60436

0.1754056 1.008277 0.9918706 -1.347894 -2.352438 -9.245925 -0.2442 -0.4357 1.1191 0.2750639 -0.5562364 0.9880309 -0.488538 0.002943 -8.626915 0.4134 0.4122 0.8818 1.60436

0.1754056 1.008277 0.9918706 -1.347894 -2.352438 -9.245925 -0.2442 -0.4357 1.1191 0.2750639 -0.5562364 0.9880309 -0.488538 0.002943 -8.626915 0.4134 0.4122 0.8818 1.60436

0.1754056 1.008277 0.9918706 -1.347894 -2.352438 -9.245925 -0.2442 -0.4357 1.1191 0.2750639 -0.5562364 0.9880309 -0.488538 0.002943 -8.626915 0.4134 0.4122 0.8818 1.60436

0.1237438 0.8688249 1.174607 -0.546417 -2.666358 -8.904537 -0.3307 -0.4007 1.123 0.2750639 -0.5562364 0.9880309 -0.488538 0.002943 -8.626915 0.4134 0.4122 0.8818 1.582879

0.116588 0.8545132 1.191013 -0.347274 -2.639871 -8.784856 -0.3529 -0.3849 1.1293 0.2750639 -0.5562364 0.9880309 -0.488538 0.002943 -8.626915 0.4134 0.4122 0.8818 1.582879

0.116588 0.8545132 1.191013 -0.347274 -2.639871 -8.784856 -0.3529 -0.3849 1.1293 0.2750639 -0.5562364 0.9880309 -0.488538 0.002943 -8.626915 0.4134 0.4122 0.8818 1.582879

0 0.8199556 1.212306 -0.20601 -2.729142 -8.724033 -0.3529 -0.3849 1.1293 0.2750639 -0.5562364 0.9880309 -0.488538 0.002943 -8.626915 0.4134 0.4122 0.8818 1.582879

0 0.8199556 1.212306 -0.20601 -2.729142 -8.724033 -0.3529 -0.3849 1.1293 0.2750639 -0.5562364 0.9880309 -0.488538 0.002943 -8.626915 0.4134 0.4122 0.8818 1.554686

-0.05864306 0.8421214 1.226617 -0.082404 -2.919456 -8.722072 -0.3819 -0.3622 1.1133 0.2750639 -0.5562364 0.9880309 -0.488538 0.002943 -8.626915 0.4134 0.4122 0.8818 1.554686

-0.02338741 0.8674287 1.195376 0.003924 -3.009708 -8.763273 -0.3819 -0.3622 1.1133 0.2750639 -0.5562364 0.9880309 -0.488538 0.002943 -8.626915 0.4134 0.4122 0.8818 1.554686

-0.04223697 0.8346164 1.191187 0.131454 -3.069549 -8.817228 -0.4173 -0.3354 1.0907 0.2750639 -0.5562364 0.9880309 -0.488538 0.002943 -8.626915 0.4134 0.4122 0.8818 1.554686

-0.04223697 0.8346164 1.191187 0.131454 -3.069549 -8.817228 -0.4173 -0.3354 1.0907 0.2750639 -0.5562364 0.9880309 -0.488538 0.002943 -8.626915 0.4134 0.4122 0.8818 1.530519

-0.0694641 0.8054695 1.200437 0.249174 -3.160782 -8.85843 -0.4373 -0.319 1.0839 0.2317797 -0.471937 1.022239 -2.660472 -0.035316 -8.37774 0.6039 0.3628 0.8099 1.530519

-0.05305801 0.7787659 1.192234 0.315882 -3.252996 -8.895708 -0.4373 -0.319 1.0839 0.2317797 -0.471937 1.022239 -2.660472 -0.035316 -8.37774 0.6039 0.3628 0.8099 1.530519

-0.05305801 0.7787659 1.192234 0.315882 -3.252996 -8.895708 -0.4373 -0.319 1.0839 0.08464847 -0.5077163 0.9534734 -2.837052 -0.010791 -8.361063 0.6039 0.3628 0.8099 1.530519

-0.06283185 0.7611381 1.191885 0.368856 -3.311856 -8.931025 -0.4673 -0.3093 1.0611 0.08464847 -0.5077163 0.9534734 -2.837052 -0.010791 -8.361063 0.6039 0.3628 0.8099 1.491585

-0.09599311 0.7524114 1.182112 0.403191 -3.408975 -8.976151 -0.4673 -0.3093 1.0611 0.08464847 -0.5077163 0.9534734 -2.837052 -0.010791 -8.361063 0.6039 0.3628 0.8099 1.491585

-0.09599311 0.7524114 1.182112 0.403191 -3.408975 -8.976151 -0.4673 -0.3093 1.0611 0.08464847 -0.5077163 0.9534734 -2.837052 -0.010791 -8.361063 0.6039 0.3628 0.8099 1.491585

-0.1354375 0.7433357 1.174607 0.460089 -3.496284 -9.025201 -0.4939 -0.2933 1.037 0.08464847 -0.5077163 0.9534734 -2.837052 -0.010791 -8.361063 0.6039 0.3628 0.8099 1.491585

-0.1354375 0.7433357 1.174607 0.460089 -3.496284 -9.025201 -0.4939 -0.2933 1.037 0.08464847 -0.5077163 0.9534734 -2.837052 -0.010791 -8.361063 0.6039 0.3628 0.8099 1.471447

-0.1762783 0.712967 1.167102 0.504234 -3.529638 -9.05365 -0.4939 -0.2933 1.037 0.08464847 -0.5077163 0.9534734 -2.837052 -0.010791 -8.361063 0.6039 0.3628 0.8099 1.471447

-0.1762783 0.712967 1.167102 0.504234 -3.529638 -9.05365 -0.4939 -0.2933 1.037 0.08464847 -0.5077163 0.9534734 -2.837052 -0.010791 -8.361063 0.6039 0.3628 0.8099 1.471447

-0.1762783 0.712967 1.167102 0.504234 -3.529638 -9.05365 -0.4939 -0.2933 1.037 0.08464847 -0.5077163 0.9534734 -2.837052 -0.010791 -8.361063 0.6039 0.3628 0.8099 1.471447

-0.1762783 0.712967 1.167102 0.504234 -3.529638 -9.05365 -0.4939 -0.2933 1.037 0.08464847 -0.5077163 0.9534734 -2.837052 -0.010791 -8.361063 0.6039 0.3628 0.8099 1.453994

-0.3604105 0.7710865 1.169371 0.934893 -3.36483 -9.129187 -0.574 -0.2256 0.9983 0.3000221 -0.2373648 0.8810422 -4.177098 0.399267 -8.054992 0.8244 0.2157 0.754 1.453994

-0.3604105 0.7710865 1.169371 0.934893 -3.36483 -9.129187 -0.574 -0.2256 0.9983 0.2900737 -0.2614503 0.8496263 -4.166307 0.379647 -8.012809 0.8244 0.2157 0.754 1.453994

-0.5345944 0.8208283 1.209513 1.066347 -3.309894 -9.159597 -0.5857 -0.213 1.0053 0.2900737 -0.2614503 0.8496263 -4.166307 0.379647 -8.012809 0.8244 0.2157 0.754 1.453994

-0.524995 0.8698721 1.203754 1.191915 -3.075435 -9.145864 -0.5857 -0.213 1.0053 0.2944371 -0.2415536 0.8218755 -4.229091 0.370818 -7.969644 0.8402 0.2062 0.739 1.4258

-0.3412119 0.8524188 1.24634 1.331217 -2.769363 -9.034029 -0.5994 -0.2143 1.0029 0.2881539 -0.2574361 0.829555 -4.297761 0.418887 -7.899993 0.8402 0.2062 0.739 1.4258

-0.3412119 0.8524188 1.24634 1.331217 -2.769363 -9.034029 -0.5994 -0.2143 1.0029 0.2441716 -0.3242822 0.7956956 -4.23792 0.435564 -7.790121 0.8378 0.1851 0.7242 1.4258

0.08499753 0.5134758 1.287529 1.529379 -2.576106 -8.893746 -0.5994 -0.2143 1.0029 0.2441716 -0.3242822 0.7956956 -4.23792 0.435564 -7.790121 0.8378 0.1851 0.7242 1.4258

0.3947935 0.2455678 1.341111 1.568619 -2.621232 -8.889822 -0.6049 -0.2131 0.9913 0.1719149 -0.437554 0.7579965 -4.13001 0.364932 -7.680249 0.8378 0.1851 0.7242 1.394921

0.3947935 0.2455678 1.341111 1.568619 -2.621232 -8.889822 -0.6049 -0.2131 0.9913 0.09023352 -0.5602506 0.7236135 -4.087827 0.258003 -7.532118 0.8455 0.1567 0.7218 1.394921

-0.04642576 0.5906194 1.312487 1.455804 -3.038157 -9.214534 -0.6049 -0.2131 0.9913 0.02792527 -0.6377433 0.7236135 -4.209471 0.249174 -7.459524 0.8455 0.1567 0.7218 1.394921

-0.04642576 0.5906194 1.312487 1.455804 -3.038157 -9.214534 -0.6049 -0.2131 0.9913 0.02792527 -0.6377433 0.7236135 -4.209471 0.249174 -7.459524 0.8455 0.1567 0.7218 1.394921

-0.3853687 0.7644542 1.260302 1.525455 -3.340305 -9.415639 -0.6018 -0.1872 0.9785 0.05637414 -0.6241297 0.7478735 -4.506714 0.407115 -7.478163 0.8555 0.1426 0.7137 1.353302

-0.3853687 0.7644542 1.260302 1.525455 -3.340305 -9.415639 -0.6018 -0.1872 0.9785 0.05637414 -0.6241297 0.7478735 -4.506714 0.407115 -7.478163 0.8555 0.1426 0.7137 1.353302

-0.5996951 0.9597566 1.242674 1.675548 -3.342267 -9.386209 -0.6018 -0.1872 0.9785 0.0842994 -0.5768313 0.7056366 -4.888323 0.617049 -7.530156 0.8555 0.1426 0.7137 1.353302

-0.4696681 1.061858 1.340587 1.846242 -3.01167 -9.131148 -0.6159 -0.1593 0.9704 0.0842994 -0.5768313 0.7056366 -4.888323 0.617049 -7.530156 0.8555 0.1426 0.7137 1.353302

-0.4696681 1.061858 1.340587 1.846242 -3.01167 -9.131148 -0.6159 -0.1593 0.9704 0.07574729 -0.5897468 0.5448918 -5.128668 0.7906861 -7.635123 0.873 0.1229 0.7009 1.353302

0.3085742 0.495848 1.419302 2.179782 -2.56041 -8.673021 -0.6159 -0.1593 0.9704 0.1429425 -0.5440191 0.4138176 -5.2974 0.785781 -7.718509 0.8802 0.1009 0.6765 1.294229

0.5143485 0.3001966 1.493478 2.212155 -2.677149 -8.527833 -0.6362 -0.1377 0.9511 0.1775 -0.4646067 0.3806563 -5.48379 0.715149 -7.706737 0.8802 0.1009 0.6765 1.294229

0.5143485 0.3001966 1.493478 2.212155 -2.677149 -8.527833 -0.6362 -0.1377 0.9511 0.1775 -0.4646067 0.3806563 -5.48379 0.715149 -7.706737 0.8802 0.1009 0.6765 1.294229

0.5143485 0.3001966 1.493478 2.212155 -2.677149 -8.527833 -0.6362 -0.1377 0.9511 0.1841322 -0.411025 0.4075344 -5.676066 0.754389 -7.655724 0.8875 0.0921 0.6621 1.294229

0.5143485 0.3001966 1.493478 2.212155 -2.677149 -8.527833 -0.6362 -0.1377 0.9511 0.1623156 -0.3790855 0.3515093 -5.745717 0.8181541 -7.702812 0.8875 0.0921 0.6621 1.20562

0.5143485 0.3001966 1.493478 2.212155 -2.677149 -8.527833 -0.6362 -0.1377 0.9511 0.2382374 -0.238412 0.2867576 -5.775147 0.8436601 -7.716546 0.9125 0.0793 0.6604 1.20562

0.5143485 0.3001966 1.493478 2.212155 -2.677149 -8.527833 -0.6362 -0.1377 0.9511 0.2382374 -0.238412 0.2867576 -5.775147 0.8436601 -7.716546 0.9125 0.0793 0.6604 1.20562

0.5143485 0.3001966 1.493478 2.212155 -2.677149 -8.527833 -0.6362 -0.1377 0.9511 0.3188716 -0.1027999 0.2947861 -5.813406 0.811287 -7.677306 0.9125 0.0793 0.6604 1.20562

0.5143485 0.3001966 1.493478 2.212155 -2.677149 -8.527833 -0.6362 -0.1377 0.9511 0.3569199 -0.007853981 0.3202679 -5.819293 0.779895 -7.560567 0.9215 0.0664 0.6329 1.141177

0.5143485 0.3001966 1.493478 2.212155 -2.677149 -8.527833 -0.6362 -0.1377 0.9511 0.3569199 -0.007853981 0.3202679 -5.819293 0.779895 -7.560567 0.9215 0.0664 0.6329 1.141177

0.5143485 0.3001966 1.493478 2.212155 -2.677149 -8.527833 -0.6362 -0.1377 0.9511 0.3166027 -0.02879793 0.2804744 -5.714325 0.7141681 -7.4556 0.9358 0.0549 0.6248 1.141177

-0.1546362 0.575435 1.279675 1.727541 -4.04074 -8.512137 -0.6488 -0.0577 0.9051 0.2588323 -0.01361357 0.2766347 -5.605434 0.616068 -7.476201 0.9358 0.0549 0.6248 1.141177

-0.1546362 0.575435 1.279675 1.727541 -4.04074 -8.512137 -0.6488 -0.0577 0.9051 0.2755875 0.005759587 0.2420772 -5.500467 0.556227 -7.430094 0.947 0.0495 0.6259 1.059281

-0.1546362 0.575435 1.279675 1.727541 -4.04074 -8.512137 -0.6488 -0.0577 0.9051 0.2755875 0.005759587 0.2420772 -5.500467 0.556227 -7.430094 0.947 0.0495 0.6259 1.059281

-0.1546362 0.575435 1.279675 1.727541 -4.04074 -8.512137 -0.6488 -0.0577 0.9051 0.2630211 0.01850049 0.2254965 -5.403348 0.516006 -7.363386 0.947 0.0495 0.6259 1.059281

-0.1546362 0.575435 1.279675 1.727541 -4.04074 -8.512137 -0.6488 -0.0577 0.9051 0.2106612 -0.02094395 0.2336996 -5.33664 0.477747 -7.364367 0.9425 0.043 0.6171 1.059281

-0.1546362 0.575435 1.279675 1.727541 -4.04074 -8.512137 -0.6488 -0.0577 0.9051 0.2042035 -0.06405359 0.2117084 -5.268951 0.483633 -7.390854 0.9425 0.043 0.6171 0.9854398

-0.1546362 0.575435 1.279675 1.727541 -4.04074 -8.512137 -0.6488 -0.0577 0.9051 0.2042035 -0.06405359 0.2117084 -5.268951 0.483633 -7.390854 0.9425 0.043 0.6171 0.9854398

-0.1546362 0.575435 1.279675 1.727541 -4.04074 -8.512137 -0.6488 -0.0577 0.9051 0.2220059 -0.03630285 0.1846558 -5.240502 0.468918 -7.363386 0.9471 0.038 0.6109 0.9854398

-0.1546362 0.575435 1.279675 1.727541 -4.04074 -8.512137 -0.6488 -0.0577 0.9051 0.2220059 -0.03630285 0.1846558 -5.240502 0.468918 -7.363386 0.9471 0.038 0.6109 0.9854398

-0.1546362 0.575435 1.279675 1.727541 -4.04074 -8.512137 -0.6488 -0.0577 0.9051 0.2043781 -0.03996804 0.2209587 -5.246388 0.43164 -7.31826 0.9471 0.038 0.6109 0.9115989

-0.3218387 0.5188864 1.214575 1.689282 -4.172193 -8.493499 -0.6239 -0.0486 0.921 0.1846558 -0.08569566 0.2244493 -5.241484 0.389457 -7.289811 0.9423 0.0474 0.6057 0.9115989

-0.3218387 0.5188864 1.214575 1.689282 -4.172193 -8.493499 -0.6239 -0.0486 0.921 0.1324705 -0.1996657 0.1665044 -5.163003 0.341388 -7.302565 0.934 0.0444 0.6106 0.9115989

-0.3218387 0.5188864 1.214575 1.689282 -4.172193 -8.493499 -0.6239 -0.0486 0.921 0.1324705 -0.1996657 0.1665044 -5.163003 0.341388 -7.302565 0.934 0.0444 0.6106 0.9115989

-0.482409 0.6215118 1.158724 1.747161 -3.732705 -9.029124 -0.5909 0.0062 0.9197 0.08464847 -0.2848377 0.1488766 -5.183604 0.36297 -7.350633 0.934 0.0444 0.6106 0.8270175

-0.482409 0.6215118 1.158724 1.747161 -3.732705 -9.029124 -0.5909 0.0062 0.9197 0.06981317 -0.2979277 0.1719149 -5.452398 0.440469 -7.431075 0.9347 0.0429 0.6225 0.8270175

-0.482409 0.6215118 1.158724 1.747161 -3.732705 -9.029124 -0.5909 0.0062 0.9197 0.06981317 -0.2979277 0.1719149 -5.452398 0.440469 -7.431075 0.9347 0.0429 0.6225 0.8270175

-0.482409 0.6215118 1.158724 1.747161 -3.732705 -9.029124 -0.5909 0.0062 0.9197 0.1422443 -0.1876229 0.1003564 -5.801634 0.525816 -7.521327 0.9347 0.0429 0.6225 0.8270175

-0.482409 0.6215118 1.158724 1.747161 -3.732705 -9.029124 -0.5909 0.0062 0.9197 0.2516765 0.02513274 0.002617994 -6.074352 0.537588 -7.634142 0.9285 0.0491 0.6248 0.7316957

-0.482409 0.6215118 1.158724 1.747161 -3.732705 -9.029124 -0.5909 0.0062 0.9197 0.2516765 0.02513274 0.002617994 -6.074352 0.537588 -7.634142 0.9285 0.0491 0.6248 0.7316957

-0.482409 0.6215118 1.158724 1.747161 -3.732705 -9.029124 -0.5909 0.0062 0.9197 0.3391175 0.2277655 -0.09180433 -6.097896 0.481671 -7.628256 0.9285 0.0491 0.6248 0.7316957

-0.482409 0.6215118 1.158724 1.747161 -3.732705 -9.029124 -0.5909 0.0062 0.9197 0.3380703 0.3146829 -0.06719518 -5.937012 0.424773 -7.610598 0.9409 0.0362 0.6143 0.7316957

-0.482409 0.6215118 1.158724 1.747161 -3.732705 -9.029124 -0.5909 0.0062 0.9197 0.3277729 0.3708825 -0.02024582 -5.743755 0.318825 -7.565472 0.9581 0.0232 0.5974 0.6296611

-0.482409 0.6215118 1.158724 1.747161 -3.732705 -9.029124 -0.5909 0.0062 0.9197 0.3275983 0.4448844 -0.01640609 -5.489676 0.252117 -7.575282 0.9581 0.0232 0.5974 0.6296611

-0.482409 0.6215118 1.158724 1.747161 -3.732705 -9.029124 -0.5909 0.0062 0.9197 0.3275983 0.4448844 -0.01640609 -5.489676 0.252117 -7.575282 0.9581 0.0232 0.5974 0.6296611

-0.482409 0.6215118 1.158724 1.747161 -3.732705 -9.029124 -0.5909 0.0062 0.9197 0.2796018 0.5316273 0.09983283 -5.423949 0.207972 -7.718509 0.9626 0.0338 0.6024 0.6296611

-0.482409 0.6215118 1.158724 1.747161 -3.732705 -9.029124 -0.5909 0.0062 0.9197 0.3820526 0.7033677 0.1511455 -5.441607 0.118701 -7.659648 0.9626 0.0338 0.6024 0.5370244

-0.6405358 0.5525712 1.261873 2.039499 -3.487455 -9.000675 -0.5467 0.0332 0.9137 0.201411 0.7438593 0.09634218 -5.33664 -0.003924 -7.591959 0.9603 0.0622 0.6144 0.5370244

-0.7983136 0.5551892 1.188395 1.905102 -3.606156 -9.070327 -0.531 0.0362 0.922 0.201411 0.7438593 0.09634218 -5.33664 -0.003924 -7.591959 0.9603 0.0622 0.6144 0.5370244

-0.7983136 0.5551892 1.188395 1.905102 -3.606156 -9.070327 -0.531 0.0362 0.922 0.291819 0.7579965 0.08866272 -5.322906 -0.139302 -7.689078 0.9603 0.0622 0.6144 0.5370244

-0.7983136 0.5551892 1.188395 1.905102 -3.606156 -9.070327 -0.531 0.0362 0.922 0.2207841 0.8700466 0.06091199 -5.285628 -0.299205 -7.508574 0.9376 0.0775 0.6236 0.4537856

-0.7983136 0.5551892 1.188395 1.905102 -3.606156 -9.070327 -0.531 0.0362 0.922 0.1788962 0.8841838 -0.01396263 -5.013891 -0.349236 -7.539966 0.9376 0.0775 0.6236 0.4537856

-0.6480408 -0.4944518 1.356295 2.224908 -1.729503 -8.250211 -0.4594 -0.0078 1.041 0.1788962 0.8841838 -0.01396263 -5.013891 -0.349236 -7.539966 0.9376 0.0775 0.6236 0.4537856

-1.350361 -0.1808161 1.399405 1.924722 -2.082663 -8.630838 -0.4594 -0.0078 1.041 0.2216568 1.104619 -0.03700098 -4.780413 -0.327654 -7.743033 0.9066 0.0774 0.6494 0.4537856

-1.350361 -0.1808161 1.399405 1.924722 -2.082663 -8.630838 -0.4594 -0.0078 1.041 0.2495821 1.141969 -0.007330383 -4.371336 -0.32373 -7.62237 0.8907 0.0773 0.6816 0.3557787

-1.350361 -0.1808161 1.399405 1.924722 -2.082663 -8.630838 -0.4594 -0.0078 1.041 0.2495821 1.141969 -0.007330383 -4.371336 -0.32373 -7.62237 0.8907 0.0773 0.6816 0.3557787

-1.350361 -0.1808161 1.399405 1.924722 -2.082663 -8.630838 -0.4594 -0.0078 1.041 0.1117011 0.9110619 -0.00296706 -3.683655 -0.491481 -7.587054 0.8907 0.0773 0.6816 0.3557787

-1.560499 0.05323254 0.803375 1.129131 -1.910988 -9.954208 -0.3375 -0.0843 1.1264 0.1117011 0.9110619 -0.00296706 -3.683655 -0.491481 -7.587054 0.8907 0.0773 0.6816 0.3557787

-1.890192 0.2720968 0.5890486 1.194858 -1.826622 -10.04446 -0.2907 -0.1389 1.1625 0.05305801 0.6764896 0.09878563 -3.203946 -0.619992 -7.902936 0.8741 0.0818 0.7207 0.3557787

-1.76191 0.0986111 0.5441937 1.480329 -1.29492 -9.955188 -0.2907 -0.1389 1.1625 0.01099557 0.606851 0.2286381 -3.157839 -0.6141061 -7.926481 0.8741 0.0818 0.7207 0.2940209

-1.76191 0.0986111 0.5441937 1.480329 -1.29492 -9.955188 -0.2907 -0.1389 1.1625 0.01204277 0.6565928 0.2776819 -3.259863 -0.525816 -8.052049 0.8537 0.0883 0.7323 0.2940209

-1.591391 -0.106116 0.5822418 1.534284 -0.962361 -9.970884 -0.261 -0.2033 1.183 0.01204277 0.6565928 0.2776819 -3.259863 -0.525816 -8.052049 0.8537 0.0883 0.7323 0.2940209

-2.17852 0.2820452 0.464083 1.537227 -0.8897671 -10.23085 -0.261 -0.2033 1.183 0.03036873 0.7524114 0.2452188 -3.322647 -0.515025 -8.352235 0.8537 0.0883 0.7323 0.2940209

-2.17852 0.2820452 0.464083 1.537227 -0.8897671 -10.23085 -0.261 -0.2033 1.183 0.04764749 0.8740609 0.2261947 -3.386412 -0.458127 -8.440524 0.8429 0.0887 0.7442 0.253744

-1.925098 0.1682497 0.3968879 1.699092 -0.208953 -10.20731 -0.2446 -0.2589 1.2076 0.04747296 1.008102 0.1919862 -3.435462 -0.435564 -8.353215 0.8429 0.0887 0.7442 0.253744

-1.481959 -0.05078908 0.3731514 1.886463 0.308034 -10.11215 -0.2446 -0.2589 1.2076 0.04747296 1.008102 0.1919862 -3.435462 -0.435564 -8.353215 0.8429 0.0887 0.7442 0.253744

-1.481959 -0.05078908 0.3731514 1.886463 0.308034 -10.11215 -0.2446 -0.2589 1.2076 0.09581857 1.12853 0.1446878 -3.284388 -0.415944 -8.460144 0.8137 0.0865 0.7752 0.253744

-1.916895 0.2380629 0.1481784 1.842318 0.342369 -10.21712 -0.2255 -0.3082 1.2311 0.03822271 1.162215 0.04991641 -2.886102 -0.380628 -8.628877 0.8137 0.0865 0.7752 0.2013841

-2.175553 0.6541494 -0.1635374 1.790325 0.864261 -10.08468 -0.1849 -0.377 1.2542 -0.01954769 0.938638 0.1151917 -2.700693 -0.404172 -8.782893 0.7676 0.0925 0.7858 0.2013841

-2.175553 0.6541494 -0.1635374 1.790325 0.864261 -10.08468 -0.1849 -0.377 1.2542 0.01919862 0.9154252 0.2017601 -2.713446 -0.384552 -8.67106 0.7305 0.0926 0.8101 0.2013841

-1.548631 0.3480186 -0.1307252 1.929627 1.925703 -9.65206 -0.1849 -0.377 1.2542 0.01919862 0.9154252 0.2017601 -2.713446 -0.384552 -8.67106 0.7305 0.0926 0.8101 0.2013841

-1.897696 0.466701 -0.06841691 1.899216 2.051271 -9.631458 -0.1519 -0.4494 1.2799 0.01989675 0.9026843 0.02059488 -2.272977 -0.352179 -8.514099 0.7305 0.0926 0.8101 0.1584222

-1.897696 0.466701 -0.06841691 1.899216 2.051271 -9.631458 -0.1519 -0.4494 1.2799 0.02408554 0.7033677 -0.1158899 -1.756971 -0.379647 -8.737767 0.6879 0.0904 0.8477 0.1584222

-1.897696 0.466701 -0.06841691 1.899216 2.051271 -9.631458 -0.1519 -0.4494 1.2799 0.05044002 0.3185226 -0.03228859 -1.480329 -0.449298 -8.725996 0.6879 0.0904 0.8477 0.1584222

-2.152864 0.2921681 -0.187972 2.492721 3.407013 -9.079155 -0.1533 -0.5663 1.2843 0.05044002 0.3185226 -0.03228859 -1.480329 -0.449298 -8.725996 0.6879 0.0904 0.8477 0.1584222

-2.152864 0.2921681 -0.187972 2.492721 3.407013 -9.079155 -0.1533 -0.5663 1.2843 0.02129302 0.7161086 0.1436406 -1.641213 -0.348255 -8.738749 0.6611 0.0894 0.8635 0.1114326

-1.142143 0.2343977 -0.09721484 2.544714 4.301685 -8.784856 -0.1533 -0.5663 1.2843 0.05340707 0.7091273 0.1474803 -1.663776 -0.373761 -8.898651 0.6611 0.0894 0.8635 0.1114326

-1.394518 0.4323181 -0.05864306 2.416203 4.032891 -8.865297 -0.1285 -0.6424 1.2818 0.005585053 0.8520697 0.1136209 -1.555866 -0.433602 -8.773084 0.6385 0.0729 0.8819 0.1114326

-1.394518 0.4323181 -0.05864306 2.416203 4.032891 -8.865297 -0.1285 -0.6424 1.2818 0.005585053 0.8520697 0.1136209 -1.555866 -0.433602 -8.773084 0.6385 0.0729 0.8819 0.1114326

-2.464056 0.9934413 -0.3096214 2.161143 3.411918 -9.119376 -0.1285 -0.6424 1.2818 -0.01727876 1.159073 0.0837758 -1.564695 -0.420849 -8.751501 0.6385 0.0729 0.8819 0.07384086

-1.84045 1.082104 -0.5256932 2.497626 4.276179 -8.571979 -0.1062 -0.7168 1.2701 -0.004537856 1.610241 0.1073378 -1.646118 -0.387495 -8.661249 0.6044 0.0591 0.9156 0.07384086

-1.84045 1.082104 -0.5256932 2.497626 4.276179 -8.571979 -0.1062 -0.7168 1.2701 0.007504916 1.941679 0.03839725 -1.270395 -0.330597 -8.568054 0.6044 0.0591 0.9156 0.07384086

0.0434587 1.010895 -0.6061528 2.585916 5.812425 -8.002998 -0.1108 -0.7729 1.2478 0.007504916 1.941679 0.03839725 -1.270395 -0.330597 -8.568054 0.6044 0.0591 0.9156 0.07384086

1.060113 1.29294 -0.5733407 2.339685 6.246027 -7.912746 -0.1108 -0.7729 1.2478 -0.03769911 1.57673 -0.1181588 -0.087309 -0.321768 -8.401284 0.5699 0.0647 0.9415 0.0308789

1.060113 1.29294 -0.5733407 2.339685 6.246027 -7.912746 -0.1108 -0.7729 1.2478 -0.1328196 0.6977826 -0.08203047 1.181124 -0.337464 -8.309071 0.5154 0.0716 0.9664 0.0308789

1.060113 1.29294 -0.5733407 2.339685 6.246027 -7.912746 -0.1108 -0.7729 1.2478 -0.1328196 0.6977826 -0.08203047 1.181124 -0.337464 -8.309071 0.5154 0.0716 0.9664 0.0308789

1.060113 1.29294 -0.5733407 2.339685 6.246027 -7.912746 -0.1108 -0.7729 1.2478 -0.1499238 -0.3457497 0.04555309 2.326932 -0.325692 -8.424829 0.5154 0.0716 0.9664 0.0308789

2.161067 2.205573 -0.6618288 1.839375 6.430455 -8.213913 -0.1363 -0.8093 1.205 -0.008726646 -1.440595 0.2562144 2.669301 -0.000981 -8.545491 0.4511 0.0744 0.9898 0

2.161067 2.205573 -0.6618288 1.839375 6.430455 -8.213913 -0.1363 -0.8093 1.205 -0.02635447 -1.672374 0.3197443 1.939437 0.018639 -8.475841 0.4511 0.0744 0.9898 0

3.201632 2.406635 -0.7782423 2.328894 6.342165 -7.997112 -0.1363 -0.8093 1.205 -0.02635447 -1.672374 0.3197443 1.939437 0.018639 -8.475841 0.4511 0.0744 0.9898 0

3.201632 2.406635 -0.7782423 2.328894 6.342165 -7.997112 -0.1363 -0.8093 1.205 -0.05044002 -1.576207 0.3476696 1.062423 -0.102024 -8.583751 0.4182 0.078 0.9939 0

4.333652 1.954943 -0.6777114 3.172554 6.481468 -7.457562 -0.2155 -0.8002 1.1766 -0.05044002 -1.576207 0.3476696 1.062423 -0.102024 -8.583751 0.4182 0.078 0.9939 0.02148098

5.653994 1.409528 -0.1867502 3.832767 6.772824 -6.898392 -0.2155 -0.8002 1.1766 0.05811946 -0.5234242 0.1160644 -1.474443 -0.193257 -9.085042 0.4946 0.0411 0.9493 0.02148098

5.653994 1.409528 -0.1867502 3.832767 6.772824 -6.898392 -0.2155 -0.8002 1.1766 0.05811946 -0.5234242 0.1160644 -1.474443 -0.193257 -9.085042 0.4946 0.0411 0.9493 0.02148098

5.653994 1.409528 -0.1867502 3.832767 6.772824 -6.898392 -0.2155 -0.8002 1.1766 0.1258382 -0.3525565 0.03892084 -1.782477 -0.172656 -9.243963 0.4946 0.0411 0.9493 0.02148098

5.653994 1.409528 -0.1867502 3.832767 6.772824 -6.898392 -0.2155 -0.8002 1.1766 0.1534144 0.06178465 -0.05881759 -1.969848 -0.133416 -9.443107 0.5372 0.0343 0.9367 0.02953634

1.850573 -0.9868092 0.8649852 5.245407 -0.939798 -7.05241 -0.5517 -0.4531 1.1075 0.1534144 0.06178465 -0.05881759 -1.969848 -0.133416 -9.443107 0.5372 0.0343 0.9367 0.02953634

1.134813 -1.985487 0.5848598 5.449455 -1.626498 -6.818932 -0.5517 -0.4531 1.1075 0.1855285 0.1160644 -0.05288348 -1.801116 -0.151074 -9.428391 0.5573 0.0475 0.9245 0.02953634

1.134813 -1.985487 0.5848598 5.449455 -1.626498 -6.818932 -0.5517 -0.4531 1.1075 0.1448623 0.07679449 -0.02984513 -1.468557 -0.280566 -9.141939 0.5573 0.0475 0.9245 0.02953634

0.861669 -2.683095 0.6244788 4.833387 -2.122884 -7.346709 -0.5935 -0.3032 1.0883 0.1448623 0.07679449 -0.02984513 -1.468557 -0.280566 -9.141939 0.5573 0.0475 0.9245 0.02148098

0.861669 -2.683095 0.6244788 4.833387 -2.122884 -7.346709 -0.5935 -0.3032 1.0883 0.07609636 -0.1010546 -0.08011062 -1.129131 -0.314901 -8.940835 0.5636 0.0554 0.9027 0.02148098

0.307178 -1.523149 0.5316273 3.583593 -1.928646 -8.417961 -0.5935 -0.3032 1.0883 0.07260569 -0.1837832 -0.07609636 -0.9770761 -0.356103 -8.715204 0.5636 0.0554 0.9027 0.02148098

1.265887 -1.229934 0.6827728 2.842938 -1.439127 -8.986941 -0.5576 -0.2125 1.0908 0.07260569 -0.1837832 -0.07609636 -0.9770761 -0.356103 -8.715204 0.5636 0.0554 0.9027 0.02148098

0.9128072 -0.5288348 0.6698574 2.426994 -1.830546 -9.392095 -0.5576 -0.2125 1.0908 0.09424778 -0.3358013 -0.02146755 -0.8436601 -0.399267 -8.811342 0.5797 0.0633 0.8983 0.02148098

0.9128072 -0.5288348 0.6698574 2.426994 -1.830546 -9.392095 -0.5576 -0.2125 1.0908 0.1733112 -0.469319 -0.07958701 -1.021221 -0.398286 -9.09289 0.5797 0.0633 0.8983 0.02148098

0.4968952 -1.216145 0.7579965 2.926323 -2.322027 -8.852545 -0.494 -0.1536 1.0892 0.1733112 -0.469319 -0.07958701 -1.021221 -0.398286 -9.09289 0.5797 0.0633 0.8983 0.02148098

-0.03961897 -1.763481 0.8236209 2.812527 -2.537847 -8.622009 -0.494 -0.1536 1.0892 0.09616765 -0.1410226 -0.04869469 -1.522512 -0.464994 -8.963397 0.582 0.0665 0.9059 0.02148098

-0.2124066 -1.277232 0.7290241 1.965924 -2.212155 -9.120358 -0.4366 -0.0918 1.0753 0.07504916 0.1816888 -0.01291544 -1.710864 -0.506196 -8.768179 0.582 0.0665 0.9059 0.01879585

-0.2124066 -1.277232 0.7290241 1.965924 -2.212155 -9.120358 -0.4366 -0.0918 1.0753 0.1171116 0.0280998 -0.04171337 -1.362609 -0.511101 -8.697547 0.5898 0.0748 0.9115 0.01879585

0.4317944 -1.035155 0.8962265 1.658871 -1.713807 -9.414658 -0.4366 -0.0918 1.0753 0.1171116 0.0280998 -0.04171337 -1.362609 -0.511101 -8.697547 0.5898 0.0748 0.9115 0.01879585

1.122945 -1.281072 0.7986626 1.327293 -1.68732 -9.389152 -0.3676 -0.056 1.0881 0.05986479 -0.08691739 -0.03333579 -1.100682 -0.562113 -8.711281 0.5898 0.0748 0.9115 0.01879585

-0.1869248 -0.3167773 0.3637266 0.569961 -3.200022 -9.620667 -0.2205 -0.0245 1.1057 0.06387905 -0.2898992 -0.02775074 -0.857394 -0.552303 -8.770141 0.5999 0.0851 0.9067 0.01745329

-0.1869248 -0.3167773 0.3637266 0.569961 -3.200022 -9.620667 -0.2205 -0.0245 1.1057 0.06387905 -0.2898992 -0.02775074 -0.857394 -0.552303 -8.770141 0.5999 0.0851 0.9067 0.01745329

-0.3064798 -0.03822271 0.376642 0.466956 -2.769363 -9.513739 -0.1574 -0.0085 1.0911 0.05166174 -0.2792527 0.002443461 -1.05948 -0.553284 -8.766216 0.5999 0.0851 0.9067 0.01745329

0.347495 -0.5372124 0.3085742 0.459108 -2.503512 -9.305766 -0.1574 -0.0085 1.0911 0.05218535 -0.1232202 0.003490658 -1.453842 -0.528759 -8.762292 0.604 0.0849 0.9047 0.01476817

0.347495 -0.5372124 0.3085742 0.459108 -2.503512 -9.305766 -0.1574 -0.0085 1.0911 0.04852015 0.2157227 -0.01640609 -1.753047 -0.580752 -8.767198 0.6036 0.0871 0.9062 0.01476817

0.3345796 -0.3926991 0.3307399 0.296262 -2.737971 -9.567694 -0.123 -0.0006 1.1053 0.04852015 0.2157227 -0.01640609 -1.753047 -0.580752 -8.767198 0.6036 0.0871 0.9062 0.01476817

-0.2747148 0.2865831 0.3113667 0.07946101 -2.921418 -9.712882 -0.123 -0.0006 1.1053 0.02286381 0.2158972 -0.01937315 -1.513683 -0.632745 -8.723052 0.6036 0.0871 0.9062 0.01476817
