-0.2183407 0.2186898 -0.2467896 0.827964 -0.5886 -8.928082 0.032 -0.2179 1.2563 -0.07190756 0.06318092 -0.0143117 0.205029 -1.218402 -8.596503 0.4491 0.154 0.9496 0.004027683

0.1237438 -0.04625123 -0.1713913 0.946665 -0.303129 -8.756407 0.032 -0.2179 1.2563 -0.08883726 -0.167028 0.0301942 0.357084 -1.174257 -8.570017 0.4491 0.154 0.9496 0.01074049

0.1237438 -0.04625123 -0.1713913 0.946665 -0.303129 -8.756407 0.032 -0.2179 1.2563 -0.08883726 -0.167028 0.0301942 0.357084 -1.174257 -8.570017 0.4491 0.154 0.9496 0.01074049

0.1237438 -0.04625123 -0.1713913 0.946665 -0.303129 -8.756407 0.032 -0.2179 1.2563 -0.08883726 -0.167028 0.0301942 0.357084 -1.174257 -8.570017 0.4491 0.154 0.9496 0.01074049

0.1237438 -0.04625123 -0.1713913 0.946665 -0.303129 -8.756407 0.032 -0.2179 1.2563 -0.08883726 -0.167028 0.0301942 0.357084 -1.174257 -8.570017 0.4491 0.154 0.9496 0.01074049

-0.1569051 -0.1752311 -0.1164135 0.661194 -0.934893 -7.565472 -0.0012 -0.2255 1.2233 -0.08883726 -0.167028 0.0301942 0.357084 -1.174257 -8.570017 0.4491 0.154 0.9496 0.01074049

-0.1569051 -0.1752311 -0.1164135 0.661194 -0.934893 -7.565472 -0.0012 -0.2255 1.2233 -0.08883726 -0.167028 0.0301942 0.357084 -1.174257 -8.570017 0.4491 0.154 0.9496 0.05907268

-0.1569051 -0.1752311 -0.1164135 0.661194 -0.934893 -7.565472 -0.0012 -0.2255 1.2233 -0.08883726 -0.167028 0.0301942 0.357084 -1.174257 -8.570017 0.4491 0.154 0.9496 0.05907268

0.05044002 0.05113815 0.03071779 0.171675 -0.040221 -9.885537 0.1035 -0.2578 1.2474 -0.08883726 -0.167028 0.0301942 0.357084 -1.174257 -8.570017 0.4491 0.154 0.9496 0.05907268

0.1055924 -0.0006981317 -0.01553343 0.198162 -0.141264 -9.836487 0.1035 -0.2578 1.2474 -0.08883726 -0.167028 0.0301942 0.357084 -1.174257 -8.570017 0.4491 0.154 0.9496 0.05907268

0.1178097 -0.01954769 -0.0541052 0.210915 -0.173637 -9.826678 0.0772 -0.2621 1.2505 -0.08883726 -0.167028 0.0301942 0.357084 -1.174257 -8.570017 0.4491 0.154 0.9496 0.06310037

0.1178097 -0.01954769 -0.0541052 0.210915 -0.173637 -9.826678 0.0772 -0.2621 1.2505 -0.08883726 -0.167028 0.0301942 0.357084 -1.174257 -8.570017 0.4491 0.154 0.9496 0.06310037

0.06911504 0.01884956 -0.06440265 0.169713 -0.232497 -9.963037 0.0772 -0.2621 1.2505 -0.08883726 -0.167028 0.0301942 0.357084 -1.174257 -8.570017 0.4491 0.154 0.9496 0.06310037

0.1167625 -0.02478367 -0.06178465 0.214839 -0.220725 -10.05819 0.0687 -0.2599 1.2385 -0.08883726 -0.167028 0.0301942 0.357084 -1.174257 -8.570017 0.4491 0.154 0.9496 0.06310037

0.1668535 -0.05166174 -0.1010546 0.207972 -0.335502 -10.13177 0.0687 -0.2599 1.2385 -0.08883726 -0.167028 0.0301942 0.357084 -1.174257 -8.570017 0.4491 0.154 0.9496 0.07249829

0.1668535 -0.05166174 -0.1010546 0.207972 -0.335502 -10.13177 0.0687 -0.2599 1.2385 -0.08883726 -0.167028 0.0301942 0.357084 -1.174257 -8.570017 0.4491 0.154 0.9496 0.07249829

0.02687807 -0.0003490658 -0.1898918 0.133416 -0.589581 -10.23183 0.0856 -0.2533 1.2441 -0.08883726 -0.167028 0.0301942 0.357084 -1.174257 -8.570017 0.4491 0.154 0.9496 0.07249829

-0.2188643 0.2247984 -0.2426008 0.08436601 -0.6356881 -10.28284 0.0856 -0.2533 1.2441 -0.08883726 -0.167028 0.0301942 0.357084 -1.174257 -8.570017 0.4491 0.154 0.9496 0.07249829

-0.05096361 0.2028073 -0.2734931 0.150093 -0.356103 -10.16316 0.091 -0.2485 1.257 -0.08883726 -0.167028 0.0301942 0.357084 -1.174257 -8.570017 0.4491 0.154 0.9496 0.07384086

-0.05096361 0.2028073 -0.2734931 0.150093 -0.356103 -10.16316 0.091 -0.2485 1.257 -0.08883726 -0.167028 0.0301942 0.357084 -1.174257 -8.570017 0.4491 0.154 0.9496 0.07384086

0.0863938 -0.08185595 -0.2373648 0.288414 -0.376704 -10.11803 0.0907 -0.2643 1.2747 -0.08883726 -0.167028 0.0301942 0.357084 -1.174257 -8.570017 0.4491 0.154 0.9496 0.07384086

-0.03560472 0.03089233 -0.3024656 0.242307 -0.5964481 -10.32797 0.0907 -0.2643 1.2747 -0.08883726 -0.167028 0.0301942 0.357084 -1.174257 -8.570017 0.4491 0.154 0.9496 0.07384086

-0.03560472 0.03089233 -0.3024656 0.242307 -0.5964481 -10.32797 0.0907 -0.2643 1.2747 -0.08883726 -0.167028 0.0301942 0.357084 -1.174257 -8.570017 0.4491 0.154 0.9496 0.07384086

0.2263692 0.0418879 -0.3635521 0.223668 -0.652365 -10.43686 0.0676 -0.2807 1.2805 -0.08883726 -0.167028 0.0301942 0.357084 -1.174257 -8.570017 0.4491 0.154 0.9496 0.07384086

0.7105235 0.01623156 -0.4389503 0.180504 -0.797553 -10.58205 0.0676 -0.2807 1.2805 -0.08883726 -0.167028 0.0301942 0.357084 -1.174257 -8.570017 0.4491 0.154 0.9496 0.153052

1.193282 0.03717551 -0.8998918 0.09123301 -2.056176 -10.70467 0.0401 -0.2723 1.2523 -0.08883726 -0.167028 0.0301942 0.357084 -1.174257 -8.570017 0.4491 0.154 0.9496 0.153052

1.193282 0.03717551 -0.8998918 0.09123301 -2.056176 -10.70467 0.0401 -0.2723 1.2523 -0.08883726 -0.167028 0.0301942 0.357084 -1.174257 -8.570017 0.4491 0.154 0.9496 0.153052

0.8115781 0.1502728 -1.075472 -0.05886 -2.716389 -10.8067 0.0212 -0.2517 1.2419 -0.08883726 -0.167028 0.0301942 0.357084 -1.174257 -8.570017 0.4491 0.154 0.9496 0.153052

0.6082472 0.1916371 -1.139176 -0.090252 -2.984202 -10.71546 0.0212 -0.2517 1.2419 -0.08883726 -0.167028 0.0301942 0.357084 -1.174257 -8.570017 0.4491 0.154 0.9496 0.232263

0.1708677 0.2429498 -1.216669 -0.12753 -3.323628 -10.66347 -0.026 -0.2137 1.2163 -0.08883726 -0.167028 0.0301942 0.357084 -1.174257 -8.570017 0.4491 0.154 0.9496 0.232263

-0.02897247 0.3405137 -1.374447 -0.202086 -3.279483 -10.6566 -0.026 -0.2137 1.2163 -0.08883726 -0.167028 0.0301942 0.357084 -1.174257 -8.570017 0.4491 0.154 0.9496 0.232263

-0.02897247 0.3405137 -1.374447 -0.202086 -3.279483 -10.6566 -0.026 -0.2137 1.2163 -0.08883726 -0.167028 0.0301942 0.357084 -1.174257 -8.570017 0.4491 0.154 0.9496 0.232263

0.09564404 0.4504695 -1.49662 -0.185409 -2.916513 -10.52907 -0.0576 -0.1822 1.2003 -0.08883726 -0.167028 0.0301942 0.357084 -1.174257 -8.570017 0.4491 0.154 0.9496 0.2899932

0.4134685 0.3120649 -1.525941 -0.043164 -2.604555 -10.33778 -0.0831 -0.1585 1.1856 -0.08883726 -0.167028 0.0301942 0.357084 -1.174257 -8.570017 0.4491 0.154 0.9496 0.2899932

0.5516986 0.1181588 -1.496969 0.027468 -2.539809 -10.16414 -0.0831 -0.1585 1.1856 -0.08883726 -0.167028 0.0301942 0.357084 -1.174257 -8.570017 0.4491 0.154 0.9496 0.2899932

0.5516986 0.1181588 -1.496969 0.027468 -2.539809 -10.16414 -0.0831 -0.1585 1.1856 -0.08883726 -0.167028 0.0301942 0.357084 -1.174257 -8.570017 0.4491 0.154 0.9496 0.2899932

0.1263618 0.3047345 -1.447751 -0.07161301 -2.646738 -9.991486 -0.1374 -0.1491 1.1715 -0.08883726 -0.167028 0.0301942 0.357084 -1.174257 -8.570017 0.4491 0.154 0.9496 0.2899932

0.1263618 0.3047345 -1.447751 -0.07161301 -2.646738 -9.991486 -0.1374 -0.1491 1.1715 -0.08883726 -0.167028 0.0301942 0.357084 -1.174257 -8.570017 0.4491 0.154 0.9496 0.3504084

-0.00593412 0.2281145 -1.322261 -0.109872 -2.538828 -9.664812 -0.1374 -0.1491 1.1715 -0.08883726 -0.167028 0.0301942 0.357084 -1.174257 -8.570017 0.4491 0.154 0.9496 0.3504084

0.087441 0.2450442 -1.293289 -0.09123301 -2.302407 -9.312634 -0.1851 -0.1528 1.1788 -0.08883726 -0.167028 0.0301942 0.357084 -1.174257 -8.570017 0.4491 0.154 0.9496 0.3504084

0.140499 0.2537709 -1.5132 0.08436601 -2.154276 -9.155674 -0.1851 -0.1528 1.1788 -0.08883726 -0.167028 0.0301942 0.357084 -1.174257 -8.570017 0.4491 0.154 0.9496 0.3504084

0.140499 0.2537709 -1.5132 0.08436601 -2.154276 -9.155674 -0.1851 -0.1528 1.1788 -0.08883726 -0.167028 0.0301942 0.357084 -1.174257 -8.570017 0.4491 0.154 0.9496 0.4309621

0.4982915 0.1773254 -1.717229 0.120663 -1.80504 -9.136053 -0.2068 -0.1613 1.1817 -0.08883726 -0.167028 0.0301942 0.357084 -1.174257 -8.570017 0.4491 0.154 0.9496 0.4309621

0.7175049 0.2825688 -1.820378 0.258003 -1.502892 -9.100738 -0.2068 -0.1613 1.1817 -0.08883726 -0.167028 0.0301942 0.357084 -1.174257 -8.570017 0.4491 0.154 0.9496 0.4309621

0.7175049 0.2825688 -1.820378 0.258003 -1.502892 -9.100738 -0.2068 -0.1613 1.1817 -0.08883726 -0.167028 0.0301942 0.357084 -1.174257 -8.570017 0.4491 0.154 0.9496 0.4309621

0.7175049 0.2825688 -1.820378 0.258003 -1.502892 -9.100738 -0.2068 -0.1613 1.1817 -0.08883726 -0.167028 0.0301942 0.357084 -1.174257 -8.570017 0.4491 0.154 0.9496 0.5316541

0.5368633 -0.5592035 -1.478992 1.063404 -1.335141 -8.988903 -0.3807 -0.1547 1.1134 -0.08883726 -0.167028 0.0301942 0.357084 -1.174257 -8.570017 0.4491 0.154 0.9496 0.5316541

0.4911356 -0.5494297 -1.451067 1.032993 -1.340046 -9.126244 -0.3807 -0.1547 1.1134 -0.08883726 -0.167028 0.0301942 0.357084 -1.174257 -8.570017 0.4491 0.154 0.9496 0.5316541

0.7204719 -0.7820821 -1.472011 1.200744 -1.150713 -9.038935 -0.4067 -0.1611 1.1226 -0.08883726 -0.167028 0.0301942 0.357084 -1.174257 -8.570017 0.4491 0.154 0.9496 0.5316541

0.7204719 -0.7820821 -1.472011 1.200744 -1.150713 -9.038935 -0.4067 -0.1611 1.1226 -0.08883726 -0.167028 0.0301942 0.357084 -1.174257 -8.570017 0.4491 0.154 0.9496 0.2256845

1.032711 -1.054353 -1.409004 1.237041 -1.094796 -9.023238 -0.4067 -0.1611 1.1226 -0.08883726 -0.167028 0.0301942 0.357084 -1.174257 -8.570017 0.4491 0.154 0.9496 0.2256845

0.9826204 -1.17705 -1.269029 1.121283 -1.348875 -9.073269 -0.4219 -0.1675 1.1265 -0.08883726 -0.167028 0.0301942 0.357084 -1.174257 -8.570017 0.4491 0.154 0.9496 0.2256845

0.9826204 -1.17705 -1.269029 1.121283 -1.348875 -9.073269 -0.4219 -0.1675 1.1265 -0.08883726 -0.167028 0.0301942 0.357084 -1.174257 -8.570017 0.4491 0.154 0.9496 0.2256845

0.7194247 -1.243547 -1.202183 1.025145 -1.538208 -9.087984 -0.4219 -0.1675 1.1265 -0.08883726 -0.167028 0.0301942 0.357084 -1.174257 -8.570017 0.4491 0.154 0.9496 0.7088722

1.042311 -1.733636 -1.118931 1.026126 -1.427355 -8.86726 -0.4353 -0.1639 1.1123 -0.08883726 -0.167028 0.0301942 0.357084 -1.174257 -8.570017 0.4491 0.154 0.9496 0.7088722

1.042311 -1.733636 -1.118931 1.026126 -1.427355 -8.86726 -0.4353 -0.1639 1.1123 -0.08883726 -0.167028 0.0301942 0.357084 -1.174257 -8.570017 0.4491 0.154 0.9496 0.7088722

1.322087 -2.064899 -0.953997 0.793629 -1.381248 -8.718147 -0.4353 -0.1639 1.1123 -0.08883726 -0.167028 0.0301942 0.357084 -1.174257 -8.570017 0.4491 0.154 0.9496 0.7088722

1.3638 -2.176775 -0.9354964 0.520911 -1.586277 -8.714224 -0.4372 -0.1492 1.1036 -0.08883726 -0.167028 0.0301942 0.357084 -1.174257 -8.570017 0.4491 0.154 0.9496 0.7786854

1.3638 -2.176775 -0.9354964 0.520911 -1.586277 -8.714224 -0.4372 -0.1492 1.1036 -0.08883726 -0.167028 0.0301942 0.357084 -1.174257 -8.570017 0.4491 0.154 0.9496 0.7786854

1.299398 -2.419375 -0.9641199 0.201105 -1.93257 -8.677926 -0.4372 -0.1492 1.1036 -0.08883726 -0.167028 0.0301942 0.357084 -1.174257 -8.570017 0.4491 0.154 0.9496 0.7786854

0.8428195 -2.159845 -1.047023 -0.174618 -2.24649 -8.57394 -0.3918 -0.1351 1.1079 -0.08883726 -0.167028 0.0301942 0.357084 -1.174257 -8.570017 0.4491 0.154 0.9496 0.7786854

0.8428195 -2.159845 -1.047023 -0.174618 -2.24649 -8.57394 -0.3918 -0.1351 1.1079 0.05218535 -0.3515093 -0.1474803 0.357084 -1.174257 -8.570017 0.4491 0.154 0.9496 0.8203048

0.8428195 -2.159845 -1.047023 -0.174618 -2.24649 -8.57394 -0.3918 -0.1351 1.1079 0.05218535 -0.3515093 -0.1474803 0.357084 -1.174257 -8.570017 0.4491 0.154 0.9496 0.8203048

0.3764675 -2.386563 -0.6881833 -1.140903 -2.205288 -8.00398 -0.2956 -0.0795 1.0823 0.05218535 -0.3515093 -0.1474803 0.357084 -1.174257 -8.570017 0.4491 0.154 0.9496 0.8203048

0.3764675 -2.386563 -0.6881833 -1.140903 -2.205288 -8.00398 -0.2956 -0.0795 1.0823 0.05218535 -0.3515093 -0.1474803 0.357084 -1.174257 -8.570017 0.4491 0.154 0.9496 0.8203048

0.2534218 -2.321288 -0.6302384 -1.523493 -2.199402 -7.901955 -0.2035 -0.0595 1.0751 0.05218535 -0.3515093 -0.1474803 0.357084 -1.174257 -8.570017 0.4491 0.154 0.9496 0.8283601

0.1642355 -2.326524 -0.4141666 -1.875672 -2.119941 -7.803855 -0.2035 -0.0595 1.0751 0.08674286 0.3900811 -0.5174901 -4.109409 -3.307932 -7.311393 0.8542 0.4605 0.6265 0.8283601

-0.1024508 -2.026851 -0.1284562 -2.456424 -2.19744 -7.956892 -0.0802 -0.045 1.0694 0.08674286 0.3900811 -0.5174901 -4.109409 -3.307932 -7.311393 0.8542 0.4605 0.6265 0.8283601

-0.1024508 -2.026851 -0.1284562 -2.456424 -2.19744 -7.956892 -0.0802 -0.045 1.0694 0.04817109 0.368439 -0.5417502 -3.828843 -3.409956 -7.284906 0.8542 0.4605 0.6265 0.8283601

-0.1024508 -2.026851 -0.1284562 -2.456424 -2.19744 -7.956892 -0.0802 -0.045 1.0694 0.02827433 0.3642502 -0.5044001 -3.587517 -3.489417 -7.29864 0.8294 0.4851 0.6266 0.8552113

-0.3972369 -1.690526 0.1148427 -2.994012 -2.278863 -8.100117 -0.0802 -0.045 1.0694 -0.01954769 0.3836234 -0.4213225 -3.370716 -3.539448 -7.275096 0.8035 0.4978 0.6336 0.8552113

-0.6262242 -1.351408 0.243997 -3.368754 -2.310255 -8.261002 0.0184 -0.0432 1.059 -0.0694641 0.3700098 -0.3244567 -3.232395 -3.586536 -7.334937 0.8035 0.4978 0.6336 0.8552113

-0.7042403 -1.029744 0.1684243 -3.640491 -2.267091 -8.37676 0.0184 -0.0432 1.059 -0.0694641 0.3700098 -0.3244567 -3.232395 -3.586536 -7.334937 0.8035 0.4978 0.6336 0.8552113

-0.7042403 -1.029744 0.1684243 -3.640491 -2.267091 -8.37676 0.0184 -0.0432 1.059 -0.1242674 0.3508112 -0.2850123 -3.098979 -3.61989 -7.356519 0.7769 0.5146 0.6436 0.8740072

-0.5939355 -0.8648106 0.1687733 -3.857292 -2.127789 -8.391475 0.11 -0.0498 1.0547 -0.1773254 0.2865831 -0.2665118 -2.969487 -3.672864 -7.331014 0.7769 0.5146 0.6436 0.8740072

-0.4995132 -0.938638 0.2811725 -4.0221 -1.936494 -8.262963 0.11 -0.0498 1.0547 -0.1773254 0.2865831 -0.2665118 -2.969487 -3.672864 -7.331014 0.7769 0.5146 0.6436 0.8740072

-0.4995132 -0.938638 0.2811725 -4.0221 -1.936494 -8.262963 0.11 -0.0498 1.0547 -0.2035054 0.1870993 -0.2309071 -2.849805 -3.712104 -7.331994 0.7522 0.5308 0.6526 0.8740072

-0.2415536 -1.196598 0.4242895 -4.096656 -1.611783 -8.04322 0.1655 -0.0543 1.0634 -0.2307325 0.1267109 -0.2324778 -2.78604 -3.71799 -7.372215 0.7522 0.5308 0.6526 0.8901179

-0.01466077 -1.213527 0.5185373 -4.359564 -1.595106 -8.030466 0.1655 -0.0543 1.0634 -0.2485349 0.09110618 -0.220086 -2.762496 -3.67875 -7.437942 0.7508 0.533 0.6611 0.8901179

-0.01466077 -1.213527 0.5185373 -4.359564 -1.595106 -8.030466 0.1655 -0.0543 1.0634 -0.2485349 0.09110618 -0.220086 -2.762496 -3.67875 -7.437942 0.7508 0.533 0.6611 0.8901179

-0.1347394 -1.060986 0.6784095 -4.745097 -1.750104 -8.118756 0.2112 -0.0663 1.0618 -0.2701769 0.07696902 -0.1659808 -2.765439 -3.664035 -7.515441 0.7508 0.533 0.6611 0.8901179

-0.1347394 -1.060986 0.6784095 -4.745097 -1.750104 -8.118756 0.2112 -0.0663 1.0618 -0.2701769 0.07696902 -0.1659808 -2.765439 -3.664035 -7.515441 0.7508 0.533 0.6611 0.9062287

-0.1347394 -1.060986 0.6784095 -4.745097 -1.750104 -8.118756 0.2112 -0.0663 1.0618 -0.2701769 0.07696902 -0.1659808 -2.765439 -3.664035 -7.515441 0.7508 0.533 0.6611 0.9062287

-0.1347394 -1.060986 0.6784095 -4.745097 -1.750104 -8.118756 0.2112 -0.0663 1.0618 -0.2701769 0.07696902 -0.1659808 -2.765439 -3.664035 -7.515441 0.7508 0.533 0.6611 0.9062287

-0.2000147 -0.4181809 0.9901253 -5.867362 -1.250775 -8.385589 0.3891 -0.1045 1.0327 -0.2005383 0.166679 -0.09564404 -2.846862 -3.528657 -7.873507 0.7473 0.5279 0.681 0.9062287

-0.1499238 -0.2022837 0.8415978 -6.182262 -1.342008 -8.502327 0.4499 -0.1097 1.0279 -0.137881 0.2392846 -0.06248279 -2.866482 -3.471759 -7.921576 0.7332 0.5294 0.7083 0.9196543

-0.1499238 -0.2022837 0.8415978 -6.182262 -1.342008 -8.502327 0.4499 -0.1097 1.0279 -0.137881 0.2392846 -0.06248279 -2.866482 -3.471759 -7.921576 0.7332 0.5294 0.7083 0.9196543

-0.4742059 0.3509857 0.612087 -6.576624 -1.70694 -8.73973 0.4499 -0.1097 1.0279 -0.1645845 0.1579523 -0.06544985 -2.82528 -3.46293 -7.979454 0.7294 0.5324 0.694 0.9196543

-0.4742059 0.3509857 0.612087 -6.576624 -1.70694 -8.73973 0.4499 -0.1097 1.0279 -0.1645845 0.1579523 -0.06544985 -2.82528 -3.46293 -7.979454 0.7294 0.5324 0.694 0.9196543

-0.4167846 0.6009169 0.331438 -6.613902 -1.724598 -8.644572 0.5205 -0.1413 1.0203 -0.2457424 -0.04886922 -0.06876598 -2.535885 -3.446253 -7.980435 0.7294 0.5324 0.694 0.9115989

-0.1605703 0.5860816 0.05532694 -6.491277 -1.661814 -8.46603 0.5205 -0.1413 1.0203 -0.2457424 -0.04886922 -0.06876598 -2.535885 -3.446253 -7.980435 0.7294 0.5324 0.694 0.9115989

-0.1605703 0.5860816 0.05532694 -6.491277 -1.661814 -8.46603 0.5205 -0.1413 1.0203 -0.3087488 -0.172264 -0.01117011 -2.299464 -3.461949 -7.972587 0.721 0.5314 0.6809 0.9115989

-0.156556 0.628493 -0.1610939 -6.522669 -1.762857 -8.500365 0.5521 -0.1793 1.0333 -0.2761111 -0.1199041 -0.0122173 -2.332818 -3.451158 -7.925499 0.721 0.5314 0.6809 0.9115989

0.187972 0.1120501 -0.2316052 -6.334317 -1.445013 -7.878411 0.5602 -0.196 1.0612 -0.2761111 -0.1199041 -0.0122173 -2.332818 -3.451158 -7.925499 0.721 0.5314 0.6809 0.9102563

0.187972 0.1120501 -0.2316052 -6.334317 -1.445013 -7.878411 0.5602 -0.196 1.0612 -0.1246165 -0.09040805 -0.04694936 -2.567277 -3.343248 -8.016732 0.7174 0.5219 0.6801 0.9102563

0.3061308 -0.006283185 -0.3106686 -6.586434 -1.777572 -8.216856 0.5602 -0.196 1.0612 -0.1246165 -0.09040805 -0.04694936 -2.567277 -3.343248 -8.016732 0.7174 0.5219 0.6801 0.9102563

0.1939061 0.03961897 -0.458498 -6.65118 -2.022822 -8.315937 0.5822 -0.203 1.069 -0.02146755 -0.08168141 -0.1101303 -2.706579 -3.103884 -8.15211 0.7174 0.5219 0.6801 0.9102563

0.1939061 0.03961897 -0.458498 -6.65118 -2.022822 -8.315937 0.5822 -0.203 1.069 -0.04014257 -0.2371902 -0.1377065 -2.748762 -3.0411 -8.275716 0.7247 0.5042 0.6985 0.8726646

0.09407324 0.0153589 -0.3625049 -6.381405 -2.072853 -8.180559 0.5822 -0.203 1.069 -0.04014257 -0.2371902 -0.1377065 -2.748762 -3.0411 -8.275716 0.7247 0.5042 0.6985 0.8726646

-0.0439823 -0.07295476 -0.3221878 -6.083181 -2.180763 -7.925499 0.569 -0.1983 1.0593 -0.04014257 -0.2371902 -0.1377065 -2.748762 -3.0411 -8.275716 0.7247 0.5042 0.6985 0.8726646

-0.0439823 -0.07295476 -0.3221878 -6.083181 -2.180763 -7.925499 0.569 -0.1983 1.0593 -0.09075712 -0.3584906 -0.1434661 -2.674206 -3.104865 -8.313975 0.7247 0.5042 0.6985 0.8726646

-0.2108358 -0.04555309 -0.2457424 -6.109668 -2.396583 -7.847019 0.569 -0.1983 1.0593 -0.09075712 -0.3584906 -0.1434661 -2.674206 -3.104865 -8.313975 0.7247 0.5042 0.6985 0.8511837

-0.238412 0.03124139 -0.1579523 -6.215616 -2.466234 -7.796988 0.5553 -0.1924 1.0547 -0.0439823 -0.2247984 -0.1609194 -2.719332 -3.108789 -8.341443 0.7212 0.5035 0.7133 0.8511837

-0.238412 0.03124139 -0.1579523 -6.215616 -2.466234 -7.796988 0.5553 -0.1924 1.0547 -0.0439823 -0.2247984 -0.1609194 -2.719332 -3.108789 -8.341443 0.7212 0.5035 0.7133 0.8511837

-0.1715659 0.1043707 -0.2263692 -6.28723 -2.581992 -7.831324 0.5553 -0.1924 1.0547 -0.0439823 -0.2247984 -0.1609194 -2.719332 -3.108789 -8.341443 0.7212 0.5035 0.7133 0.8511837

-0.3152064 0.2534218 -0.5019567 -6.461847 -2.914551 -7.986321 0.5484 -0.1995 1.0771 0.1281072 0.08813913 -0.1612684 -3.004803 -3.047967 -8.370873 0.7212 0.5035 0.7133 0.8431283

-0.3152064 0.2534218 -0.5019567 -6.461847 -2.914551 -7.986321 0.5484 -0.1995 1.0771 0.1281072 0.08813913 -0.1612684 -3.004803 -3.047967 -8.370873 0.7212 0.5035 0.7133 0.8431283

-0.3152064 0.2534218 -0.5019567 -6.461847 -2.914551 -7.986321 0.5484 -0.1995 1.0771 0.1281072 0.08813913 -0.1612684 -3.004803 -3.047967 -8.370873 0.7212 0.5035 0.7133 0.8431283

-0.1766273 0.4763004 -0.739845 -6.209731 -2.950848 -8.288469 0.5192 -0.1916 1.0672 -0.214501 -0.8408996 -0.09285152 -2.021841 -3.39426 -7.493859 0.7156 0.5443 0.7019 0.8431283

-0.1766273 0.4763004 -0.739845 -6.209731 -2.950848 -8.288469 0.5192 -0.1916 1.0672 -0.2612758 -1.077741 -0.05323254 -2.042442 -3.365811 -7.597846 0.7308 0.5341 0.696 0.8726646

-0.1919862 0.5426229 -0.8028514 -5.983119 -3.053853 -8.167807 0.494 -0.1914 1.0687 -0.2883284 -1.173734 0.04677482 -2.449557 -3.299103 -7.675344 0.7308 0.5341 0.696 0.8726646

-0.3394665 0.5056219 -0.8075638 -5.818311 -3.278502 -8.028504 0.494 -0.1914 1.0687 -0.2883284 -1.173734 0.04677482 -2.449557 -3.299103 -7.675344 0.7308 0.5341 0.696 0.8726646

-0.3394665 0.5056219 -0.8075638 -5.818311 -3.278502 -8.028504 0.494 -0.1914 1.0687 -0.3604105 -1.147729 0.02722714 -3.084264 -3.310875 -7.756768 0.7529 0.5185 0.7006 0.8726646

-0.4016003 0.4043928 -0.882613 -5.5917 -3.363849 -8.007903 0.4517 -0.193 1.0801 -0.4204498 -1.10235 -0.08534659 -3.756249 -3.089169 -7.775406 0.7529 0.5185 0.7006 0.9035435

-0.3920009 0.2895501 -0.8620181 -5.344488 -3.308913 -8.005941 0.4517 -0.193 1.0801 -0.1021018 -0.6974335 -0.1094321 -4.327191 -2.912589 -8.085402 0.78 0.5073 0.6789 0.9035435

-0.3920009 0.2895501 -0.8620181 -5.344488 -3.308913 -8.005941 0.4517 -0.193 1.0801 -0.1021018 -0.6974335 -0.1094321 -4.327191 -2.912589 -8.085402 0.78 0.5073 0.6789 0.9035435

-0.3958407 0.2317797 -0.8230973 -5.144364 -3.289293 -8.037333 0.4301 -0.199 1.0953 0.0429351 -0.3954916 -0.1843068 -4.721553 -2.852748 -8.052049 0.78 0.5073 0.6789 0.9035435

-0.495499 0.2263692 -0.8719665 -4.975632 -3.442329 -8.045181 0.4301 -0.199 1.0953 0.02844887 -0.3913028 -0.2562144 -4.76766 -2.932209 -7.921576 0.8026 0.5095 0.6393 0.9344224

-0.5998697 0.2127556 -0.8902924 -4.817691 -3.504132 -8.00496 0.3926 -0.2078 1.1175 -0.008901179 -0.4283038 -0.2764601 -4.716648 -3.017556 -7.872525 0.8026 0.5095 0.6393 0.9344224

-0.5998697 0.2127556 -0.8902924 -4.817691 -3.504132 -8.00496 0.3926 -0.2078 1.1175 -0.04782202 -0.4567527 -0.3494149 -4.732344 -3.073473 -7.843095 0.8211 0.5196 0.6038 0.9344224

-0.6686357 0.1293289 -0.9009389 -4.650921 -3.411918 -8.039295 0.3701 -0.2174 1.1295 -0.04782202 -0.4567527 -0.3494149 -4.732344 -3.073473 -7.843095 0.8211 0.5196 0.6038 0.9344224

-0.6616543 0.07801621 -0.8759807 -4.530258 -3.274578 -8.153091 0.3701 -0.2174 1.1295 -0.04782202 -0.4567527 -0.3494149 -4.732344 -3.073473 -7.843095 0.8211 0.5196 0.6038 0.978727

-0.6616543 0.07801621 -0.8759807 -4.530258 -3.274578 -8.153091 0.3701 -0.2174 1.1295 0.2024582 0.03368485 -0.6321583 -5.298381 -3.015594 -7.73911 0.833 0.5026 0.5834 0.978727

-0.6616543 0.07801621 -0.8759807 -4.530258 -3.274578 -8.153091 0.3701 -0.2174 1.1295 0.2024582 0.03368485 -0.6321583 -5.298381 -3.015594 -7.73911 0.833 0.5026 0.5834 0.978727

-0.6883578 0.03001966 -0.8798205 -4.40469 -3.174516 -8.232553 0.3453 -0.2313 1.1504 0.1569051 0.01099557 -0.6466445 -5.093352 -3.116637 -7.628256 0.8317 0.5099 0.5731 0.978727

-0.6883578 0.03001966 -0.8798205 -4.40469 -3.174516 -8.232553 0.3453 -0.2313 1.1504 0.1569051 0.01099557 -0.6466445 -5.093352 -3.116637 -7.628256 0.8317 0.5099 0.5731 1.005578

-0.6883578 0.03001966 -0.8798205 -4.40469 -3.174516 -8.232553 0.3453 -0.2313 1.1504 0.1443387 0.004363323 -0.6384414 -4.917753 -3.267711 -7.511517 0.8317 0.5099 0.5731 1.005578

-0.6883578 0.03001966 -0.8798205 -4.40469 -3.174516 -8.232553 0.3453 -0.2313 1.1504 0.1443387 0.004363323 -0.6384414 -4.917753 -3.267711 -7.511517 0.8317 0.5099 0.5731 1.005578

-1.015782 -0.002268928 -0.8677777 -4.278141 -2.68794 -8.161921 0.296 -0.256 1.1893 0.1279326 -0.01204277 -0.6881833 -4.813767 -3.357963 -7.458543 0.8246 0.5334 0.5852 1.005578

-1.026079 0.02879793 -0.9166469 -4.192794 -2.486835 -8.114832 0.296 -0.256 1.1893 0.1279326 -0.01204277 -0.6881833 -4.813767 -3.357963 -7.458543 0.8246 0.5334 0.5852 1.047198

-1.026079 0.02879793 -0.9166469 -4.192794 -2.486835 -8.114832 0.296 -0.256 1.1893 0.1295034 0.03176499 -0.7651523 -4.730382 -3.397203 -7.383007 0.8246 0.5334 0.5852 1.047198

-1.04266 0.05096361 -1.010022 -4.078998 -2.291616 -8.022618 0.2793 -0.2849 1.2021 0.1385791 0.09040805 -0.8143706 -4.673484 -3.445272 -7.365348 0.8038 0.5802 0.5809 1.047198

-1.04266 0.05096361 -1.010022 -4.078998 -2.291616 -8.022618 0.2793 -0.2849 1.2021 0.1569051 0.1398009 -0.8489282 -4.613643 -3.533562 -7.312375 0.8038 0.5802 0.5809 1.047198

-1.073552 0.03665191 -1.071109 -3.995613 -2.059119 -7.982398 0.2793 -0.2849 1.2021 0.1569051 0.1398009 -0.8489282 -4.613643 -3.533562 -7.312375 0.8038 0.5802 0.5809 1.076734

-1.073552 0.03665191 -1.071109 -3.995613 -2.059119 -7.982398 0.2793 -0.2849 1.2021 0.1494002 0.1932079 -0.8641125 -4.50279 -3.647358 -7.250571 0.7678 0.6138 0.5647 1.076734

-1.018225 0.01570796 -1.081581 -3.959316 -1.777572 -7.970625 0.2802 -0.3118 1.2106 0.140499 0.2419026 -0.8995427 -4.40469 -3.749382 -7.15149 0.7678 0.6138 0.5647 1.076734

-1.001819 0.04555309 -1.122421 -3.922038 -1.582353 -7.909803 0.2802 -0.3118 1.2106 0.140499 0.2419026 -0.8995427 -4.40469 -3.749382 -7.15149 0.7678 0.6138 0.5647 1.076734

-0.9623745 0.005759587 -1.188395 -3.749382 -1.350837 -7.64101 0.2826 -0.35 1.2165 0.05462881 0.2251475 -0.9075712 -4.219281 -3.883779 -7.060257 0.7581 0.627 0.5629 1.110298

-0.9623745 0.005759587 -1.188395 -3.749382 -1.350837 -7.64101 0.2826 -0.35 1.2165 -0.03508112 0.2431244 -0.8292059 -4.028967 -4.039758 -6.93567 0.7491 0.6516 0.5525 1.110298

-0.9430014 -0.08534659 -1.288053 -3.422709 -1.080081 -7.428133 0.2698 -0.3829 1.2313 -0.03508112 0.2431244 -0.8292059 -4.028967 -4.039758 -6.93567 0.7491 0.6516 0.5525 1.110298

-0.7703883 -0.2729695 -1.29486 -3.173535 -0.7229971 -7.277059 0.2698 -0.3829 1.2313 0.02321288 0.3637266 -0.7731808 -3.952449 -4.155516 -6.91507 0.7491 0.6516 0.5525 1.110298

-0.7627089 -0.3864159 -1.345998 -3.186288 -0.599391 -7.246647 0.251 -0.4186 1.2358 0.07435103 0.4886922 -0.8874999 -3.935772 -4.176117 -7.11225 0.7229 0.6897 0.553 1.145205

-0.7627089 -0.3864159 -1.345998 -3.186288 -0.599391 -7.246647 0.251 -0.4186 1.2358 0.06894051 0.564265 -0.9958849 -3.870045 -4.222224 -7.202502 0.7229 0.6897 0.553 1.145205

-0.7239625 -0.4448844 -1.396787 -3.322647 -0.485595 -7.327089 0.251 -0.4186 1.2358 0.06894051 0.564265 -0.9958849 -3.870045 -4.222224 -7.202502 0.7229 0.6897 0.553 1.145205

-0.6379178 -0.4536111 -1.408132 -3.591441 -0.417906 -7.456582 0.2512 -0.4608 1.235 0.01361357 0.5288348 -0.9754645 -3.63951 -4.350735 -7.142661 0.6871 0.7308 0.5758 1.145205

-0.6379178 -0.4536111 -1.408132 -3.591441 -0.417906 -7.456582 0.2512 -0.4608 1.235 -0.08045968 0.4297001 -0.9309586 -3.341286 -4.499847 -7.005322 0.6871 0.7308 0.5758 1.169371

-0.6379178 -0.4536111 -1.408132 -3.591441 -0.417906 -7.456582 0.2512 -0.4608 1.235 -0.08045968 0.4297001 -0.9309586 -3.341286 -4.499847 -7.005322 0.6871 0.7308 0.5758 1.169371

-0.5796238 -0.3598869 -1.558055 -4.479246 -0.548379 -7.990245 0.2725 -0.4719 1.2095 -0.1675516 0.3434808 -0.8869763 -2.983221 -4.66956 -6.867 0.6452 0.7523 0.6033 1.169371

-0.5796238 -0.3598869 -1.558055 -4.479246 -0.548379 -7.990245 0.2725 -0.4719 1.2095 -0.1675516 0.3434808 -0.8869763 -2.983221 -4.66956 -6.867 0.6452 0.7523 0.6033 1.169371

-0.5761331 -0.2813471 -1.48545 -4.665636 -0.493443 -8.056953 0.2725 -0.4719 1.2095 -0.1675516 0.3434808 -0.8869763 -2.983221 -4.66956 -6.867 0.6452 0.7523 0.6033 1.169371

-0.5761331 -0.2813471 -1.48545 -4.665636 -0.493443 -8.056953 0.2725 -0.4719 1.2095 -0.1675516 0.3434808 -0.8869763 -2.983221 -4.66956 -6.867 0.6452 0.7523 0.6033 1.20025

-0.6839945 -0.2221804 -1.499063 -4.671522 -0.476766 -8.142301 0.2838 -0.484 1.1948 -0.1675516 0.3434808 -0.8869763 -2.983221 -4.66956 -6.867 0.6452 0.7523 0.6033 1.20025

-0.5574582 -0.3743731 -1.510059 -4.466493 -0.205029 -8.100117 0.2838 -0.484 1.1948 -0.1675516 0.3434808 -0.8869763 -2.983221 -4.66956 -6.867 0.6452 0.7523 0.6033 1.20025

-0.5574582 -0.3743731 -1.510059 -4.466493 -0.205029 -8.100117 0.2838 -0.484 1.1948 -0.1675516 0.3434808 -0.8869763 -2.983221 -4.66956 -6.867 0.6452 0.7523 0.6033 1.20025

-0.4890413 -0.4485496 -1.504299 -4.408614 -0.123606 -8.057934 0.2896 -0.5101 1.2045 -0.1675516 0.3434808 -0.8869763 -2.983221 -4.66956 -6.867 0.6452 0.7523 0.6033 1.233814

-0.3996804 -0.4750786 -1.433439 -4.435102 -0.004905 -8.013789 0.3179 -0.5344 1.2113 -0.1675516 0.3434808 -0.8869763 -2.983221 -4.66956 -6.867 0.6452 0.7523 0.6033 1.233814

-0.3469715 -0.466352 -1.321214 -4.575384 -0.09417601 -8.03439 0.3179 -0.5344 1.2113 -0.1675516 0.3434808 -0.8869763 -2.983221 -4.66956 -6.867 0.6452 0.7523 0.6033 1.233814

-0.3469715 -0.466352 -1.321214 -4.575384 -0.09417601 -8.03439 0.3179 -0.5344 1.2113 -0.1675516 0.3434808 -0.8869763 -2.983221 -4.66956 -6.867 0.6452 0.7523 0.6033 1.233814

-0.3989823 -0.3881612 -1.304459 -4.749022 -0.379647 -8.068726 0.3405 -0.5424 1.2039 -0.1675516 0.3434808 -0.8869763 -2.983221 -4.66956 -6.867 0.6452 0.7523 0.6033 1.241869

-0.4134685 -0.3204425 -1.314058 -4.881456 -0.494424 -8.078535 0.3405 -0.5424 1.2039 -0.1675516 0.3434808 -0.8869763 -2.983221 -4.66956 -6.867 0.6452 0.7523 0.6033 1.241869

-0.4134685 -0.3204425 -1.314058 -4.881456 -0.494424 -8.078535 0.3405 -0.5424 1.2039 -0.1675516 0.3434808 -0.8869763 -2.983221 -4.66956 -6.867 0.6452 0.7523 0.6033 1.241869

-0.4262094 -0.2644174 -1.265538 -5.074713 -0.590562 -8.166825 0.3687 -0.5497 1.1871 -0.336325 0.1052434 -0.7751007 -2.096397 -4.903038 -6.890544 0.5876 0.7886 0.6236 1.241869

-0.4262094 -0.2644174 -1.265538 -5.074713 -0.590562 -8.166825 0.3687 -0.5497 1.1871 -0.336325 0.1052434 -0.7751007 -2.096397 -4.903038 -6.890544 0.5876 0.7886 0.6236 1.26335

-0.4115486 -0.1736602 -1.242674 -5.292495 -0.7318261 -8.205084 0.3687 -0.5497 1.1871 -0.4726351 0.007330383 -0.7819075 -2.019879 -4.930506 -6.988645 0.5876 0.7886 0.6236 1.26335

-0.4115486 -0.1736602 -1.242674 -5.292495 -0.7318261 -8.205084 0.3687 -0.5497 1.1871 -0.4726351 0.007330383 -0.7819075 -2.019879 -4.930506 -6.988645 0.5876 0.7886 0.6236 1.26335

-0.4115486 -0.1736602 -1.242674 -5.292495 -0.7318261 -8.205084 0.3687 -0.5497 1.1871 -0.4726351 0.007330383 -0.7819075 -2.019879 -4.930506 -6.988645 0.5876 0.7886 0.6236 1.26335

-0.4115486 -0.1736602 -1.242674 -5.292495 -0.7318261 -8.205084 0.3687 -0.5497 1.1871 -0.4726351 0.007330383 -0.7819075 -2.019879 -4.930506 -6.988645 0.5876 0.7886 0.6236 1.284831

-0.2989749 0.07941248 -1.189267 -5.432778 -0.6886621 -8.227648 0.3938 -0.5724 1.1791 -0.5588544 0.1900664 -0.8140215 -0.621954 -4.318362 -7.41538 0.3783 0.8174 0.676 1.284831

-0.2989749 0.07941248 -1.189267 -5.432778 -0.6886621 -8.227648 0.3938 -0.5724 1.1791 -0.5588544 0.1900664 -0.8140215 -0.621954 -4.318362 -7.41538 0.3783 0.8174 0.676 1.284831

-0.2651155 0.06056292 -1.106364 -5.377842 -0.771066 -8.290431 0.3933 -0.5739 1.1688 -0.5822418 0.2103122 -0.7030186 -0.580752 -4.211433 -7.395759 0.3783 0.8174 0.676 1.294229

-0.1881465 0.1110029 -1.055052 -5.286609 -0.803439 -8.363026 0.3559 -0.5734 1.1459 -0.524646 0.2445206 -0.6644468 -0.406134 -4.160421 -7.498765 0.3545 0.8157 0.6924 1.294229

-0.1881465 0.1110029 -1.055052 -5.286609 -0.803439 -8.363026 0.3559 -0.5734 1.1459 -0.5609488 0.1651081 -0.6902777 -0.072594 -4.166307 -7.57332 0.3545 0.8157 0.6924 1.294229

-0.1480039 0.09215339 -0.9609783 -5.102181 -0.823059 -8.221762 0.3559 -0.5734 1.1459 -0.7145377 -0.07627089 -0.7124434 0.307053 -4.217319 -7.497783 0.3266 0.815 0.7134 1.327793

-0.1705187 0.04921828 -0.8977973 -4.922658 -0.980019 -8.210971 0.3392 -0.5791 1.1389 -0.7145377 -0.07627089 -0.7124434 0.307053 -4.217319 -7.497783 0.3266 0.815 0.7134 1.327793

-0.1705187 0.04921828 -0.8977973 -4.922658 -0.980019 -8.210971 0.3392 -0.5791 1.1389 -0.7145377 -0.07627089 -0.7124434 0.307053 -4.217319 -7.497783 0.3266 0.815 0.7134 1.327793

-0.2188643 -0.09250245 -0.8524188 -4.760793 -1.166409 -8.192331 0.3392 -0.5791 1.1389 -0.7145377 -0.07627089 -0.7124434 0.307053 -4.217319 -7.497783 0.3266 0.815 0.7134 1.327793

-0.2188643 -0.09250245 -0.8524188 -4.760793 -1.166409 -8.192331 0.3392 -0.5791 1.1389 -0.7253588 0.1752311 -0.6237807 -0.503253 -3.075435 -8.434638 0.2888 0.7851 0.7548 1.327793

-0.1691224 -0.1438151 -0.7410668 -4.698009 -1.189953 -8.232553 0.3556 -0.598 1.1466 -0.5103343 0.4300491 -0.6531022 -0.792648 -2.545695 -8.835867 0.2765 0.7518 0.7725 1.354644

-0.07801621 -0.1544616 -0.6328564 -4.67839 -1.21644 -8.381664 0.3556 -0.598 1.1466 -0.5103343 0.4300491 -0.6531022 -0.792648 -2.545695 -8.835867 0.2765 0.7518 0.7725 1.354644

-0.07801621 -0.1544616 -0.6328564 -4.67839 -1.21644 -8.381664 0.3556 -0.598 1.1466 -0.4618141 0.5159193 -0.6174975 -0.923121 -2.26611 -9.019314 0.2765 0.7518 0.7725 1.354644

-0.130027 -0.2626721 -0.514174 -4.662694 -1.317483 -8.495461 0.3645 -0.6054 1.1578 -0.4618141 0.5159193 -0.6174975 -0.923121 -2.26611 -9.019314 0.2765 0.7518 0.7725 1.354644

-0.2326524 -0.3185226 -0.5496042 -4.696047 -1.516626 -8.584731 0.3645 -0.6054 1.1578 -0.5291838 0.4518657 -0.622908 -0.75537 -2.204307 -9.020295 0.2666 0.7147 0.7847 1.376125

-0.2326524 -0.3185226 -0.5496042 -4.696047 -1.516626 -8.584731 0.3645 -0.6054 1.1578 -0.5291838 0.4518657 -0.622908 -0.75537 -2.204307 -9.020295 0.2666 0.7147 0.7847 1.376125

-0.2031563 -0.4541347 -0.5061455 -4.722534 -1.460709 -8.572959 0.3782 -0.6082 1.1492 -0.5291838 0.4518657 -0.622908 -0.75537 -2.204307 -9.020295 0.2666 0.7147 0.7847 1.376125

-0.2031563 -0.4541347 -0.5061455 -4.722534 -1.460709 -8.572959 0.3782 -0.6082 1.1492 -0.6152285 0.3328343 -0.6269222 -0.3924 -2.279844 -8.959474 0.2666 0.7147 0.7847 1.376125

-0.2031563 -0.4541347 -0.5061455 -4.722534 -1.460709 -8.572959 0.3782 -0.6082 1.1492 -0.6152285 0.3328343 -0.6269222 -0.3924 -2.279844 -8.959474 0.2666 0.7147 0.7847 1.376125

-0.3195698 -0.4181809 -0.3256784 -5.249331 -1.63827 -8.893746 0.3794 -0.6129 1.1417 -0.6026621 0.2834415 -0.6270968 -0.072594 -2.1582 -8.921214 0.2488 0.6763 0.785 1.385523

-0.3195698 -0.4181809 -0.3256784 -5.249331 -1.63827 -8.893746 0.3794 -0.6129 1.1417 -0.6026621 0.2834415 -0.6270968 -0.072594 -2.1582 -8.921214 0.2488 0.6763 0.785 1.385523

-0.350113 -0.437205 -0.3352777 -5.32585 -1.656909 -8.948682 0.3963 -0.6252 1.1372 -0.6026621 0.2834415 -0.6270968 -0.072594 -2.1582 -8.921214 0.2488 0.6763 0.785 1.385523

-0.262323 -0.4759513 -0.2977532 -5.351355 -1.452861 -8.940835 0.3963 -0.6252 1.1372 -0.6026621 0.2834415 -0.6270968 -0.072594 -2.1582 -8.921214 0.2488 0.6763 0.785 1.385523

-0.262323 -0.4759513 -0.2977532 -5.351355 -1.452861 -8.940835 0.3963 -0.6252 1.1372 -0.5211553 0.2923426 -0.6012659 0.121644 -1.955133 -8.950644 0.2488 0.6763 0.785 1.388208

-0.1661554 -0.466352 -0.3148574 -5.478885 -1.406754 -9.00558 0.4039 -0.627 1.114 -0.5211553 0.2923426 -0.6012659 0.121644 -1.955133 -8.950644 0.2488 0.6763 0.785 1.388208

-0.1001819 -0.4303982 -0.3143338 -5.625054 -1.341027 -8.961435 0.4039 -0.627 1.114 -0.4534365 0.3602359 -0.5260422 0.26487 -1.807002 -8.994789 0.221 0.6625 0.7923 1.388208

-0.1001819 -0.4303982 -0.3143338 -5.625054 -1.341027 -8.961435 0.4039 -0.627 1.114 -0.4534365 0.3602359 -0.5260422 0.26487 -1.807002 -8.994789 0.221 0.6625 0.7923 1.388208

-0.07295476 -0.4122468 -0.2590069 -5.717268 -1.342989 -8.955549 0.4148 -0.6298 1.0936 -0.4527384 0.3070034 -0.4787438 0.374742 -1.717731 -8.998713 0.221 0.6625 0.7923 1.398949

-0.07295476 -0.4122468 -0.2590069 -5.717268 -1.342989 -8.955549 0.4148 -0.6298 1.0936 -0.4527384 0.3070034 -0.4787438 0.374742 -1.717731 -8.998713 0.221 0.6625 0.7923 1.398949

-0.04328417 -0.3857178 -0.2982768 -5.752584 -1.488177 -8.980075 0.4148 -0.6298 1.0936 -0.4527384 0.3070034 -0.4787438 0.374742 -1.717731 -8.998713 0.221 0.6625 0.7923 1.398949

-0.03228859 -0.3796091 -0.2939135 -5.747679 -1.60884 -8.950644 0.4299 -0.6432 1.0903 -0.4297001 0.1410226 -0.32882 0.374742 -1.717731 -8.998713 0.221 0.6625 0.7923 1.398949

-0.029147 -0.288852 -0.2710496 -5.799672 -1.720674 -8.910423 0.4299 -0.6432 1.0903 -0.4297001 0.1410226 -0.32882 0.374742 -1.717731 -8.998713 0.221 0.6625 0.7923 1.398949

-0.029147 -0.288852 -0.2710496 -5.799672 -1.720674 -8.910423 0.4299 -0.6432 1.0903 -0.3246312 0.05445427 -0.2289872 1.06929 -0.9290071 -9.107604 0.1136 0.602 0.8633 1.416402

-0.04502949 -0.2076942 -0.2291617 -5.850685 -1.853109 -8.842734 0.4528 -0.6491 1.0942 -0.3246312 0.05445427 -0.2289872 1.06929 -0.9290071 -9.107604 0.1136 0.602 0.8633 1.416402

-0.03176499 -0.1713913 -0.187972 -5.878152 -1.906083 -8.742672 0.4599 -0.6478 1.0825 -0.2520255 0.08412487 -0.2075197 1.008468 -0.82404 -9.135073 0.1136 0.602 0.8633 1.416402

-0.03176499 -0.1713913 -0.187972 -5.878152 -1.906083 -8.742672 0.4599 -0.6478 1.0825 -0.1919862 0.1144936 -0.1771509 1.016316 -0.761256 -9.134091 0.1033 0.5741 0.8605 1.416402

-0.1295034 -0.1537635 -0.2513274 -5.838912 -2.071872 -8.659287 0.4599 -0.6478 1.0825 -0.1843068 0.055676 -0.1841322 1.125207 -0.7082821 -9.101718 0.1033 0.5741 0.8605 1.420429

-0.1295034 -0.1537635 -0.2513274 -5.838912 -2.071872 -8.659287 0.4599 -0.6478 1.0825 -0.1843068 0.055676 -0.1841322 1.125207 -0.7082821 -9.101718 0.1033 0.5741 0.8605 1.420429

-0.1295034 -0.1537635 -0.2513274 -5.838912 -2.071872 -8.659287 0.4599 -0.6478 1.0825 -0.198793 0.03717551 -0.1602212 1.11834 -0.698472 -9.081118 0.1056 0.5418 0.857 1.420429

-0.1295034 -0.1537635 -0.2513274 -5.838912 -2.071872 -8.659287 0.4599 -0.6478 1.0825 -0.198793 0.03717551 -0.1602212 1.11834 -0.698472 -9.081118 0.1056 0.5418 0.857 1.420429

-0.1295034 -0.1537635 -0.2513274 -5.838912 -2.071872 -8.659287 0.4599 -0.6478 1.0825 -0.1958259 0.04433136 -0.1315978 1.089891 -0.671985 -9.076212 0.1056 0.5418 0.857 1.420429

-0.07766715 -0.1605703 -0.1073378 -5.582871 -1.620612 -8.228628 0.4762 -0.6524 1.0803 -0.1740093 0.05462881 -0.119555 1.065366 -0.629802 -9.09289 0.0999 0.5397 0.8721 1.427142

-0.08342674 -0.1380555 -0.1373574 -5.570118 -1.598049 -8.242362 0.4842 -0.6593 1.0931 -0.1319469 0.09250245 -0.108734 1.019259 -0.563094 -9.087004 0.0999 0.5397 0.8721 1.427142

-0.0577704 -0.122173 -0.09337511 -5.5917 -1.560771 -8.202141 0.4729 -0.6548 1.098 -0.1319469 0.09250245 -0.108734 1.019259 -0.563094 -9.087004 0.0999 0.5397 0.8721 1.427142

-0.0577704 -0.122173 -0.09337511 -5.5917 -1.560771 -8.202141 0.4729 -0.6548 1.098 -0.09843656 0.1015782 -0.1157153 1.016316 -0.493443 -9.05365 0.0886 0.5525 0.8784 1.427142

0.1226966 0.01413717 -0.1712168 -5.745717 -1.578429 -8.575902 0.4729 -0.6548 1.098 -0.07173304 0.0986111 -0.130027 1.050651 -0.469899 -9.027163 0.0817 0.5556 0.8739 1.43117

-0.1471313 0.029147 -0.134914 -5.871285 -1.810926 -8.716186 0.4953 -0.6586 1.0894 -0.07993608 0.08185595 -0.1253146 1.126188 -0.50031 -8.987923 0.0817 0.5556 0.8739 1.43117

-0.1471313 0.029147 -0.134914 -5.871285 -1.810926 -8.716186 0.4953 -0.6586 1.0894 -0.07993608 0.08185595 -0.1253146 1.126188 -0.50031 -8.987923 0.0817 0.5556 0.8739 1.43117

-0.06161012 -0.03316126 -0.03368485 -5.789862 -1.621593 -8.498404 0.4953 -0.6586 1.0894 -0.1033235 0.06789331 -0.09826204 1.169352 -0.522873 -8.925138 0.0831 0.5525 0.8811 1.43117

0.03961897 -0.00122173 0.06789331 -5.740812 -1.457766 -8.309071 0.5226 -0.6627 1.0809 -0.06649704 0.006108652 -0.03036873 1.302768 -0.487557 -8.885899 0.0831 0.5525 0.8811 1.435198

0.03961897 -0.00122173 0.06789331 -5.740812 -1.457766 -8.309071 0.5226 -0.6627 1.0809 -0.06649704 0.006108652 -0.03036873 1.302768 -0.487557 -8.885899 0.0831 0.5525 0.8811 1.435198

0.06911504 -0.0005235987 0.1036726 -5.654484 -1.465614 -8.162901 0.5226 -0.6627 1.0809 -0.06422812 -0.08796459 -0.04171337 1.438146 -0.47088 -8.932005 0.086 0.5441 0.8963 1.435198

0.05305801 -0.07574729 0.1078613 -5.546574 -1.517607 -8.05401 0.5283 -0.6565 1.0852 -0.08237953 -0.09302605 -0.04660029 1.332198 -0.420849 -9.012447 0.086 0.5441 0.8963 1.435198

-0.002094395 -0.1312488 0.08412487 -5.500467 -1.611783 -8.022618 0.5283 -0.6565 1.0852 -0.08237953 -0.09302605 -0.04660029 1.332198 -0.420849 -9.012447 0.086 0.5441 0.8963 1.433855

-0.002094395 -0.1312488 0.08412487 -5.500467 -1.611783 -8.022618 0.5283 -0.6565 1.0852 -0.07016224 -0.04642576 -0.02338741 1.1772 -0.36297 -9.081118 0.0849 0.5338 0.9004 1.433855

-0.05288348 -0.1399754 0.06038839 -5.45436 -1.703016 -7.979454 0.5174 -0.6514 1.092 -0.03071779 0.007853981 -0.01518436 1.110492 -0.346293 -9.090927 0.0849 0.5338 0.9004 1.433855

-0.02722714 -0.1265364 0.06230825 -5.42493 -1.723617 -7.941195 0.5035 -0.6548 1.0843 -0.002792527 0.04886922 -0.01169371 1.08891 -0.347274 -9.036972 0.0934 0.5294 0.8832 1.433855

-0.02722714 -0.1265364 0.06230825 -5.42493 -1.723617 -7.941195 0.5035 -0.6548 1.0843 -0.002792527 0.04886922 -0.01169371 1.08891 -0.347274 -9.036972 0.0934 0.5294 0.8832 1.433855

0.05532694 -0.1064651 0.06370452 -5.410215 -1.754028 -7.910784 0.5035 -0.6548 1.0843 -0.002792527 0.04886922 -0.01169371 1.08891 -0.347274 -9.036972 0.0934 0.5294 0.8832 1.429827

0.01308997 -0.08779006 -0.004014257 -5.437683 -1.93257 -7.904899 0.494 -0.6724 1.071 -0.002792527 0.04886922 -0.01169371 1.08891 -0.347274 -9.036972 0.0934 0.5294 0.8832 1.429827

0.01308997 -0.08779006 -0.004014257 -5.437683 -1.93257 -7.904899 0.494 -0.6724 1.071 -0.05445427 -0.001570796 -0.04537856 0.991791 -0.466956 -8.846658 0.1057 0.5083 0.888 1.429827

-0.0429351 -0.09145525 0.05689773 -5.474961 -1.938456 -7.964739 0.494 -0.6724 1.071 -0.05445427 -0.001570796 -0.04537856 0.991791 -0.466956 -8.846658 0.1057 0.5083 0.888 1.429827

-0.07976155 -0.2146755 0.1199041 -5.488695 -1.882539 -7.986321 0.5032 -0.6843 1.0649 -0.02583087 -0.001570796 -0.05166174 0.9378361 -0.443412 -8.886879 0.0909 0.5165 0.8898 1.424457

-0.07976155 -0.2146755 0.1199041 -5.488695 -1.882539 -7.986321 0.5032 -0.6843 1.0649 -0.02583087 -0.001570796 -0.05166174 0.9378361 -0.443412 -8.886879 0.0909 0.5165 0.8898 1.424457

-0.1101303 -0.3289946 0.2026327 -5.559327 -1.877634 -7.991226 0.5032 -0.6843 1.0649 -0.02164208 -0.0541052 -0.03385939 0.9515701 -0.418887 -8.892765 0.0909 0.5165 0.8898 1.424457

-0.07347836 -0.3508112 0.1530654 -5.633883 -2.000259 -8.007903 0.5182 -0.6754 1.0676 -0.03054326 -0.1240929 -0.0280998 1.040841 -0.414963 -8.901594 0.0802 0.5199 0.8858 1.424457

-0.1727876 -0.2220059 0.09878563 -5.780053 -2.111112 -8.013789 0.5189 -0.6723 1.074 -0.06475171 -0.1806416 -0.05811946 1.11834 -0.410058 -8.906499 0.0802 0.5199 0.8858 1.419087

-0.1727876 -0.2220059 0.09878563 -5.780053 -2.111112 -8.013789 0.5189 -0.6723 1.074 -0.06475171 -0.1806416 -0.05811946 1.11834 -0.410058 -8.906499 0.0802 0.5199 0.8858 1.419087

-0.1727876 -0.2220059 0.09878563 -5.780053 -2.111112 -8.013789 0.5189 -0.6723 1.074 -0.026529 -0.1380555 -0.06684611 1.066347 -0.398286 -8.919252 0.0868 0.5145 0.8818 1.419087

-0.2001893 -0.1528908 0.1914626 -5.792805 -1.910007 -7.904899 0.5189 -0.6723 1.074 -0.026529 -0.1380555 -0.06684611 1.066347 -0.398286 -8.919252 0.0868 0.5145 0.8818 1.419087

-0.1258382 -0.158825 0.1939061 -5.806539 -1.734408 -7.835247 0.5192 -0.6709 1.077 0.02513274 -0.03700098 -0.06300639 0.933912 -0.338445 -8.99577 0.0868 0.5145 0.8818 1.419087

-0.1258382 -0.158825 0.1939061 -5.806539 -1.734408 -7.835247 0.5192 -0.6709 1.077 0.09128072 0.07120943 -0.05148721 0.801477 -0.285471 -9.099756 0.0941 0.5076 0.8895 1.419087

0.06265732 -0.2680826 0.2408554 -5.718249 -1.443051 -7.716546 0.5192 -0.6709 1.077 0.1305506 0.0863938 -0.05270894 0.6965101 -0.212877 -9.141939 0.0941 0.5076 0.8895 1.419087

0.06265732 -0.2680826 0.2408554 -5.718249 -1.443051 -7.716546 0.5192 -0.6709 1.077 0.1305506 0.0863938 -0.05270894 0.6965101 -0.212877 -9.141939 0.0941 0.5076 0.8895 1.419087

0.05602507 -0.3256784 0.2769837 -5.861475 -1.385172 -7.87743 0.5252 -0.6695 1.0729 0.1347394 0.06754424 -0.08185595 0.771066 -0.212877 -9.149787 0.0883 0.5093 0.8975 1.420429

0.132296 -0.3937463 0.3289946 -6.120459 -1.446975 -8.129547 0.5252 -0.6695 1.0729 0.1740093 0.00837758 -0.0403171 0.8721091 -0.263889 -9.096813 0.0775 0.5143 0.8917 1.420429

-0.1500983 -0.3464479 0.07539823 -6.390234 -1.75599 -8.340463 0.5608 -0.6817 1.0684 0.2220059 -0.0413643 -0.005759587 1.004544 -0.306072 -9.057573 0.0775 0.5143 0.8917 1.420429

-0.1500983 -0.3464479 0.07539823 -6.390234 -1.75599 -8.340463 0.5608 -0.6817 1.0684 0.2220059 -0.0413643 -0.005759587 1.004544 -0.306072 -9.057573 0.0775 0.5143 0.8917 1.420429

-0.2424262 -0.03822271 -0.02827433 -6.819912 -1.754028 -8.67204 0.5608 -0.6817 1.0684 0.230558 -0.1181588 0.03595378 1.117359 -0.37278 -9.037953 0.0679 0.5304 0.8795 1.419087

-0.2054253 0.299673 -0.1171116 -6.979815 -1.634346 -8.882956 0.5877 -0.6866 1.046 0.230558 -0.1181588 0.03595378 1.117359 -0.37278 -9.037953 0.0679 0.5304 0.8795 1.419087

-0.0429351 0.3577925 -0.06562438 -6.891525 -1.318464 -8.737767 0.594 -0.6889 1.0357 0.2078687 -0.2195624 0.08150688 1.243908 -0.413001 -8.98498 0.0679 0.5304 0.8795 1.419087

-0.0429351 0.3577925 -0.06562438 -6.891525 -1.318464 -8.737767 0.594 -0.6889 1.0357 0.225322 -0.2694788 0.1169371 1.379286 -0.433602 -8.998713 0.0638 0.5326 0.8791 1.419087

-0.119206 0.3593633 -0.03979351 -6.752223 -1.187991 -8.459163 0.594 -0.6889 1.0357 0.2445206 -0.2700024 0.1495747 1.365552 -0.456165 -9.035992 0.0638 0.5326 0.8791 1.419087

-0.1068141 0.3759439 -0.0003490658 -6.663933 -0.952551 -8.118756 0.6002 -0.6903 1.0576 0.2445206 -0.2700024 0.1495747 1.365552 -0.456165 -9.035992 0.0638 0.5326 0.8791 1.419087

-0.1068141 0.3759439 -0.0003490658 -6.663933 -0.952551 -8.118756 0.6002 -0.6903 1.0576 0.2530727 -0.2630211 0.1911135 1.25568 -0.498348 -9.060516 0.0802 0.5381 0.8884 1.419087

-0.01343904 0.3714061 0.1071632 -6.522669 -0.658251 -7.861734 0.6002 -0.6903 1.0576 0.2792527 -0.1977458 0.2333505 1.153656 -0.503253 -9.108585 0.0802 0.5381 0.8884 1.419087

-0.01343904 0.3714061 0.1071632 -6.522669 -0.658251 -7.861734 0.6002 -0.6903 1.0576 0.2792527 -0.1977458 0.2333505 1.153656 -0.503253 -9.108585 0.0802 0.5381 0.8884 1.419087

0.2427753 0.1890192 0.2124066 -6.332355 -0.331578 -7.539966 0.6054 -0.6871 1.0542 0.2792527 -0.1977458 0.2333505 1.153656 -0.503253 -9.108585 0.0802 0.5381 0.8884 1.417744

0.2371902 0.1574287 0.2935644 -6.341184 -0.383571 -7.417341 0.6054 -0.6871 1.0542 0.2792527 -0.1977458 0.2333505 1.153656 -0.503253 -9.108585 0.0802 0.5381 0.8884 1.417744

0.2371902 0.1574287 0.2935644 -6.341184 -0.383571 -7.417341 0.6054 -0.6871 1.0542 0.2792527 -0.1977458 0.2333505 1.153656 -0.503253 -9.108585 0.0802 0.5381 0.8884 1.417744

0.09721484 0.291819 0.3883358 -6.438303 -0.487557 -7.472277 0.5837 -0.6838 1.0417 0.4321435 0.06649704 0.4187045 1.02024 -0.681795 -9.058555 0.0956 0.5571 0.8643 1.417744

-0.01396263 0.3940953 0.4518657 -6.472638 -0.5444551 -7.484049 0.5651 -0.6878 1.0472 0.3693117 0.04101523 0.5047492 1.129131 -0.820116 -8.92612 0.1026 0.5713 0.8538 1.412374

-0.03438299 0.3008948 0.4803146 -6.362766 -0.532683 -7.336899 0.5651 -0.6878 1.0472 0.307527 -0.04223697 0.55676 1.261566 -0.970209 -8.809381 0.1026 0.5713 0.8538 1.412374

-0.03438299 0.3008948 0.4803146 -6.362766 -0.532683 -7.336899 0.5651 -0.6878 1.0472 0.307527 -0.04223697 0.55676 1.261566 -0.970209 -8.809381 0.1026 0.5713 0.8538 1.412374

0.006981317 0.1108284 0.5490806 -6.248971 -0.53955 -7.125985 0.5792 -0.6868 1.0552 0.254469 -0.1099557 0.6161012 1.30473 -1.131093 -8.776026 0.114 0.5813 0.8452 1.412374

-0.07120943 -0.08255407 0.635998 -6.183243 -0.642555 -7.021017 0.5792 -0.6868 1.0552 0.2263692 -0.1401499 0.6642723 1.18701 -1.151694 -8.741692 0.114 0.5813 0.8452 1.409689

-0.1038471 -0.1277581 0.7213446 -6.188148 -0.610182 -7.158358 0.574 -0.6798 1.0506 0.2263692 -0.1401499 0.6642723 1.18701 -1.151694 -8.741692 0.114 0.5813 0.8452 1.409689

-0.1038471 -0.1277581 0.7213446 -6.188148 -0.610182 -7.158358 0.574 -0.6798 1.0506 0.2263692 -0.1401499 0.6642723 1.18701 -1.151694 -8.741692 0.114 0.5813 0.8452 1.409689

0.07941248 0.0424115 0.7344346 -6.215616 -0.489519 -7.497783 0.574 -0.6798 1.0506 0.2263692 -0.1401499 0.6642723 1.18701 -1.151694 -8.741692 0.114 0.5813 0.8452 1.409689

0.07941248 0.0424115 0.7344346 -6.215616 -0.489519 -7.497783 0.574 -0.6798 1.0506 0.2628466 -0.06579891 0.7126179 0.944703 -1.092834 -8.814285 0.1306 0.5746 0.8529 1.409689

0.1907645 0.1583014 0.7243116 -6.254856 -0.505215 -7.793064 0.5609 -0.6803 1.0484 0.2628466 -0.06579891 0.7126179 0.944703 -1.092834 -8.814285 0.1306 0.5746 0.8529 1.419087

0.1068141 0.2827434 0.6967354 -6.361785 -0.6229351 -8.061858 0.5609 -0.6803 1.0484 0.2628466 -0.06579891 0.7126179 0.944703 -1.092834 -8.814285 0.1306 0.5746 0.8529 1.419087

0.1148427 0.3717551 0.636347 -6.432417 -0.638631 -8.290431 0.5462 -0.6816 1.0656 0.2628466 -0.06579891 0.7126179 0.944703 -1.092834 -8.814285 0.1306 0.5746 0.8529 1.419087

0.1148427 0.3717551 0.636347 -6.432417 -0.638631 -8.290431 0.5462 -0.6816 1.0656 0.3319616 0.0418879 0.7436848 0.736731 -1.101663 -8.874126 0.1306 0.5746 0.8529 1.419087

0.2146755 0.3942699 0.6396632 -6.433398 -0.487557 -8.374797 0.5202 -0.6892 1.0817 0.3319616 0.0418879 0.7436848 0.736731 -1.101663 -8.874126 0.1306 0.5746 0.8529 1.419087

0.3851942 0.3696607 0.6108652 -6.431437 -0.327654 -8.37676 0.5202 -0.6892 1.0817 0.3319616 0.0418879 0.7436848 0.736731 -1.101663 -8.874126 0.1306 0.5746 0.8529 1.419087

0.4139921 0.4656538 0.6635742 -6.486372 -0.275661 -8.37676 0.5283 -0.6863 1.0853 0.3799582 0.09424778 0.7949975 0.64746 -1.188972 -8.892765 0.1511 0.5763 0.8562 1.419087

0.4139921 0.4656538 0.6635742 -6.486372 -0.275661 -8.37676 0.5283 -0.6863 1.0853 0.3981096 0.07417649 0.8080874 0.723978 -1.325331 -8.876088 0.1511 0.5763 0.8562 1.419087

0.3284709 0.5806711 0.7044149 -6.4746 -0.262908 -8.406189 0.5283 -0.6863 1.0853 0.3693117 -0.007679448 0.8459611 0.8132491 -1.443051 -8.856468 0.153 0.5932 0.841 1.424457

0.2612758 0.6033603 0.7436848 -6.384348 -0.135378 -8.310052 0.5165 -0.6801 1.1033 0.3693117 -0.007679448 0.8459611 0.8132491 -1.443051 -8.856468 0.153 0.5932 0.841 1.424457

0.2612758 0.6033603 0.7436848 -6.384348 -0.135378 -8.310052 0.5165 -0.6801 1.1033 0.3693117 -0.007679448 0.8459611 0.8132491 -1.443051 -8.856468 0.153 0.5932 0.841 1.424457

0.3977605 0.5539675 0.7867944 -6.196977 0.103986 -8.134453 0.5165 -0.6801 1.1033 0.4274311 -0.06649704 1.085071 0.776952 -1.703997 -8.886879 0.1726 0.6184 0.8437 1.424457

0.46897 0.5330235 0.8948303 -6.012549 0.301167 -7.984359 0.4933 -0.6741 1.1102 0.4146902 -0.07819075 1.167625 0.776952 -1.786401 -8.871183 0.1726 0.6184 0.8437 1.443253

0.46897 0.5330235 0.8948303 -6.012549 0.301167 -7.984359 0.4933 -0.6741 1.1102 0.4146902 -0.07819075 1.167625 0.776952 -1.786401 -8.871183 0.1726 0.6184 0.8437 1.443253

0.4714134 0.6115634 0.9749409 -5.865399 0.460089 -7.917651 0.4933 -0.6741 1.1102 0.3707079 -0.1158899 1.220858 0.7318261 -1.842318 -8.772102 0.1983 0.6429 0.8263 1.443253

0.623257 0.7014478 1.003739 -5.721192 0.700434 -7.822495 0.4857 -0.6629 1.1079 0.2750639 -0.1822124 1.236915 0.743598 -1.982601 -8.695584 0.1983 0.6429 0.8263 1.458021

0.7890633 0.6356489 1.05924 -5.541669 0.8721091 -7.646895 0.4491 -0.6545 1.1148 0.1986185 -0.1692969 1.292067 0.721035 -2.090511 -8.634763 0.219 0.6504 0.8082 1.458021

0.7890633 0.6356489 1.05924 -5.541669 0.8721091 -7.646895 0.4491 -0.6545 1.1148 0.1986185 -0.1692969 1.292067 0.721035 -2.090511 -8.634763 0.219 0.6504 0.8082 1.458021

0.7801622 0.5644395 1.200787 -5.472018 0.807363 -7.57234 0.4491 -0.6545 1.1148 0.1986185 -0.1692969 1.292067 0.721035 -2.090511 -8.634763 0.219 0.6504 0.8082 1.458021

0.5429719 0.5707227 1.322436 -5.418063 0.607239 -7.642972 0.3928 -0.6492 1.1205 0.1986185 -0.1692969 1.292067 0.721035 -2.090511 -8.634763 0.219 0.6504 0.8082 1.453994

0.5429719 0.5707227 1.322436 -5.418063 0.607239 -7.642972 0.3928 -0.6492 1.1205 0.1986185 -0.1692969 1.292067 0.721035 -2.090511 -8.634763 0.219 0.6504 0.8082 1.453994

0.4564036 0.6876597 1.41075 -5.400405 0.56898 -7.734204 0.3928 -0.6492 1.1205 0.1986185 -0.1692969 1.292067 0.721035 -2.090511 -8.634763 0.219 0.6504 0.8082 1.453994

0.5155703 0.7246607 1.462062 -5.334678 0.577809 -7.748919 0.3635 -0.6462 1.1522 0.1986185 -0.1692969 1.292067 0.721035 -2.090511 -8.634763 0.219 0.6504 0.8082 1.453994

0.5155703 0.7246607 1.462062 -5.334678 0.577809 -7.748919 0.3635 -0.6462 1.1522 0.1986185 -0.1692969 1.292067 0.721035 -2.090511 -8.634763 0.219 0.6504 0.8082 1.432513

0.5155703 0.7246607 1.462062 -5.334678 0.577809 -7.748919 0.3635 -0.6462 1.1522 0.2740167 0.01762783 1.38614 0.194238 -2.05029 -8.464068 0.2536 0.638 0.8114 1.432513

0.9241518 0.6901032 1.527687 -5.040379 0.406134 -7.754805 0.3556 -0.6156 1.1691 0.2925172 0.03543018 1.395216 0.187371 -2.141523 -8.403246 0.2771 0.6419 0.808 1.432513

0.760789 0.7494444 1.582839 -4.975632 0.151074 -7.833285 0.3068 -0.6017 1.1672 0.2925172 0.03543018 1.395216 0.187371 -2.141523 -8.403246 0.2771 0.6419 0.808 1.432513

0.760789 0.7494444 1.582839 -4.975632 0.151074 -7.833285 0.3068 -0.6017 1.1672 0.2925172 0.03543018 1.395216 0.187371 -2.141523 -8.403246 0.2771 0.6419 0.808 1.419087

0.5789257 0.8288569 1.57673 -4.856931 -0.060822 -7.949043 0.3068 -0.6017 1.1672 0.2925172 0.03543018 1.395216 0.187371 -2.141523 -8.403246 0.2771 0.6419 0.808 1.419087

0.5789257 0.8288569 1.57673 -4.856931 -0.060822 -7.949043 0.3068 -0.6017 1.1672 0.2925172 0.03543018 1.395216 0.187371 -2.141523 -8.403246 0.2771 0.6419 0.808 1.419087

0.5705481 0.9391617 1.540777 -4.694085 -0.092214 -8.096193 0.2415 -0.5762 1.1824 0.2925172 0.03543018 1.395216 0.187371 -2.141523 -8.403246 0.2771 0.6419 0.808 1.419087

0.4869469 1.137955 1.506568 -4.637187 -0.212877 -8.316918 0.2415 -0.5762 1.1824 0.2925172 0.03543018 1.395216 0.187371 -2.141523 -8.403246 0.2771 0.6419 0.808 1.419087

0.4869469 1.137955 1.506568 -4.637187 -0.212877 -8.316918 0.2415 -0.5762 1.1824 0.2925172 0.03543018 1.395216 0.187371 -2.141523 -8.403246 0.2771 0.6419 0.808 1.386865

0.421497 1.296954 1.430472 -4.540068 -0.364932 -8.479765 0.1772 -0.5462 1.1834 0.2925172 0.03543018 1.395216 0.187371 -2.141523 -8.403246 0.2771 0.6419 0.808 1.386865

0.5420992 1.249481 1.422094 -4.323267 -0.373761 -8.549416 0.1772 -0.5462 1.1834 0.2925172 0.03543018 1.395216 0.187371 -2.141523 -8.403246 0.2771 0.6419 0.808 1.386865

0.5420992 1.249481 1.422094 -4.323267 -0.373761 -8.549416 0.1772 -0.5462 1.1834 0.2925172 0.03543018 1.395216 0.187371 -2.141523 -8.403246 0.2771 0.6419 0.808 1.386865

0.6084218 1.104095 1.492082 -4.155516 -0.584676 -8.743653 0.1098 -0.525 1.1652 0.2925172 0.03543018 1.395216 0.187371 -2.141523 -8.403246 0.2771 0.6419 0.808 1.339876

0.6084218 1.104095 1.492082 -4.155516 -0.584676 -8.743653 0.1098 -0.525 1.1652 -0.07784168 -0.03665191 1.583537 -0.762237 -2.133675 -8.422867 0.4112 0.5995 0.8057 1.339876

0.3803073 1.00688 1.565386 -3.985803 -0.93195 -9.068364 0.1098 -0.525 1.1652 -0.07784168 -0.03665191 1.583537 -0.762237 -2.133675 -8.422867 0.4112 0.5995 0.8057 1.339876

0.3937463 0.9833185 1.640086 -3.80628 -0.9810001 -9.346968 0.0342 -0.5023 1.1629 -0.07784168 -0.03665191 1.583537 -0.762237 -2.133675 -8.422867 0.4112 0.5995 0.8057 1.339876

0.4975934 1.002343 1.760164 -3.648339 -0.987867 -9.537282 0.0342 -0.5023 1.1629 -0.07784168 -0.03665191 1.583537 -0.762237 -2.133675 -8.422867 0.4112 0.5995 0.8057 1.287516

0.4975934 1.002343 1.760164 -3.648339 -0.987867 -9.537282 0.0342 -0.5023 1.1629 -0.07784168 -0.03665191 1.583537 -0.762237 -2.133675 -8.422867 0.4112 0.5995 0.8057 1.287516

0.55676 1.011069 1.798736 -3.444291 -1.032012 -9.64323 -0.0124 -0.4871 1.1726 -0.07784168 -0.03665191 1.583537 -0.762237 -2.133675 -8.422867 0.4112 0.5995 0.8057 1.287516

0.55676 1.011069 1.798736 -3.444291 -1.032012 -9.64323 -0.0124 -0.4871 1.1726 -0.07784168 -0.03665191 1.583537 -0.762237 -2.133675 -8.422867 0.4112 0.5995 0.8057 1.287516

0.7614872 0.9035569 1.750216 -3.177459 -0.9770761 -9.51472 -0.0124 -0.4871 1.1726 -0.07784168 -0.03665191 1.583537 -0.762237 -2.133675 -8.422867 0.4112 0.5995 0.8057 1.236499

0.9236282 0.7916813 1.769938 -2.898855 -0.9966961 -9.31852 -0.0511 -0.4614 1.1713 -0.07784168 -0.03665191 1.583537 -0.762237 -2.133675 -8.422867 0.4112 0.5995 0.8057 1.236499

0.9236282 0.7916813 1.769938 -2.898855 -0.9966961 -9.31852 -0.0511 -0.4614 1.1713 -0.08691739 -0.2319543 1.333257 -1.330236 -1.94238 -8.395398 0.5548 0.4868 0.8208 1.236499

0.9236282 0.7916813 1.769938 -2.898855 -0.9966961 -9.31852 -0.0511 -0.4614 1.1713 -0.08691739 -0.2319543 1.333257 -1.330236 -1.94238 -8.395398 0.5548 0.4868 0.8208 1.236499

0.9236282 0.7916813 1.769938 -2.898855 -0.9966961 -9.31852 -0.0511 -0.4614 1.1713 -0.0863938 -0.3097959 1.266585 -1.450899 -1.858995 -8.471916 0.5548 0.4868 0.8208 1.236499

0.9236282 0.7916813 1.769938 -2.898855 -0.9966961 -9.31852 -0.0511 -0.4614 1.1713 -0.0863938 -0.3097959 1.266585 -1.450899 -1.858995 -8.471916 0.5548 0.4868 0.8208 1.172056

0.6105161 0.8319984 1.812873 -2.143485 -1.689282 -9.506871 -0.1628 -0.3952 1.171 -0.0863938 -0.3097959 1.266585 -1.450899 -1.858995 -8.471916 0.5548 0.4868 0.8208 1.172056

0.6105161 0.8319984 1.812873 -2.143485 -1.689282 -9.506871 -0.1628 -0.3952 1.171 -0.0863938 -0.3097959 1.266585 -1.450899 -1.858995 -8.471916 0.5548 0.4868 0.8208 1.172056

0.596379 0.8614945 1.801354 -1.966905 -1.791306 -9.457822 -0.1921 -0.3604 1.1706 -0.0863938 -0.3097959 1.266585 -1.450899 -1.858995 -8.471916 0.5548 0.4868 0.8208 1.172056

0.4920083 0.7806858 1.856681 -1.739313 -1.837413 -9.321463 -0.1921 -0.3604 1.1706 0.04014257 -0.2965314 0.9155997 -2.566296 -1.496025 -8.60337 0.6343 0.3583 0.8186 1.102243

0.4920083 0.7806858 1.856681 -1.739313 -1.837413 -9.321463 -0.1921 -0.3604 1.1706 0.04014257 -0.2965314 0.9155997 -2.566296 -1.496025 -8.60337 0.6343 0.3583 0.8186 1.102243

0.4202753 0.6620034 1.952849 -1.522512 -1.860957 -9.149787 -0.2173 -0.3101 1.1547 0.0005235987 -0.3410374 0.9100146 -2.729142 -1.420488 -8.648497 0.653 0.3303 0.8135 1.102243

0.1460841 0.5839872 2.036276 -1.418526 -2.082663 -9.090927 -0.2173 -0.3101 1.1547 0.0005235987 -0.3410374 0.9100146 -2.729142 -1.420488 -8.648497 0.653 0.3303 0.8135 1.102243

-0.1335177 0.5293583 2.049889 -1.290015 -2.251395 -9.080136 -0.2269 -0.2812 1.1348 0.0005235987 -0.3410374 0.9100146 -2.729142 -1.420488 -8.648497 0.653 0.3303 0.8135 1.005578

-0.1335177 0.5293583 2.049889 -1.290015 -2.251395 -9.080136 -0.2269 -0.2812 1.1348 0.0005235987 -0.3410374 0.9100146 -2.729142 -1.420488 -8.648497 0.653 0.3303 0.8135 1.005578

-0.137881 0.5274385 2.082701 -1.195839 -2.196459 -9.087984 -0.2269 -0.2812 1.1348 0.0005235987 -0.3410374 0.9100146 -2.729142 -1.420488 -8.648497 0.653 0.3303 0.8135 1.005578

-0.06387905 0.5138249 2.067866 -1.182105 -2.183706 -9.089946 -0.228 -0.2615 1.1264 0.0005235987 -0.3410374 0.9100146 -2.729142 -1.420488 -8.648497 0.653 0.3303 0.8135 1.005578

-0.06387905 0.5138249 2.067866 -1.182105 -2.183706 -9.089946 -0.228 -0.2615 1.1264 0.0005235987 -0.3410374 0.9100146 -2.729142 -1.420488 -8.648497 0.653 0.3303 0.8135 0.9169691

-0.03961897 0.4604178 2.067866 -1.173276 -2.252376 -9.099756 -0.228 -0.2615 1.1264 0.0005235987 -0.3410374 0.9100146 -2.729142 -1.420488 -8.648497 0.653 0.3303 0.8135 0.9169691

0.029147 0.4220206 2.007303 -1.153656 -2.307312 -9.117414 -0.2284 -0.2385 1.1228 0.0005235987 -0.3410374 0.9100146 -2.729142 -1.420488 -8.648497 0.653 0.3303 0.8135 0.9169691

0.029147 0.4220206 2.007303 -1.153656 -2.307312 -9.117414 -0.2284 -0.2385 1.1228 0.0005235987 -0.3410374 0.9100146 -2.729142 -1.420488 -8.648497 0.653 0.3303 0.8135 0.9169691

0.03926991 0.4260349 1.960005 -1.160523 -2.4525 -9.136053 -0.2256 -0.2215 1.1213 0.0005235987 -0.3410374 0.9100146 -2.729142 -1.420488 -8.648497 0.653 0.3303 0.8135 0.8095643

0.03926991 0.4260349 1.960005 -1.160523 -2.4525 -9.136053 -0.2256 -0.2215 1.1213 0.0005235987 -0.3410374 0.9100146 -2.729142 -1.420488 -8.648497 0.653 0.3303 0.8135 0.8095643

-0.2802999 0.334056 1.774127 -1.140903 -2.839995 -9.097795 -0.2283 -0.2005 1.1469 0.0005235987 -0.3410374 0.9100146 -2.729142 -1.420488 -8.648497 0.653 0.3303 0.8135 0.8095643

-0.2802999 0.334056 1.774127 -1.140903 -2.839995 -9.097795 -0.2283 -0.2005 1.1469 0.0005235987 -0.3410374 0.9100146 -2.729142 -1.420488 -8.648497 0.653 0.3303 0.8135 0.8095643

-0.3143338 0.2857104 1.664171 -1.124226 -2.856672 -9.16254 -0.2283 -0.2005 1.1469 0.0005235987 -0.3410374 0.9100146 -2.729142 -1.420488 -8.648497 0.653 0.3303 0.8135 0.6900764

-0.2851868 0.2792527 1.559975 -1.140903 -2.819394 -9.369532 -0.196 -0.2036 1.1551 0.0005235987 -0.3410374 0.9100146 -2.729142 -1.420488 -8.648497 0.653 0.3303 0.8135 0.6900764

-0.2851868 0.2792527 1.559975 -1.140903 -2.819394 -9.369532 -0.196 -0.2036 1.1551 0.0005235987 -0.3410374 0.9100146 -2.729142 -1.420488 -8.648497 0.653 0.3303 0.8135 0.6900764

-0.182736 0.2857104 1.477247 -1.070271 -2.631042 -9.517662 -0.196 -0.2036 1.1551 0.0005235987 -0.3410374 0.9100146 -2.729142 -1.420488 -8.648497 0.653 0.3303 0.8135 0.6900764

0.08779006 0.2345722 1.400278 -0.8897671 -2.220003 -9.611838 -0.1785 -0.1982 1.1644 0.0005235987 -0.3410374 0.9100146 -2.729142 -1.420488 -8.648497 0.653 0.3303 0.8135 0.6041524

0.08779006 0.2345722 1.400278 -0.8897671 -2.220003 -9.611838 -0.1785 -0.1982 1.1644 0.0005235987 -0.3410374 0.9100146 -2.729142 -1.420488 -8.648497 0.653 0.3303 0.8135 0.6041524

0.2546435 0.3120649 1.39574 -0.868185 -1.956114 -9.635383 -0.1785 -0.1982 1.1644 0.0005235987 -0.3410374 0.9100146 -2.729142 -1.420488 -8.648497 0.653 0.3303 0.8135 0.6041524

0.09250245 0.3056071 1.449496 -0.845622 -2.032632 -9.603009 -0.1476 -0.1919 1.1758 0.0005235987 -0.3410374 0.9100146 -2.729142 -1.420488 -8.648497 0.653 0.3303 0.8135 0.6041524

0.09250245 0.3056071 1.449496 -0.845622 -2.032632 -9.603009 -0.1476 -0.1919 1.1758 0.0005235987 -0.3410374 0.9100146 -2.729142 -1.420488 -8.648497 0.653 0.3303 0.8135 0.5209137

-0.1153663 0.2239257 1.437977 -0.780876 -2.101302 -9.59418 -0.1476 -0.1919 1.1758 0.0005235987 -0.3410374 0.9100146 -2.729142 -1.420488 -8.648497 0.653 0.3303 0.8135 0.5209137

-0.1153663 0.2239257 1.437977 -0.780876 -2.101302 -9.59418 -0.1476 -0.1919 1.1758 0.0005235987 -0.3410374 0.9100146 -2.729142 -1.420488 -8.648497 0.653 0.3303 0.8135 0.5209137

-0.1633628 0.1993166 1.375319 -0.7563511 -2.023803 -9.624592 -0.1112 -0.1778 1.1673 0.0005235987 -0.3410374 0.9100146 -2.729142 -1.420488 -8.648497 0.653 0.3303 0.8135 0.5209137

-0.1872738 0.2504548 1.379857 -0.7318261 -1.871748 -9.63342 -0.1092 -0.1672 1.154 0.0005235987 -0.3410374 0.9100146 -2.729142 -1.420488 -8.648497 0.653 0.3303 0.8135 0.4390174

-0.1872738 0.2504548 1.379857 -0.7318261 -1.871748 -9.63342 -0.1092 -0.1672 1.154 0.0005235987 -0.3410374 0.9100146 -2.729142 -1.420488 -8.648497 0.653 0.3303 0.8135 0.4390174

-0.07120943 0.2417281 1.43693 -0.713187 -1.645137 -9.604971 -0.1092 -0.1672 1.154 0.0005235987 -0.3410374 0.9100146 -2.729142 -1.420488 -8.648497 0.653 0.3303 0.8135 0.4390174

-0.07435103 0.2611012 1.511281 -0.761256 -1.623555 -9.541206 -0.118 -0.1615 1.1556 0.0005235987 -0.3410374 0.9100146 -2.729142 -1.420488 -8.648497 0.653 0.3303 0.8135 0.4390174

-0.2295108 0.1949533 1.434137 -0.728883 -1.793268 -9.442125 -0.118 -0.1615 1.1556 0.0005235987 -0.3410374 0.9100146 -2.729142 -1.420488 -8.648497 0.653 0.3303 0.8135 0.3651766

-0.2295108 0.1949533 1.434137 -0.728883 -1.793268 -9.442125 -0.118 -0.1615 1.1556 0.0005235987 -0.3410374 0.9100146 -2.729142 -1.420488 -8.648497 0.653 0.3303 0.8135 0.3651766

-0.2295108 0.1949533 1.434137 -0.728883 -1.793268 -9.442125 -0.118 -0.1615 1.1556 0.0005235987 -0.3410374 0.9100146 -2.729142 -1.420488 -8.648497 0.653 0.3303 0.8135 0.3651766

-0.2295108 0.1949533 1.434137 -0.728883 -1.793268 -9.442125 -0.118 -0.1615 1.1556 0.0005235987 -0.3410374 0.9100146 -2.729142 -1.420488 -8.648497 0.653 0.3303 0.8135 0.3651766

0.4949754 0.2584833 1.205673 -0.589581 -1.180143 -9.686395 -0.0938 -0.1568 1.1855 0.0005235987 -0.3410374 0.9100146 -2.729142 -1.420488 -8.648497 0.653 0.3303 0.8135 0.3114741

0.4949754 0.2584833 1.205673 -0.589581 -1.180143 -9.686395 -0.0938 -0.1568 1.1855 0.0005235987 -0.3410374 0.9100146 -2.729142 -1.420488 -8.648497 0.653 0.3303 0.8135 0.3114741

0.4949754 0.2584833 1.205673 -0.589581 -1.180143 -9.686395 -0.0938 -0.1568 1.1855 0.0005235987 -0.3410374 0.9100146 -2.729142 -1.420488 -8.648497 0.653 0.3303 0.8135 0.3114741

0.3691371 0.283616 1.184031 -0.7014151 -1.561752 -9.622629 -0.0809 -0.1643 1.19 0.0005235987 -0.3410374 0.9100146 -2.729142 -1.420488 -8.648497 0.653 0.3303 0.8135 0.3114741

0.06335545 0.3586651 1.067792 -0.740655 -1.902159 -9.597123 -0.0809 -0.1643 1.19 0.0005235987 -0.3410374 0.9100146 -2.729142 -1.420488 -8.648497 0.653 0.3303 0.8135 0.3114741

0.06335545 0.3586651 1.067792 -0.740655 -1.902159 -9.597123 -0.0809 -0.1643 1.19 0.0005235987 -0.3410374 0.9100146 -2.729142 -1.420488 -8.648497 0.653 0.3303 0.8135 0.2295779

-0.2265437 0.4581489 1.050688 -0.8416981 -2.252376 -9.544149 -0.0517 -0.1665 1.1866 -0.05864306 -0.01815142 0.3143338 -2.729142 -1.420488 -8.648497 0.653 0.3303 0.8135 0.2295779

-0.2080432 0.3755949 1.051212 -0.719073 -2.340666 -9.452916 -0.0517 -0.1665 1.1866 -0.05864306 -0.01815142 0.3143338 -2.729142 -1.420488 -8.648497 0.653 0.3303 0.8135 0.2295779

-0.2080432 0.3755949 1.051212 -0.719073 -2.340666 -9.452916 -0.0517 -0.1665 1.1866 -0.05864306 -0.01815142 0.3143338 -2.729142 -1.420488 -8.648497 0.653 0.3303 0.8135 0.2295779

-0.3478441 0.2825688 1.049816 -0.6356881 -2.535885 -9.396018 -0.021 -0.1493 1.1639 -0.05864306 -0.01815142 0.3143338 -2.729142 -1.420488 -8.648497 0.653 0.3303 0.8135 0.1906437

-0.4347615 0.1476549 1.006008 -0.496386 -2.621232 -9.307729 -0.0078 -0.1396 1.173 -0.05864306 -0.01815142 0.3143338 -2.729142 -1.420488 -8.648497 0.653 0.3303 0.8135 0.1906437

-0.4347615 0.1476549 1.006008 -0.496386 -2.621232 -9.307729 -0.0078 -0.1396 1.173 -0.05864306 -0.01815142 0.3143338 -2.729142 -1.420488 -8.648497 0.653 0.3303 0.8135 0.1906437

-0.4925319 0.05096361 0.9557422 -0.355122 -2.600631 -9.302823 -0.0078 -0.1396 1.173 -0.05864306 -0.01815142 0.3143338 -2.729142 -1.420488 -8.648497 0.653 0.3303 0.8135 0.1906437

-0.6874852 0.04590216 0.8944812 -0.318825 -2.68794 -9.385227 0.0084 -0.1431 1.1901 -0.05864306 -0.01815142 0.3143338 -2.729142 -1.420488 -8.648497 0.653 0.3303 0.8135 0.1517094

-0.6874852 0.04590216 0.8944812 -0.318825 -2.68794 -9.385227 0.0084 -0.1431 1.1901 -0.05864306 -0.01815142 0.3143338 -2.729142 -1.420488 -8.648497 0.653 0.3303 0.8135 0.1517094

-0.7098254 0.05532694 0.7885398 -0.259965 -2.631042 -9.531396 0.0084 -0.1431 1.1901 -0.05864306 -0.01815142 0.3143338 -2.729142 -1.420488 -8.648497 0.653 0.3303 0.8135 0.1517094

-0.7649778 0.1450369 0.6511824 -0.238383 -2.565315 -9.671679 0.0404 -0.1631 1.1972 -0.05864306 -0.01815142 0.3143338 -2.729142 -1.420488 -8.648497 0.653 0.3303 0.8135 0.1355987

-0.7649778 0.1450369 0.6511824 -0.238383 -2.565315 -9.671679 0.0404 -0.1631 1.1972 -0.05864306 -0.01815142 0.3143338 -2.729142 -1.420488 -8.648497 0.653 0.3303 0.8135 0.1355987

-0.7649778 0.1450369 0.6511824 -0.238383 -2.565315 -9.671679 0.0404 -0.1631 1.1972 0.009250244 0.1453859 0.2858849 -2.102283 -1.493082 -8.667135 0.668 0.2075 0.8543 0.1355987

-0.5297074 0.0286234 0.3600614 0.061803 -1.962 -9.518643 0.0623 -0.186 1.2163 0.009250244 0.1453859 0.2858849 -2.102283 -1.493082 -8.667135 0.668 0.2075 0.8543 0.1355987

-0.7387979 0.1240929 0.3218387 0.113796 -1.739313 -9.572598 0.0623 -0.186 1.2163 0.009250244 0.1453859 0.2858849 -2.102283 -1.493082 -8.667135 0.668 0.2075 0.8543 0.1275433

-0.7387979 0.1240929 0.3218387 0.113796 -1.739313 -9.572598 0.0623 -0.186 1.2163 0.009250244 0.1453859 0.2858849 -2.102283 -1.493082 -8.667135 0.668 0.2075 0.8543 0.1275433

-0.4735078 0.1169371 0.283616 0.197181 -1.230174 -9.551016 0.0586 -0.2126 1.2321 0.009250244 0.1453859 0.2858849 -2.102283 -1.493082 -8.667135 0.668 0.2075 0.8543 0.1275433

-0.3602359 -0.001047197 0.2600541 0.267813 -1.063404 -9.562788 0.0488 -0.226 1.2414 0.009250244 0.1453859 0.2858849 -2.102283 -1.493082 -8.667135 0.668 0.2075 0.8543 0.1275433

-0.3602359 -0.001047197 0.2600541 0.267813 -1.063404 -9.562788 0.0488 -0.226 1.2414 0.009250244 0.1453859 0.2858849 -2.102283 -1.493082 -8.667135 0.668 0.2075 0.8543 0.1181454

-0.2905973 0.08307768 0.2904228 0.275661 -0.685719 -9.509814 0.0488 -0.226 1.2414 0.009250244 0.1453859 0.2858849 -2.102283 -1.493082 -8.667135 0.668 0.2075 0.8543 0.1181454

0.2307325 -0.2766347 0.2832669 0.440469 -0.22563 -9.404847 0.063 -0.2422 1.2533 0.009250244 0.1453859 0.2858849 -2.102283 -1.493082 -8.667135 0.668 0.2075 0.8543 0.1181454

0.2307325 -0.2766347 0.2832669 0.440469 -0.22563 -9.404847 0.063 -0.2422 1.2533 0.009250244 0.1453859 0.2858849 -2.102283 -1.493082 -8.667135 0.668 0.2075 0.8543 0.1181454

0.4551819 -0.6874852 0.344528 0.391419 -0.386514 -9.456841 0.063 -0.2422 1.2533 0.009250244 0.1453859 0.2858849 -2.102283 -1.493082 -8.667135 0.668 0.2075 0.8543 0.09800695

0.4551819 -0.6874852 0.344528 0.391419 -0.386514 -9.456841 0.063 -0.2422 1.2533 0.009250244 0.1453859 0.2858849 -2.102283 -1.493082 -8.667135 0.668 0.2075 0.8543 0.09800695

-0.4941027 -0.08813913 0.2661627 0.052974 -0.957456 -9.880632 0.0985 -0.2637 1.2582 0.009250244 0.1453859 0.2858849 -2.102283 -1.493082 -8.667135 0.668 0.2075 0.8543 0.09800695

-0.5726426 0.1890192 0.1312488 0.025506 -0.752427 -9.961075 0.0985 -0.2637 1.2582 0.009250244 0.1453859 0.2858849 -2.102283 -1.493082 -8.667135 0.668 0.2075 0.8543 0.09800695

-0.06667157 -0.09930924 0.04694936 0.172656 -0.443412 -9.910063 0.1269 -0.2756 1.255 0.009250244 0.1453859 0.2858849 -2.102283 -1.493082 -8.667135 0.668 0.2075 0.8543 0.08323878

-0.06667157 -0.09930924 0.04694936 0.172656 -0.443412 -9.910063 0.1269 -0.2756 1.255 -0.1359611 0.1071632 0.1197296 -2.102283 -1.493082 -8.667135 0.668 0.2075 0.8543 0.08323878

0.07330383 -0.2830924 0.02111848 0.248193 -0.396324 -9.847279 0.1269 -0.2756 1.255 -0.1359611 0.1071632 0.1197296 -2.102283 -1.493082 -8.667135 0.668 0.2075 0.8543 0.08323878

-0.01204277 -0.2085668 0.0001745329 0.123606 -0.522873 -9.925759 0.1326 -0.2823 1.2643 -0.1359611 0.1071632 0.1197296 -2.102283 -1.493082 -8.667135 0.668 0.2075 0.8543 0.08323878

-0.01204277 -0.2085668 0.0001745329 0.123606 -0.522873 -9.925759 0.1326 -0.2823 1.2643 -0.1382301 0.06579891 0.07295476 -2.133675 -1.155618 -8.685775 0.6495 0.1744 0.8657 0.08055366

-0.03333579 0.1219985 -0.105767 0.014715 -0.432621 -10.1249 0.1326 -0.2823 1.2643 -0.1382301 0.06579891 0.07295476 -2.133675 -1.155618 -8.685775 0.6495 0.1744 0.8657 0.08055366
