0.01402559 -5.722046E-08 -0.5098948 270 -2.561321E-06 0

0.01873364 0.02009514 -0.5093473 271.5677 88.11678 270.6417

0.01873364 0.02009514 -0.5093473 271.5677 88.11678 270.6417

0.01873364 0.02009514 -0.5093473 271.5677 88.11678 270.6417

0.01434842 0.0007754517 -0.5098853 271.5006 72.09961 285.2805

0.01884072 0.02082493 -0.5093141 273.5548 77.63894 278.9024

-0.002386025 0.001480923 -0.5102923 273.5548 77.63894 278.9024

-0.002386025 0.001480923 -0.5102923 273.9556 70.94097 284.3039

0.001262457 0.02232931 -0.5098097 273.8175 79.28588 274.7839

0.004753477 0.04179522 -0.5085633 274.7086 70.72752 282.9962

0.006029134 0.04181188 -0.5085548 275.6853 67.0849 286.3979

0.009405306 0.06138058 -0.5065141 275.6854 67.08493 286.3978

0.01392923 0.0789253 -0.5039737 277.9019 60.7473 292.2534

0.01392923 0.0789253 -0.5039737 276.8198 63.4928 288.7314

0.009314052 0.06258959 -0.5063651 276.2391 73.68149 277.6555

0.008307276 0.06992769 -0.5054216 276.2391 73.68148 277.6555

0.008307276 0.06992769 -0.5054216 277.3883 67.83614 283.1989

0.004716699 0.05129256 -0.5076974 278.8915 65.42001 285.3573

0.004716699 0.05129256 -0.5076974 280.0573 66.48334 283.0363

0.004716699 0.05129256 -0.5076974 280.0573 66.48334 283.0363

0.004716699 0.05129256 -0.5076974 279.3349 62.64129 285.6082

0.008495989 0.0711244 -0.5052513 277.3427 63.66624 283.914

0.008495989 0.0711244 -0.5052513 276.8666 72.05686 274.6291

0.008495989 0.0711244 -0.5052513 276.8666 72.05686 274.6291

0.01145415 0.05610088 -0.5070812 278.4819 57.64458 288.1969

0.01145415 0.05610088 -0.5070812 277.2747 64.97385 280.1225

0.01525428 0.07522739 -0.5044917 277.2888 52.47244 291.527

0.01525428 0.07522739 -0.5044917 277.2888 52.47244 291.527

0.01525428 0.07522739 -0.5044917 277.3327 53.96322 288.6431

0.01525428 0.07522739 -0.5044917 276.8428 54.27174 286.9085

0.01525428 0.07522739 -0.5044917 276.8428 54.27174 286.9085

0.01589063 0.07526641 -0.5044705 277.5185 38.57834 301.4882

0.01529537 0.05561356 -0.5070318 276.6393 52.31316 287.066

0.01529537 0.05561356 -0.5070318 276.6393 52.31316 287.066

0.01529537 0.05561356 -0.5070318 278.7794 41.83736 296.4865

0.01497728 0.05559245 -0.5070417 278.8792 53.62859 283.7491

0.02022458 0.07533019 -0.5043039 278.9959 41.01208 295.4277

0.02022458 0.07533019 -0.5043039 277.4988 50.55566 285.1511

0.01905559 0.05567834 -0.5068954 277.4988 50.55565 285.1511

0.0212815 0.05582279 -0.5067998 278.661 37.31272 297.3828

0.0212815 0.05582279 -0.5067998 278.661 37.31272 297.3828

0.02628859 0.07563852 -0.5039868 279.9044 48.80098 285.2056

0.02628859 0.07563852 -0.5039868 279.2491 37.71933 295.5798

0.02642632 0.05615135 -0.5065199 279.2491 37.71931 295.5798

0.03020955 0.06799684 -0.5048539 277.6505 44.06288 288.3832

0.03020955 0.06799684 -0.5048539 279.692 38.09727 293.961

0.03020955 0.06799684 -0.5048539 279.692 38.09727 293.961

0.02635798 0.04903622 -0.5072634 279.2729 51.42294 280.0207

0.02635798 0.04903622 -0.5072634 279.445 38.19973 292.7145

0.02635798 0.04903622 -0.5072634 277.3911 44.92287 285.2278

0.03116416 0.06873006 -0.5046984 277.3911 44.9229 285.2278

0.03325018 0.0689572 -0.5045304 277.0503 27.18877 302.0869

0.03128928 0.04912047 -0.5069711 275.5887 43.0802 285.3655

0.03128928 0.04912047 -0.5069711 275.5887 43.0802 285.3655

0.03425934 0.049447 -0.5067247 276.8849 32.47162 295.5378

0.03874512 0.06932548 -0.5040649 276.8849 32.47164 295.5378

0.03650569 0.04953589 -0.506559 277.3703 42.48713 285.1124

0.03650569 0.04953589 -0.506559 277.3703 42.48713 285.1124

0.0419402 0.0658552 -0.5042743 277.3703 42.48712 285.1123

0.04660218 0.07018095 -0.5032126 278.4917 41.02018 286.1387

0.04804371 0.05140417 -0.5053409 278.4917 41.02019 286.1387

0.04804371 0.05140417 -0.5053409 279.6846 43.79097 282.8456

0.05392865 0.07075716 -0.5023993 277.257 41.12705 284.6837

0.06047723 0.0716718 -0.5013322 274.9415 33.46814 291.5712

0.0668375 0.06828761 -0.5009969 273.2831 15.66856 308.85

0.0668375 0.06828761 -0.5009969 273.2831 15.66856 308.85

0.0668375 0.06828761 -0.5009969 273.4438 345.1038 339.5683

0.07212739 0.06885964 -0.4999539 273.4439 345.1037 339.5683

0.07212739 0.06885964 -0.4999539 272.857 12.98907 312.4179

0.07165468 0.074536 -0.4992072 274.9713 6.138526 319.576

0.07165468 0.074536 -0.4992072 274.9713 6.138526 319.576

0.08134649 0.076031 -0.4968832 274.6994 26.17767 300.388

0.08500011 0.06845552 -0.4973728 275.5887 5.785277 321.0701

0.08500011 0.06845552 -0.4973728 275.5887 5.785277 321.0701

0.08500011 0.06845552 -0.4973728 275.8741 18.89189 308.6679

0.08500011 0.06845552 -0.4973728 275.8741 18.89189 308.6679

0.09310661 0.06946138 -0.4950829 277.4007 17.70407 310.1621

0.09310661 0.06946138 -0.4950829 276.4859 27.12096 301.0606

0.0973354 0.08855987 -0.4912064 276.486 27.12095 301.0606

0.09605853 0.06933764 -0.494536 276.486 27.12096 301.0606

0.1060838 0.07064415 -0.4911814 277.6621 14.06888 314.2571

0.1107653 0.08314528 -0.4881818 277.6621 14.0689 314.257

0.1107653 0.08314528 -0.4881818 279.3328 8.487638 319.1721

0.1107653 0.08314528 -0.4881818 280.7871 12.55346 315.0062

0.08955544 0.06224865 -0.4974435 280.7871 12.55346 315.0062

0.08955544 0.06224865 -0.4974435 280.2229 4.608891 323.4413

0.08955544 0.06224865 -0.4974435 279.313 358.7651 329.816

0.08955544 0.06224865 -0.4974435 279.313 358.7651 329.816

0.1671169 0.08804984 -0.4588368 279.9861 356.608 332.7641

0.1671169 0.08804984 -0.4588368 280.7726 0.291301 329.2495

0.1671169 0.08804984 -0.4588368 281.8813 3.638971 325.8463

0.1825596 0.07176845 -0.4494086 281.8813 3.638967 325.8463

0.1825596 0.07176845 -0.4494086 283.5453 359.023 330.8117

0.1825596 0.07176845 -0.4494086 282.2537 0.6566488 329.017

0.1864965 0.08832135 -0.4448203 282.2536 0.6566566 329.017

0.2037989 0.08910049 -0.4283354 284.1856 355.0059 334.5101

0.2037989 0.08910049 -0.4283354 285.096 359.5906 329.5282

0.2023187 0.07236488 -0.4321742 285.0961 359.5906 329.5282

0.2058881 0.08854751 -0.42745 285.0961 359.5906 329.5282

0.2172391 0.08882564 -0.4145044 285.0233 4.104038 325.0082

0.2172391 0.08882564 -0.4145044 285.9059 353.3539 334.9139

0.2172391 0.08882564 -0.4145044 285.9059 353.3539 334.9139

0.2156798 0.07256598 -0.4184652 286.7538 342.9317 344.5694

0.2268775 0.07312557 -0.4037567 287.9435 334.2739 352.6544

0.2268775 0.07312557 -0.4037567 287.9435 334.2739 352.6544

0.2300372 0.08844958 -0.3988731 289.3981 326.38 0.3019539

0.2300372 0.08844958 -0.3988731 290.9408 320.3667 6.559237

0.2378339 0.08826965 -0.3868267 290.9408 320.3668 6.559224

0.2378339 0.08826965 -0.3868267 292.4703 314.8154 12.47283

0.2378339 0.08826965 -0.3868267 293.3105 308.7519 19.50761

0.2378339 0.08826965 -0.3868267 293.3105 308.7519 19.50761

0.2424887 0.07310168 -0.3801729 294.7101 303.2864 25.9008

0.2424887 0.07310168 -0.3801729 296.0091 299.956 30.35584

0.2424887 0.07310168 -0.3801729 296.0091 299.956 30.35584

0.2453256 0.087683 -0.3752375 297.8106 297.3672 33.75721

0.2491006 0.08741627 -0.3678592 300.0563 294.9435 36.83054

0.2491006 0.08741627 -0.3678592 300.0563 294.9435 36.83054

0.2475232 0.07282622 -0.3720776 302.084 292.6613 39.93287

0.2475232 0.07282622 -0.3720776 302.084 292.6613 39.93287

0.2545866 0.08677271 -0.3576179 302.084 292.6613 39.93288

0.2545866 0.08677271 -0.3576179 303.337 291.5031 41.82142

0.2545866 0.08677271 -0.3576179 305.9369 288.1622 45.13329

0.2545866 0.08677271 -0.3576179 305.9369 288.1622 45.13329

0.2566868 0.08652194 -0.3526254 308.5784 285.4298 47.82716

0.2566868 0.08652194 -0.3526254 311.0352 284.0168 49.63332

0.2566868 0.08652194 -0.3526254 311.0352 284.0168 49.63332

0.2566868 0.08652194 -0.3526254 313.5075 282.8124 51.34111

0.2566868 0.08652194 -0.3526254 313.5075 282.8124 51.34111

0.2564137 0.07242095 -0.3536661 315.9756 280.9368 53.5321

0.2564137 0.07242095 -0.3536661 315.9756 280.9368 53.5321

0.2564137 0.07242095 -0.3536661 318.8328 277.827 55.88549

0.2564137 0.07242095 -0.3536661 321.8504 274.8626 57.52251

0.2572258 0.07238071 -0.3515868 321.8504 274.8626 57.5225

0.2596557 0.08605373 -0.3466858 324.8374 272.8817 58.71946

0.2596557 0.08605373 -0.3466858 327.3566 271.6162 59.62649

0.2596557 0.08605373 -0.3466858 327.3566 271.6162 59.62649

0.2599912 0.08600283 -0.3457912 329.7607 270.5153 60.48629

0.2583676 0.07219674 -0.3501389 332.3875 269.1947 61.01981

0.2607188 0.08585753 -0.3452791 332.3875 269.1947 61.01981

0.2607188 0.08585753 -0.3452791 332.3875 269.1947 61.01981

0.2609392 0.08582342 -0.3446814 334.8286 268.3301 61.2965

0.2592627 0.07204925 -0.3490731 337.3376 268.0595 60.55418

0.2592627 0.07204925 -0.3490731 337.3376 268.0595 60.55418

0.2592627 0.07204925 -0.3490731 339.9008 268.3855 59.76982

0.2602495 0.0719906 -0.3463781 342.3957 269.0694 58.99701

0.2602495 0.0719906 -0.3463781 342.3957 269.0694 58.99701

0.2602495 0.0719906 -0.3463781 344.8534 269.9696 58.24973

0.2602495 0.0719906 -0.3463781 346.8846 270.9745 57.48593

0.263656 0.08534551 -0.3382383 346.8846 270.9745 57.48593

0.263656 0.08534551 -0.3382383 348.5923 271.9146 56.72736

0.263656 0.08534551 -0.3382383 350.1974 272.9132 56.11958

0.261965 0.07180075 -0.3426696 350.1975 272.9132 56.11958

0.2631721 0.07170361 -0.339039 351.7435 274.0192 55.80444

0.2631721 0.07170361 -0.339039 353.3478 275.208 55.7275

0.2653416 0.08501727 -0.3342369 354.7651 276.4124 55.75959

0.2653416 0.08501727 -0.3342369 354.7651 276.4124 55.75959

0.2663741 0.0847966 -0.3308912 355.8134 277.8333 55.59816

0.2646829 0.0715157 -0.335355 355.8134 277.8333 55.59817

0.2646829 0.0715157 -0.335355 357.0686 279.1443 55.51463

0.2646829 0.0715157 -0.335355 358.5651 280.8551 55.80054

0.2676808 0.08450703 -0.327523 0.04195273 283.3138 56.23161

0.2676808 0.08450703 -0.327523 0.04195273 283.3138 56.23161

0.2676808 0.08450703 -0.327523 1.551601 285.5913 56.40216

0.2659749 0.07134502 -0.3320136 1.551589 285.5913 56.40216

0.268957 0.08420166 -0.323884 2.815471 287.9996 56.72131

0.268957 0.08420166 -0.323884 2.815471 287.9996 56.72131

0.268957 0.08420166 -0.323884 2.941933 291.4932 56.76052

0.2672437 0.07116923 -0.3283966 4.207016 294.2261 56.66948

0.2677416 0.07110291 -0.3265501 4.207016 294.2261 56.66948

0.2697292 0.08401215 -0.3218139 4.207028 294.2261 56.66949

0.2697292 0.08401215 -0.3218139 5.443717 296.6331 56.61854

0.2697292 0.08401215 -0.3218139 5.443717 296.6331 56.61854

0.2694882 0.0840794 -0.3227375 6.309896 298.7864 56.41571

0.267758 0.07108589 -0.3272693 6.309903 298.7864 56.41571

0.2697284 0.08403285 -0.322549 6.948377 301.0539 56.39806

0.2697284 0.08403285 -0.322549 6.948377 301.0539 56.39806

0.2682857 0.06625448 -0.3256583 6.948379 301.0539 56.39806

0.2694512 0.07776804 -0.322131 7.341726 303.2556 56.72812

0.2694512 0.07776804 -0.322131 7.834503 305.5236 57.20558

0.2694512 0.07776804 -0.322131 8.272489 307.7645 57.84953

0.26584 0.06502636 -0.3229716 8.272492 307.7645 57.84953

0.26584 0.06502636 -0.3229716 8.985842 309.9617 58.36882

0.26584 0.06502636 -0.3229716 9.79195 311.9843 58.86881

0.2678136 0.07523755 -0.3191006 10.63309 313.9203 59.20563

0.2704253 0.07432938 -0.3066475 10.6331 313.9203 59.20564

0.2704253 0.07432938 -0.3066475 11.22507 315.963 59.64141

0.2590522 0.07606533 -0.315901 11.22507 315.963 59.64142

0.2590522 0.07606533 -0.315901 12.05908 317.701 59.4732

0.2590522 0.07606533 -0.315901 12.05908 317.701 59.4732

0.262385 0.07927388 -0.3123415 12.5308 319.3036 59.08962

0.2658231 0.07708328 -0.2913717 12.41446 320.9625 58.72705

0.2630998 0.06574894 -0.296575 12.07964 322.5594 58.32228

0.2630998 0.06574894 -0.296575 11.41944 323.9963 58.01227

0.2630998 0.06574894 -0.296575 11.41944 323.9963 58.01227

0.2661095 0.07432581 -0.2841651 10.85172 325.4536 58.04848

0.2661095 0.07432581 -0.2841651 10.20883 326.784 58.3944

0.2661095 0.07432581 -0.2841651 10.20883 326.784 58.3944

0.2661095 0.07432581 -0.2841651 9.675295 328.2524 59.02426

0.262299 0.06451304 -0.2900443 9.675302 328.2524 59.02426

0.2630776 0.06381041 -0.2795722 9.264606 329.7944 59.8218

0.2630776 0.06381041 -0.2795722 8.996194 331.3595 60.54268

0.2630776 0.06381041 -0.2795722 8.996194 331.3595 60.54268

0.2630776 0.06381041 -0.2795722 8.875688 332.958 61.1211

0.2656747 0.0708373 -0.2681072 8.250848 334.3075 61.92865

0.2656747 0.0708373 -0.2681072 8.250848 334.3075 61.92865

0.2657981 0.08005036 -0.2653784 8.250847 334.3075 61.92863

0.2657981 0.08005036 -0.2653784 7.815019 335.7879 62.58704

0.2657098 0.07851107 -0.2549675 6.934918 336.9 62.31217

0.2642666 0.06618138 -0.259918 6.93491 336.9 62.31217

0.2642666 0.06618138 -0.259918 6.586723 338.3716 61.89512

0.2642666 0.06618138 -0.259918 6.585348 339.8796 62.06963

0.2650273 0.0737175 -0.2432151 6.585345 339.8796 62.06964

0.2650273 0.0737175 -0.2432151 5.793583 341.1244 62.04131

0.2650273 0.0737175 -0.2432151 4.01275 340.9565 61.69701

0.2650273 0.0737175 -0.2432151 4.01275 340.9565 61.69701

0.2625379 0.06122376 -0.2386086 5.123223 341.2626 61.38906

0.2625379 0.06122376 -0.2386086 3.169611 340.194 60.45504

0.2625379 0.06122376 -0.2386086 3.169611 340.194 60.45504

0.2641922 0.06922624 -0.2345608 4.447594 340.1193 60.06384

0.2625601 0.06761596 -0.2236367 2.578231 339.5897 59.90073

0.2625601 0.06761596 -0.2236367 2.115433 338.5678 57.59487

0.2604139 0.0588218 -0.2285774 2.115429 338.5678 57.59486

0.2604139 0.0588218 -0.2285774 2.466591 338.4515 59.66975

0.2593068 0.05813939 -0.2223327 0.5549787 336.9998 59.80111

0.2593068 0.05813939 -0.2223327 0.5549787 336.9998 59.80111

0.2593068 0.05813939 -0.2223327 1.797372 337.3374 59.65544

0.2593068 0.05813939 -0.2223327 359.8833 336.0436 59.7509

0.2599221 0.06390747 -0.2128168 359.8833 336.0436 59.75091

0.2599221 0.06390747 -0.2128168 1.272224 336.2593 59.69595

0.2599221 0.06390747 -0.2128168 359.5038 335.3036 59.90827

0.2599221 0.06390747 -0.2128168 359.5038 335.3036 59.90827

0.2595702 0.06367704 -0.2112784 0.5385513 336.2618 59.7458

0.2567158 0.05845708 -0.2162171 0.5385599 336.2618 59.7458

0.2539706 0.0532467 -0.2207573 358.8241 335.2927 60.0568

0.2539706 0.0532467 -0.2207573 0.0998651 335.7906 61.22792

0.2539706 0.0532467 -0.2207573 0.0998651 335.7906 61.22792

0.2540346 0.05327242 -0.2210688 358.365 334.7712 61.12339

0.2514168 0.04808898 -0.225211 358.365 334.7712 61.12338

0.2514168 0.04808898 -0.225211 358.365 334.7712 61.12338

0.2514168 0.04808898 -0.225211 359.8212 335.3129 60.92066

0.2494544 0.04301515 -0.2317802 359.0227 333.6993 62.98534

0.2494544 0.04301515 -0.2317802 359.0227 333.6993 62.98534

0.2494544 0.04301515 -0.2317802 359.992 332.6479 64.87267

0.2494544 0.04301515 -0.2317802 359.39 329.8784 65.09438

0.2477726 0.03781999 -0.2392288 359.39 329.8784 65.09438

0.248223 0.02734693 -0.2401864 1.094258 330.3859 65.27009

0.248223 0.02734693 -0.2401864 1.094258 330.3859 65.27009

0.248818 0.01712913 -0.2405165 359.6449 330.3842 65.60456

0.2490945 0.01693398 -0.2424001 1.392785 330.9358 65.34685

0.2490945 0.01693398 -0.2424001 359.9613 330.7719 65.3811

0.2490945 0.01693398 -0.2424001 359.9613 330.7719 65.3811

0.2490945 0.01693398 -0.2424001 1.844112 330.5448 65.67223

0.2496422 0.0165002 -0.2464871 0.3009566 329.4476 65.54917

0.250187 0.006126938 -0.2464109 2.105525 328.9101 65.44151

0.250187 0.006126938 -0.2464109 2.105525 328.9101 65.44151

0.250187 0.006126938 -0.2464109 0.6229264 328.095 65.42117

0.2506381 0.005555877 -0.2501684 2.583112 327.6814 65.45061

0.2506381 0.005555877 -0.2501684 2.583112 327.6814 65.45061

0.2506381 0.005555877 -0.2501684 1.169602 326.9943 66.1567

0.251384 -0.004667215 -0.249437 1.652236 328.256 67.90628

0.2519074 -0.005655813 -0.254416 2.629866 329.1581 66.31655

0.2519074 -0.005655813 -0.254416 2.629866 329.1581 66.31655

0.2528823 -0.01573305 -0.2530215 1.149601 328.7656 66.60554

0.2528823 -0.01573305 -0.2530215 2.948273 329.4413 66.50569

0.2528823 -0.01573305 -0.2530215 2.948273 329.4413 66.50569

0.2544315 -0.0270801 -0.255311 4.863854 330.0976 66.55898

0.2544315 -0.0270801 -0.255311 4.863854 330.0976 66.55898

0.2544315 -0.0270801 -0.255311 3.37315 328.8676 66.64832

0.2544315 -0.0270801 -0.255311 5.044151 328.8821 65.70424

0.2548561 -0.02879723 -0.261107 4.351062 329.9373 64.88068

0.2548561 -0.02879723 -0.261107 4.351062 329.9373 64.88068

0.2563075 -0.03889518 -0.2583629 4.936554 329.4573 67.04798

0.2563075 -0.03889518 -0.2583629 5.76805 331.4096 66.92793

0.2584007 -0.0508584 -0.2609164 4.212501 330.9692 67.13747

0.2584007 -0.0508584 -0.2609164 4.212501 330.9692 67.13747

0.2584007 -0.0508584 -0.2609164 5.873463 331.1555 65.86505

0.2584007 -0.0508584 -0.2609164 5.873463 331.1555 65.86505

0.2604674 -0.06018905 -0.256844 5.106657 331.7611 66.97759

0.2607577 -0.06347408 -0.2641034 6.421492 333.0013 68.25846

0.2607577 -0.06347408 -0.2641034 6.421492 333.0013 68.25846

0.2607577 -0.06347408 -0.2641034 4.861246 332.8092 68.25455

0.2607577 -0.06347408 -0.2641034 6.722224 333.338 68.43336

0.2632934 -0.07425112 -0.2627096 6.72222 333.338 68.43336

0.2632934 -0.07425112 -0.2627096 6.119884 333.4633 66.7114

0.2632934 -0.07425112 -0.2627096 6.119884 333.4633 66.7114

0.2633086 -0.07673109 -0.2675312 7.505743 333.7736 68.34874

0.2661947 -0.0854556 -0.2619728 5.939537 333.4884 68.09216

0.2661947 -0.0854556 -0.2619728 7.394685 333.9293 69.45007

0.2661947 -0.0854556 -0.2619728 5.640687 333.4661 69.32627

0.2694662 -0.09583806 -0.259633 5.640688 333.4661 69.32627

0.2694662 -0.09583806 -0.259633 6.402348 331.7966 68.69174

0.2731449 -0.1032183 -0.2528717 5.622225 333.1168 68.05625

0.2731449 -0.1032183 -0.2528717 5.607064 332.4711 70.44888

0.2731602 -0.1044843 -0.2547106 5.607067 332.4711 70.44887

0.2731602 -0.1044843 -0.2547106 5.406341 333.3422 68.82562

0.2731602 -0.1044843 -0.2547106 5.25484 334.1776 71.15247

0.2772706 -0.1110825 -0.2473715 5.219733 334.0997 69.13531

0.2773012 -0.1124226 -0.249157 5.219732 334.0997 69.13531

0.2773012 -0.1124226 -0.249157 6.033566 334.9918 71.30579

0.2818719 -0.1181519 -0.2412515 5.699631 334.7114 69.19767

0.2818719 -0.1181519 -0.2412515 6.491124 334.9344 71.42962

0.2870334 -0.1251633 -0.2354711 6.491126 334.9344 71.42961

0.2870334 -0.1251633 -0.2354711 5.622649 333.355 70.20882

0.2870334 -0.1251633 -0.2354711 7.417581 333.6176 70.37367

0.29262 -0.1287986 -0.2264622 5.946047 332.5324 70.03464

0.292702 -0.129896 -0.2276164 5.946033 332.5324 70.03461

0.292702 -0.129896 -0.2276164 7.62984 332.8139 69.39132

0.292702 -0.129896 -0.2276164 6.111007 331.9128 69.04762

0.2988717 -0.1322618 -0.2180348 7.908764 332.3235 68.90792

0.2988717 -0.1322618 -0.2180348 7.908764 332.3235 68.90792

0.2988717 -0.1322618 -0.2180348 9.525014 333.1866 69.53099

0.2988717 -0.1322618 -0.2180348 7.821649 332.6028 69.01911

0.2988717 -0.1322618 -0.2180348 9.334986 333.3278 69.58568

0.3056893 -0.1333551 -0.2080822 9.33498 333.3278 69.58567

0.3056893 -0.1333551 -0.2080822 7.523715 332.3595 69.5119

0.3056893 -0.1333551 -0.2080822 9.040978 332.9071 68.91679

0.3056893 -0.1333551 -0.2080822 7.311759 331.8621 68.75327

0.313152 -0.1322187 -0.1970044 7.311759 331.8621 68.75327

0.313152 -0.1322187 -0.1970044 8.721581 332.1328 67.58529

0.3214682 -0.1292475 -0.1852294 7.267012 331.8306 68.7231

0.3214682 -0.1292475 -0.1852294 8.868708 332.5087 68.21499

0.3216274 -0.1299791 -0.1858251 8.868718 332.5087 68.215

0.3216274 -0.1299791 -0.1858251 7.313514 332.1843 68.67748

0.3308735 -0.1247412 -0.1727195 9.083193 332.8216 69.45729

0.3308735 -0.1247412 -0.1727195 7.791403 331.9755 70.66438

0.3310038 -0.1252348 -0.173102 9.59271 332.3978 70.06853

0.3310038 -0.1252348 -0.173102 9.59271 332.3978 70.06853

0.3409449 -0.1182994 -0.1580297 8.074893 331.5363 70.3963

0.3409449 -0.1182994 -0.1580297 9.801068 332.3771 70.53757

0.3410237 -0.1185472 -0.1582144 9.801068 332.3771 70.53757

0.3507148 -0.1127341 -0.1402588 8.636744 332.5391 72.19991

0.3507148 -0.1127341 -0.1402588 9.863327 332.7934 70.81213

0.3507148 -0.1127341 -0.1402588 9.863327 332.7934 70.81213

0.3507148 -0.1127341 -0.1402588 8.498016 331.973 69.76161

0.358329 -0.1127794 -0.1187128 9.725538 331.9851 71.56053

0.358329 -0.1127794 -0.1187128 9.725538 331.9851 71.56053

0.358329 -0.1127794 -0.1187128 8.701877 329.6567 70.63007

0.3639938 -0.1154931 -0.09685764 7.546325 330.7462 71.84665

0.3638814 -0.1152411 -0.09669761 7.546323 330.7462 71.84666

0.3693716 -0.1141188 -0.07471412 8.057259 329.7906 69.81707

0.3693716 -0.1141188 -0.07471412 6.939929 330.4547 71.29974

0.3693716 -0.1141188 -0.07471412 6.939929 330.4547 71.29974

0.3694942 -0.114373 -0.07486282 7.279627 330.192 69.04499

0.3695803 -0.1189372 -0.06690205 7.279627 330.192 69.04499

0.3695803 -0.1189372 -0.06690205 6.259928 330.2009 70.93781

0.3695803 -0.1189372 -0.06690205 6.259928 330.2009 70.93781

0.3707024 -0.1194007 -0.05945376 6.259923 330.2009 70.93781

0.3703258 -0.1186263 -0.05903661 7.537813 330.8366 69.60479

0.3703258 -0.1186263 -0.05903661 8.601602 330.9327 71.35586

0.3716193 -0.1169944 -0.05394528 8.629643 330.074 69.15521

0.3716193 -0.1169944 -0.05394528 8.629643 330.074 69.15521

0.3717484 -0.1172495 -0.05408679 9.40626 329.8596 71.21561

0.3721071 -0.1173024 -0.05144091 8.528462 329.7072 69.39083

0.3721071 -0.1173024 -0.05144091 9.552518 330.3741 71.32536

0.3721071 -0.1173024 -0.05144091 9.552518 330.3741 71.32536

0.3725109 -0.1173842 -0.04642602 10.45982 330.149 73.43262

0.3725109 -0.1173842 -0.04642602 10.45982 330.149 73.43262

0.3725109 -0.1173842 -0.04642602 8.921781 329.9214 71.93261

0.3728932 -0.1131042 -0.0534493 8.921782 329.9214 71.93261

0.3726283 -0.1125952 -0.05317062 6.74325 330.5319 71.97685

0.3726283 -0.1125952 -0.05317062 4.987442 331.4708 73.23664

0.3685834 -0.1240542 -0.05579884 4.987453 331.4708 73.23666

0.3685834 -0.1240542 -0.05579884 4.875793 331.0497 75.86166

0.3664186 -0.1196998 -0.0534007 4.864391 333.4187 76.0032

0.3702679 -0.1092007 -0.04918485 4.864391 333.4187 76.0032

0.3702679 -0.1092007 -0.04918485 2.995389 332.032 76.80073

0.3697495 -0.1124063 -0.04574203 1.913031 329.9317 77.09568

0.3682019 -0.1096417 -0.04423524 1.913032 329.9317 77.09568

0.3682019 -0.1096417 -0.04423524 3.070412 331.046 76.25241

0.3682019 -0.1096417 -0.04423524 1.066345 330.9369 77.11733

0.3682019 -0.1096417 -0.04423524 0.231276 331.937 79.34863

0.3644899 -0.1038479 -0.03777356 0.2312879 331.937 79.34863

0.3644899 -0.1038479 -0.03777356 0.2102346 331.493 77.78141

0.364976 -0.1035487 -0.03367885 359.4271 331.1404 79.94453

0.364976 -0.1035487 -0.03367885 359.7787 330.6486 78.96463

0.3613175 -0.09789531 -0.03076954 359.7787 330.6486 78.96462

0.3615744 -0.09521604 -0.03575596 0.1655307 330.108 78.86452

0.3615744 -0.09521604 -0.03575596 359.1479 329.1264 80.42256

0.3615744 -0.09521604 -0.03575596 359.1479 329.1264 80.42256

0.3547539 -0.08560476 -0.03087424 0.4895692 330.4908 80.28228

0.3547539 -0.08560476 -0.03087424 0.4895692 330.4908 80.28228

0.3545113 -0.08775458 -0.02743335 358.8019 330.0281 80.60632

0.3545113 -0.08775458 -0.02743335 358.8019 330.0281 80.60632

0.34801 -0.07999242 -0.02309185 358.831 330.0715 78.92751

0.34801 -0.07999242 -0.02309185 358.831 330.0715 78.92751

0.34801 -0.07999242 -0.02309185 359.0726 329.2325 78.3624

0.34801 -0.07999242 -0.02309185 356.957 329.7973 77.36152

0.3423455 -0.07335305 -0.01572464 356.9571 329.7973 77.3615

0.3423455 -0.07335305 -0.01572464 354.7941 329.546 77.14059

0.3423455 -0.07335305 -0.01572464 352.7797 328.8637 76.7844

0.3423455 -0.07335305 -0.01572464 352.7797 328.8637 76.7844

0.3361698 -0.06678052 -0.01253 352.6689 328.2094 76.53838

0.3361698 -0.06678052 -0.01253 352.6689 328.2094 76.53838

0.3363983 -0.06429777 -0.01813105 352.412 328.1778 74.6404

0.3363983 -0.06429777 -0.01813105 352.412 328.1778 74.6404

0.3363983 -0.06429777 -0.01813105 350.795 327.0473 75.26546

0.330756 -0.06122724 -0.01264105 351.8097 328.9192 74.19138

0.330756 -0.06122724 -0.01264105 351.8097 328.9192 74.19138

0.330756 -0.06122724 -0.01264105 349.555 328.4882 74.62154

0.330737 -0.06139822 -0.01230563 347.4495 328.0593 75.64727

0.3240671 -0.05517074 -0.009429152 347.4496 328.0593 75.64727

0.3240671 -0.05517074 -0.009429152 347.6738 328.0548 76.87786

0.3241308 -0.05532031 -0.005574785 345.2642 328.5653 75.82447

0.3241308 -0.05532031 -0.005574785 345.2642 328.5653 75.82447

0.3188036 -0.0484648 -0.00830335 345.6794 329.5956 76.9854

0.3188036 -0.0484648 -0.00830335 345.6794 329.5956 76.9854

0.3186007 -0.05020473 -0.005156371 345.6794 329.5956 76.9854

0.3186007 -0.05020473 -0.005156371 345.6794 329.5956 76.9854

0.3186007 -0.05020473 -0.005156371 344.1728 328.8987 75.72781

0.3111807 -0.04429593 -0.002367829 341.1455 330.4934 74.48451

0.3111903 -0.04414308 -0.003624823 341.1455 330.4933 74.4845

0.3111903 -0.04414308 -0.003624823 337.8732 331.6244 73.22582

0.3111903 -0.04414308 -0.003624823 334.9052 332.6821 70.92062

0.3074598 -0.04177909 0.001421953 334.9052 332.6821 70.92062

0.3074598 -0.04177909 0.001421953 333.1148 334.0512 68.43634

0.3074598 -0.04177909 0.001421953 331.743 336.0346 66.8147

0.3076968 -0.03985712 -0.003620932 331.743 336.0346 66.8147

0.3042008 -0.0373292 -0.002469617 328.3418 336.5872 67.20184

0.3042008 -0.0373292 -0.002469617 324.9364 337.5294 67.45486

0.3039975 -0.03902538 0.0005215716 324.9364 337.5294 67.45484

0.3039975 -0.03902538 0.0005215716 324.9364 337.5294 67.45484

0.3037457 -0.03884733 0.0006032216 321.9202 339.5244 65.86851

0.3037682 -0.038671 -0.0006088006 319.2874 341.5628 63.84099

0.3037682 -0.038671 -0.0006088006 319.2874 341.5628 63.84099

0.3037682 -0.038671 -0.0006088006 317.6686 344.0413 61.4371

0.3037682 -0.038671 -0.0006088006 317.6686 344.0413 61.4371

0.3051121 -0.05266919 -0.008740639 315.1387 344.9177 60.937

0.3025541 -0.06456243 -0.01537981 315.1387 344.9177 60.937

0.3025541 -0.06456243 -0.01537981 314.4888 346.6154 60.57904

0.3025541 -0.06456243 -0.01537981 310.5551 348.7732 59.35667

0.3032238 -0.08056535 -0.02311566 310.5551 348.7732 59.35667

0.3032238 -0.08056535 -0.02311566 307.0025 351.7387 56.60019

0.3032238 -0.08056535 -0.02311566 304.0923 356.3271 52.17373

0.299172 -0.09298734 -0.02862268 304.0923 356.3271 52.17372

0.3095815 -0.1056625 -0.0338659 302.299 2.426858 46.8471

0.3095815 -0.1056625 -0.0338659 300.3996 6.28523 43.81038

0.3042795 -0.1186143 -0.03868851 300.3996 6.285242 43.81038

0.3042795 -0.1186143 -0.03868851 298.34 5.914862 44.27817

0.3137585 -0.1336642 -0.04481854 298.34 5.914859 44.27816

0.3137585 -0.1336642 -0.04481854 296.9867 4.170477 46.55988

0.3071439 -0.1469835 -0.04876159 297.4537 2.675663 48.41898

0.3071439 -0.1469835 -0.04876159 297.4537 2.675663 48.41898

0.3074696 -0.178737 -0.05892422 295.6789 1.705005 49.45294

0.3074696 -0.178737 -0.05892422 295.249 1.263434 50.07038

0.3074696 -0.178737 -0.05892422 295.249 1.263434 50.07038

0.2977544 -0.1910335 -0.06931839 295.249 1.263427 50.07041

0.2909204 -0.2195024 -0.08600722 295.105 1.206159 50.34385

0.2909204 -0.2195024 -0.08600722 295.105 1.206159 50.34385

0.2799632 -0.2299793 -0.09456933 292.4218 6.051013 45.90999

0.2799632 -0.2299793 -0.09456933 292.4218 6.051013 45.90999

0.2693476 -0.2393741 -0.1018091 290.003 11.95897 40.32441

0.2671299 -0.2503665 -0.1245346 287.8651 18.83824 33.76046

0.2649184 -0.2450771 -0.1389465 287.8651 18.83821 33.76048

0.2649184 -0.2450771 -0.1389465 287.0935 28.46491 24.68789

0.2609164 -0.2412748 -0.1525113 286.268 38.07808 15.75967

0.2625084 -0.2432982 -0.1756555 286.268 38.07806 15.75967

0.2654198 -0.2298823 -0.1888545 286.3962 39.49207 14.70278

0.2654198 -0.2298823 -0.1888545 286.3962 39.49207 14.70278

0.2654198 -0.2298823 -0.1888545 284.8624 47.85695 7.031584

0.2654198 -0.2298823 -0.1888545 285.3493 47.3063 8.192586

0.265208 -0.2280163 -0.212261 285.3493 47.30632 8.192583

0.265208 -0.2280163 -0.212261 285.2177 58.50563 357.3241

0.265208 -0.2280163 -0.212261 287.3278 60.2119 356.73

0.2583763 -0.2202094 -0.2283221 287.3278 60.21189 356.73

0.2530479 -0.2367629 -0.242814 288.0155 69.27655 347.7773

0.2460288 -0.2397992 -0.2470117 288.0155 69.27657 347.7773

0.2460288 -0.2397992 -0.2470117 288.0155 69.27657 347.7773

0.2460288 -0.2397992 -0.2470117 288.5414 66.5475 351.6739

0.2268156 -0.2598242 -0.2696495 289.4206 78.99782 339.3869

0.2268156 -0.2598242 -0.2696495 289.4206 78.99782 339.3869
