0.01561723 -5.722046E-08 -0.5097954 270.0198 -2.561321E-06 0

0.006926594 -0.01788889 -0.5096508 271.1783 158.1216 201.1238

0.006926594 -0.01788889 -0.5096508 271.1783 158.1216 201.1238

0.006926594 -0.01788889 -0.5096508 271.1783 158.1216 201.1238

0.01272053 0.001426964 -0.509851 271.007 47.23306 312.2364

0.01272053 0.001426964 -0.509851 271.007 47.23306 312.2364

-0.01769861 -0.01669676 -0.5096996 270.9044 2.791988 356.3078

-0.01138083 0.002502594 -0.510147 270.8323 56.40098 302.4102

-0.02021888 -0.01569729 -0.5096376 272.1772 337.112 21.76097

-0.02021888 -0.01569729 -0.5096376 272.1772 337.112 21.76097

-0.01682051 -0.003272838 -0.5099884 274.3734 326.4859 32.57074

-0.01343576 0.006917553 -0.5100524 276.6954 322.8582 36.46072

-0.00974486 0.01775476 -0.5098741 278.9171 324.0703 35.5695

-0.005918188 0.02782963 -0.5094824 278.9171 324.0703 35.5695

-0.005601734 0.02779095 -0.5094918 281.1115 324.4294 35.4712

-0.003727986 0.03244972 -0.5092335 281.4766 315.8773 43.15646

-0.003727986 0.03244972 -0.5092335 281.4766 315.8773 43.15646

-0.006033503 0.02852257 -0.5094464 281.1226 316.1228 42.2199

-0.006033503 0.02852257 -0.5094464 281.1226 316.1228 42.2199

-0.003077289 0.03900475 -0.5087779 280.9603 317.5491 40.22838

-0.003077289 0.03900475 -0.5087779 280.9603 317.5491 40.22838

-0.01164393 0.02310276 -0.5096237 280.959 321.0149 36.39124

-0.006549419 0.04151293 -0.5085464 281.3881 322.3052 34.65023

-0.01662423 0.02346079 -0.5094692 281.1383 323.2544 33.20686

-0.01662423 0.02346079 -0.5094692 281.1383 323.2544 33.20686

-0.01451322 0.0360387 -0.5087988 281.5302 328.152 28.28323

-0.02192098 0.02313938 -0.5092835 281.5809 322.2303 33.51437

-0.01309007 0.04026412 -0.5085205 282.9709 324.253 31.3297

-0.01692622 0.03079605 -0.5090647 282.4096 321.1871 33.58473

-0.01692622 0.03079605 -0.5090647 282.4096 321.1871 33.58473

-0.00903164 0.04661676 -0.5080621 282.9137 326.8093 27.8916

-0.00903164 0.04661676 -0.5080621 282.9137 326.8093 27.8916

-0.01545058 0.02874052 -0.5092356 282.3293 320.0774 33.78657

-0.01242091 0.03759836 -0.5087414 283.0549 322.8283 30.77387

-0.02186631 0.0199272 -0.5094217 282.5364 317.2766 35.47377

-0.02186631 0.0199272 -0.5094217 282.5364 317.2766 35.47377

-0.01416926 0.03845441 -0.5086316 282.8703 321.3817 31.05722

-0.01416926 0.03845441 -0.5086316 282.8703 321.3817 31.05722

-0.01385723 0.03839055 -0.5086487 282.2417 320.854 30.87081

-0.020818 0.02465887 -0.5092621 282.968 323.6332 27.80375

-0.020818 0.02465887 -0.5092621 282.968 323.6332 27.80375

-0.01367069 0.04345513 -0.5082425 282.5908 319.5216 31.08445

-0.02233867 0.02573959 -0.5091406 283.088 322.0882 28.15133

-0.01843634 0.04188783 -0.5082236 283.5969 320.4404 29.14187

-0.01843634 0.04188783 -0.5082236 283.5969 320.4404 29.14187

-0.02716296 0.02366512 -0.5090166 282.8492 319.5259 29.27762

-0.02034237 0.04142584 -0.5081986 282.8492 319.5259 29.27764

-0.02034237 0.04142584 -0.5081986 283.54 323.4352 25.1785

-0.02513323 0.03338511 -0.508576 283.4569 321.0549 26.81088

-0.02513323 0.03338511 -0.508576 283.4569 321.0549 26.81088

-0.0192297 0.05111266 -0.5073594 283.686 323.4774 23.95912

-0.01998517 0.0512261 -0.5073109 283.686 323.4774 23.95912

-0.02743627 0.03249367 -0.508507 284.1104 326.2239 20.90286

-0.01982884 0.04512975 -0.5078956 283.7667 323.0244 23.32839

-0.02455816 0.03121101 -0.5087343 283.9232 320.5762 24.97655

-0.02455816 0.03121101 -0.5087343 283.9232 320.5762 24.97655

-0.01512313 0.04363973 -0.5081931 283.5822 321.5235 23.21198

-0.01512313 0.04363973 -0.5081931 283.5822 321.5235 23.21198

-0.0214685 0.0285054 -0.5090382 283.7993 324.8511 19.42399

-0.01615636 0.03887352 -0.5085481 284.3323 323.18 20.4309

-0.01615636 0.03887352 -0.5085481 284.3323 323.18 20.4309

-0.02456662 0.02037106 -0.5092803 283.1085 322.2876 20.37676

-0.02456662 0.02037106 -0.5092803 283.1085 322.2876 20.37676

-0.02456662 0.02037106 -0.5092803 283.0752 325.9357 16.23084

-0.0164876 0.0385766 -0.5085517 283.0752 325.9357 16.23086

-0.02256235 0.01880007 -0.5094334 283.3623 326.2562 15.19077

-0.01231503 0.03478217 -0.5089542 283.0071 326.2842 14.23044

-0.01231503 0.03478217 -0.5089542 283.356 330.2737 9.736588

-0.01645414 0.01417402 -0.5098276 283.356 330.2737 9.736599

-0.00625775 0.02938517 -0.5094047 283.7338 330.4033 8.858565

-0.006132543 0.02936102 -0.5094088 283.4992 336.347 2.872574

-0.009828522 0.01307035 -0.5100291 283.4992 336.347 2.872571

0.001058698 0.02625973 -0.5096139 284.0012 333.6595 4.903655

0.001058698 0.02625973 -0.5096139 284.0012 333.6595 4.903655

0.001058698 0.02625973 -0.5096139 283.4317 328.2323 9.279425

-0.005737109 0.008835125 -0.5101856 282.843 329.9477 6.70283

-0.002802873 0.0139385 -0.5100963 283.7763 330.1652 5.821111

-0.006347255 0.005319557 -0.5102272 283.7763 330.1652 5.821089

-0.006347255 0.005319557 -0.5102272 283.7255 324.4015 10.43223

-0.001786288 0.01714245 -0.5100005 283.7255 324.4015 10.43224

-0.001786288 0.01714245 -0.5100005 283.7255 324.4015 10.43224

-0.00581691 0.005496196 -0.510229 284.4004 322.2244 11.48553

-0.00581691 0.005496196 -0.510229 284.4004 322.2244 11.48553

0.002162639 0.02390505 -0.5097268 284.2484 323.3387 9.269269

0.002853258 0.02378122 -0.5097349 284.2484 323.3387 9.269258

-0.004737681 0.007362328 -0.5102222 284.935 325.554 6.397232

-0.004737681 0.007362328 -0.5102222 284.935 325.554 6.397232

0.003389742 0.02834272 -0.5094984 284.935 325.554 6.397219

0.003389742 0.02834272 -0.5094984 285.3348 323.1954 7.480783

-0.001161576 0.0276931 -0.5095426 285.3561 316.121 12.43117

-0.00044431 0.03301563 -0.5092266 285.8254 308.6581 17.2661

-0.00044431 0.03301563 -0.5092266 285.8254 308.6581 17.2661

-0.00044431 0.03301563 -0.5092266 286.4205 299.0697 24.09549

-0.002810274 0.03225591 -0.5092696 286.6926 291.8248 28.65878

-0.00129985 0.03785591 -0.50889 287.0976 285.61 32.10573

-0.00129985 0.03785591 -0.50889 287.0976 285.61 32.10573

2.994679E-05 0.04257334 -0.5085188 287.2489 282.5706 32.17453

0.004600544 0.04707673 -0.5081103 288.0098 281.7162 30.16283

0.004600544 0.04707673 -0.5081103 288.0098 281.7162 30.16283

0.01025975 0.05364738 -0.5073758 288.0098 281.7162 30.16283

0.01025975 0.05364738 -0.5073758 288.0098 281.7162 30.16283

0.01025975 0.05364738 -0.5073758 288.0098 281.7162 30.16283

0.02545828 0.05822502 -0.5062467 290.1227 277.691 31.58739

0.03092376 0.07755996 -0.503341 292.4987 277.3718 29.56894

0.03092376 0.07755996 -0.503341 291.4757 281.5549 23.30065

0.02866276 0.06329452 -0.5054663 291.4757 281.5549 23.30065

0.0434773 0.07506331 -0.5022939 293.202 281.5839 21.40359

0.0434773 0.07506331 -0.5022939 293.0296 275.9137 24.47003

0.03230666 0.05913056 -0.5052562 293.7812 279.5844 19.84162

0.03747525 0.07729528 -0.502439 293.7812 279.5844 19.84161

0.04835547 0.07560185 -0.5010505 290.8028 279.5417 18.52524

0.03260875 0.07292003 -0.5027175 292.1664 279.4767 17.46533

0.03260875 0.07292003 -0.5027175 292.1664 279.4767 17.46533

0.03096675 0.09093944 -0.4998766 290.2108 282.0963 14.28949

0.02225367 0.07660249 -0.5027348 290.2108 282.0963 14.2895

0.002824879 0.07971165 -0.503811 291.4326 285.058 10.5401

0.002824879 0.07971165 -0.503811 291.4326 285.058 10.5401

0.005828112 0.09276088 -0.5015466 291.4326 285.058 10.54008

0.005828112 0.09276088 -0.5015466 291.4326 285.058 10.54008

0.005828112 0.09276088 -0.5015466 290.6833 287.8601 7.219713

0.1029836 0.06486399 -0.4755912 290.6833 287.8601 7.219724

0.0938613 0.06216162 -0.4778346 290.0643 289.1125 5.753099

0.0938613 0.06216162 -0.4778346 290.0643 289.1125 5.753099

0.08908601 0.06184994 -0.4787883 290.9081 288.1148 6.2883

0.08908601 0.06184994 -0.4787883 290.9081 288.1148 6.2883

0.1223978 0.05718996 -0.455096 291.5798 287.3269 6.583678

0.1198849 0.05584536 -0.4559311 292.9653 286.0911 7.211002

0.1198849 0.05584536 -0.4559311 292.9653 286.0911 7.211002

0.1148804 0.04487088 -0.4584249 292.8928 286.2156 6.840691

0.1421861 0.05062783 -0.4327584 295.3491 283.3379 8.963982

0.1421861 0.05062783 -0.4327584 295.3491 283.3379 8.963982

0.1424921 0.04870645 -0.4328782 296.2048 283.4351 8.052353

0.1401605 0.03237983 -0.4351626 296.2048 283.4351 8.052339

0.1401605 0.03237983 -0.4351626 298.3233 279.5502 10.46445

0.163904 0.03958526 -0.4132449 300.902 274.6646 14.10895

0.163904 0.03958526 -0.4132449 300.902 274.6646 14.10895

0.1732045 0.02061979 -0.4108258 302.8041 270.2958 18.30516

0.1732045 0.02061979 -0.4108258 302.8041 270.2958 18.30516

0.1732045 0.02061979 -0.4108258 305.3391 267.2329 20.58937

0.1732045 0.02061979 -0.4108258 305.3391 267.2329 20.58937

0.1900312 0.03345125 -0.391607 305.3391 267.2329 20.58936

0.1900312 0.03345125 -0.391607 307.377 264.5865 23.05687

0.1900312 0.03345125 -0.391607 309.5087 261.5954 25.48122

0.1980416 0.03256502 -0.387693 309.5087 261.5954 25.48122

0.2034068 0.03528179 -0.3764432 309.5087 261.5954 25.48121

0.2124078 0.02407259 -0.3723332 311.0381 259.1556 27.58153

0.2124078 0.02407259 -0.3723332 312.4543 256.8751 29.6795

0.2124078 0.02407259 -0.3723332 312.4543 256.8751 29.6795

0.2228473 0.03554887 -0.3595167 314.0455 254.6562 31.71036

0.2228473 0.03554887 -0.3595167 314.0455 254.6562 31.71036

0.2186751 0.01657139 -0.3634329 314.0455 254.6562 31.71036

0.2144373 -0.002725553 -0.3663141 314.0455 254.6562 31.71035

0.2164684 -0.0009285736 -0.3608949 315.6827 252.8546 33.62692

0.213078 -0.0189689 -0.362412 315.6827 252.8546 33.62693

0.213078 -0.0189689 -0.362412 317.0946 251.8574 35.23987

0.2095748 -0.03845097 -0.3629111 318.3839 251.4135 36.58376

0.2095748 -0.03845097 -0.3629111 318.3839 251.4135 36.58376

0.2048122 -0.05800103 -0.3630322 319.6559 251.2932 37.96409

0.2062024 -0.07267799 -0.352458 321.0531 251.1885 39.35119

0.2136784 -0.07130373 -0.3482606 321.0531 251.1885 39.3512

0.2096944 -0.08864819 -0.3466957 322.4274 251.1371 40.83574

0.2096944 -0.08864819 -0.3466957 323.9447 251.1041 42.33694

0.2188322 -0.08013562 -0.3382386 325.526 250.9971 43.88589

0.2162325 -0.09510709 -0.3360249 325.526 250.9971 43.88589

0.2162325 -0.09510709 -0.3360249 327.8767 250.7086 45.27453

0.215684 -0.1072679 -0.3326989 330.6678 250.1526 46.69455

0.2184054 -0.113586 -0.3262586 333.4197 249.6818 48.15103

0.2184054 -0.113586 -0.3262586 333.4197 249.6818 48.15103

0.2281153 -0.1055664 -0.3222834 333.4197 249.6818 48.15102

0.2284017 -0.1048295 -0.3212821 333.4197 249.6818 48.15102

0.2256615 -0.1177007 -0.3187509 333.4197 249.6818 48.15102

0.2256615 -0.1177007 -0.3187509 333.4197 249.6818 48.15102

0.2256615 -0.1177007 -0.3187509 333.4197 249.6818 48.15102

0.2332101 -0.1154843 -0.3140942 335.3665 249.554 49.38829

0.2332101 -0.1154843 -0.3140942 335.3665 249.554 49.38829

0.2296033 -0.129235 -0.311383 335.3664 249.554 49.3883

0.2296033 -0.129235 -0.311383 335.3664 249.554 49.3883

0.2296202 -0.1395167 -0.3038819 336.8032 249.4803 50.40912

0.2359117 -0.1334225 -0.3017925 336.8032 249.4803 50.40913

0.2359117 -0.1334225 -0.3017925 339.6709 249.2146 51.02912

0.2344711 -0.1466811 -0.2967196 339.6709 249.2146 51.02912

0.2406592 -0.1396253 -0.2937376 342.2117 249.3463 51.6517

0.2384955 -0.1517178 -0.2894744 344.6828 249.4724 52.2141

0.2384955 -0.1517178 -0.2894744 347.105 249.8141 52.83366

0.2488379 -0.1420926 -0.2856278 347.105 249.8141 52.83366

0.2433148 -0.158527 -0.2814118 349.9469 249.8541 53.16526

0.2433148 -0.158527 -0.2814118 349.9469 249.8541 53.16526

0.2433148 -0.158527 -0.2814118 353.0241 250.0787 53.42167

0.2433148 -0.158527 -0.2814118 356.1412 250.2818 53.60245

0.2435509 -0.1573371 -0.2803766 359.2234 250.4992 53.7328

0.2435509 -0.1573371 -0.2803766 359.2234 250.4992 53.7328

0.2435509 -0.1573371 -0.2803766 2.096897 250.8866 53.96133

0.2445175 -0.157547 -0.2794157 2.096884 250.8866 53.96133

0.2445175 -0.157547 -0.2794157 4.670806 251.7206 54.39243

0.2445175 -0.157547 -0.2794157 4.670806 251.7206 54.39243

0.236079 -0.1601183 -0.2812736 7.092752 252.8491 54.96754

0.236079 -0.1601183 -0.2812736 9.466866 253.833 55.58121

0.236079 -0.1601183 -0.2812736 11.56213 254.823 56.25519

0.2440648 -0.1499769 -0.2800451 13.46724 255.8637 56.90924

0.2445 -0.1474224 -0.2776799 13.46723 255.8637 56.90924

0.2370251 -0.1641291 -0.2747736 15.2319 257.1352 57.67172

0.2496011 -0.1592561 -0.2663769 16.78289 258.6988 58.65778

0.2496011 -0.1592561 -0.2663769 17.9525 260.5855 59.85773

0.2499364 -0.1565932 -0.2641172 17.9525 260.5855 59.85774

0.2499364 -0.1565932 -0.2641172 19.11207 262.376 60.91261

0.2499364 -0.1565932 -0.2641172 19.11207 262.376 60.91261

0.2499364 -0.1565932 -0.2641172 20.16866 264.1315 61.84902

0.2501992 -0.1541795 -0.262049 21.14449 265.9804 62.74399

0.2501992 -0.1541795 -0.262049 21.79556 268.093 63.79451

0.2505115 -0.165359 -0.2548353 21.79555 268.093 63.79451

0.2505115 -0.165359 -0.2548353 22.13811 270.4464 64.94735

0.2505115 -0.165359 -0.2548353 22.13811 270.4464 64.94735

0.2505115 -0.165359 -0.2548353 22.63208 272.6698 65.71819

0.2610346 -0.1578007 -0.2493419 23.49225 274.6296 66.21609

0.2610346 -0.1578007 -0.2493419 23.49225 274.6296 66.21609

0.2610346 -0.1578007 -0.2493419 24.13344 276.7673 66.91539

0.2610346 -0.1578007 -0.2493419 24.13344 276.7673 66.91539

0.2560894 -0.1753354 -0.2423146 24.48938 279.0434 67.64475

0.2560894 -0.1753354 -0.2423146 24.48938 279.0434 67.64475

0.2560894 -0.1753354 -0.2423146 25.07933 280.9922 68.40721

0.2618065 -0.1695566 -0.2403093 25.26534 282.9887 69.515

0.2618065 -0.1695566 -0.2403093 25.26534 282.9887 69.515

0.2674932 -0.1639836 -0.2379021 25.22646 284.9064 70.57956

0.2674932 -0.1639836 -0.2379021 25.22646 284.9064 70.57956

0.2674932 -0.1639836 -0.2379021 25.21696 287.4839 72.1378

0.2674932 -0.1639836 -0.2379021 25.21696 287.4839 72.1378

0.2674932 -0.1639836 -0.2379021 24.90998 290.1488 73.85359

0.2633665 -0.1777446 -0.2321953 24.75116 292.5266 75.23633

0.2633665 -0.1777446 -0.2321953 24.75116 292.5266 75.23633

0.2670662 -0.1741736 -0.2306706 24.72721 294.6671 76.1111

0.2670662 -0.1741736 -0.2306706 24.72721 294.6671 76.1111

0.2670662 -0.1741736 -0.2306706 24.40959 296.9213 76.75916

0.2670662 -0.1741736 -0.2306706 23.64347 299.3128 78.06731

0.2705959 -0.1705853 -0.2292339 23.64347 299.3128 78.06731

0.2705959 -0.1705853 -0.2292339 22.52298 300.8368 79.18851

0.2705959 -0.1705853 -0.2292339 22.52298 300.8368 79.18851

0.2705959 -0.1705853 -0.2292339 22.52298 300.8368 79.18851

0.2733423 -0.1673088 -0.2287628 21.32483 302.0603 79.46066

0.2733423 -0.1673088 -0.2287628 21.32483 302.0603 79.46066

0.2733423 -0.1673088 -0.2287628 20.21721 303.6636 80.81547

0.2733423 -0.1673088 -0.2287628 21.23024 301.6527 80.02205

0.2692604 -0.1775319 -0.2247419 21.1032 304.3078 81.4202

0.2692604 -0.1775319 -0.2247419 21.1032 304.3078 81.4202

0.2692604 -0.1775319 -0.2247419 20.30758 303.1508 79.64569

0.2722182 -0.1746834 -0.223407 21.73356 303.8733 80.50875

0.272211 -0.1749375 -0.2235995 22.95415 304.8191 80.11925

0.272211 -0.1749375 -0.2235995 22.95415 304.8191 80.11925

0.2749309 -0.1720068 -0.2225429 23.18422 303.0529 77.96404

0.2749309 -0.1720068 -0.2225429 23.18422 303.0529 77.96404

0.2749309 -0.1720068 -0.2225429 23.56055 304.8988 79.99239

0.2765079 -0.1682013 -0.2223449 21.85335 305.1418 80.28404

0.2765079 -0.1682013 -0.2223449 23.29381 305.7836 80.18516

0.2765079 -0.1682013 -0.2223449 23.29381 305.7836 80.18516

0.2765079 -0.1682013 -0.2223449 21.8315 304.9169 80.01264

0.2718633 -0.1778811 -0.2205316 21.83149 304.9169 80.01265

0.2718423 -0.1786535 -0.221096 23.06772 306.1139 80.44193

0.2718423 -0.1786535 -0.221096 23.06772 306.1139 80.44193

0.2718423 -0.1786535 -0.221096 21.74005 305.2416 80.38221

0.2745714 -0.1759655 -0.2198758 21.74006 305.2416 80.38222

0.2745714 -0.1759655 -0.2198758 20.08566 305.4738 80.65924

0.2745714 -0.1759655 -0.2198758 20.08566 305.4738 80.65924

0.2770383 -0.1731626 -0.2190051 21.55955 305.121 81.30157

0.2770383 -0.1731626 -0.2190051 21.55955 305.121 81.30157

0.2770383 -0.1731626 -0.2190051 21.4292 302.9594 79.77302

0.2783266 -0.1701494 -0.2197321 22.4239 304.6418 81.047

0.2783266 -0.1701494 -0.2197321 22.4239 304.6418 81.047

0.2783266 -0.1701494 -0.2197321 22.98006 306.7974 82.47802

0.2783266 -0.1701494 -0.2197321 21.77221 305.7668 82.33652

0.2728686 -0.1791433 -0.2194291 21.77221 305.7668 82.33652

0.2728752 -0.1788853 -0.2192416 21.49769 303.5639 81.5422

0.2728752 -0.1788853 -0.2192416 23.01655 304.5211 82.45556

0.2755381 -0.1762179 -0.2180682 22.09272 304.0838 80.64671

0.2755381 -0.1762179 -0.2180682 22.09272 304.0838 80.64671

0.2755381 -0.1762179 -0.2180682 23.43672 304.6516 81.88942

0.2779326 -0.1729154 -0.2168854 23.9957 302.098 80.94245

0.2779326 -0.1729154 -0.2168854 23.9957 302.098 80.94245

0.2779326 -0.1729154 -0.2168854 24.78321 303.5391 81.14729

0.2779326 -0.1729154 -0.2168854 24.78321 303.5391 81.14729

0.2791333 -0.1698871 -0.217735 24.78321 303.5391 81.14728

0.2791331 -0.1701374 -0.2179326 23.64582 305.4244 81.37621

0.2791331 -0.1701374 -0.2179326 23.22367 303.2126 81.60921

0.2791331 -0.1701374 -0.2179326 23.72317 305.1818 82.23494

0.2791331 -0.1701374 -0.2179326 22.15794 305.8925 81.89338

0.2733035 -0.177493 -0.2174904 22.15793 305.8925 81.89338

0.2733035 -0.177493 -0.2174904 21.45934 307.7694 81.60672

0.2733035 -0.177493 -0.2174904 20.71502 305.5863 80.82913

0.2759342 -0.1748327 -0.2163204 22.18344 305.0461 81.48794

0.2759308 -0.172792 -0.2147886 22.18345 305.0461 81.48795

0.2759308 -0.172792 -0.2147886 20.70581 304.4371 81.14802

0.2782653 -0.1700173 -0.2139896 22.14303 305.2787 81.07773

0.2782653 -0.1700173 -0.2139896 22.14303 305.2787 81.07773

0.2782653 -0.1700173 -0.2139896 21.52437 303.3203 79.26245

0.2782608 -0.169765 -0.2137946 21.52437 303.3203 79.26245

0.2782608 -0.169765 -0.2137946 22.78568 303.9306 80.49061

0.2793679 -0.1667479 -0.2147233 22.78569 303.9306 80.49061

0.2793679 -0.1667479 -0.2147233 21.7414 302.0103 79.27626

0.2793679 -0.1667479 -0.2147233 21.7414 302.0103 79.27626

0.2793734 -0.1669974 -0.2149217 23.18636 300.8798 79.11934

0.2793734 -0.1669974 -0.2149217 23.18636 300.8798 79.11934

0.2735637 -0.1755175 -0.2156051 22.13288 300.1237 77.03109

0.2735637 -0.1755175 -0.2156051 23.22768 299.723 78.4417

0.2735634 -0.1752603 -0.2154164 23.22768 299.723 78.4417

0.2761599 -0.1726208 -0.2142315 21.94827 298.1064 76.98364

0.2761599 -0.1726208 -0.2142315 22.75583 298.9763 77.81207

0.2784733 -0.1698451 -0.2134541 22.75584 298.9763 77.81208

0.2784822 -0.1703499 -0.2138439 22.75584 298.9763 77.81207

0.2765655 -0.1743636 -0.2130949 23.57077 299.8329 78.66091

0.2765655 -0.1743636 -0.2130949 21.69662 298.2695 78.33601

0.2765655 -0.1743636 -0.2130949 21.69662 298.2695 78.33601

0.2747319 -0.1777188 -0.2118862 21.69663 298.2696 78.33601

0.2747319 -0.1777188 -0.2118862 21.69663 298.2696 78.33601

0.2729873 -0.1797545 -0.2124232 19.88006 296.5813 78.12515

0.2729873 -0.1797545 -0.2124232 20.63486 294.4029 76.8836

0.2711634 -0.1813765 -0.2133783 20.22355 295.5925 78.62199

0.2689496 -0.1817671 -0.2150367 20.22354 295.5925 78.62199

0.2709822 -0.1722862 -0.2202273 20.22354 295.5925 78.62199

0.2709822 -0.1722862 -0.2202273 18.77383 293.4253 77.19732

0.2643077 -0.1678331 -0.2314896 18.77382 293.4253 77.19733

0.2582582 -0.1607524 -0.2409239 18.60587 290.9345 74.5066

0.2560261 -0.1514631 -0.2491837 18.60585 290.9345 74.50661

0.2608916 -0.1448679 -0.2480561 18.60585 290.9345 74.50661

0.2608916 -0.1448679 -0.2480561 19.29927 290.8766 76.19001

0.2583098 -0.1443329 -0.2510517 19.29925 290.8766 76.19001

0.2583532 -0.1431779 -0.249953 17.63509 290.7036 76.03854

0.2690107 -0.1278118 -0.2470226 19.06122 291.2592 75.66177

0.2658172 -0.1331093 -0.247681 19.06122 291.2592 75.66177

0.2715259 -0.1203807 -0.2480018 20.15946 290.8022 73.52064

0.2714557 -0.1186519 -0.2461265 20.15946 290.8022 73.52065

0.2775609 -0.1059137 -0.2451264 19.2088 290.119 74.81596

0.2775609 -0.1059137 -0.2451264 19.8178 287.9257 71.96688

0.2850334 -0.09243221 -0.2419855 20.9829 286.3305 69.69101

0.2850334 -0.09243221 -0.2419855 20.9829 286.3305 69.69101

0.2886235 -0.08911069 -0.238957 22.43628 285.1707 68.24359

0.2935337 -0.07444519 -0.2287399 21.04388 283.9652 68.4828

0.2958529 -0.07451165 -0.2257103 22.21482 283.5838 66.58289

0.2958529 -0.07451165 -0.2257103 22.21482 283.5838 66.58289

0.3016176 -0.06553256 -0.220813 20.41704 283.0272 66.43188

0.3016176 -0.06553256 -0.220813 20.41704 283.0272 66.43188

0.302332 -0.06804152 -0.2190703 20.41703 283.0272 66.43188

0.302332 -0.06804152 -0.2190703 21.73946 283.3141 65.8388

0.307911 -0.05853016 -0.2139886 20.01764 282.3619 65.44955

0.3165158 -0.04225684 -0.2050809 21.23074 282.9778 64.79384

0.3165158 -0.04225684 -0.2050809 21.23074 282.9778 64.79384

0.3146576 -0.0483235 -0.2027878 19.4599 281.1289 63.8979

0.3146576 -0.0483235 -0.2027878 18.22133 281.4503 63.85428

0.3178044 -0.04781583 -0.1979431 18.22133 281.4503 63.85428

0.3176924 -0.05163736 -0.1976001 18.88104 281.192 65.4218

0.3176924 -0.05163736 -0.1976001 18.88104 281.192 65.4218

0.3176924 -0.05163736 -0.1976001 18.88104 281.192 65.4218

0.3155317 -0.05795036 -0.1993043 17.90412 280.5145 63.04016

0.3155317 -0.05795036 -0.1993043 18.1202 281.415 64.36897

0.3217899 -0.04507969 -0.1925092 18.1202 281.415 64.36897

0.3279589 -0.03249877 -0.1844655 16.36364 281.0379 65.05502

0.3283556 -0.03307543 -0.1855321 15.22724 278.6523 62.75031

0.3282658 -0.03149211 -0.1859662 15.22725 278.6523 62.75031

0.3282658 -0.03149211 -0.1859662 16.58257 278.9324 63.038

0.3329957 -0.02552981 -0.1783135 16.58257 278.9325 63.03801

0.3322849 -0.0377675 -0.1789227 14.9587 276.7605 62.14801

0.3371913 -0.02440809 -0.1719281 16.84156 276.4972 61.9262

0.3371913 -0.02440809 -0.1719281 16.84156 276.4972 61.9262

0.335657 -0.03647175 -0.1727924 15.21787 275.0306 61.94427

0.335657 -0.03647175 -0.1727924 15.21787 275.0306 61.94427

0.3401105 -0.02153805 -0.1664752 16.81542 275.3381 62.23495

0.3449524 -0.006016574 -0.1575582 15.09479 275.0375 62.59966

0.3449524 -0.006016574 -0.1575582 15.09479 275.0375 62.59966

0.3440204 -0.01229781 -0.1592222 16.17183 276.3064 62.49264

0.3441448 -0.01242515 -0.1594868 16.17183 276.3064 62.49264

0.3481471 -0.00458087 -0.1509924 14.27352 275.7867 62.96304

0.3481471 -0.00458087 -0.1509924 14.27352 275.7867 62.96304

0.3481471 -0.00458087 -0.1509924 14.21859 275.7634 60.71575

0.3481471 -0.00458087 -0.1509924 14.21859 275.7634 60.71575

0.3474739 -0.007697525 -0.1524096 13.90207 276.4808 59.1309

0.3474739 -0.007697525 -0.1524096 13.90207 276.4808 59.1309

0.3474739 -0.007697525 -0.1524096 13.13576 275.1326 60.75916

0.3478633 -0.008063564 -0.1532032 14.42861 275.6532 60.15026

0.3478633 -0.008063564 -0.1532032 14.42861 275.6532 60.15026

0.3469431 -0.01212756 -0.1550117 12.66827 274.6878 61.1227

0.3508511 -0.002921548 -0.1464246 12.66826 274.6878 61.12269

0.3522328 0.01414869 -0.1430035 14.12483 274.987 60.37497

0.3522328 0.01414869 -0.1430035 12.90985 273.391 57.93207

0.3522328 0.01414869 -0.1430035 14.3281 273.4527 58.33875

0.3522328 0.01414869 -0.1430035 14.3281 273.4527 58.33875

0.3514374 0.006510343 -0.1454908 12.80826 272.5997 59.60188

0.3514374 0.006510343 -0.1454908 12.80826 272.5997 59.60188

0.3549299 0.01247013 -0.1363359 14.18118 273.0146 58.54157

0.3583162 0.0202713 -0.1261617 12.33562 271.6632 57.22157

0.3583162 0.0202713 -0.1261617 13.16182 270.861 55.16086

0.3578485 0.0176293 -0.1278742 13.16183 270.861 55.16086

0.3578485 0.0176293 -0.1278742 11.45507 269.818 55.91934

0.3590011 0.004132133 -0.1257748 11.45508 269.8179 55.91935

0.3590011 0.004132133 -0.1257748 11.45508 269.8179 55.91935

0.3603265 0.01671837 -0.1236737 13.02123 269.9945 55.24677

0.3595722 0.01240443 -0.126348 10.82598 268.7602 55.31171

0.3631573 0.01784029 -0.1149276 10.82599 268.7602 55.31171

0.3664818 0.02308862 -0.1028005 9.340061 268.9156 56.61125

0.3686436 0.02201306 -0.1061713 9.340059 268.9156 56.61124

0.3715704 0.02818163 -0.09378801 10.6341 269.489 57.99426

0.3745967 0.03570161 -0.07783099 8.722324 268.3434 58.41678

0.3745967 0.03570161 -0.07783099 8.722324 268.3434 58.41678

0.3763258 0.03066131 -0.08151726 8.722321 268.3434 58.41678

0.3783872 0.03276078 -0.07039993 10.35428 268.8821 59.24775

0.3783872 0.03276078 -0.07039993 10.35428 268.8821 59.24775

0.3778798 0.03155563 -0.0736029 8.490636 267.6569 59.78598

0.3793236 0.0354003 -0.06641629 8.490639 267.6569 59.78598

0.3789418 0.03328859 -0.0696106 9.494055 268.6882 61.30098

0.3789418 0.03328859 -0.0696106 7.543392 267.5755 61.02599

0.3805098 0.03447869 -0.05978457 9.025383 267.7141 61.13476

0.3805098 0.03447869 -0.05978457 9.025383 267.7141 61.13476

0.3805098 0.03447869 -0.05978457 7.114812 265.5074 61.47048

0.3805098 0.03447869 -0.05978457 7.114812 265.5074 61.47048

0.381458 0.03691774 -0.05174519 8.559347 266.088 60.8978

0.381458 0.03691774 -0.05174519 6.547235 265.5761 60.97058

0.3810697 0.03696629 -0.05124145 7.95378 266.4624 60.70401

0.3804357 0.0356247 -0.05662027 7.953782 266.4624 60.704

0.3804357 0.0356247 -0.05662027 5.935063 265.6251 60.05705

0.3804357 0.0356247 -0.05662027 7.392654 265.2232 60.83264

0.3798603 0.03570997 -0.0558605 6.291982 265.0492 59.02682

0.3785149 0.03829354 -0.06284582 6.291977 265.0492 59.02682

0.3785149 0.03829354 -0.06284582 7.730263 264.7715 60.22065

0.3802475 0.03400919 -0.05426486 7.730244 264.7715 60.22064

0.3794762 0.03408847 -0.05325177 5.772583 262.895 60.72396

0.3790165 0.02690033 -0.06018951 3.724488 261.395 59.71498

0.3790165 0.02690033 -0.06018951 3.267453 259.2165 59.91636

0.3790165 0.02690033 -0.06018951 3.267453 259.2165 59.91636

0.3784487 0.02697927 -0.05942336 3.980735 260.611 59.26797

0.3784487 0.02697927 -0.05942336 1.858833 259.2411 59.64296

0.3785591 0.03453059 -0.05461763 1.858839 259.2411 59.64296

0.3785591 0.03453059 -0.05461763 2.858777 260.1864 58.63561

0.3789431 0.03450582 -0.05512642 0.7506627 258.3095 59.37981

0.3785648 0.03050601 -0.05987921 0.7506576 258.3095 59.3798

0.3775493 0.02981303 -0.06629625 2.000127 258.4422 58.94101

0.3786019 0.03240092 -0.05863634 0.7094221 256.3348 59.94987

0.3811347 0.02592133 -0.04729468 0.7094443 256.3348 59.94987

0.3811347 0.02592133 -0.04729468 2.377122 257.0587 60.14714

0.3828005 0.01895668 -0.03573154 2.377132 257.0587 60.14715

0.3840172 0.01136975 -0.02395606 0.249885 255.8326 60.8824

0.3866659 0.002679407 -0.01432122 0.2498679 255.8326 60.8824

0.3866659 0.002679407 -0.01432122 1.491301 256.8015 60.2036

0.3868491 -0.007877651 -0.002905882 359.6994 256.2287 61.83024

0.3868491 -0.007877651 -0.002905882 359.6994 256.2287 61.83024

0.3877552 -0.02392887 -0.0004016018 359.5226 256.9749 63.59016

0.3877676 -0.02098889 0.01107094 359.463 258.1678 62.40868

0.3873209 -0.02834833 0.01027878 359.463 258.1678 62.40868

0.3873209 -0.02834833 0.01027878 358.002 256.4393 63.88874

0.3914706 -0.01765895 0.01052712 358.9888 255.5771 65.02859

0.3905169 -0.02840309 0.01902045 358.9887 255.5771 65.0286

0.3889681 -0.04095051 0.02643547 358.9887 255.5771 65.0286

0.3889681 -0.04095051 0.02643547 358.258 256.3754 63.29193

0.3883757 -0.05463973 0.03238112 356.0076 255.2991 64.66248

0.3883757 -0.05463973 0.03238112 356.0076 255.2991 64.66248

0.384872 -0.07415279 0.03527894 353.7252 254.0439 65.7756

0.384872 -0.07415279 0.03527894 353.7252 254.0439 65.7756

0.3832017 -0.07571243 0.04789353 351.5848 253.207 65.00468

0.3849386 -0.08093985 0.04492891 352.0056 252.0464 65.59439

0.3820512 -0.08768321 0.05564234 352.0056 252.0464 65.59439

0.3820512 -0.08768321 0.05564234 351.2044 253.1326 67.42025

0.3819544 -0.08918478 0.05389342 351.2044 253.1326 67.42025

0.3809845 -0.101629 0.05755099 350.9116 252.301 66.53797

0.3809845 -0.101629 0.05755099 351.6131 251.3068 66.83077

0.381083 -0.1034134 0.05358307 351.6131 251.3067 66.83077

0.381083 -0.1034134 0.05358307 350.957 249.5861 68.55946

0.3835387 -0.1088164 0.05381631 351.7708 248.7924 69.41628

0.381915 -0.1143488 0.05389262 351.7708 248.7924 69.41628

0.381915 -0.1143488 0.05389262 351.0432 247.0238 69.88271

0.382673 -0.1151112 0.04636761 351.0432 247.0238 69.88271

0.3856348 -0.1149633 0.04394796 351.3564 246.0741 69.3291

0.3813814 -0.1269224 0.04796993 351.3564 246.0741 69.32909

0.3813814 -0.1269224 0.04796993 350.0006 244.2631 70.678

0.3765425 -0.1384186 0.05402026 350.0006 244.2631 70.678

0.3781381 -0.1326518 0.0628465 348.7473 242.403 71.48723

0.3781381 -0.1326518 0.0628465 348.6514 240.9434 71.42046

0.3781381 -0.1326518 0.0628465 348.6514 240.9434 71.42046

0.3760215 -0.1379581 0.06410933 347.8652 242.0968 71.84328

0.3756037 -0.1395331 0.06574864 346.6993 242.3821 73.35706

0.3763239 -0.1406151 0.05897607 346.6993 242.3821 73.35707

0.3763239 -0.1406151 0.05897607 348.0214 242.8988 71.79594

0.3742324 -0.1452088 0.06111478 346.0986 241.5719 72.45859

0.3755969 -0.1437515 0.05445249 346.0986 241.5719 72.45859

0.3740452 -0.147723 0.05450355 347.9425 241.9824 73.3457

0.3740452 -0.147723 0.05450355 345.7382 241.2099 72.73342

0.3721084 -0.1520363 0.05588267 345.4929 241.8276 70.47741

0.3727379 -0.1514996 0.05463364 345.4929 241.8276 70.4774

0.371436 -0.1543555 0.05549892 343.5587 240.425 70.86246

0.371436 -0.1543555 0.05549892 344.0223 242.0864 69.33658

0.3737676 -0.1487463 0.05516145 342.9496 240.2268 71.10275

0.3737676 -0.1487463 0.05516145 342.9496 240.2268 71.10275

0.3716078 -0.1535279 0.05663302 343.7908 239.9023 69.8686

0.3716078 -0.1535279 0.05663302 344.4124 238.7648 72.01332

0.3677784 -0.1610521 0.06059496 344.4124 238.7648 72.01332

0.3677784 -0.1610521 0.06059496 342.9525 238.2322 74.04165

0.3655888 -0.1647995 0.06369032 344.6938 238.7588 73.60633

0.3655888 -0.1647995 0.06369032 344.6938 238.7588 73.60633

0.3678243 -0.1566437 0.07098222 343.5677 236.6256 73.98773

0.3631012 -0.167154 0.07132708 343.5677 236.6256 73.98774

0.3634483 -0.1655214 0.07333806 343.1895 235.7059 72.70535

0.3634483 -0.1655214 0.07333806 343.1895 235.7059 72.70535

0.3594854 -0.169038 0.08406463 343.5829 235.5059 71.20432

0.358884 -0.167761 0.08904482 343.5829 235.5059 71.20432

0.3549139 -0.1719535 0.09663645 341.6425 234.0115 72.98677

0.3549139 -0.1719535 0.09663645 339.7185 232.3989 74.88876

0.3580323 -0.1650167 0.0972256 339.7185 232.3989 74.88876

0.359954 -0.1650574 0.09608968 338.5804 231.0631 77.46906

0.3598796 -0.1665713 0.09372696 338.5804 231.0631 77.46906

0.3598796 -0.1665713 0.09372696 339.9504 232.5024 76.82697

0.3622839 -0.163498 0.08979332 339.9504 232.5024 76.82697

0.3602554 -0.1708717 0.0898131 340.8647 230.9773 77.90157

0.3602554 -0.1708717 0.0898131 338.8082 230.927 77.36786

0.3593361 -0.1714551 0.09234781 340.8132 230.7943 77.46198

0.3573127 -0.1739036 0.09556462 340.8132 230.7943 77.46198

0.3581385 -0.17391 0.09508129 340.3228 228.3752 79.06541

0.3581385 -0.17391 0.09508129 340.3228 228.3752 79.06541

0.359312 -0.1715812 0.09488461 338.8412 226.9367 81.06275

0.3600885 -0.170515 0.09385746 340.5444 227.6612 80.44218

0.3583259 -0.1745316 0.09321801 340.5444 227.6612 80.44221

0.3583259 -0.1745316 0.09321801 339.6064 227.6129 80.77151

0.3569072 -0.1773941 0.09325726 339.6693 226.9394 83.78394

0.3594872 -0.1726788 0.09219163 339.6694 226.9394 83.78394

0.3558615 -0.1801657 0.09283374 338.2656 225.2856 84.60884

0.3558615 -0.1801657 0.09283374 338.2656 225.2856 84.60884

0.3552038 -0.1797073 0.09618054 339.4603 226.5109 82.86977

0.3521556 -0.1851036 0.09715036 339.4603 226.5109 82.86977

0.3521556 -0.1851036 0.09715036 339.4603 226.5109 82.86977

0.3516037 -0.1850839 0.09746941 338.5966 224.4475 84.6394

0.3544311 -0.1814486 0.09400263 338.8331 223.1318 85.22955

0.3535894 -0.183829 0.09253608 338.8331 223.1318 85.22955

0.3549889 -0.1850395 0.08440807 339.6438 222.0649 85.83517

0.3549889 -0.1850395 0.08440807 337.9215 222.4834 86.7581

0.3541679 -0.1857254 0.08632856 337.9215 222.4834 86.75811

0.3501432 -0.1892109 0.0947651 336.9818 222.9701 87.4157

0.3501432 -0.1892109 0.0947651 335.0969 222.987 88.08949

0.3479924 -0.1912059 0.1051486 335.0969 222.987 88.08949

0.3466309 -0.1895855 0.1123344 335.6105 222.8329 88.01558

0.3466309 -0.1895855 0.1123344 334.8833 221.9372 88.75884

0.3446389 -0.1921804 0.1140412 334.8833 221.9372 88.75883

0.3534791 -0.1792167 0.1094585 335.6529 220.9368 89.21865

0.3534791 -0.1792167 0.1094585 336.2725 219.5536 89.70271

0.348784 -0.1898535 0.106549 335.2838 220.7477 89.71111

0.348784 -0.1898535 0.106549 335.2838 220.7477 89.71111

0.3525894 -0.184974 0.1041392 336.4221 219.5706 90.72644

0.3514669 -0.1910055 0.09678572 334.8029 220.5194 90.00832

0.3514669 -0.1910055 0.09678572 336.4063 220.098 89.29367

0.3528155 -0.1894879 0.09484262 336.4063 220.098 89.29369

0.3533564 -0.1895244 0.09450629 334.3796 219.7761 89.77934

0.3609087 -0.1787808 0.08656777 335.0049 221.0713 87.56516

0.3553982 -0.1917075 0.08156007 335.0049 221.0713 87.56516

0.3553982 -0.1917075 0.08156007 334.7442 219.1437 89.34832

0.3606228 -0.1820979 0.083671 335.2123 217.4679 90.63937

0.3550385 -0.1890616 0.09172037 335.2123 217.4679 90.63937

0.3550385 -0.1890616 0.09172037 334.8435 219.0987 89.09987

0.3567075 -0.1839335 0.09558997 333.4774 219.981 88.93385

0.3535635 -0.1874792 0.09943784 335.0471 219.2301 89.17009

0.3535635 -0.1874792 0.09943784 332.9276 219.229 89.31145

0.3552523 -0.1823992 0.1028097 332.9276 219.229 89.31145

0.3525533 -0.1867062 0.1043573 334.816 219.6878 88.44035

0.3547113 -0.1815206 0.1069552 333.2685 219.3831 89.96645

0.3547113 -0.1815206 0.1069552 334.4077 221.1292 88.42785

0.3519771 -0.1862156 0.1079127 334.4077 221.1292 88.42785

0.3519771 -0.1862156 0.1079127 333.1292 219.3754 89.87318

0.3557414 -0.1805592 0.1082507 331.9545 220.5892 87.9639

0.3543469 -0.1841331 0.1067941 331.9545 220.5892 87.96391

0.35676 -0.1802608 0.1053568 331.7842 218.7182 89.26984

0.35676 -0.1802608 0.1053568 332.1987 217.3088 89.60963

0.3550961 -0.1846822 0.1040977 333.0272 217.8442 87.56749

0.3568158 -0.1811223 0.1044717 333.0273 217.8442 87.56749

0.3535767 -0.1862642 0.1064249 331.3481 216.926 89.62244

0.3535767 -0.1862642 0.1064249 332.6177 218.5393 88.25526

0.3536669 -0.1844129 0.1093101 330.6496 217.7079 89.78727

0.3485865 -0.1932291 0.1103952 330.6496 217.7079 89.78728

0.3526566 -0.1865854 0.1088867 331.3872 219.4609 88.07577

0.3526566 -0.1865854 0.1088867 329.743 218.0714 89.76083

0.3533877 -0.1893442 0.1054944 329.743 218.0714 89.76083

0.3535097 -0.1943952 0.09541775 331.4152 219.7304 88.64327

0.3555599 -0.192046 0.09251312 329.4593 218.4116 89.63065

0.3555599 -0.192046 0.09251312 329.4593 218.4116 89.63065

0.3521612 -0.1975727 0.09118817 330.5452 219.9695 87.43835

0.354069 -0.193787 0.09192119 329.1812 218.4749 89.08536

0.3528877 -0.1959762 0.09182224 329.1812 218.4749 89.08535

0.3528877 -0.1959762 0.09182224 330.1879 220.5281 88.70194

0.355303 -0.1912148 0.09254441 330.1879 220.5281 88.70193

0.3546125 -0.1927575 0.09199105 329.5319 219.1457 90.73522

0.3535652 -0.1947384 0.09184994 329.5319 219.1457 90.73523

0.3535652 -0.1947384 0.09184994 330.635 218.9697 89.34361

0.357419 -0.1877138 0.08973455 328.8103 218.8215 89.53565

0.3664286 -0.1706866 0.08736835 328.8103 218.8215 89.53565

0.3664286 -0.1706866 0.08736835 330.614 220.962 87.35561

0.3632587 -0.1777477 0.08652171 329.7135 219.9314 88.66553

0.3629944 -0.1777354 0.08669988 329.7135 219.9314 88.66554

0.3689957 -0.1645961 0.08730407 330.9265 222.5723 86.59302

0.3689957 -0.1645961 0.08730407 329.9954 221.6075 88.01453

0.3757317 -0.1472552 0.08951723 329.9954 221.6074 88.01453

0.3754698 -0.1472505 0.08969922 331.2682 222.9936 88.94647

0.3773195 -0.1414562 0.09124902 331.2682 222.9936 88.9465

0.3830838 -0.126676 0.08891667 331.579 222.5807 87.75929

0.3822195 -0.1299871 0.08785111 332.9615 224.3632 85.31229

0.3822195 -0.1299871 0.08785111 332.9615 224.3632 85.31229

0.3872925 -0.1202157 0.07911341 333.0208 223.9944 83.81574

0.3831669 -0.1203706 0.08211313 331.3295 223.1942 84.16721

0.3829212 -0.1214852 0.08161645 333.217 225.3242 82.24316

0.3849633 -0.1167744 0.07883877 333.217 225.3241 82.24318

0.3847639 -0.1172098 0.07916549 332.1198 224.6873 80.92992

0.3821649 -0.1173286 0.08101046 333.4363 226.9162 79.36189

0.3843356 -0.1106011 0.08020203 333.4363 226.9162 79.36189

0.3828343 -0.1144268 0.08199535 333.1147 228.27 79.02185

0.3828343 -0.1144268 0.08199535 334.8844 228.3073 80.40909

0.3818871 -0.1065428 0.08271164 334.8844 228.3073 80.40909

0.3828951 -0.100758 0.08526166 333.1822 228.7572 78.60555

0.3828951 -0.100758 0.08526166 333.1822 228.7572 78.60555

0.3828951 -0.100758 0.08526166 334.5275 228.091 79.3083

0.3824622 -0.1018637 0.08588825 334.5274 228.091 79.3083

0.3780071 -0.101768 0.08897711 335.9327 230.625 77.19321

0.383002 -0.08683313 0.08326134 335.9327 230.625 77.19322

0.3855317 -0.06702578 0.08378537 337.5966 233.0497 75.21523

0.3855317 -0.06702578 0.08378537 337.5966 233.0497 75.21523

0.3855751 -0.06451787 0.08553627 337.6257 235.4248 73.70403

0.3846005 -0.05944151 0.09325408 336.9135 234.5022 73.80499

0.3814273 -0.05935723 0.09539238 336.9135 234.5022 73.80498

0.3832548 -0.04645912 0.09522127 336.9135 234.5022 73.80499

0.3817391 -0.05250158 0.09812542 338.2295 237.2189 71.32126

0.3817391 -0.05250158 0.09812542 338.2295 237.2189 71.32126

0.3812818 -0.04631855 0.09605405 336.8599 236.9403 71.8634

0.3821639 -0.03808549 0.09616573 337.9865 240.2144 70.22942

0.3821639 -0.03808549 0.09616573 336.7814 240.4862 70.89257

0.3847612 -0.03339273 0.0871283 336.7814 240.4862 70.89256

0.3848707 -0.03432407 0.08528472 338.1089 243.6114 69.73851

0.3848707 -0.03432407 0.08528472 339.5881 246.1605 69.40022

0.3874161 -0.03718064 0.07143853 338.2394 245.6366 68.78162

0.3877222 -0.03754322 0.06956364 338.2395 245.6365 68.78162

0.3856861 -0.03745268 0.07109885 340.0682 248.4556 67.48614

0.3863791 -0.04577603 0.06186515 340.0682 248.4556 67.48614

0.3863791 -0.04577603 0.06186515 339.2656 248.1794 68.70486

0.3863791 -0.04577603 0.06186515 339.9994 251.171 67.58253

0.3877857 -0.03826637 0.04840893 339.9994 251.171 67.58252

0.3877857 -0.03826637 0.04840893 340.0964 254.252 67.11845

0.3873027 -0.04812527 0.04319833 340.0964 254.252 67.11845

0.3887345 -0.03815199 0.03050585 340.0964 254.252 67.11845

0.3896584 -0.030488 0.0271569 339.3436 256.3677 67.71423

0.3896584 -0.030488 0.0271569 339.3436 256.3677 67.71423

0.3904614 -0.03062975 0.01012034 338.5097 256.7293 69.47208

0.3896164 -0.02827286 0.006586803 340.3538 259.1059 67.46273

0.3896164 -0.02827286 0.006586803 342.7495 260.5497 66.69237

0.3896164 -0.02827286 0.006586803 342.7495 260.5497 66.69237

0.3903042 -0.01458753 -0.009670512 342.5943 259.9337 66.7505

0.3905174 -0.01459865 -0.009907407 344.8501 261.3325 65.73419

0.3901187 -0.0190814 -0.01607592 345.5222 261.0556 65.92413

0.3901187 -0.0190814 -0.01607592 345.5222 261.0556 65.92413

0.3901187 -0.0190814 -0.01607592 347.6758 262.5926 64.73296

0.3893201 -0.02359883 -0.02272949 348.5423 262.7444 63.56497

0.3893201 -0.02359883 -0.02272949 350.7745 263.4102 63.20626

0.3893201 -0.02359883 -0.02272949 350.7745 263.4102 63.20626

0.3887065 -0.01506635 -0.03638581 353.2854 264.7758 62.66756

0.3877188 -0.01501121 -0.0351349 353.2366 264.2082 62.19225

0.3877188 -0.01501121 -0.0351349 355.3663 265.6182 61.8633

0.3877188 -0.01501121 -0.0351349 355.3663 265.6182 61.8633

0.3877188 -0.01501121 -0.0351349 353.9885 265.7349 63.07786

0.3877188 -0.01501121 -0.0351349 355.6566 267.6111 62.37938

0.3869227 -0.01496695 -0.03413905 355.6566 267.6111 62.37938

0.3865897 -0.01532053 -0.03758058 354.8324 267.9452 61.05066

0.3854724 -0.01348948 -0.04824554 355.6613 268.313 59.92336

0.3854724 -0.01348948 -0.04824554 355.6613 268.313 59.92336

0.3849247 -0.01258785 -0.04928927 354.3924 268.5858 61.9746

0.3848525 -0.01214864 -0.04995915 354.3924 268.5858 61.9746

0.3848525 -0.01214864 -0.04995915 354.5907 271.6656 62.19498

0.3848525 -0.01214864 -0.04995915 354.5907 271.6656 62.19498

0.3827694 -0.01213466 -0.06399383 352.8602 272.4932 63.90831

0.3827694 -0.01213466 -0.06399383 351.5181 273.8104 65.99876

0.3802234 -0.01209024 -0.07771012 351.5181 273.8104 65.99876

0.3771213 -0.01316683 -0.09143887 349.5976 275.7145 65.83027

0.3767997 -0.01309966 -0.09089202 349.5976 275.7145 65.83027

0.3733105 -0.0138437 -0.1042045 351.4149 278.2419 64.97536

0.369555 -0.013559 -0.1168599 349.858 278.0049 64.82107

0.3644727 -0.01905231 -0.1311779 351.4983 279.9179 65.62098

0.3647326 -0.01917535 -0.1317474 351.4983 279.9179 65.62098

0.3587286 -0.02621199 -0.1462245 350.1837 280.2344 66.87776

0.3574736 -0.02305422 -0.1497867 351.0792 281.0516 67.04169

0.3500762 -0.02747921 -0.1646285 350.5899 283.2557 64.64538

0.3500762 -0.02747921 -0.1646285 350.5899 283.2557 64.64538

0.3484292 -0.02313991 -0.1687382 350.5899 283.2557 64.64538

0.3415811 -0.02559032 -0.1818749 350.043 283.0316 64.15134

0.3357479 -0.02551688 -0.1924402 352.0722 285.7019 64.53857

0.3357479 -0.02551688 -0.1924402 350.7255 286.573 64.27787

0.3298267 -0.02568851 -0.2023993 352.9613 289.0832 63.71147

0.3316521 -0.01675415 -0.1994822 352.9613 289.0832 63.71148

0.3250529 -0.02257351 -0.2095184 352.3783 289.6571 62.13619

0.3250529 -0.02257351 -0.2095184 352.3783 289.6571 62.13619

0.3183643 -0.02501627 -0.2184975 353.9879 291.2868 61.38366

0.3167748 -0.01888016 -0.2214048 353.5207 291.9587 59.70061

0.3167748 -0.01888016 -0.2214048 353.5207 291.9587 59.70061

0.309363 -0.02138869 -0.2321724 353.5208 291.9587 59.70062

0.3093714 -0.009936905 -0.2329325 353.7684 291.6862 59.53358

0.3093714 -0.009936905 -0.2329325 354.6606 294.2634 58.80424

0.3093714 -0.009936905 -0.2329325 354.6606 294.2634 58.80424

0.3099252 -0.01119434 -0.2358108 355.3257 297.1365 58.0841

0.311828 -0.01831339 -0.2328382 355.9156 299.6746 57.49166

0.311828 -0.01831339 -0.2328382 356.0376 301.4555 56.75394

0.311828 -0.01831339 -0.2328382 356.0376 301.4555 56.75394

0.3132258 -0.02214446 -0.2407827 355.8201 302.4001 55.93303

0.3123263 -0.01595836 -0.242435 355.8201 302.4001 55.93303

0.3123263 -0.01595836 -0.242435 354.2437 301.684 56.4101

0.3123263 -0.01595836 -0.242435 352.6025 301.3269 58.60532

0.3168272 -0.02275781 -0.2461784 350.4084 301.4207 58.92182

0.3168272 -0.02275781 -0.2461784 350.4084 301.4207 58.92182

0.3168272 -0.02275781 -0.2461784 350.6426 303.5239 58.86611

0.3098577 -0.02444996 -0.2547382 350.6426 303.5239 58.86612

0.3053191 -0.02671506 -0.2713206 347.9531 304.4615 57.64723

0.3063075 -0.01521332 -0.2710952 346.8837 303.7567 57.56948

0.3063075 -0.01521332 -0.2710952 344.2226 304.2851 57.92292

0.2991747 -0.02497573 -0.2782427 344.2226 304.2851 57.92292

0.2898658 -0.02340294 -0.3031237 342.1113 305.2904 59.05271

0.2898658 -0.02340294 -0.3031237 339.03 306.292 58.76778

0.2784057 -0.02716258 -0.3133788 339.03 306.292 58.76778

0.2759303 -0.01833309 -0.3161965 338.9076 310.1999 56.91785

0.2750182 -0.02180586 -0.3225932 338.9076 310.1999 56.91784

0.2674915 -0.02248378 -0.3288155 338.9076 310.1999 56.91784

0.2493186 -0.02375679 -0.3427137 336.5486 312.2047 55.20767

0.2493186 -0.02375679 -0.3427137 336.5486 312.2047 55.20767

0.2459608 -0.03040873 -0.3546034 334.6049 314.5391 53.16026

0.2434054 -0.01882401 -0.3571616 332.9187 316.6816 51.04119

0.2434054 -0.01882401 -0.3571616 332.9187 316.6816 51.04119

0.2434054 -0.01882401 -0.3571616 331.7767 318.6349 49.00582

0.2368799 -0.0285906 -0.3746222 331.7767 318.6349 49.00582

0.230433 -0.02730975 -0.3787163 330.1731 319.358 47.61959

0.2305633 -0.01021205 -0.3794833 330.198 319.6862 47.39767

0.2207282 -0.02510937 -0.3846035 330.198 319.6862 47.39767

0.2130149 -0.0350566 -0.3994318 327.438 319.5302 47.78017

0.2067234 -0.01749644 -0.4038679 327.438 319.5303 47.78017

0.1963289 -0.03411435 -0.407972 325.2474 319.4299 47.65297

0.1851257 -0.04381777 -0.4122602 325.3434 321.3757 46.5424

0.1749341 -0.05330732 -0.4253791 322.9079 322.5627 45.36454

0.1730695 -0.03632615 -0.4279233 322.9079 322.5627 45.36454

0.1581867 -0.04930149 -0.4323625 323.5694 323.1026 45.22415

0.1583694 -0.03184576 -0.4339308 321.5369 321.9908 46.53933

0.1431094 -0.04294004 -0.4491335 321.5369 321.9908 46.53933

0.1275388 -0.05096423 -0.4529697 321.7661 322.0155 47.22949

0.1285032 -0.03160801 -0.4544589 321.7661 322.0155 47.22949

0.1197403 -0.03879839 -0.4562916 317.9738 324.3699 44.40804

0.1018824 -0.05047969 -0.4690585 317.9738 324.3699 44.40805

0.1038 -0.03170016 -0.4702815 314.6475 326.6378 41.32902
