0.06561246 0.01226149 -0.5030826 270.0198 -2.428545E-06 0

0.05169723 -0.002718716 -0.5048799 270.4145 62.58503 296.6291

0.05169723 -0.002718716 -0.5048799 270.4145 62.58503 296.6291

0.05169723 -0.002718716 -0.5048799 270.4145 62.58503 296.6291

0.06751257 0.009708423 -0.502923 270.7127 69.85477 288.5479

0.001069349 -0.00498373 -0.5102724 270.4293 27.20693 330.0685

0.01697791 0.007559394 -0.5099592 270.3226 45.2079 311.0698

0.01697791 0.007559394 -0.5099592 270.3226 45.2079 311.0698

0.01687212 0.009132557 -0.509937 272.6292 356.8109 359.4229

0.01680064 0.01041859 -0.5099124 275.0472 355.093 1.109365

0.01689066 0.01156586 -0.5098847 277.395 354.8306 1.440871

0.01689066 0.01156586 -0.5098847 277.395 354.8306 1.440871

0.01662466 0.01230801 -0.509876 279.7668 355.4942 0.8612639

0.01686383 0.01318914 -0.5098485 282.0977 356.966 359.4762

0.01686383 0.01318914 -0.5098485 282.0977 356.966 359.4762

0.01702801 0.01437195 -0.509811 284.381 358.9398 357.5738

0.0174761 0.01547161 -0.5097637 286.6403 1.391626 355.0888

0.01834979 0.0168849 -0.5096882 288.6829 4.119659 352.1875

0.01834979 0.0168849 -0.5096882 288.6829 4.119659 352.1875

0.01948957 0.01829075 -0.5095973 289.8755 7.571003 348.3299

0.02050745 0.01940523 -0.5095161 290.3604 7.749375 347.1646

0.02124698 0.01987776 -0.5094677 290.5701 5.990618 347.749

0.02124698 0.01987776 -0.5094677 290.5701 5.990618 347.749

0.0226618 0.0206238 -0.5093769 290.1264 6.851306 345.8829

0.0226618 0.0206238 -0.5093769 290.1264 6.851306 345.8829

0.02445718 0.02131971 -0.5092653 291.9059 4.111778 347.8776

0.02695069 0.02124744 -0.5091425 290.6939 4.132473 346.8076

0.03195008 0.02048515 -0.5088845 292.154 4.817507 345.3336

0.03195008 0.02048515 -0.5088845 291.063 4.818636 344.2598

0.03277314 0.001036262 -0.5092474 291.063 4.818617 344.2599

0.04768404 0.01172865 -0.5079338 292.3379 2.115062 345.9618

0.03262669 -0.001770573 -0.5092548 291.1481 3.101649 343.9933

0.03262669 -0.001770573 -0.5092548 292.5164 2.034149 344.0333

0.04921538 0.009985141 -0.5078295 292.5165 2.034153 344.0333

0.03404402 -0.003015346 -0.5091606 290.9553 2.416155 342.7183

0.03404402 -0.003015346 -0.5091606 290.9553 2.416155 342.7183

0.04986399 0.009181137 -0.5077814 292.3919 0.8055285 343.2

0.03678833 -0.005444641 -0.5089505 291.1493 1.681081 341.2277

0.05323496 0.005984058 -0.5074878 292.7737 2.65973 339.3736

0.05323496 0.005984058 -0.5074878 292.7737 2.65973 339.3736

0.04062413 -0.009856796 -0.5085924 291.9505 5.666089 335.6243

0.05704765 0.001440124 -0.5071074 293.6144 2.900189 337.6012

0.04428732 -0.01270941 -0.508224 291.8487 4.425653 335.4168

0.04428732 -0.01270941 -0.508224 291.8487 4.425653 335.4168

0.05939092 -0.0008843422 -0.5068396 292.9901 3.048998 335.7185

0.04568219 -0.01363146 -0.508076 292.094 2.009092 335.5297

0.06160268 -0.001331749 -0.506574 293.0468 2.707455 333.7487

0.06160268 -0.001331749 -0.506574 293.0468 2.707455 333.7487

0.04619626 -0.01385811 -0.5080233 292.3344 5.205483 330.3701

0.06264328 -0.002007179 -0.5064447 294.1513 2.708813 332.1693

0.04842481 -0.01640442 -0.5077404 292.3797 3.861821 330.3424

0.04842481 -0.01640442 -0.5077404 292.3797 3.861821 330.3424

0.06445485 -0.004463654 -0.5062016 293.6465 2.964249 330.2234

0.06445485 -0.004463654 -0.5062016 293.6465 2.964249 330.2234

0.05108089 -0.01948963 -0.507371 292.1889 4.730706 327.7443

0.06711752 -0.007126694 -0.505825 293.3637 1.31444 330.1435

0.05175878 -0.02007934 -0.5072793 291.8428 1.607539 328.9213

0.06791041 -0.007196674 -0.5057182 291.8428 1.607549 328.9213

0.06780384 -0.007128181 -0.5057332 293.3923 0.5539215 328.9768

0.05193549 -0.01872843 -0.5073127 292.3969 1.303764 327.1082

0.06708167 -0.005350399 -0.5058514 293.9258 358.9005 328.4968

0.05089873 -0.0171468 -0.5074736 292.3409 0.7768517 325.9066

0.05047372 -0.01686882 -0.5075238 292.3409 0.7768425 325.9066

0.06616301 -0.003458004 -0.5059873 294.3542 358.7389 327.2554

0.05085749 -0.0156871 -0.5075234 292.8272 1.085472 324.2993

0.06673174 -0.002694111 -0.5059172 294.0202 358.3419 325.9025

0.06673174 -0.002694111 -0.5059172 294.0202 358.3419 325.9025

0.05262463 -0.01530802 -0.5073549 292.4268 0.2209502 323.3008

0.06870677 -0.002316627 -0.5056547 294.1453 357.8036 324.8119

0.05522487 -0.01410759 -0.5071133 292.3514 358.726 323.118

0.05522487 -0.01410759 -0.5071133 292.3514 358.726 323.118

0.07128547 -0.001714268 -0.5053 294.2985 355.9407 325.1766

0.07128547 -0.001714268 -0.5053 294.2985 355.9407 325.1766

0.05610554 -0.01494169 -0.5069926 293.2178 359.8459 320.8239

0.07150149 -0.002501507 -0.5052662 295.11 357.6693 322.199

0.05639628 -0.01446402 -0.5069743 293.2693 359.1879 320.1808

0.05639628 -0.01446402 -0.5069743 293.2693 359.1879 320.1808

0.07144487 -0.00127636 -0.5052788 294.7484 356.1864 322.3812

0.05573907 -0.01388054 -0.5070632 293.2148 359.0013 319.1693

0.07047053 -0.001580601 -0.5054147 295.1674 356.7649 320.9366

0.07047053 -0.001580601 -0.5054147 295.1674 356.7649 320.9366

0.05403305 -0.014498 -0.5072305 293.4533 357.1418 320.1855

0.06808563 -0.001421585 -0.505742 293.3283 354.8614 321.8777

0.05128974 -0.01399458 -0.5075299 292.1393 354.4142 321.6277

0.06615312 -0.00218708 -0.5059961 292.1393 354.4142 321.6277

0.06615312 -0.00218708 -0.5059961 292.5711 352.5437 322.6887

0.04990466 -0.01651199 -0.5075923 290.705 357.3008 316.0458

0.06639753 -0.00750658 -0.505915 290.705 357.3008 316.0458

0.05023896 -0.02088621 -0.5074 289.2506 2.529155 308.9963

0.05023896 -0.02088621 -0.5074 287.9357 9.242631 300.506

0.0664487 -0.01315075 -0.505793 287.9357 9.242641 300.506

0.06246371 -0.02305304 -0.5059465 287.4774 17.75678 290.5853

0.06108242 -0.02657988 -0.5059421 288.0206 24.85309 282.4626

0.06108242 -0.02657988 -0.5059421 288.0206 24.85309 282.4626

0.06019682 -0.03329201 -0.5056235 288.8856 28.81414 277.7075

0.06864598 -0.02747452 -0.504896 288.8856 28.81415 277.7075

0.06864598 -0.02747452 -0.504896 289.4304 30.08512 275.748

0.05494896 -0.03836712 -0.5058614 289.5721 32.9921 272.4906

0.05325448 -0.05492924 -0.5040911 288.7172 31.01501 273.7077

0.05325448 -0.05492924 -0.5040911 288.7172 31.01501 273.7077

0.04324185 -0.05429432 -0.5051171 287.9634 32.06786 272.52

0.04336348 -0.04799572 -0.5057441 287.5951 31.1668 273.0562

0.02375839 -0.05132778 -0.5070209 287.5951 31.16678 273.0562

0.02375839 -0.05132778 -0.5070209 287.5951 31.16678 273.0562

0.02631938 -0.03798248 -0.5080687 286.8558 32.72846 271.2924

0.02222355 -0.02483414 -0.5090762 285.4999 27.84549 274.8688

0.1308114 -0.1159081 -0.4373743 283.7414 21.47236 279.7788

0.1308114 -0.1159081 -0.4373743 283.7414 21.47236 279.7788

0.132454 -0.1037436 -0.439927 282.6432 19.16259 281.2879

0.1222737 -0.1105608 -0.441212 282.6432 19.16261 281.2879

0.1493108 -0.1122124 -0.4115979 280.894 11.35289 287.8214

0.1493108 -0.1122124 -0.4115979 279.2513 2.815955 295.5423

0.1370574 -0.1245289 -0.4123179 279.2513 2.815935 295.5423

0.1247679 -0.1372101 -0.4121948 279.2513 2.81589 295.5424

0.1313034 -0.1510289 -0.3881892 278.3375 359.4067 298.2637

0.1313034 -0.1510289 -0.3881892 278.3375 359.4067 298.2637

0.1240636 -0.1635244 -0.3854985 278.3375 359.4067 298.2638

0.1169011 -0.1771874 -0.3816804 277.5842 356.4769 300.3707

0.1356487 -0.1805153 -0.3601009 277.5842 356.4769 300.3707

0.1356487 -0.1805153 -0.3601009 276.63 333.6604 321.9495

0.1259833 -0.1978366 -0.3544685 276.63 333.6604 321.9495

0.1346604 -0.2005001 -0.3497504 277.1403 309.0481 345.0739

0.1393094 -0.1984027 -0.3428122 277.1403 309.0482 345.0739

0.1285363 -0.2155921 -0.3365849 278.2216 297.0206 356.1239

0.134786 -0.2191248 -0.3318253 278.8773 291.3566 1.078337

0.134786 -0.2191248 -0.3318253 278.8773 291.3566 1.078337

0.1298631 -0.2333228 -0.3207214 278.8773 291.3567 1.078337

0.1298631 -0.2333228 -0.3207214 281.125 272.8751 18.37701

0.1298631 -0.2333228 -0.3207214 281.125 272.8751 18.37701

0.1375298 -0.2341772 -0.3168797 281.125 272.8751 18.37702

0.13703 -0.2345105 -0.3176244 283.9921 263.2164 26.90718

0.1333623 -0.2467505 -0.3098166 283.9921 263.2164 26.90717

0.1308678 -0.2583213 -0.3013327 283.9921 263.2164 26.90721

0.1286782 -0.2694243 -0.2924212 283.9921 263.2164 26.90717

0.1259902 -0.2716679 -0.2956815 283.9921 263.2164 26.90718

0.1251058 -0.2832911 -0.2849548 283.9921 263.2165 26.90715

0.1243991 -0.2967363 -0.2712508 287.1093 257.359 31.65045

0.1243991 -0.2967363 -0.2712508 287.1093 257.359 31.65045

0.1387348 -0.2970217 -0.2663318 287.1093 257.359 31.65044

0.1337957 -0.3065536 -0.2579255 289.9315 253.9762 34.15793

0.1337957 -0.3065536 -0.2579255 289.9315 253.9762 34.15793

0.1289284 -0.3143789 -0.2508891 289.9315 253.9762 34.15793

0.1270787 -0.3162471 -0.2526948 292.7988 251.5744 35.70152

0.1270787 -0.3162471 -0.2526948 295.6886 249.879 36.57625

0.1346572 -0.3140189 -0.2515461 295.6886 249.8791 36.57623

0.1346572 -0.3140189 -0.2515461 298.5835 248.7435 36.96288

0.1368278 -0.3136507 -0.2505121 300.0598 245.877 39.43176

0.137431 -0.3182261 -0.2443354 301.6504 243.3149 41.71595

0.137431 -0.3182261 -0.2443354 301.6504 243.3149 41.71595

0.137431 -0.3182261 -0.2443354 303.3088 241.6067 43.27136

0.1458547 -0.3138992 -0.2437288 305.0155 240.8758 43.96828

0.1408427 -0.3204187 -0.2381286 306.7604 240.6108 44.25246

0.1408427 -0.3204187 -0.2381286 306.7604 240.6108 44.25246

0.1405037 -0.3249918 -0.232054 308.5352 240.5615 44.4122

0.1412113 -0.3241604 -0.2313938 310.4044 240.4613 44.60981

0.1412113 -0.3241604 -0.2313938 312.355 240.4595 44.70791

0.1412113 -0.3241604 -0.2313938 312.355 240.4595 44.70791

0.1412113 -0.3241604 -0.2313938 314.3998 240.313 44.86835

0.1478226 -0.3212901 -0.231268 316.5672 239.9895 45.19339

0.1478226 -0.3212901 -0.231268 318.792 239.8374 45.42911

0.1478226 -0.3212901 -0.231268 318.792 239.8374 45.42911

0.1408473 -0.3283666 -0.2256128 320.9427 239.9241 45.44309

0.1406706 -0.3285774 -0.2257745 322.8678 240.191 45.29117

0.1406706 -0.3285774 -0.2257745 324.6505 240.5377 45.0701

0.1406706 -0.3285774 -0.2257745 324.6505 240.5377 45.0701

0.146962 -0.3255899 -0.2260947 326.452 240.8741 44.80754

0.1471341 -0.3253807 -0.2259262 328.463 241.2453 44.53165

0.1471341 -0.3253807 -0.2259262 330.5962 241.7597 44.22065

0.1471341 -0.3253807 -0.2259262 330.5962 241.7597 44.22065

0.1459717 -0.3221243 -0.2312832 332.7433 242.3551 43.81765

0.145279 -0.3229408 -0.231977 334.7549 243.1013 43.23517

0.145279 -0.3229408 -0.231977 334.7549 243.1013 43.23517

0.145279 -0.3229408 -0.231977 336.8497 244.2046 42.44644

0.1422681 -0.3282178 -0.2263689 338.9721 245.7898 41.28177

0.1413821 -0.3292635 -0.2271841 338.9721 245.7898 41.28177

0.1474844 -0.3262735 -0.2276178 338.9721 245.7898 41.28178

0.1474844 -0.3262735 -0.2276178 341.0964 247.3444 40.21232

0.1474844 -0.3262735 -0.2276178 342.4661 248.5056 40.17556

0.1394064 -0.3332035 -0.2233359 342.4661 248.5056 40.17557

0.1394064 -0.3332035 -0.2233359 343.7461 249.6981 40.09011

0.1394064 -0.3332035 -0.2233359 343.7461 249.6981 40.09011

0.1457133 -0.3301016 -0.2239156 345.0645 250.951 39.92122

0.1453619 -0.3305182 -0.2242469 346.5032 251.897 39.84752

0.149641 -0.3265122 -0.2272805 347.8989 252.4936 39.82304

0.149641 -0.3265122 -0.2272805 347.8989 252.4936 39.82304

0.149641 -0.3265122 -0.2272805 349.168 253.1961 39.64042

0.1436843 -0.3321207 -0.2215098 349.168 253.1961 39.64043

0.1436843 -0.3321207 -0.2215098 349.168 253.1961 39.64043

0.1494936 -0.3289012 -0.222467 350.401 254.0774 39.35788

0.1423616 -0.3339308 -0.2181623 351.6585 255.0133 38.99733

0.1483933 -0.3307892 -0.2189277 352.9555 255.7654 38.62534

0.1483933 -0.3307892 -0.2189277 352.9555 255.7654 38.62534

0.1609511 -0.325896 -0.2173888 354.1623 256.3448 38.23768

0.1625698 -0.3237133 -0.215719 355.3222 256.8093 37.90535

0.1625698 -0.3237133 -0.215719 356.4795 257.2629 37.68652

0.1765591 -0.3172551 -0.2143128 356.4795 257.2629 37.68653

0.1875863 -0.3108324 -0.214356 357.5677 257.6557 37.48022

0.1882924 -0.309679 -0.2135109 357.5677 257.6557 37.48022

0.1882924 -0.309679 -0.2135109 358.3834 258.2245 37.78064

0.1882924 -0.309679 -0.2135109 359.1223 259.078 38.02719

0.1971809 -0.3016263 -0.2169867 359.1223 259.078 38.0272

0.1996399 -0.2973034 -0.2135244 359.8532 259.8629 38.17574

0.1996399 -0.2973034 -0.2135244 0.5466864 260.7545 38.4516

0.1996399 -0.2973034 -0.2135244 0.5466864 260.7545 38.4516

0.1974524 -0.2994153 -0.2126056 1.303938 261.538 38.74355

0.1979595 -0.2984906 -0.2118877 1.967787 262.4182 39.16712

0.1979595 -0.2984906 -0.2118877 1.967787 262.4182 39.16712

0.2135067 -0.2881736 -0.2110731 2.675536 263.2643 39.55694

0.2135067 -0.2881736 -0.2110731 2.675536 263.2643 39.55694

0.2153678 -0.2842742 -0.2077975 3.233497 264.0531 39.87439

0.2152523 -0.2853493 -0.2064393 3.619179 264.9013 40.15527

0.2152523 -0.2853493 -0.2064393 3.619179 264.9013 40.15527

0.2148416 -0.2866785 -0.2050207 3.895061 265.6061 40.49622

0.2153089 -0.2856977 -0.2014128 3.923352 266.0247 40.95517

0.2153089 -0.2856977 -0.2014128 3.923352 266.0247 40.95517

0.2154926 -0.2874267 -0.1987386 3.923341 266.0246 40.95515

0.2122516 -0.2921526 -0.1953057 3.985827 266.4397 41.37233

0.2144719 -0.286854 -0.1912773 3.47903 267.0489 42.05366

0.2330627 -0.2740739 -0.1882438 3.479037 267.0489 42.05365

0.2426981 -0.266793 -0.1865198 3.12185 267.7292 42.50457

0.2522281 -0.2596288 -0.1839682 2.797502 268.2211 42.81382

0.253865 -0.2524482 -0.1773724 2.797502 268.2211 42.81382

0.2631133 -0.2452115 -0.174015 2.797495 268.2211 42.81382

0.2724269 -0.2389209 -0.1683415 2.795785 268.4796 42.94604

0.2816545 -0.2328946 -0.16146 2.79578 268.4796 42.94603

0.281797 -0.2292058 -0.1574888 2.773823 268.7253 43.50201

0.2906661 -0.2231463 -0.1498882 2.804508 269.0237 44.25294

0.2990934 -0.217748 -0.1409842 3.105616 269.3396 44.90918

0.2990934 -0.217748 -0.1409842 3.105616 269.3396 44.90918

0.3066612 -0.2078857 -0.1260968 3.351078 269.7537 45.47145

0.3066612 -0.2078857 -0.1260968 3.628792 270.2067 45.65176

0.3146333 -0.2021592 -0.1153064 3.79299 270.5947 45.69891

0.3146333 -0.2021592 -0.1153064 3.79299 270.5947 45.69891

0.3217984 -0.1923526 -0.1001462 3.623713 271.0467 45.86795

0.3298294 -0.1846697 -0.08770768 3.623707 271.0467 45.86794

0.3366717 -0.1781525 -0.07414082 3.138446 271.7653 46.70231

0.3366717 -0.1781525 -0.07414082 3.138446 271.7653 46.70231

0.3360103 -0.1797381 -0.07212662 2.709949 272.4747 47.54205

0.3404249 -0.1755423 -0.06088328 2.257434 273.0629 48.2859

0.3404249 -0.1755423 -0.06088328 2.257434 273.0629 48.2859

0.3404249 -0.1755423 -0.06088328 1.841354 273.6541 48.98472

0.3405055 -0.1758375 -0.05956671 1.841343 273.6541 48.98471

0.3462433 -0.1682466 -0.04711308 1.252051 274.1318 50.04815

0.3459732 -0.1693135 -0.04523812 0.8780825 274.6107 51.00502

0.3459732 -0.1693135 -0.04523812 0.1394282 274.7484 52.01837

0.3454311 -0.1686335 -0.04430466 0.139435 274.7484 52.01837

0.3471308 -0.1685392 -0.02859271 359.4618 274.9701 53.09201

0.3471308 -0.1685392 -0.02859271 358.8197 274.8755 54.54265

0.3448174 -0.1735286 -0.02667578 358.8197 274.8755 54.54265

0.3451118 -0.173864 -0.02713159 358.5167 274.5601 55.83229

0.3451118 -0.173864 -0.02713159 357.5777 273.8139 57.20658

0.3480708 -0.1682029 -0.02492972 357.5777 273.8139 57.20658

0.3481326 -0.1697281 -0.007937393 356.0193 272.53 58.8377

0.3474825 -0.1710423 0.008207602 355.052 271.754 60.66422

0.3474825 -0.1710423 0.008207602 355.052 271.754 60.66422

0.3460279 -0.1737687 0.01166535 354.0631 270.8095 62.79487

0.344103 -0.1758177 0.02735324 353.3318 270.5806 64.10214

0.3413653 -0.1772845 0.0419846 353.3318 270.5806 64.10216

0.3413653 -0.1772845 0.0419846 353.3318 270.5806 64.10216

0.3379275 -0.1797413 0.0567526 353.019 270.5169 64.89997

0.3330118 -0.1852938 0.06702348 351.1813 269.2326 66.84479

0.327458 -0.1878379 0.07637388 351.1813 269.2326 66.84477

0.327458 -0.1878379 0.07637388 349.3215 267.274 68.88569

0.326332 -0.1895567 0.07694415 347.4992 264.9933 70.75581

0.3156251 -0.2024146 0.08805598 347.4992 264.9933 70.75581

0.301762 -0.2172221 0.09520586 345.5428 263.8456 72.18707

0.301762 -0.2172221 0.09520586 343.4105 262.3315 73.44867

0.2884079 -0.2322797 0.1008809 345.2462 262.3621 73.40879

0.2804082 -0.240891 0.1032119 345.2462 262.3621 73.4088

0.2806238 -0.2410653 0.1030544 344.1686 259.6557 75.91546

0.2728283 -0.2470751 0.1095494 344.1686 259.6557 75.91546

0.2728283 -0.2470751 0.1095494 346.1792 259.3664 76.41328

0.2728283 -0.2470751 0.1095494 344.7316 256.8019 79.02879

0.2750348 -0.2487886 0.1080106 344.7315 256.8019 79.02879

0.2750348 -0.2487886 0.1080106 344.5758 254.8602 82.40104

0.2675392 -0.2571001 0.1073711 343.6164 252.4012 83.86457

0.2690272 -0.258346 0.1062673 343.6164 252.4012 83.86457

0.2581083 -0.2688823 0.1072072 343.1214 250.1283 85.28771

0.2581083 -0.2688823 0.1072072 343.0014 248.2172 85.68542

0.2489291 -0.2784536 0.1044455 342.4767 246.2675 86.08505

0.2493507 -0.2788124 0.1041285 342.4767 246.2675 86.08505

0.2488712 -0.2805426 0.1005677 341.7585 245.9361 84.84769

0.2504686 -0.2806961 0.09607315 341.4398 243.9218 87.09505

0.2504686 -0.2806961 0.09607315 340.7089 242.7587 86.43295

0.2411559 -0.2882121 0.1002401 340.7089 242.7587 86.43295

0.2304653 -0.2950191 0.1054512 339.3275 240.8706 87.23137

0.2176364 -0.3019269 0.1128937 339.3275 240.8706 87.23136

0.2176364 -0.3019269 0.1128937 338.785 239.2641 88.86913

0.2098356 -0.3062422 0.121772 338.785 239.2641 88.86913

0.2098616 -0.3050669 0.1246432 338.0693 237.5061 89.68869

0.2024575 -0.3086067 0.128127 337.2814 236.1042 89.45923

0.2024575 -0.3086067 0.128127 337.2814 236.1042 89.45923

0.2065378 -0.3077441 0.127029 337.1034 234.7326 89.96593

0.1992488 -0.3125754 0.1268748 338.321 234.3101 90.11121

0.1949676 -0.317412 0.1213999 338.321 234.3101 90.11121

0.1949676 -0.317412 0.1213999 336.3491 234.2368 90.62666

0.2021622 -0.3134201 0.1207072 336.3491 234.2368 90.62666

0.1949753 -0.3185908 0.118981 338.2231 234.4079 89.83462

0.1949753 -0.3185908 0.118981 337.7568 233.213 92.22369

0.1853098 -0.3254894 0.1157104 338.3861 233.8008 89.98482

0.1879745 -0.3248003 0.111802 338.3861 233.8008 89.98483

0.1879745 -0.3248003 0.111802 338.0989 232.7505 92.43187

0.1905836 -0.3239001 0.1099816 339.2197 234.1215 92.6512

0.1909527 -0.3240157 0.1089966 339.2197 234.1215 92.65119

0.1879609 -0.3217271 0.1107296 338.7305 233.757 94.91008

0.1897381 -0.3200854 0.1124427 339.0348 234.9909 92.99734

0.1864491 -0.3213902 0.1142091 338.6032 235.7923 91.18208

0.1864491 -0.3213902 0.1142091 338.6032 235.7923 91.18208

0.1865684 -0.3183677 0.1186306 337.768 236.2111 92.52295

0.1783535 -0.3206103 0.1250519 337.7269 237.4002 91.16762

0.179855 -0.3171524 0.1315505 337.2217 235.5733 93.1172

0.179855 -0.3171524 0.1315505 337.2217 235.5733 93.1172

0.174316 -0.3187028 0.1352088 336.6496 235.7035 91.28425

0.174316 -0.3187028 0.1352088 335.6019 234.0511 93.76069

0.1755698 -0.3159042 0.140067 335.6019 234.0511 93.76068

0.1692842 -0.3197092 0.1391684 336.9261 235.5547 93.69256

0.1770039 -0.3151338 0.1399974 337.6397 236.5789 95.09451

0.1770039 -0.3151338 0.1399974 336.8785 235.378 94.08766

0.1742746 -0.3180648 0.1367557 336.8785 235.378 94.08767

0.1804159 -0.314537 0.136951 336.2141 236.3413 92.99345

0.1746145 -0.3192191 0.1335959 337.4709 235.6039 94.89339

0.1746145 -0.3192191 0.1335959 337.4709 235.6039 94.89339

0.1752722 -0.318103 0.1353851 338.9236 236.6269 93.21625

0.1647358 -0.3234517 0.1359414 338.9236 236.6269 93.21624

0.1654131 -0.3222088 0.1392945 337.0849 235.2546 93.83711

0.1654131 -0.3222088 0.1392945 338.5234 236.3972 92.44519

0.1592102 -0.3261594 0.1373138 338.5234 236.3972 92.44519

0.1521091 -0.3290589 0.1384414 338.5234 236.3972 92.44518

0.1554629 -0.3289691 0.1342445 337.0048 234.9474 94.43661

0.1554629 -0.3289691 0.1342445 338.0543 233.6391 95.61529

0.1654857 -0.3227953 0.1372175 338.0542 233.639 95.6153

0.158199 -0.3271901 0.135391 338.8395 233.0066 97.99887

0.1615233 -0.3238931 0.1380956 339.6049 234.5784 97.17085

0.1615233 -0.3238931 0.1380956 339.6049 234.5784 97.17085

0.1543077 -0.3236332 0.1466889 340.6942 233.7274 96.33678

0.1430922 -0.3280747 0.1481842 340.9405 234.0652 94.27233

0.1521812 -0.3240545 0.1491325 340.9405 234.0652 94.27233

0.1521812 -0.3240545 0.1491325 342.45 233.6606 95.45908

0.15015 -0.3283048 0.1417106 341.8378 234.7886 94.97811

0.1563406 -0.3253733 0.1417772 341.8378 234.7886 94.9781

0.1622414 -0.3198975 0.1451416 340.464 235.515 94.57202

0.1622414 -0.3198975 0.1451416 339.9141 235.4622 96.91931

0.1562995 -0.3218066 0.147424 338.0934 233.7068 97.51662

0.1541624 -0.3237514 0.1454021 338.0934 233.7068 97.51661

0.1546143 -0.3241558 0.1452044 339.3834 235.1802 97.47335

0.1612618 -0.3201061 0.1469476 338.3432 233.2821 98.59341

0.1583404 -0.3232615 0.1431686 337.4819 231.6443 98.14895

0.165963 -0.3238088 0.1329324 337.4818 231.6443 98.14895

0.165733 -0.3236164 0.1330409 336.5013 229.807 99.67535

0.1555849 -0.3308297 0.1274359 337.4314 231.3624 99.40122

0.1698097 -0.325183 0.1237561 335.4382 229.6353 100.3424

0.1574507 -0.3315288 0.1232592 335.4382 229.6353 100.3424

0.1572295 -0.3313307 0.1233759 333.3336 229.108 99.44294

0.1676525 -0.3251411 0.12609 334.3396 229.6155 101.2509

0.158046 -0.3292926 0.127713 334.3396 229.6155 101.2509

0.1601496 -0.3287598 0.126459 333.1358 227.8525 101.5613

0.1626358 -0.3263926 0.1300474 334.3687 228.5395 99.89627

0.1626358 -0.3263926 0.1300474 334.3687 228.5395 99.89627

0.1567309 -0.3295864 0.1292406 333.1743 226.6225 101.4411

0.1595643 -0.3274188 0.1312672 332.2216 224.5658 102.8316

0.1534494 -0.331682 0.1264554 332.6813 226.2962 101.6751

0.1534494 -0.331682 0.1264554 332.6813 226.2962 101.6751

0.1602788 -0.3286332 0.1259428 332.2545 227.3888 102.6171

0.1604823 -0.3303668 0.1210533 331.2177 226.2991 101.5638

0.1609318 -0.3307544 0.1208196 330.6278 224.4505 103.7398

0.1730087 -0.3236526 0.1233365 330.6278 224.4504 103.7398

0.1614248 -0.3299372 0.1223861 329.9869 225.5918 102.0635

0.161439 -0.3280249 0.127405 330.2821 224.0925 104.5966

0.161218 -0.3278262 0.1275208 331.4149 225.1446 106.2429

0.1550926 -0.3301972 0.1289917 331.4149 225.1446 106.2429

0.1614168 -0.3254067 0.1333336 331.4149 225.1446 106.2429

0.1614168 -0.3254067 0.1333336 330.0393 222.8592 109.3635

0.1587254 -0.3285699 0.1300578 330.0393 222.8592 109.3635

0.1587254 -0.3285699 0.1300578 327.843 221.0634 111.6008

0.1587254 -0.3285699 0.1300578 327.2438 223.0893 111.3481

0.160944 -0.326563 0.1323655 327.2438 223.0893 111.3481

0.1605006 -0.326163 0.1325898 326.884 221.5841 113.2313

0.1582524 -0.3284285 0.1296675 326.9309 220.102 114.8387

0.1582524 -0.3284285 0.1296675 326.9309 220.102 114.8387

0.1582524 -0.3284285 0.1296675 326.6133 218.5652 116.241

0.1523818 -0.3296746 0.1347641 325.5855 217.5451 116.6465

0.1523818 -0.3296746 0.1347641 325.5855 217.5451 116.6465

0.1523818 -0.3296746 0.1347641 325.8321 217.9284 117.0036

0.1503057 -0.3307558 0.134446 325.2592 217.555 118.2701

0.1548376 -0.3281987 0.136828 325.2592 217.555 118.2701

0.1548376 -0.3281987 0.136828 325.2592 217.555 118.2701

0.1515595 -0.3320616 0.1310564 325.119 217.6509 118.4327

0.1515595 -0.3320616 0.1310564 322.1055 216.8177 120.0331

0.1515595 -0.3320616 0.1310564 322.1055 216.8177 120.0331

0.1454815 -0.3374977 0.1238606 319.4663 215.0532 121.855

0.1454815 -0.3374977 0.1238606 318.8391 213.8767 122.9876

0.1454815 -0.3374977 0.1238606 318.8391 213.8767 122.9876

0.1454815 -0.3374977 0.1238606 318.6805 213.149 124.1484

0.1454815 -0.3374977 0.1238606 317.0817 211.3202 127.7719

0.1454815 -0.3374977 0.1238606 317.0817 211.3202 127.7719

0.149633 -0.3370373 0.1201117 316.0277 213.8719 126.9664

0.1487643 -0.3362312 0.1205842 315.2832 211.8711 129.533

0.1671544 -0.3275702 0.1203323 315.2832 211.8711 129.533

0.1602784 -0.3314489 0.11906 315.2832 211.8711 129.533

0.1602784 -0.3314489 0.11906 315.2832 211.8711 129.533

0.1607142 -0.3259913 0.1240285 312.0726 209.9234 131.8362

0.1841284 -0.3161021 0.1168701 308.8324 209.4315 131.1585

0.2067557 -0.3051102 0.1078993 307.3535 206.7635 134.2719

0.2067557 -0.3051102 0.1078993 307.3535 206.7635 134.2719

0.221875 -0.2895208 0.1014039 304.3812 205.79 136.6133

0.2431165 -0.2757003 0.09064917 301.9773 203.272 139.5618

0.2628025 -0.2609729 0.07849577 298.3477 203.7207 138.8542

0.2628025 -0.2609729 0.07849577 298.3477 203.7207 138.8542

0.2762096 -0.2422832 0.07104071 298.3477 203.7208 138.8542

0.2929648 -0.2247018 0.06099531 298.3477 203.7208 138.8542

0.3068427 -0.2098591 0.04296982 297.13 202.1174 141.0276

0.3068427 -0.2098591 0.04296982 295.6189 200.5111 143.1024

0.3015451 -0.2079491 0.04121039 294.3734 204.8305 137.5986

0.3056273 -0.2043769 0.02631941 294.3734 204.8305 137.5985

0.3056273 -0.2043769 0.02631941 293.1691 204.4127 137.9421

0.3089929 -0.1992905 0.02602425 291.6291 209.1696 132.0459

0.3052881 -0.1980708 0.02879461 291.6291 209.1695 132.046

0.3118132 -0.1893919 0.01285521 290.0543 209.6922 133.7221

0.3118132 -0.1893919 0.01285521 288.9828 210.1055 134.8664

0.3169441 -0.180759 0.01160384 288.9828 210.1055 134.8665

0.3118917 -0.1791258 0.01568622 288.9572 213.4402 132.014

0.3159305 -0.1726157 0.0004884625 286.7654 225.933 120.4579

0.3191088 -0.1666642 -0.001069007 286.7654 225.933 120.458

0.3191088 -0.1666642 -0.001069007 285.7999 241.498 105.8464

0.3139721 -0.1649012 0.003373689 286.1855 257.0503 90.89462

0.3149776 -0.1630069 -0.000308733 286.1855 257.0503 90.89458

0.3149776 -0.1630069 -0.000308733 287.8622 270.0333 78.4469

0.3149776 -0.1630069 -0.000308733 289.7161 278.8201 69.65041

0.3146267 -0.1523925 -0.01636001 289.7161 278.8201 69.65041

0.3173261 -0.1432961 -0.03537635 292.1333 286.1153 62.57478

0.3173261 -0.1432961 -0.03537635 292.1333 286.1153 62.57478

0.3181347 -0.1353108 -0.05442756 292.1332 286.1153 62.57476

0.3152272 -0.1249736 -0.06741915 295.0331 292.1697 57.01773

0.3138143 -0.1174833 -0.08514818 295.0331 292.1697 57.01773

0.3138143 -0.1174833 -0.08514818 295.0331 292.1697 57.01773

0.3127867 -0.1092798 -0.09876423 295.0331 292.1697 57.01773

0.3069324 -0.1036288 -0.110278 296.8863 296.2073 53.10807

0.3061598 -0.09989884 -0.1157325 299.3493 300.7733 49.11546

0.3061598 -0.09989884 -0.1157325 299.3493 300.7733 49.11546

0.3014759 -0.1004222 -0.1270249 300.5191 305.4214 44.92577

0.301 -0.1015467 -0.1272592 300.5191 305.4214 44.92578

0.2952406 -0.1038676 -0.1383913 302.563 310.9233 40.36884

0.2952406 -0.1038676 -0.1383913 306.02 315.1844 38.17487

0.2952406 -0.1038676 -0.1383913 306.02 315.1844 38.17487

0.2877337 -0.1090726 -0.1559634 308.7498 319.0435 35.75469

0.2877337 -0.1090726 -0.1559634 308.7498 319.0435 35.75469

0.2787998 -0.1120492 -0.1694926 311.5689 322.2336 34.1855

0.2787998 -0.1120492 -0.1694926 312.9441 324.5591 32.97584

0.2764399 -0.1140122 -0.1856143 314.7452 326.537 32.59117

0.2706276 -0.1139514 -0.1940266 314.7452 326.537 32.59117

0.2734768 -0.1088025 -0.1929843 315.2141 328.1571 32.294

0.2734768 -0.1088025 -0.1929843 316.8004 329.7047 32.42074

0.2679743 -0.1178426 -0.2160906 317.746 330.8212 32.75707

0.261824 -0.1136855 -0.2256457 317.7459 330.8212 32.75708

0.2632431 -0.1087661 -0.2264182 317.387 332.0957 32.64438

0.2632431 -0.1087661 -0.2264182 316.9991 333.1135 32.70938

0.2537868 -0.1219371 -0.2524099 316.9991 333.1135 32.70939

0.2569279 -0.1126763 -0.2535336 316.1418 333.1842 33.50213

0.2569279 -0.1126763 -0.2535336 316.1686 333.5383 34.03531

0.2439444 -0.1186511 -0.2634392 316.1686 333.5383 34.0353

0.2439444 -0.1186511 -0.2634392 316.1686 333.5383 34.0353

0.2457259 -0.1171952 -0.2835697 316.0383 333.9984 34.44435

0.2457259 -0.1171952 -0.2835697 316.0383 333.9984 34.44435

0.2321061 -0.1230287 -0.2924353 315.9456 334.4868 34.83562

0.2390123 -0.110084 -0.2920313 315.9456 334.4867 34.83563

0.2221933 -0.1232529 -0.322212 315.9456 334.4867 34.83562

0.2221933 -0.1232529 -0.322212 314.195 333.6665 37.24529

0.2300524 -0.1087352 -0.3219228 314.195 333.6665 37.24529

0.2196881 -0.1141921 -0.3272293 313.1622 332.7076 39.04869

0.2196881 -0.1141921 -0.3272293 313.1622 332.7076 39.04869

0.2168562 -0.110168 -0.3537867 313.2053 332.6169 39.66417

0.2168562 -0.110168 -0.3537867 313.2053 332.6169 39.66417

0.2168562 -0.110168 -0.3537867 313.0604 332.8703 39.89352

0.2043817 -0.1179938 -0.358656 313.0539 333.1459 40.11592

0.1952652 -0.1150145 -0.3864165 312.1368 331.0219 43.60221

0.1952652 -0.1150145 -0.3864165 312.1368 331.0219 43.60221

0.1813034 -0.1212701 -0.3912764 311.6972 329.1862 46.68496

0.1899499 -0.1065203 -0.3914678 311.6616 327.7068 49.38852

0.1722717 -0.1121472 -0.4137655 311.5392 326.0969 51.74467

0.1722717 -0.1121472 -0.4137655 311.5392 326.0969 51.74467

0.1722717 -0.1121472 -0.4137655 311.7898 324.5457 53.85409

0.1576701 -0.1197342 -0.4174449 311.7898 324.5457 53.85408

0.1419396 -0.123771 -0.4322852 311.8704 323.782 55.13177

0.1419396 -0.123771 -0.4322852 311.3605 323.5917 55.50824

0.1513421 -0.1081171 -0.4332931 311.0141 323.8351 55.24765

0.1513421 -0.1081171 -0.4332931 311.0141 323.8351 55.24765

0.1213198 -0.1172708 -0.4500172 310.0396 324.4078 54.41624

0.1213198 -0.1172708 -0.4500172 309.2317 325.3256 53.16523

0.1213198 -0.1172708 -0.4500172 309.2317 325.3256 53.16523

0.1315677 -0.1012027 -0.451037 307.6593 326.0716 52.2857

0.1315677 -0.1012027 -0.451037 307.6593 326.0716 52.2857

0.1155721 -0.1040821 -0.461722 306.9023 327.1935 51.01552

0.09937853 -0.1139061 -0.4631701 305.2029 328.6971 49.27237

0.09937853 -0.1139061 -0.4631701 305.2029 328.6971 49.27237

0.1109156 -0.09751716 -0.4642902 304.4457 331.1235 46.36039

0.09680402 -0.09954323 -0.4721166 302.8868 333.3562 43.811

0.08100237 -0.1096193 -0.4728595 302.8868 333.3562 43.811

0.09281937 -0.09294144 -0.4742577 302.8868 333.3562 43.81099

0.09281937 -0.09294144 -0.4742577 303.174 334.5794 42.07267

0.07988446 -0.0945219 -0.4802683 300.3249 337.098 39.7628

0.07988446 -0.0945219 -0.4802683 300.3249 337.098 39.7628

0.07988446 -0.0945219 -0.4802683 297.7541 339.8014 37.3211

0.07793368 -0.09491575 -0.4805111 297.7542 339.8014 37.3211

0.06047227 -0.09634781 -0.4860784 297.7541 339.8014 37.32109

0.0681935 -0.08882269 -0.4864896 296.2211 344.1196 32.90966

0.0681935 -0.08882269 -0.4864896 296.2211 344.1196 32.90966

0.06600141 -0.08888786 -0.48678 296.221 344.1196 32.90966

0.06893077 -0.07190203 -0.492134 297.3892 345.4041 31.27656

0.05873235 -0.08169027 -0.4919294 297.3892 345.4041 31.27657

0.05873235 -0.08169027 -0.4919294 297.1942 345.3353 30.49453

0.07018369 -0.06998388 -0.4922335 297.1942 345.3353 30.49453

0.07018369 -0.06998388 -0.4922335 295.0394 347.8127 28.10147

0.05934747 -0.07005924 -0.4948416 295.0394 347.8127 28.10147

0.06470129 -0.06521702 -0.4948323 296.4854 348.278 27.40786

0.07990088 -0.05240868 -0.4941334 294.5478 353.5544 22.85045

0.07990088 -0.05240868 -0.4941334 293.7865 359.5839 17.62168

0.05940377 -0.06455612 -0.4969453 293.7865 359.5839 17.62168

0.05940377 -0.06455612 -0.4969453 292.2171 359.3651 17.67716

0.07550865 -0.05063158 -0.4963727 290.165 357.6177 19.63345

0.07550865 -0.05063158 -0.4963727 291.246 357.034 21.04742

0.07102565 -0.04986957 -0.4978593 291.246 357.034 21.04742

0.06161937 -0.05643316 -0.4984113 287.6719 355.3716 23.3532

0.06161937 -0.05643316 -0.4984113 284.5599 352.6508 26.4626

0.06161937 -0.05643316 -0.4984113 282.3071 349.3878 29.62804

0.06877092 -0.04120966 -0.5002637 282.3071 349.3878 29.62803

0.06877092 -0.04120966 -0.5002637 280.6934 345.8837 32.99767

0.05467202 -0.0522016 -0.5009764 281.6932 342.3915 35.76691

0.05467202 -0.0522016 -0.5009764 280.7155 335.5049 42.18163

0.05067733 -0.05169668 -0.5019659 280.7155 335.5049 42.18163

0.06671639 -0.03651214 -0.5014244 280.2119 328.1045 48.91242

0.06671639 -0.03651214 -0.5014244 280.1308 323.4475 52.77942

0.05189623 -0.0474935 -0.5022567 280.1308 323.4475 52.77943

0.05189623 -0.0474935 -0.5022567 280.2496 319.5412 55.72976

0.05189623 -0.0474935 -0.5022567 280.2452 317.4879 56.76595

0.05189623 -0.0474935 -0.5022567 279.8705 317.8724 55.45475

0.05189623 -0.0474935 -0.5022567 279.8705 317.8724 55.45475

0.06745928 -0.03266704 -0.5016664 279.5113 320.9547 51.52137

0.06745928 -0.03266704 -0.5016664 279.5113 320.9547 51.52137

0.05272945 -0.04367695 -0.5025922 279.0035 324.5653 47.10535
