0.03432592 -5.722046E-08 -0.5078163 270.4777 169.0212 189.093

0.02120755 -0.01058069 -0.5083731 270.5977 174.7397 182.3356

0.02120755 -0.01058069 -0.5083731 270.5977 174.7397 182.3356

0.02120755 -0.01058069 -0.5083731 270.5977 174.7397 182.3356

0.03529772 0.00713562 -0.5076495 270.7055 165.8098 190.2398

0.02181995 -0.003919086 -0.5084422 270.3642 147.7849 207.129

-0.01792751 -0.01023817 -0.5097432 270.3642 147.7849 207.129

-0.01792751 -0.01023817 -0.5097432 270.4938 135.2268 218.6286

-0.002429564 0.004127026 -0.5101385 271.9276 3.949743 350.1912

0.0009518741 0.01153078 -0.5100298 274.1163 358.7975 355.5343

0.00349074 0.01898815 -0.5098116 274.1163 358.7975 355.5343

0.00349074 0.01898815 -0.5098116 276.2918 356.8855 357.4648

0.007177772 0.02651979 -0.5094367 278.7283 357.7145 356.5272

0.01171358 0.03399539 -0.5089083 281.1476 358.5685 355.5784

0.01744186 0.0413158 -0.508186 283.3893 359.876 354.1538

0.01744186 0.0413158 -0.508186 283.3893 359.876 354.1538

0.02231604 0.04777662 -0.5074284 285.8377 2.229399 351.5868

0.0272525 0.05331754 -0.5066347 287.7918 4.793669 348.6337

0.03362339 0.05814563 -0.505694 289.4131 6.929282 345.9017

0.03362339 0.05814563 -0.505694 289.4131 6.929282 345.9017

0.03863836 0.06265114 -0.5047969 290.5398 7.784447 344.1003

0.04510753 0.06718912 -0.5036753 290.3325 6.705019 343.9102

0.05222494 0.07028014 -0.5025364 290.3364 4.232475 345.1649

0.05222494 0.07028014 -0.5025364 290.3364 4.232475 345.1649

0.05987202 0.07328633 -0.5012525 290.2 3.995173 344.1488

0.06780963 0.07405054 -0.5001279 291.3907 7.475131 339.626

0.07542626 0.06658384 -0.5000127 292.1458 10.43324 335.7774

0.07542626 0.06658384 -0.5000127 292.1458 10.43324 335.7774

0.07284079 0.05344542 -0.5019692 293.6017 10.54446 334.7075

0.08915738 0.06048091 -0.4985261 292.271 8.845818 335.1233

0.08971596 0.06018565 -0.4984382 292.271 8.845813 335.1233

0.07642549 0.0474852 -0.5020121 293.3066 8.029147 334.6015

0.08951079 0.05428333 -0.4991523 292.7115 8.828007 332.4202

0.08710367 0.04789807 -0.5002305 293.1136 4.215253 335.7146

0.08952069 0.04640276 -0.4998281 293.1135 4.215245 335.7146

0.09388407 0.04545616 -0.4991141 291.526 0.01322809 338.6557

0.09654275 0.0423228 -0.4988824 289.5096 351.2036 345.493

0.0979107 0.03911711 -0.4988774 287.7043 340.266 354.1324

0.1153748 0.02649845 -0.4944324 287.7043 340.2661 354.1323

0.1214648 0.03285418 -0.4925889 286.5934 326.8744 5.087972

0.1165089 0.03501366 -0.4936361 286.0372 313.9641 15.55242

0.1183081 0.03995779 -0.4928321 288.4876 312.1689 15.4636

0.1435027 0.02778216 -0.48305 288.4876 312.1689 15.4636

0.1403039 0.02982282 -0.4838673 289.5549 312.7879 13.38949

0.1363722 0.03131533 -0.484896 288.8278 312.4369 12.37781

0.1284029 0.02929364 -0.4871927 290.4519 310.5034 12.8672

0.08322681 0.03964319 -0.5013468 290.4519 310.5034 12.8672

0.0804648 0.03799478 -0.5019251 291.7229 309.1127 12.96731

0.0804648 0.03799478 -0.5019251 291.7229 309.1127 12.96731

0.06989152 0.02815035 -0.5041525 293.7563 305.9643 14.99281

0.05244901 0.009479714 -0.5069578 294.4951 304.1878 16.61067

0.1400196 -0.01052756 -0.4701148 294.3612 303.1158 17.44623

0.1400196 -0.01052756 -0.4701148 294.3612 303.1158 17.44623

0.134358 -0.02460917 -0.4712394 295.869 297.2107 22.04616

0.134358 -0.02460917 -0.4712394 297.6712 292.5797 25.4898

0.1486972 -0.04794751 -0.4560662 297.6712 292.5797 25.48979

0.1592547 -0.04499233 -0.4527911 297.6712 292.5797 25.48979

0.1439916 -0.06552801 -0.4553885 299.5761 288.9753 27.99017

0.1439916 -0.06552801 -0.4553885 299.5761 288.9753 27.99017

0.1618517 -0.06360254 -0.4400942 301.6333 285.9029 30.0741

0.1738366 -0.06243487 -0.4356682 303.9396 283.1613 31.70805

0.1572504 -0.08146225 -0.4388169 303.9396 283.1613 31.70806

0.1572504 -0.08146225 -0.4388169 306.0486 281.0773 33.26323

0.1751313 -0.07851691 -0.4204219 308.1736 279.2939 34.78422

0.1815709 -0.08489147 -0.4164323 309.8177 278.048 36.19296

0.1674791 -0.1019218 -0.418513 309.8177 278.048 36.19296

0.1618427 -0.1187184 -0.4162972 311.9097 276.559 37.2648

0.1774644 -0.1139004 -0.3979843 313.8848 274.8377 38.42471

0.1774644 -0.1139004 -0.3979843 313.8848 274.8377 38.42471

0.1827153 -0.1153534 -0.39518 313.8848 274.8377 38.42471

0.1827153 -0.1153534 -0.39518 313.8848 274.8377 38.42471

0.1679386 -0.1343355 -0.3957386 316.104 272.9287 39.64071

0.1891019 -0.1262791 -0.3765559 318.6389 271.2211 40.71605

0.1783986 -0.1424418 -0.3760114 320.9315 270.084 41.64747

0.1783986 -0.1424418 -0.3760114 320.9315 270.084 41.64747

0.1711478 -0.157823 -0.3732299 323.7534 267.3038 43.04653

0.1744243 -0.1681187 -0.3577803 323.7534 267.3038 43.04653

0.186013 -0.171033 -0.3504873 326.5163 265.0351 44.20092

0.186013 -0.171033 -0.3504873 329.1991 263.4994 44.94725

0.1780232 -0.1890117 -0.3453647 329.1991 263.4994 44.94725

0.181073 -0.1864606 -0.3407916 331.8123 262.1343 45.5397

0.1939637 -0.1921955 -0.3303527 334.2872 260.5975 46.11989

0.184246 -0.210843 -0.3244882 334.2872 260.5975 46.11989

0.1896783 -0.2168821 -0.3172984 336.6579 259.2225 46.84365

0.1896783 -0.2168821 -0.3172984 336.6579 259.2225 46.84365

0.1812793 -0.2315575 -0.3117898 338.7006 258.1421 47.60407

0.1852271 -0.2448008 -0.2990944 340.6694 257.6585 48.11465

0.1698694 -0.261639 -0.2939105 340.6694 257.6585 48.11464

0.1698694 -0.261639 -0.2939105 342.7671 256.9185 48.67519

0.1753379 -0.2622391 -0.29014 342.7671 256.9185 48.67521

0.1588964 -0.276324 -0.2865152 342.7671 256.9185 48.67521

0.1588964 -0.276324 -0.2865152 342.7671 256.9185 48.67521

0.1683868 -0.2747965 -0.2825361 344.9631 255.8673 49.19721

0.1683868 -0.2747965 -0.2825361 346.9499 254.6973 49.78157

0.1568266 -0.2882673 -0.2756834 348.7892 253.988 50.25167

0.1468592 -0.2935033 -0.2703844 348.7892 253.988 50.25167

0.1545066 -0.2920597 -0.2676722 348.7892 253.988 50.25167

0.1545066 -0.2920597 -0.2676722 350.5087 253.4693 50.58461

0.1564525 -0.2929191 -0.2616228 350.5087 253.4693 50.58462

0.1564525 -0.2929191 -0.2616228 352.4429 252.508 51.01788

0.1564525 -0.2929191 -0.2616228 352.4429 252.508 51.01788

0.1564525 -0.2929191 -0.2616228 354.6454 251.1254 51.43422

0.1608648 -0.2918204 -0.2601708 356.8523 249.8532 51.69957

0.1618338 -0.2906716 -0.258986 358.7181 248.6608 51.9514

0.1618338 -0.2906716 -0.258986 358.7181 248.6608 51.9514

0.1618338 -0.2906716 -0.258986 0.6925212 247.7885 52.08974

0.1618338 -0.2906716 -0.258986 2.654656 246.9905 52.17981

0.1569934 -0.2873998 -0.2670546 4.648647 246.2347 52.13274

0.1569934 -0.2873998 -0.2670546 4.648647 246.2347 52.13274

0.1569934 -0.2873998 -0.2670546 6.569012 245.8027 52.07705

0.160633 -0.2852485 -0.2671965 8.356948 246.0305 52.01554

0.160633 -0.2852485 -0.2671965 8.356948 246.0305 52.01554

0.160633 -0.2852485 -0.2671965 10.33008 246.3771 51.89051

0.160633 -0.2852485 -0.2671965 12.42644 246.8213 51.78404

0.1521371 -0.2931966 -0.2635408 14.31075 247.6025 51.79097

0.1517988 -0.2935804 -0.2639219 14.31075 247.6025 51.79096

0.1517988 -0.2935804 -0.2639219 16.14222 248.3831 51.75448

0.1581122 -0.2920496 -0.2619058 18.16133 249.0466 51.71783

0.1581122 -0.2920496 -0.2619058 20.11406 250.0969 51.9841

0.1581122 -0.2920496 -0.2619058 20.11406 250.0969 51.9841

0.1635662 -0.2866763 -0.2638683 21.81084 251.547 52.43346

0.1605351 -0.2947537 -0.2567341 23.39907 252.914 52.91112

0.1605351 -0.2947537 -0.2567341 24.91976 253.8048 53.08892

0.1605351 -0.2947537 -0.2567341 24.91976 253.8048 53.08892

0.1604517 -0.3017618 -0.2494866 26.6303 254.1984 53.10696

0.1476054 -0.3104223 -0.2467776 26.63029 254.1984 53.10696

0.1549191 -0.3078677 -0.2454916 27.98712 254.907 53.28566

0.1549191 -0.3078677 -0.2454916 27.98712 254.907 53.28566

0.1483531 -0.3144504 -0.2421671 28.91428 256.0052 53.59619

0.1483531 -0.3144504 -0.2421671 29.57735 257.1672 53.95634

0.1579743 -0.3089633 -0.2431429 29.57736 257.1672 53.95634

0.1489934 -0.3147692 -0.2413585 30.23171 258.3648 54.32341

0.1394107 -0.3209137 -0.2393176 31.60217 257.9946 54.10352

0.1394107 -0.3209137 -0.2393176 31.60217 257.9946 54.10352

0.1411321 -0.3208533 -0.2383877 32.94965 257.6674 53.83294

0.1370365 -0.3247237 -0.2355194 32.94964 257.6674 53.83295

0.1407188 -0.3225037 -0.2377545 34.16478 255.9433 52.52933

0.1407188 -0.3225037 -0.2377545 35.04217 256.5112 52.50077

0.1359864 -0.3278548 -0.233145 35.04217 256.5112 52.50078

0.1359864 -0.3278548 -0.233145 35.69106 257.1358 52.27054

0.1415978 -0.3257929 -0.2347547 36.33067 257.8079 52.06946

0.1415978 -0.3257929 -0.2347547 37.47371 258.1839 52.13891

0.1415978 -0.3257929 -0.2347547 38.63339 259.7626 52.60258

0.1415978 -0.3257929 -0.2347547 38.63339 259.7626 52.60258

0.1390537 -0.328562 -0.2371627 39.83768 261.3209 52.91308

0.1390537 -0.328562 -0.2371627 41.41533 262.7059 52.9953

0.13328 -0.3338659 -0.2330346 41.41532 262.7059 52.99529

0.13328 -0.3338659 -0.2330346 43.04539 264.924 53.52329

0.13328 -0.3338659 -0.2330346 44.51628 267.565 54.17964

0.1403894 -0.3297704 -0.2336668 44.51627 267.565 54.17963

0.1403894 -0.3297704 -0.2336668 45.56431 270.4055 54.91519

0.1345176 -0.3348291 -0.2298962 46.58121 273.3158 55.77451

0.1352614 -0.3340229 -0.229245 47.48958 276.647 57.0276

0.1352614 -0.3340229 -0.229245 47.48958 276.647 57.0276

0.1514993 -0.3275584 -0.2284154 48.32006 279.4451 57.89533

0.1612925 -0.3246534 -0.2229919 49.15351 281.6707 58.32484

0.1669254 -0.3285882 -0.2128525 49.15351 281.6707 58.32486

0.1627925 -0.3320652 -0.210646 49.1535 281.6707 58.32484

0.1627925 -0.3320652 -0.210646 49.94283 284.0311 58.88366

0.1772778 -0.3229979 -0.2096158 51.00259 285.2362 58.69697

0.1817443 -0.3181696 -0.2131453 52.08752 286.8097 58.84969

0.1857902 -0.3088416 -0.2231427 52.08753 286.8097 58.8497

0.1857902 -0.3088416 -0.2231427 52.08753 286.8097 58.8497

0.1841076 -0.3085411 -0.2198549 52.08753 286.8097 58.84967

0.1941911 -0.3013026 -0.2212147 53.21299 288.59 59.34618

0.1924686 -0.3039588 -0.2190761 54.17325 290.2625 59.75476

0.1924686 -0.3039588 -0.2190761 55.05346 291.8208 59.77869

0.2060603 -0.2935171 -0.214961 55.05348 291.8207 59.77867

0.2061184 -0.2953569 -0.2123698 55.84966 293.3805 59.82553

0.219309 -0.2872613 -0.2102518 56.67682 295.5491 60.43719

0.219309 -0.2872613 -0.2102518 57.35493 297.9152 61.48566

0.2200829 -0.2862591 -0.2052849 57.35495 297.9152 61.48566

0.2269687 -0.2821247 -0.2035032 57.54939 300.334 62.47631

0.2254505 -0.2845139 -0.2018578 57.34559 302.5323 63.11398

0.2254505 -0.2845139 -0.2018578 57.22288 304.959 63.88184

0.2329406 -0.2775472 -0.1968495 57.22288 304.959 63.88186

0.2351586 -0.2776008 -0.1941177 57.32978 307.7958 65.41044

0.2351586 -0.2776008 -0.1941177 57.28619 310.6262 66.94427

0.2351586 -0.2776008 -0.1941177 56.80508 313.0582 67.70134

0.2510172 -0.2669349 -0.1900291 56.80508 313.0582 67.70132

0.2510172 -0.2669349 -0.1900291 56.43493 315.3186 68.20208

0.2510172 -0.2669349 -0.1900291 56.28785 317.976 69.5696

0.2510172 -0.2669349 -0.1900291 56.28785 317.976 69.5696

0.2499483 -0.2702206 -0.1928576 56.14256 320.7064 71.46438

0.2499483 -0.2702206 -0.1928576 55.61357 323.0659 72.66023

0.2499565 -0.2716926 -0.1907675 55.61357 323.0659 72.66025

0.2499565 -0.2716926 -0.1907675 54.66383 324.5802 72.50838

0.2558823 -0.2729223 -0.1914531 54.24088 326.447 72.58673

0.2558823 -0.2729223 -0.1914531 54.58736 328.5592 73.55699

0.2561927 -0.2745675 -0.1886656 55.03315 330.949 74.94988

0.2561927 -0.2745675 -0.1886656 55.03315 330.949 74.94988

0.251035 -0.2832353 -0.1905043 55.24921 333.4222 76.34704

0.2469197 -0.2869212 -0.1903669 54.88706 335.161 76.66492

0.2662044 -0.2757964 -0.1805664 53.62765 335.038 75.21334

0.2662044 -0.2757964 -0.1805664 53.62765 335.038 75.21334

0.2836314 -0.2702057 -0.1761506 52.44137 335.2628 74.06708

0.302289 -0.2577772 -0.1632767 52.60395 337.534 75.41908

0.302289 -0.2577772 -0.1632767 52.60395 337.534 75.41908

0.3203077 -0.2436919 -0.150014 51.33987 339.3518 76.55187

0.3367078 -0.2297433 -0.1353989 50.49086 341.3291 76.96099

0.3362809 -0.2360343 -0.1417225 49.59697 343.7804 78.89223

0.3362809 -0.2360343 -0.1417225 49.59697 343.7804 78.89223

0.3524282 -0.2200291 -0.1275297 49.90695 346.271 81.26963

0.3523011 -0.2247438 -0.1322851 48.14117 344.8123 79.45531

0.3523011 -0.2247438 -0.1322851 48.14117 344.8123 79.45531

0.3600743 -0.2171076 -0.1238385 49.13807 345.0892 78.56795

0.3600743 -0.2171076 -0.1238385 47.44925 343.1758 77.03856

0.3600743 -0.2171076 -0.1238385 47.44925 343.1758 77.03856

0.3598653 -0.2234954 -0.1300754 46.21038 343.7402 76.13879

0.3598653 -0.2234954 -0.1300754 46.1173 340.4132 75.45734

0.3598653 -0.2234954 -0.1300754 47.75662 337.9296 74.37476

0.3616691 -0.2242859 -0.1235485 47.75662 337.9296 74.37476

0.3613401 -0.229159 -0.1281316 46.31524 337.8212 75.37447

0.3716441 -0.2203398 -0.1132663 46.70695 339.6688 78.47723

0.3716441 -0.2203398 -0.1132663 45.427 338.0525 75.90326

0.3716441 -0.2203398 -0.1132663 45.427 338.0525 75.90326

0.3714471 -0.2251389 -0.1179343 46.72639 338.5386 76.92227

0.381875 -0.2163617 -0.09963949 47.99913 337.8926 75.72934

0.381875 -0.2163617 -0.09963949 46.33981 337.3953 76.1544

0.3771271 -0.2272205 -0.09335385 46.33981 337.3953 76.1544

0.375234 -0.2369327 -0.0952405 47.84101 337.4177 75.93226

0.375234 -0.2369327 -0.0952405 46.15115 336.2248 74.98363

0.375234 -0.2369327 -0.0952405 47.11478 335.8438 73.22359

0.379024 -0.234923 -0.08461873 47.11478 335.8438 73.22359

0.3793293 -0.2429548 -0.0877027 45.92794 335.5205 74.78453

0.3793293 -0.2429548 -0.0877027 47.25462 333.8654 73.24955

0.3861023 -0.2372503 -0.07243496 45.59019 333.8877 74.76833

0.3926423 -0.2307004 -0.05673467 45.59018 333.8877 74.76832

0.3988492 -0.232886 -0.04759316 46.61502 333.3681 73.6775

0.3988492 -0.232886 -0.04759316 44.74104 333.1179 72.79762

0.4053448 -0.2244357 -0.03009779 45.93509 334.6199 75.31349

0.4053448 -0.2244357 -0.03009779 45.93509 334.6199 75.31349

0.4140615 -0.2096888 -0.0128605 45.48037 335.8726 78.69095

0.4162047 -0.2181812 -0.004154978 44.68244 335.4647 76.65179

0.4216503 -0.2070179 0.01418751 44.68244 335.4647 76.65179

0.4260263 -0.1954485 0.03388341 43.77658 338.3644 79.49877

0.4260263 -0.1954485 0.03388341 43.29236 336.9757 77.16853

0.4281223 -0.2044555 0.02509661 43.77623 335.1639 74.66241

0.4281223 -0.2044555 0.02509661 43.77623 335.1639 74.66241

0.4259736 -0.2087079 0.02660962 42.47162 336.3463 76.84293

0.4259736 -0.2087079 0.02660962 43.42979 336.1103 75.18842

0.4271244 -0.2167205 0.01892406 41.86461 336.7878 76.36179

0.4271244 -0.2167205 0.01892406 41.86461 336.7878 76.36179

0.4271244 -0.2167205 0.01892406 43.47849 337.5548 76.69245

0.4267734 -0.2154752 0.03458446 42.11535 336.5975 75.28611

0.4278886 -0.22443 0.02556802 43.61025 338.6724 77.48868

0.4278886 -0.22443 0.02556802 43.61025 338.6724 77.48868

0.4278886 -0.22443 0.02556802 42.13559 338.5803 77.86604

0.4333781 -0.2130343 0.03018346 40.96758 340.2318 77.80017

0.434141 -0.2230938 0.01997756 42.55383 341.4161 79.11511

0.434141 -0.2230938 0.01997756 42.55383 341.4161 79.11511

0.434141 -0.2230938 0.01997756 41.15612 340.9515 79.00295

0.4267531 -0.2358618 0.02998884 42.86264 340.0554 79.22819

0.4268051 -0.2432442 0.02204681 42.86264 340.0554 79.22817

0.4268051 -0.2432442 0.02204681 41.71505 339.7524 80.83847

0.4268051 -0.2432442 0.02204681 43.45518 339.9075 82.28162

0.4273865 -0.2419645 0.02470465 42.34494 339.56 83.94074

0.4269884 -0.2487513 0.01752634 42.34494 339.56 83.94074

0.4269884 -0.2487513 0.01752634 43.8688 341.3643 86.43951

0.4306618 -0.2418768 0.02301043 42.36596 341.2518 87.63342

0.4306618 -0.2418768 0.02301043 42.36596 341.2518 87.63342

0.4306618 -0.2418768 0.02301043 43.82726 342.0959 88.41841

0.4276217 -0.2507037 0.02049665 44.57935 342.1074 87.04607

0.4257187 -0.2540646 0.018645 44.42068 344.7446 90.73151

0.4257187 -0.2540646 0.018645 44.42068 344.7446 90.73151

0.4257187 -0.2540646 0.018645 45.2792 347.279 93.0969

0.4253708 -0.2566685 0.0158616 43.89877 346.8993 91.36341

0.4253708 -0.2566685 0.0158616 44.99305 348.4094 93.49393

0.4253708 -0.2566685 0.0158616 44.99305 348.4094 93.49393

0.4262885 -0.2542191 0.0268598 46.2336 349.4384 95.33294

0.4258367 -0.2580193 0.02258048 44.80731 347.5614 94.11699

0.4244123 -0.2601746 0.02457862 45.71383 349.6361 97.21272

0.4244123 -0.2601746 0.02457862 45.71383 349.6361 97.21272

0.4244123 -0.2601746 0.02457862 44.28244 348.5038 97.28243

0.415049 -0.2763206 0.02957371 45.55563 348.9727 96.65991

0.415049 -0.2763206 0.02957371 44.58343 350.6241 99.74276

0.405678 -0.288928 0.03793782 44.58342 350.6241 99.74277

0.3957221 -0.3012489 0.04633017 45.85124 351.8865 100.435

0.3853618 -0.314288 0.05193163 44.33539 350.463 98.90074

0.3853618 -0.314288 0.05193163 44.33539 350.463 98.90074

0.3698639 -0.3321887 0.0531877 44.93665 352.0999 99.02724

0.3698639 -0.3321887 0.0531877 44.93665 352.0999 99.02724

0.3534063 -0.3495199 0.05464102 43.1668 352.2555 99.89642

0.3368245 -0.3651273 0.05724558 44.49532 353.9479 101.8479

0.3368245 -0.3651273 0.05724558 44.49532 353.9479 101.8479

0.3198191 -0.3793457 0.0621159 45.04588 351.8888 98.92276

0.3017915 -0.3930195 0.06958205 45.44944 354.6754 101.2305

0.2858323 -0.4019953 0.08416514 43.91783 354.3738 100.151

0.2858323 -0.4019953 0.08416514 43.91783 354.3738 100.151

0.2752148 -0.4063774 0.09745943 44.89063 356.4265 102.5116

0.2621118 -0.4110415 0.1134026 43.60004 357.5093 104.7962

0.2534257 -0.4109719 0.1318915 44.89108 357.1162 103.6733

0.2534257 -0.4109719 0.1318915 44.89108 357.1162 103.6733

0.2414523 -0.4142442 0.1435978 43.27611 358.6667 104.1859

0.2414523 -0.4142442 0.1435978 43.27611 358.6667 104.1859

0.2444451 -0.4107415 0.1480608 44.68174 357.8944 103

0.2448936 -0.4076543 0.1556572 42.98498 359.4577 103.3323

0.2446686 -0.4057023 0.1610187 44.50489 359.8992 104.3747

0.2446686 -0.4057023 0.1610187 44.50489 359.8992 104.3747

0.2385914 -0.4073533 0.166299 43.68058 358.8973 105.3487

0.2379327 -0.4049185 0.173052 45.13181 359.3624 105.306

0.2379327 -0.4049185 0.173052 43.85767 357.114 103.1471

0.2333329 -0.4070639 0.1742773 43.85768 357.114 103.1471

0.2334204 -0.4068413 0.1744883 45.1018 356.781 101.8412

0.2348441 -0.4051432 0.1765172 43.79308 356.8935 103.486

0.2348441 -0.4051432 0.1765172 43.79308 356.8935 103.486

0.2348441 -0.4051432 0.1765172 43.50916 357.9187 106.491

0.2347497 -0.4053692 0.1763129 44.26103 355.919 103.9213

0.2307863 -0.4080367 0.1753899 44.26103 355.919 103.9213

0.2307863 -0.4080367 0.1753899 42.59223 355.602 102.6179

0.2307863 -0.4080367 0.1753899 45.48475 356.0988 102.3995

0.2441243 -0.3979066 0.1801602 45.15537 353.3186 100.4792

0.2441243 -0.3979066 0.1801602 45.15537 353.3186 100.4792

0.233375 -0.4054231 0.1776298 46.23984 354.9453 103.3136

0.233375 -0.4054231 0.1776298 45.05563 354.553 104.0419

0.2336331 -0.4047488 0.1782577 43.71177 352.2477 102.2828

0.2336544 -0.4044776 0.1788442 43.71177 352.2477 102.2828

0.2336544 -0.4044776 0.1788442 44.56273 354.0658 103.0374

0.2305484 -0.4067742 0.1776624 44.56272 354.0658 103.0374

0.2307241 -0.4063248 0.1780796 44.79209 356.5962 103.8914

0.2275791 -0.4075207 0.1793892 43.42602 356.3512 102.1432

0.2275791 -0.4075207 0.1793892 43.42602 356.3512 102.1432

0.2275791 -0.4075207 0.1793892 44.61017 358.0635 104.0736

0.2226558 -0.4088992 0.182218 43.44448 356.2653 102.5985

0.2226558 -0.4088992 0.182218 43.44448 356.2653 102.5985

0.2226558 -0.4088992 0.182218 44.89424 355.498 101.4626

0.2226558 -0.4088992 0.182218 44.89424 355.498 101.4626

0.2226558 -0.4088992 0.182218 42.97794 355.0599 101.1992

0.217904 -0.4116966 0.1814739 42.97792 355.0599 101.1992

0.217904 -0.4116966 0.1814739 44.234 355.672 101.0124

0.217904 -0.4116966 0.1814739 42.348 355.7191 100.0768

0.2215519 -0.4076127 0.1862142 42.348 355.7191 100.0768

0.2216488 -0.407384 0.1864144 41.22254 358.3243 103.1196

0.2216488 -0.407384 0.1864144 39.71762 358.1118 101.2876

0.2216488 -0.407384 0.1864144 39.71762 358.1118 101.2876

0.2161695 -0.4108864 0.1851579 40.28974 0.1368753 102.7159

0.2161695 -0.4108864 0.1851579 40.28974 0.1368753 102.7159

0.2158954 -0.4115598 0.184536 41.01071 358.1556 100.1961

0.219162 -0.4086441 0.1871465 39.12733 357.1084 100.9597

0.219162 -0.4086441 0.1871465 39.97956 357.5696 102.0506

0.219162 -0.4086441 0.1871465 39.97956 357.5696 102.0506

0.2193543 -0.4081885 0.1875495 41.69427 355.4994 101.3708

0.2193543 -0.4081885 0.1875495 40.89441 354.0383 102.3446

0.2193543 -0.4081885 0.1875495 38.82885 354.5669 103.493

0.214614 -0.4111653 0.1865286 38.82884 354.5669 103.4929

0.2144341 -0.4116139 0.1861123 36.90586 355.8177 102.8146

0.2144341 -0.4116139 0.1861123 36.90586 355.8177 102.8146

0.2176564 -0.4090136 0.1880939 37.97096 353.9062 101.6024

0.2176564 -0.4090136 0.1880939 36.01895 353.1332 102.1962

0.2136527 -0.4112886 0.1877233 36.01894 353.1332 102.1962

0.2134753 -0.4117364 0.187305 33.85501 352.9848 102.8691

0.2134753 -0.4117364 0.187305 32.38807 353.2955 103.793

0.2162516 -0.4095529 0.1889005 31.54966 352.545 101.9283

0.2157038 -0.4072772 0.1943679 31.54966 352.545 101.9283

0.2133527 -0.4069558 0.1977803 31.17865 351.1448 99.4079

0.2133527 -0.4069558 0.1977803 31.17865 351.1448 99.4079

0.2152343 -0.4057726 0.1980014 31.07954 349.5536 97.97272

0.2128031 -0.4082696 0.1954802 30.03792 350.0524 99.46186

0.2220874 -0.4040935 0.1938229 30.00197 349.2548 96.77016

0.2220874 -0.4040935 0.1938229 30.00197 349.2548 96.77016

0.2212382 -0.4064763 0.1897696 30.00197 349.2548 96.77016

0.2289039 -0.4013612 0.1915568 30.4094 350.1337 98.20555

0.2270271 -0.4012447 0.1940183 30.4094 350.1337 98.20556

0.2270271 -0.4012447 0.1940183 31.3584 347.3213 95.30141

0.2370786 -0.3947926 0.1954019 32.05275 344.0755 92.18675

0.2387246 -0.3952357 0.1924802 32.05274 344.0755 92.18675

0.2387246 -0.3952357 0.1924802 31.96715 341.328 89.20417

0.2491863 -0.3943185 0.1805572 31.96716 341.328 89.20419

0.2491863 -0.3943185 0.1805572 30.96153 340.8138 89.44035

0.2588035 -0.3886384 0.1793396 30.16067 342.4664 89.42107

0.2826824 -0.3727905 0.1769172 30.16068 342.4664 89.42107

0.2826824 -0.3727905 0.1769172 29.22618 342.7635 88.60467

0.2750851 -0.37905 0.1748091 29.31706 344.515 87.58394

0.2750851 -0.37905 0.1748091 29.31706 344.515 87.58394

0.2750851 -0.37905 0.1748091 28.05762 345.0639 87.10002

0.2750851 -0.37905 0.1748091 26.63897 345.3582 86.31432

0.2926165 -0.3644344 0.1772102 25.16179 346.3427 85.89796

0.2930351 -0.3649909 0.1753633 25.1618 346.3427 85.89795

0.2930351 -0.3649909 0.1753633 23.52057 346.695 86.03706

0.2935546 -0.3660046 0.1723558 22.20746 346.909 86.71761

0.2871361 -0.3691517 0.1733883 23.22906 346.5328 88.04782

0.2963431 -0.3624243 0.1720842 23.22905 346.5328 88.04781

0.2963431 -0.3624243 0.1720842 23.85651 345.0014 85.42272

0.3124889 -0.3522614 0.1644573 23.85651 345.0013 85.42271

0.3124889 -0.3522614 0.1644573 23.85651 345.0013 85.42271

0.332392 -0.3340106 0.160333 23.85651 345.0013 85.42271

0.3522764 -0.3166313 0.1529709 23.8565 345.0014 85.42272

0.3522764 -0.3166313 0.1529709 24.71393 342.8448 83.34199

0.3719339 -0.2985542 0.1424248 24.71393 342.8448 83.342

0.3807971 -0.2864431 0.1381185 24.63064 343.5517 85.52304

0.3941537 -0.2758961 0.1210662 25.71807 343.0464 84.49003

0.3941537 -0.2758961 0.1210662 26.54403 342.3681 83.64028

0.3997833 -0.2715768 0.1120367 26.54403 342.3681 83.64028

0.4099493 -0.2569447 0.1000208 27.19961 341.4757 82.23216

0.4099493 -0.2569447 0.1000208 28.12971 340.5645 81.21538

0.4137191 -0.254007 0.09165236 28.12972 340.5645 81.21537

0.4199818 -0.2512288 0.06769541 28.23055 339.7139 82.17268

0.4199818 -0.2512288 0.06769541 27.60459 338.5573 79.33836

0.4186417 -0.2413364 0.07929908 27.0071 336.3447 76.91255

0.4186417 -0.2413364 0.07929908 27.0071 336.3447 76.91255

0.4186417 -0.2413364 0.07929908 27.9251 335.7472 77.63473

0.4251888 -0.2346057 0.06298529 26.19886 335.0826 77.57739

0.4264603 -0.2199651 0.05583978 25.9934 333.7924 74.77423

0.4264603 -0.2199651 0.05583978 25.9934 333.7924 74.77423

0.4357525 -0.2059234 0.03296021 25.03014 331.4107 72.43597

0.4329424 -0.2131282 0.02254545 25.03014 331.4107 72.43598

0.4293467 -0.2012513 0.03834195 24.60104 332.7329 74.77368

0.4334552 -0.1938498 0.02914869 23.21617 333.189 76.35647

0.4299766 -0.2034818 0.005114079 21.75384 332.2526 76.25117

0.4305156 -0.2023493 -0.004678431 21.75383 332.2526 76.25117

0.4260935 -0.1902804 0.01278156 21.70158 331.3457 73.87498

0.4235663 -0.195927 -0.01139924 20.59271 329.7674 72.15365

0.4213135 -0.2001305 -0.01919346 20.59272 329.7674 72.15365

0.4179668 -0.2053087 -0.03282955 20.37792 330.3477 74.41007

0.4179668 -0.2053087 -0.03282955 20.37792 330.3477 74.41007

0.412198 -0.1966552 -0.02263349 18.84978 330.5507 75.04694

0.412198 -0.1966552 -0.02263349 20.07589 330.7006 73.70197

0.412198 -0.1966552 -0.02263349 20.07589 330.7006 73.70197

0.4117171 -0.1970813 -0.02721657 20.77561 329.5479 72.00095

0.4084896 -0.1890309 -0.01618648 20.16512 330.0903 74.23912

0.4084896 -0.1890309 -0.01618648 21.14566 331.2018 76.18193

0.4084896 -0.1890309 -0.01618648 21.14566 331.2018 76.18193

0.4088462 -0.1879443 -0.01949889 20.91075 330.7951 74.26298

0.4054779 -0.1809853 -0.01016669 22.54356 331.1872 74.44724

0.4054779 -0.1809853 -0.01016669 22.54356 331.1872 74.44724

0.4016729 -0.186785 -0.03227255 23.87961 331.5063 73.37082

0.4016729 -0.186785 -0.03227255 22.51772 332.4518 75.08346

0.3947598 -0.1850676 -0.04516469 22.51772 332.4518 75.08347

0.3947598 -0.1850676 -0.04516469 22.37077 334.7634 78.14941

0.3947655 -0.1838877 -0.04970605 21.34932 334.5881 77.54117

0.3947655 -0.1838877 -0.04970605 23.19676 336.1855 78.34097

0.3945521 -0.1752702 -0.04669045 23.19676 336.1855 78.34096

0.3936114 -0.1769837 -0.04814365 23.4359 335.1085 78.0446

0.3942052 -0.1751619 -0.04991477 23.61653 336.9358 81.26799

0.3942052 -0.1751619 -0.04991477 22.38015 337.4862 80.58527

0.3859262 -0.1861325 -0.07061591 23.56301 339.8791 80.48616

0.3763143 -0.1980518 -0.08794356 23.56303 339.8791 80.48615

0.3654278 -0.2110924 -0.1023403 24.44419 341.1313 79.27547

0.3654278 -0.2110924 -0.1023403 24.61146 341.2456 80.58947

0.3543797 -0.2299917 -0.1225526 24.61147 341.2456 80.58949

0.3418378 -0.2433124 -0.1320841 24.49926 342.8491 83.38127

0.3420566 -0.2411702 -0.1354049 23.52132 343.8603 84.19332

0.3420566 -0.2411702 -0.1354049 23.52132 343.8603 84.19332

0.3435322 -0.2354158 -0.1416519 22.36704 344.9405 85.28842

0.3284492 -0.2476957 -0.1687802 21.09227 345.6229 85.10603

0.3284492 -0.2476957 -0.1687802 22.05622 349.0227 86.79422

0.3283543 -0.2428108 -0.1759126 22.05621 349.0227 86.79421

0.3247694 -0.2366776 -0.190335 19.78983 350.9156 87.1935

0.3233908 -0.240872 -0.1977281 18.84242 355.4984 88.9264

0.3130496 -0.2405615 -0.2140733 18.84242 355.4984 88.92641

0.3130496 -0.2405615 -0.2140733 18.32479 359.3484 89.7095

0.3170806 -0.2252439 -0.2245492 17.13102 0.2434204 88.42053

0.2999381 -0.2371492 -0.2496684 17.13101 0.2434257 88.42051

0.2999381 -0.2371492 -0.2496684 17.13101 0.2434257 88.42051

0.2881406 -0.2380941 -0.2623416 17.131 0.2434275 88.42052

0.2881406 -0.2380941 -0.2623416 17.22675 2.391717 90.19565

0.2878274 -0.2324768 -0.2800501 14.2546 3.974398 91.27608

0.2878274 -0.2324768 -0.2800501 14.2546 3.974398 91.27608

0.2761012 -0.232613 -0.2915089 14.25461 3.974401 91.27608

0.2765185 -0.2209032 -0.3000956 14.25461 3.974391 91.27608

0.263712 -0.2218799 -0.3200728 10.94043 4.950847 91.30782

0.2592575 -0.2152668 -0.3281266 10.94044 4.950858 91.30782

0.2592575 -0.2152668 -0.3281266 8.542527 4.935833 91.74815

0.2442765 -0.2076094 -0.3441637 7.508424 5.272514 92.68481

0.2313797 -0.1999452 -0.3674231 4.654174 5.753983 91.73318

0.219527 -0.186814 -0.3813434 3.782603 6.826802 91.07806

0.219527 -0.186814 -0.3813434 3.782603 6.826802 91.07806

0.2181398 -0.1770527 -0.386758 0.9663967 7.02528 89.37853

0.1966571 -0.1748772 -0.4057642 359.8141 6.599855 87.80458

0.1966571 -0.1748772 -0.4057642 359.8141 6.599855 87.80458

0.1898696 -0.1669993 -0.4122637 357.1406 6.240348 87.43669

0.1785382 -0.1599789 -0.4200375 357.1406 6.240337 87.43669

0.1785382 -0.1599789 -0.4200375 354.4294 5.938579 87.65278

0.1692173 -0.1499155 -0.430193 350.5747 6.125771 87.02035
