-0.1228712 0.2563888 0.156556 -2.42307 -1.84428 -9.150768 0.3956 -0.1035 1.1107 -0.001570796 -0.3495895 -0.06440265 -1.109511 -0.970209 -8.52391 0.5746 0.1254 0.888 0.06981317

-0.4412192 0.476824 0.1096067 -2.445633 -2.057157 -9.247888 0.3883 -0.1075 1.1056 -0.04660029 -0.06213372 -0.02146755 -1.474443 -1.018278 -8.514099 0.5845 0.1156 0.8968 0.06981317

-0.4412192 0.476824 0.1096067 -2.445633 -2.057157 -9.247888 0.3883 -0.1075 1.1056 -0.04660029 -0.06213372 -0.02146755 -1.474443 -1.018278 -8.514099 0.5845 0.1156 0.8968 0.06981317

-0.4412192 0.476824 0.1096067 -2.445633 -2.057157 -9.247888 0.3883 -0.1075 1.1056 -0.04660029 -0.06213372 -0.02146755 -1.474443 -1.018278 -8.514099 0.5845 0.1156 0.8968 0.06981317

-0.4412192 0.476824 0.1096067 -2.445633 -2.057157 -9.247888 0.3883 -0.1075 1.1056 -0.140499 0.2151991 -0.0143117 -1.675548 -1.064385 -8.310052 0.6 0.1137 0.9029 0.06981317

-0.4412192 0.476824 0.1096067 -2.445633 -2.057157 -9.247888 0.3883 -0.1075 1.1056 -0.2124066 0.0991347 -0.0275762 -1.256661 -1.0791 -8.213913 0.6087 0.1198 0.8937 0.06981317

-0.7433357 0.3822271 -0.1869248 -2.445633 -2.057157 -9.247888 0.3883 -0.1075 1.1056 -0.2124066 0.0991347 -0.0275762 -1.256661 -1.0791 -8.213913 0.6087 0.1198 0.8937 -0.009397927

-0.7433357 0.3822271 -0.1869248 -2.445633 -2.057157 -9.247888 0.3883 -0.1075 1.1056 -0.2124066 0.0991347 -0.0275762 -1.256661 -1.0791 -8.213913 0.6087 0.1198 0.8937 -0.009397927

-0.7433357 0.3822271 -0.1869248 -2.445633 -2.057157 -9.247888 0.3883 -0.1075 1.1056 -0.01919862 -0.2560398 0.04380776 -0.8132491 -0.8652421 -8.899632 0.5221 0.1408 0.9103 -0.009397927

0.1384046 -0.2211332 0.1158899 -0.562113 -0.014715 -10.04348 0.2254 -0.284 1.2668 0.05218535 -0.7000515 0.04607669 -0.684738 -0.8809381 -8.987923 0.5381 0.1563 0.9133 -0.009397927

-0.3244567 0.1384046 0.08395033 -0.762237 -0.177561 -10.35151 0.2254 -0.284 1.2668 0.03665191 -0.6780604 0.00418879 -0.616068 -0.896634 -9.064441 0.5381 0.1563 0.9133 -0.01342561

-0.3244567 0.1384046 0.08395033 -0.762237 -0.177561 -10.35151 0.2254 -0.284 1.2668 0.03665191 -0.6780604 0.00418879 -0.616068 -0.896634 -9.064441 0.5381 0.1563 0.9133 -0.01342561

-0.2925172 0.2120575 0.1117011 -0.72594 -0.026487 -10.41331 0.2289 -0.2886 1.2639 0.1045452 -0.2556907 -0.01029744 -0.992772 -0.891729 -9.067384 0.5471 0.165 0.9216 -0.01342561

0.06579891 0.0577704 0.180467 -0.663156 0.03924 -10.34759 0.2289 -0.2886 1.2639 0.1045452 -0.2556907 -0.01029744 -0.992772 -0.891729 -9.067384 0.5471 0.165 0.9216 -0.01342561

0.323584 0.1302016 0.003839724 -0.6445171 0.073575 -10.21712 0.2244 -0.2914 1.2339 0.09669124 -0.2752384 -0.07086036 -1.094796 -0.831888 -8.898651 0.5755 0.1766 0.8879 -0.01342561

0.323584 0.1302016 0.003839724 -0.6445171 0.073575 -10.21712 0.2244 -0.2914 1.2339 0.09669124 -0.2752384 -0.07086036 -1.094796 -0.831888 -8.898651 0.5755 0.1766 0.8879 -0.01342561

0.3694862 -0.02373648 -0.03857178 -0.6356881 -0.170694 -10.05917 0.2244 -0.2914 1.2339 0.09145525 -0.1455605 -0.05113815 -1.341027 -0.9241021 -8.864316 0.5755 0.1766 0.8879 -0.01342561

-0.029147 0.145735 -0.0731293 -0.7386931 -0.531702 -10.03171 0.2118 -0.2803 1.2149 0.0710349 -0.09843656 -0.07452556 -1.420488 -0.930969 -8.759349 0.565 0.1805 0.8661 -0.01342561

-0.1661554 0.3244567 -0.1291544 -0.711225 -0.456165 -9.900252 0.2118 -0.2803 1.2149 0.06265732 0.06736971 -0.082205 -1.563714 -0.9819811 -8.802513 0.565 0.1805 0.8661 -0.01074049

-0.1661554 0.3244567 -0.1291544 -0.711225 -0.456165 -9.900252 0.2118 -0.2803 1.2149 0.06265732 0.06736971 -0.082205 -1.563714 -0.9819811 -8.802513 0.565 0.1805 0.8661 -0.01074049

0.03420845 0.1232202 -0.09669124 -0.591543 -0.262908 -9.739368 0.1986 -0.2663 1.2261 0.0434587 -0.04468043 -0.06614798 -1.388115 -1.091853 -8.785836 0.5561 0.173 0.8617 -0.01074049

0.03420845 0.1232202 -0.09669124 -0.591543 -0.262908 -9.739368 0.1986 -0.2663 1.2261 0.06248279 -0.124442 -0.08918633 -1.39302 -0.992772 -8.724033 0.5561 0.173 0.8617 -0.01074049

0.2998476 0.009424779 -0.1776745 -0.479709 -0.188352 -9.57358 0.1725 -0.2581 1.2127 0.0270526 0.02478367 -0.06632251 -1.527417 -1.04967 -8.729919 0.5613 0.1653 0.874 -0.01074049

0.2998476 0.009424779 -0.1776745 -0.479709 -0.188352 -9.57358 0.1725 -0.2581 1.2127 0.0270526 0.02478367 -0.06632251 -1.527417 -1.04967 -8.729919 0.5613 0.1653 0.874 -0.01074049

0.2497566 0.02024582 -0.1541126 -0.361008 0.021582 -9.385227 0.1635 -0.2627 1.2278 0.02146755 -0.1115265 -0.0280998 -1.419507 -1.071252 -8.725996 0.5613 0.1653 0.874 -0.01074049

0.2382374 -0.1689479 -0.08115781 -0.346293 -0.052974 -9.406809 0.1635 -0.2627 1.2278 0.01256637 -0.2218314 -0.03944444 -1.290015 -1.065366 -8.73973 0.5928 0.1826 0.8909 -0.01074049

-0.05358161 0.03211406 -0.1041962 -0.305091 -0.198162 -9.483328 0.1491 -0.27 1.2447 0.01256637 -0.2218314 -0.03944444 -1.290015 -1.065366 -8.73973 0.5928 0.1826 0.8909 -0.009397927

-0.05358161 0.03211406 -0.1041962 -0.305091 -0.198162 -9.483328 0.1491 -0.27 1.2447 0.02879793 -0.3942699 -0.06928957 -1.172295 -1.021221 -8.77897 0.6107 0.2035 0.8981 -0.009397927

0.03682645 0.1181588 -0.1769764 -0.511101 -0.373761 -9.782533 0.1491 -0.27 1.2447 0.02879793 -0.3942699 -0.06928957 -1.172295 -1.021221 -8.77897 0.6107 0.2035 0.8981 -0.009397927

0.2686062 -0.009424779 -0.1548107 -0.494424 -0.26487 -9.913986 0.1387 -0.2759 1.2467 0.02879793 -0.3942699 -0.06928957 -1.172295 -1.021221 -8.77897 0.6107 0.2035 0.8981 -0.009397927

0.331438 0.1370083 -0.1973967 -0.458127 -0.182466 -10.0631 0.1387 -0.2759 1.2467 0.02879793 -0.3942699 -0.06928957 -1.172295 -1.021221 -8.77897 0.6107 0.2035 0.8981 -0.01208305

0.331438 0.1370083 -0.1973967 -0.458127 -0.182466 -10.0631 0.1387 -0.2759 1.2467 0.02879793 -0.3942699 -0.06928957 -1.172295 -1.021221 -8.77897 0.6107 0.2035 0.8981 -0.01208305

0.2741912 0.08133234 -0.2164208 -0.508158 -0.149112 -10.15335 0.1481 -0.2662 1.242 0.055676 -0.4544837 -0.0694641 -1.399887 -0.887805 -8.801532 0.6107 0.2035 0.8981 -0.01208305

0.1235693 0.06841691 -0.2527237 -0.3924 -0.36297 -10.07095 0.1481 -0.2662 1.242 0.055676 -0.4544837 -0.0694641 -1.399887 -0.887805 -8.801532 0.6107 0.2035 0.8981 -0.01208305

0.2474877 0.08203047 -0.339292 -0.287433 -0.550341 -10.068 0.1531 -0.2515 1.2403 0.055676 -0.4544837 -0.0694641 -1.399887 -0.887805 -8.801532 0.6107 0.2035 0.8981 -0.006712805

0.2474877 0.08203047 -0.339292 -0.287433 -0.550341 -10.068 0.1531 -0.2515 1.2403 0.03595378 -0.2146755 -0.07120943 -1.692225 -1.011411 -8.849602 0.6024 0.1963 0.894 -0.006712805

0.4447099 0.05846853 -0.4314454 -0.282528 -0.577809 -10.05819 0.1531 -0.2515 1.2403 0.06352998 0.01169371 -0.055676 -1.784439 -0.986886 -8.83783 0.6024 0.1963 0.894 -0.006712805

0.4447099 0.05846853 -0.4314454 -0.282528 -0.577809 -10.05819 0.1531 -0.2515 1.2403 0.06352998 0.01169371 -0.055676 -1.784439 -0.986886 -8.83783 0.6024 0.1963 0.894 -0.006712805

0.4447099 0.05846853 -0.4314454 -0.282528 -0.577809 -10.05819 0.1531 -0.2515 1.2403 0.06352998 0.01169371 -0.055676 -1.784439 -0.986886 -8.83783 0.6024 0.1963 0.894 0.02013841

0.1989675 0.4326671 -0.8833112 -0.251136 -1.838394 -10.068 0.142 -0.2161 1.2291 0.06352998 0.01169371 -0.055676 -1.784439 -0.986886 -8.83783 0.6024 0.1963 0.894 0.02013841

0.4548328 0.3185226 -0.9279915 -0.242307 -1.783458 -9.789399 0.1114 -0.2021 1.219 0.06352998 0.01169371 -0.055676 -1.784439 -0.986886 -8.83783 0.6024 0.1963 0.894 0.02013841

0.1516691 0.217468 -0.8969247 -0.1962 -2.219022 -9.591237 0.1114 -0.2021 1.219 0.06352998 0.01169371 -0.055676 -1.784439 -0.986886 -8.83783 0.6024 0.1963 0.894 0.02013841

0.1516691 0.217468 -0.8969247 -0.1962 -2.219022 -9.591237 0.1114 -0.2021 1.219 0.06352998 0.01169371 -0.055676 -1.784439 -0.986886 -8.83783 0.6024 0.1963 0.894 0.06444293

-0.29147 0.2326524 -1.002168 -0.246231 -2.76642 -9.501966 0.0606 -0.1863 1.199 0.06352998 0.01169371 -0.055676 -1.784439 -0.986886 -8.83783 0.6024 0.1963 0.894 0.06444293

-0.6225589 0.3581416 -1.247387 -0.393381 -3.201984 -9.453897 0.0606 -0.1863 1.199 0.06352998 0.01169371 -0.055676 -1.784439 -0.986886 -8.83783 0.6024 0.1963 0.894 0.06444293

-0.6225589 0.3581416 -1.247387 -0.393381 -3.201984 -9.453897 0.0606 -0.1863 1.199 0.06352998 0.01169371 -0.055676 -1.784439 -0.986886 -8.83783 0.6024 0.1963 0.894 0.06444293

-0.7642797 0.4920083 -1.596976 -0.567018 -3.285369 -9.423487 0.0161 -0.1753 1.1983 0.06352998 0.01169371 -0.055676 -1.784439 -0.986886 -8.83783 0.6024 0.1963 0.894 0.02899928

-0.3787365 0.604582 -1.93557 -0.7534081 -2.843919 -9.425448 0.0161 -0.1753 1.1983 0.06352998 0.01169371 -0.055676 -1.784439 -0.986886 -8.83783 0.6024 0.1963 0.894 0.02899928

-0.3787365 0.604582 -1.93557 -0.7534081 -2.843919 -9.425448 0.0161 -0.1753 1.1983 0.06352998 0.01169371 -0.055676 -1.784439 -0.986886 -8.83783 0.6024 0.1963 0.894 0.02899928

-0.1288053 0.6668903 -2.14501 -0.7602751 -2.353419 -9.404847 -0.0287 -0.1892 1.2112 0.06352998 0.01169371 -0.055676 -1.784439 -0.986886 -8.83783 0.6024 0.1963 0.894 0.02899928

-0.01623156 0.5139995 -2.088112 -0.746541 -2.004183 -9.434278 -0.0287 -0.1892 1.2112 0.06352998 0.01169371 -0.055676 -1.784439 -0.986886 -8.83783 0.6024 0.1963 0.894 0.07249829

-0.01623156 0.5139995 -2.088112 -0.746541 -2.004183 -9.434278 -0.0287 -0.1892 1.2112 0.06352998 0.01169371 -0.055676 -1.784439 -0.986886 -8.83783 0.6024 0.1963 0.894 0.07249829

-0.2684316 0.6471681 -2.036974 -0.6925861 -1.71675 -9.472536 -0.0911 -0.2095 1.2035 0.06352998 0.01169371 -0.055676 -1.784439 -0.986886 -8.83783 0.6024 0.1963 0.894 0.07249829

-0.2684316 0.6471681 -2.036974 -0.6925861 -1.71675 -9.472536 -0.0911 -0.2095 1.2035 0.06352998 0.01169371 -0.055676 -1.784439 -0.986886 -8.83783 0.6024 0.1963 0.894 0.07249829

-0.2684316 0.6471681 -2.036974 -0.6925861 -1.71675 -9.472536 -0.0911 -0.2095 1.2035 0.06352998 0.01169371 -0.055676 -1.784439 -0.986886 -8.83783 0.6024 0.1963 0.894 0.1202934

-0.2684316 0.6471681 -2.036974 -0.6925861 -1.71675 -9.472536 -0.0911 -0.2095 1.2035 0.06352998 0.01169371 -0.055676 -1.784439 -0.986886 -8.83783 0.6024 0.1963 0.894 0.1202934

0.6951647 0.1272345 -1.799434 0.280566 -0.312939 -9.452916 -0.2069 -0.2696 1.2234 0.06352998 0.01169371 -0.055676 -1.784439 -0.986886 -8.83783 0.6024 0.1963 0.894 0.1202934

0.6365216 0.02565634 -1.750216 0.416925 -0.056898 -9.350892 -0.2177 -0.2993 1.2006 0.06352998 0.01169371 -0.055676 -1.784439 -0.986886 -8.83783 0.6024 0.1963 0.894 0.1202934

0.6365216 0.02565634 -1.750216 0.416925 -0.056898 -9.350892 -0.2177 -0.2993 1.2006 0.06352998 0.01169371 -0.055676 -1.784439 -0.986886 -8.83783 0.6024 0.1963 0.894 0.06189203

0.2366666 0.05585054 -1.756499 0.445374 -0.224649 -9.358741 -0.2177 -0.2993 1.2006 0.06352998 0.01169371 -0.055676 -1.784439 -0.986886 -8.83783 0.6024 0.1963 0.894 0.06189203

0.2366666 0.05585054 -1.756499 0.445374 -0.224649 -9.358741 -0.2177 -0.2993 1.2006 0.06352998 0.01169371 -0.055676 -1.784439 -0.986886 -8.83783 0.6024 0.1963 0.894 0.06189203

-0.07400195 0.08237953 -1.823869 0.365913 -0.514044 -9.440164 -0.2521 -0.3127 1.1964 0.06352998 0.01169371 -0.055676 -1.784439 -0.986886 -8.83783 0.6024 0.1963 0.894 0.06189203

-0.07400195 0.08237953 -1.823869 0.365913 -0.514044 -9.440164 -0.2521 -0.3127 1.1964 0.06352998 0.01169371 -0.055676 -1.784439 -0.986886 -8.83783 0.6024 0.1963 0.894 0.06189203

0.05288348 -0.1663299 -1.852318 0.384552 -0.54936 -9.442125 -0.2521 -0.3127 1.1964 0.06352998 0.01169371 -0.055676 -1.784439 -0.986886 -8.83783 0.6024 0.1963 0.894 0.06189203

0.1123992 -0.1090831 -1.867851 0.530721 -0.309996 -9.483328 -0.2846 -0.3209 1.2105 0.06352998 0.01169371 -0.055676 -1.784439 -0.986886 -8.83783 0.6024 0.1963 0.894 0.4980901

-0.06003933 -0.08761553 -1.790359 0.4905 -0.141264 -9.556903 -0.2846 -0.3209 1.2105 0.06352998 0.01169371 -0.055676 -1.784439 -0.986886 -8.83783 0.6024 0.1963 0.894 0.4980901

-0.06003933 -0.08761553 -1.790359 0.4905 -0.141264 -9.556903 -0.2846 -0.3209 1.2105 0.06352998 0.01169371 -0.055676 -1.784439 -0.986886 -8.83783 0.6024 0.1963 0.894 0.4980901

-0.2169444 -0.04869469 -1.705885 0.440469 -0.118701 -9.686395 -0.295 -0.3291 1.2005 0.06352998 0.01169371 -0.055676 -1.784439 -0.986886 -8.83783 0.6024 0.1963 0.894 0.4980901

-0.214501 0.03001966 -1.768193 0.391419 -0.051993 -9.835506 -0.295 -0.3291 1.2005 0.06352998 0.01169371 -0.055676 -1.784439 -0.986886 -8.83783 0.6024 0.1963 0.894 0.5893843

0.2930408 -0.2364921 -1.855285 0.361008 0.150093 -9.820791 -0.3179 -0.3238 1.199 0.06352998 0.01169371 -0.055676 -1.784439 -0.986886 -8.83783 0.6024 0.1963 0.894 0.5893843

0.2930408 -0.2364921 -1.855285 0.361008 0.150093 -9.820791 -0.3179 -0.3238 1.199 0.06352998 0.01169371 -0.055676 -1.784439 -0.986886 -8.83783 0.6024 0.1963 0.894 0.5893843

0.585907 -0.5166175 -1.785995 0.481671 0.508158 -9.524529 -0.3179 -0.3238 1.199 0.06352998 0.01169371 -0.055676 -1.784439 -0.986886 -8.83783 0.6024 0.1963 0.894 0.5893843

0.464083 -0.601615 -1.719149 0.401229 0.515025 -9.351873 -0.3455 -0.3372 1.2036 0.06352998 0.01169371 -0.055676 -1.784439 -0.986886 -8.83783 0.6024 0.1963 0.894 0.6927615

0.464083 -0.601615 -1.719149 0.401229 0.515025 -9.351873 -0.3455 -0.3372 1.2036 0.06352998 0.01169371 -0.055676 -1.784439 -0.986886 -8.83783 0.6024 0.1963 0.894 0.6927615

0.464083 -0.601615 -1.719149 0.401229 0.515025 -9.351873 -0.3455 -0.3372 1.2036 0.06352998 0.01169371 -0.055676 -1.784439 -0.986886 -8.83783 0.6024 0.1963 0.894 0.6927615

0.464083 -0.601615 -1.719149 0.401229 0.515025 -9.351873 -0.3455 -0.3372 1.2036 0.06352998 0.01169371 -0.055676 -1.784439 -0.986886 -8.83783 0.6024 0.1963 0.894 0.6927615

-0.2734931 -1.001644 -1.833643 -0.43164 0.554265 -8.581789 -0.3088 -0.4085 1.2143 0.06352998 0.01169371 -0.055676 -1.784439 -0.986886 -8.83783 0.6024 0.1963 0.894 0.8189622

-0.2734931 -1.001644 -1.833643 -0.43164 0.554265 -8.581789 -0.3088 -0.4085 1.2143 0.06352998 0.01169371 -0.055676 -1.784439 -0.986886 -8.83783 0.6024 0.1963 0.894 0.8189622

0.8864527 -1.565909 -1.73573 -0.468918 1.251756 -8.450335 -0.3088 -0.4085 1.2143 0.06352998 0.01169371 -0.055676 -1.784439 -0.986886 -8.83783 0.6024 0.1963 0.894 0.8189622

0.8864527 -1.565909 -1.73573 -0.468918 1.251756 -8.450335 -0.3088 -0.4085 1.2143 0.06352998 0.01169371 -0.055676 -1.784439 -0.986886 -8.83783 0.6024 0.1963 0.894 0.8189622

0.8756316 -1.543744 -1.606401 -0.7877431 1.0791 -8.733843 -0.2498 -0.4371 1.1978 0.06352998 0.01169371 -0.055676 -1.784439 -0.986886 -8.83783 0.6024 0.1963 0.894 0.9505332

0.2001893 -1.430821 -1.593486 -1.04967 0.632745 -8.90748 -0.2498 -0.4371 1.1978 0.06352998 0.01169371 -0.055676 -1.784439 -0.986886 -8.83783 0.6024 0.1963 0.894 0.9505332

0.2001893 -1.430821 -1.593486 -1.04967 0.632745 -8.90748 -0.2498 -0.4371 1.1978 0.06352998 0.01169371 -0.055676 -1.784439 -0.986886 -8.83783 0.6024 0.1963 0.894 0.9505332

-0.2375393 -1.467996 -1.536239 -1.311597 0.439488 -8.976151 -0.189 -0.4305 1.2005 0.06352998 0.01169371 -0.055676 -1.784439 -0.986886 -8.83783 0.6024 0.1963 0.894 0.9505332

-0.3843215 -1.440071 -1.537286 -1.537227 0.587619 -8.96536 -0.189 -0.4305 1.2005 0.06352998 0.01169371 -0.055676 -1.784439 -0.986886 -8.83783 0.6024 0.1963 0.894 1.070021

-0.3843215 -1.440071 -1.537286 -1.537227 0.587619 -8.96536 -0.189 -0.4305 1.2005 0.06352998 0.01169371 -0.055676 -1.784439 -0.986886 -8.83783 0.6024 0.1963 0.894 1.070021

-0.4365068 -1.342682 -1.627171 -1.772667 0.868185 -8.940835 -0.1339 -0.4294 1.2122 -0.1331686 0.273144 -0.06073746 -2.914551 -1.073214 -8.622991 0.7442 0.2368 0.7707 1.070021

-0.4365068 -1.342682 -1.627171 -1.772667 0.868185 -8.940835 -0.1339 -0.4294 1.2122 -0.1331686 0.273144 -0.06073746 -2.914551 -1.073214 -8.622991 0.7442 0.2368 0.7707 1.070021

-0.4865978 -1.359262 -1.541998 -1.958076 1.173276 -8.951626 -0.0924 -0.4369 1.2092 -0.1331686 0.273144 -0.06073746 -2.914551 -1.073214 -8.622991 0.7442 0.2368 0.7707 1.172056

-0.5651376 -1.344951 -1.296954 -2.205288 1.474443 -8.935929 -0.0924 -0.4369 1.2092 -0.1331686 0.273144 -0.06073746 -2.914551 -1.073214 -8.622991 0.7442 0.2368 0.7707 1.172056

-0.7869689 -1.245118 -1.078264 -2.484873 1.67751 -8.872165 -0.0279 -0.4582 1.1947 -0.1331686 0.273144 -0.06073746 -2.914551 -1.073214 -8.622991 0.7442 0.2368 0.7707 1.172056

-0.7869689 -1.245118 -1.078264 -2.484873 1.67751 -8.872165 -0.0279 -0.4582 1.1947 -0.1331686 0.273144 -0.06073746 -2.914551 -1.073214 -8.622991 0.7442 0.2368 0.7707 1.172056

-0.7869689 -1.245118 -1.078264 -2.484873 1.67751 -8.872165 -0.0279 -0.4582 1.1947 -0.1331686 0.273144 -0.06073746 -2.914551 -1.073214 -8.622991 0.7442 0.2368 0.7707 1.231128

-0.7869689 -1.245118 -1.078264 -2.484873 1.67751 -8.872165 -0.0279 -0.4582 1.1947 -0.1331686 0.273144 -0.06073746 -2.914551 -1.073214 -8.622991 0.7442 0.2368 0.7707 1.231128

-0.2153736 -2.480287 0.3434808 -3.181383 2.944962 -8.030466 0.1354 -0.4952 1.1758 -0.1331686 0.273144 -0.06073746 -2.914551 -1.073214 -8.622991 0.7442 0.2368 0.7707 1.231128

-0.2153736 -2.480287 0.3434808 -3.181383 2.944962 -8.030466 0.1354 -0.4952 1.1758 -0.1331686 0.273144 -0.06073746 -2.914551 -1.073214 -8.622991 0.7442 0.2368 0.7707 1.231128

0.1471313 -2.118655 0.1019272 -3.528657 2.97243 -7.914709 0.1354 -0.4952 1.1758 -0.1331686 0.273144 -0.06073746 -2.914551 -1.073214 -8.622991 0.7442 0.2368 0.7707 1.291544

-0.1157153 -1.360135 -0.2455678 -3.974031 3.062682 -8.244324 0.2273 -0.487 1.1727 -0.1331686 0.273144 -0.06073746 -2.914551 -1.073214 -8.622991 0.7442 0.2368 0.7707 1.291544

-0.1157153 -1.360135 -0.2455678 -3.974031 3.062682 -8.244324 0.2273 -0.487 1.1727 -0.3755949 0.1658063 -0.2405064 -1.499949 -0.864261 -8.36695 0.6251 0.2445 0.8521 1.291544

-0.6510078 -0.7243116 -0.4139921 -4.555764 2.590821 -8.735806 0.2273 -0.487 1.1727 -0.3755949 0.1658063 -0.2405064 -1.499949 -0.864261 -8.36695 0.6251 0.2445 0.8521 1.291544

-0.6510078 -0.7243116 -0.4139921 -4.555764 2.590821 -8.735806 0.2273 -0.487 1.1727 -0.3680899 0.2134538 -0.30456 -1.650042 -0.748503 -8.464068 0.6039 0.2227 0.8653 1.311682

-0.8510225 -0.3984587 -0.4045673 -5.04234 2.186649 -8.953588 0.3236 -0.4883 1.1552 -0.3680899 0.2134538 -0.30456 -1.650042 -0.748503 -8.464068 0.6039 0.2227 0.8653 1.311682

-0.5064946 -0.4120722 -0.3698353 -5.225787 2.338704 -8.821153 0.3979 -0.5009 1.1458 -0.3021165 0.3806563 -0.3485422 -1.773648 -0.602334 -8.59356 0.6039 0.2227 0.8653 1.311682

-0.5064946 -0.4120722 -0.3698353 -5.225787 2.338704 -8.821153 0.3979 -0.5009 1.1458 -0.3021165 0.3806563 -0.3485422 -1.773648 -0.602334 -8.59356 0.6039 0.2227 0.8653 1.311682

-0.2609267 -0.2099631 -0.4602433 -5.339583 2.873349 -8.586693 0.3979 -0.5009 1.1458 -0.3021165 0.3806563 -0.3485422 -1.773648 -0.602334 -8.59356 0.6039 0.2227 0.8653 1.311682

-0.3188716 -0.1595231 -0.5314528 -5.583852 2.856672 -8.530776 0.4548 -0.5234 1.1387 -0.3021165 0.3806563 -0.3485422 -1.773648 -0.602334 -8.59356 0.6039 0.2227 0.8653 1.311682

-0.3188716 -0.1595231 -0.5314528 -5.583852 2.856672 -8.530776 0.4548 -0.5234 1.1387 -0.3021165 0.3806563 -0.3485422 -1.773648 -0.602334 -8.59356 0.6039 0.2227 0.8653 1.311682

-0.2188643 -0.3714061 -0.2937389 -5.773185 2.584935 -8.42581 0.4548 -0.5234 1.1387 -0.3021165 0.3806563 -0.3485422 -1.773648 -0.602334 -8.59356 0.6039 0.2227 0.8653 1.311682

-0.2188643 -0.3714061 -0.2937389 -5.773185 2.584935 -8.42581 0.4548 -0.5234 1.1387 -0.3021165 0.3806563 -0.3485422 -1.773648 -0.602334 -8.59356 0.6039 0.2227 0.8653 1.296914

0.2000147 -0.4907866 -0.2802999 -5.988024 2.605536 -8.274735 0.492 -0.5309 1.1179 -0.3021165 0.3806563 -0.3485422 -1.773648 -0.602334 -8.59356 0.6039 0.2227 0.8653 1.296914

0.3555236 -0.5611234 -0.3050835 -6.099858 2.625156 -8.119738 0.492 -0.5309 1.1179 -0.3021165 0.3806563 -0.3485422 -1.773648 -0.602334 -8.59356 0.6039 0.2227 0.8653 1.296914

0.3555236 -0.5611234 -0.3050835 -6.099858 2.625156 -8.119738 0.492 -0.5309 1.1179 -0.3021165 0.3806563 -0.3485422 -1.773648 -0.602334 -8.59356 0.6039 0.2227 0.8653 1.296914

0.3555236 -0.5611234 -0.3050835 -6.099858 2.625156 -8.119738 0.492 -0.5309 1.1179 -0.08168141 0.64647 -0.2871067 -1.543113 -0.369837 -8.769159 0.5645 0.202 0.8717 1.284831

0.3555236 -0.5611234 -0.3050835 -6.099858 2.625156 -8.119738 0.492 -0.5309 1.1179 -0.08168141 0.64647 -0.2871067 -1.543113 -0.369837 -8.769159 0.5645 0.202 0.8717 1.284831

0.09738937 -0.4530874 0.008028515 -6.389254 1.384191 -7.292754 0.5145 -0.5107 1.07 -0.08168141 0.64647 -0.2871067 -1.543113 -0.369837 -8.769159 0.5645 0.202 0.8717 1.284831

0.09738937 -0.4530874 0.008028515 -6.389254 1.384191 -7.292754 0.5145 -0.5107 1.07 -0.08168141 0.64647 -0.2871067 -1.543113 -0.369837 -8.769159 0.5645 0.202 0.8717 1.284831

0.2364921 -0.6234316 0.1130973 -6.301945 1.445013 -7.188768 0.5219 -0.5151 1.0672 -0.08168141 0.64647 -0.2871067 -1.543113 -0.369837 -8.769159 0.5645 0.202 0.8717 1.286173

0.2364921 -0.6234316 0.1130973 -6.301945 1.445013 -7.188768 0.5219 -0.5151 1.0672 -0.08168141 0.64647 -0.2871067 -1.543113 -0.369837 -8.769159 0.5645 0.202 0.8717 1.286173

0.2926917 -0.8634144 0.2631956 -6.384348 1.463652 -7.125985 0.5219 -0.5151 1.0672 -0.08168141 0.64647 -0.2871067 -1.543113 -0.369837 -8.769159 0.5645 0.202 0.8717 1.286173

0.1755801 -0.662527 0.2713987 -6.61096 1.239003 -7.331994 0.5607 -0.5221 1.0764 -0.1462586 0.2075197 -0.02827433 -0.51993 0.07848001 -9.017352 0.5324 0.1965 0.8952 1.286173

0.1755801 -0.662527 0.2713987 -6.61096 1.239003 -7.331994 0.5607 -0.5221 1.0764 -0.1886701 0.1233948 -0.04625123 -0.374742 0.010791 -8.94672 0.5157 0.198 0.8928 1.286173

-0.04485496 -0.3839724 0.1576032 -6.832665 1.061442 -7.428133 0.5607 -0.5221 1.0764 -0.2607522 0.00715585 -0.05707227 -0.233478 -0.030411 -8.936911 0.5152 0.1873 0.8895 1.286173

-0.002792527 -0.222704 0.04974188 -6.960196 1.144827 -7.387911 0.6043 -0.5165 1.0615 -0.2607522 0.00715585 -0.05707227 -0.233478 -0.030411 -8.936911 0.5152 0.1873 0.8895 1.286173

0.1542871 -0.03787364 -0.05759586 -6.960196 1.222326 -7.360443 0.6227 -0.5003 1.0353 -0.3017674 -0.01204277 -0.08726646 -0.315882 0.067689 -8.997733 0.5152 0.1873 0.8895 1.286173

0.1542871 -0.03787364 -0.05759586 -6.960196 1.222326 -7.360443 0.6227 -0.5003 1.0353 -0.2021091 0.1155408 -0.04171337 -0.509139 0.301167 -9.099756 0.5105 0.1689 0.9163 1.286173

0.453262 0.2277655 -0.2850123 -7.143642 1.311597 -7.547814 0.6227 -0.5003 1.0353 -0.05270894 0.3078761 0.0137881 -0.617049 0.385533 -9.183142 0.5105 0.1689 0.9163 1.286173

0.2368412 0.1836087 -0.2981022 -7.22016 1.145808 -7.585092 0.6252 -0.5052 1.0419 -0.05270894 0.3078761 0.0137881 -0.617049 0.385533 -9.183142 0.5105 0.1689 0.9163 1.286173

0.2368412 0.1836087 -0.2981022 -7.22016 1.145808 -7.585092 0.6252 -0.5052 1.0419 -0.06440265 0.32882 0.03612831 -0.497367 0.257022 -9.098776 0.5063 0.1635 0.9346 1.286173

0.100531 -0.06667157 -0.1240929 -7.368291 1.186029 -7.64199 0.6252 -0.5052 1.0419 -0.1382301 0.2045526 0.04450589 -0.271737 0.195219 -8.906499 0.5063 0.1635 0.9346 1.283488

-0.03560472 0.1424189 -0.03996804 -7.536042 1.163466 -7.920594 0.6151 -0.5003 1.0367 -0.1685988 -0.003316126 0.03630285 0 0.243288 -8.862354 0.4983 0.1678 0.9308 1.283488

0.105767 0.08307768 0.02635447 -7.32807 1.290996 -7.727337 0.6151 -0.5003 1.0367 -0.1685988 -0.003316126 0.03630285 0 0.243288 -8.862354 0.4983 0.1678 0.9308 1.283488

0.105767 0.08307768 0.02635447 -7.32807 1.290996 -7.727337 0.6151 -0.5003 1.0367 -0.1396263 -0.1289798 0.01204277 0.207972 0.331578 -8.935929 0.4983 0.1678 0.9308 1.283488

0.2054253 0.08499753 -0.02932153 -7.047504 1.183086 -7.484049 0.591 -0.4777 1.0399 -0.1389282 -0.2120575 0.02687807 0.173637 0.414963 -8.987923 0.4811 0.1699 0.9243 1.284831

0.2274164 0.1288053 -0.05305801 -6.888582 1.100682 -7.348671 0.591 -0.4777 1.0399 -0.1965241 -0.2832669 0.02408554 -0.003924 0.415944 -9.01539 0.4811 0.1699 0.9243 1.284831

0.2274164 0.1288053 -0.05305801 -6.888582 1.100682 -7.348671 0.591 -0.4777 1.0399 -0.1965241 -0.2832669 0.02408554 -0.003924 0.415944 -9.01539 0.4811 0.1699 0.9243 1.284831

0.1942551 0.1574287 -0.09110618 -6.805197 0.9299881 -7.366329 0.5629 -0.4696 1.0517 -0.1668535 -0.1975713 0.02111848 -0.331578 0.484614 -9.121338 0.4804 0.1594 0.9239 1.284831

0.2551671 0.1213004 -0.1237438 -6.730641 0.82404 -7.412436 0.5593 -0.4726 1.0516 -0.04886922 -0.03263766 0.02460914 -0.597429 0.6317641 -9.196876 0.4845 0.1458 0.9378 1.276775

0.1546362 0.03857178 -0.1537635 -6.635484 0.587619 -7.452657 0.5593 -0.4726 1.0516 0.0418879 0.03822271 -0.009075711 -0.620973 0.6965101 -9.155674 0.4845 0.1458 0.9378 1.276775

0.1546362 0.03857178 -0.1537635 -6.635484 0.587619 -7.452657 0.5593 -0.4726 1.0516 0.0418879 0.03822271 -0.009075711 -0.620973 0.6965101 -9.155674 0.4845 0.1458 0.9378 1.276775

0.05078908 0.08237953 -0.01570796 -6.561909 0.413982 -7.41538 0.5755 -0.4729 1.0464 0.02932153 -0.01413717 -0.0408407 -0.5356261 0.606258 -8.991846 0.4952 0.1401 0.939 1.276775

-0.0434587 0.05253441 0.09477138 -6.404949 0.276642 -7.324146 0.5755 -0.4729 1.0464 -0.04485496 -0.1265364 -0.06440265 -0.454203 0.46107 -8.840773 0.4952 0.1401 0.939 1.267378

-0.0434587 0.05253441 0.09477138 -6.404949 0.276642 -7.324146 0.5755 -0.4729 1.0464 -0.04485496 -0.1265364 -0.06440265 -0.454203 0.46107 -8.840773 0.4952 0.1401 0.939 1.267378

-0.2216568 0.04660029 0.03630285 -6.321564 0.155979 -7.391835 0.5718 -0.4664 1.0364 -0.04485496 -0.1265364 -0.06440265 -0.454203 0.46107 -8.840773 0.4952 0.1401 0.939 1.267378

-0.1771509 0.0567232 -0.03595378 -6.372577 0.316863 -7.466391 0.5718 -0.4664 1.0364 0.04537856 0.01815142 -0.2052507 -0.983943 0.642555 -8.923177 0.5003 0.1353 0.9364 1.267378

-0.1726131 0.1558579 -0.1867502 -6.399063 0.383571 -7.55272 0.554 -0.4619 1.0345 0.05113815 -0.002617994 -0.2141519 -0.988848 0.650403 -8.949663 0.513 0.1334 0.922 1.244554

-0.1726131 0.1558579 -0.1867502 -6.399063 0.383571 -7.55272 0.554 -0.4619 1.0345 0.05113815 -0.002617994 -0.2141519 -0.988848 0.650403 -8.949663 0.513 0.1334 0.922 1.244554

-0.0561996 0.09686577 -0.1411971 -6.46479 0.5356261 -7.620408 0.5659 -0.4646 1.0389 0.03804818 -0.03054326 -0.1939061 -0.9388171 0.5944861 -8.901594 0.513 0.1334 0.922 1.244554

-0.03106686 0.01047198 -0.05759586 -6.495202 0.560151 -7.608636 0.5659 -0.4646 1.0389 0.003839724 -0.09215339 -0.1918117 -0.854451 0.522873 -8.851563 0.5229 0.1326 0.9159 1.244554

-0.06073746 0.06457718 -0.11397 -6.563871 0.3924 -7.647877 0.5674 -0.4644 1.0435 0.003839724 -0.09215339 -0.1918117 -0.854451 0.522873 -8.851563 0.5229 0.1326 0.9159 1.225758

-0.06073746 0.06457718 -0.11397 -6.563871 0.3924 -7.647877 0.5674 -0.4644 1.0435 -0.04660029 -0.1994911 -0.220086 -0.7318261 0.488538 -8.807419 0.5229 0.1326 0.9159 1.225758

-0.1188569 0.07068584 -0.08063421 -6.523651 0.197181 -7.560567 0.5674 -0.4644 1.0435 -0.07574729 -0.1973967 -0.2049017 -0.629802 0.423792 -8.768179 0.5225 0.1277 0.9133 1.225758

-0.2525491 0.2307325 -0.1073378 -6.717888 0.038259 -7.785216 0.5537 -0.4802 1.0373 -0.07574729 -0.1973967 -0.2049017 -0.629802 0.423792 -8.768179 0.5225 0.1277 0.9133 1.22173

-0.3167773 0.320966 -0.1459095 -6.866019 0.003924 -8.002998 0.5537 -0.4802 1.0373 -0.01658063 -0.1895428 -0.1713913 -0.733788 0.413982 -8.784856 0.5268 0.1302 0.9028 1.22173

-0.3167773 0.320966 -0.1459095 -6.866019 0.003924 -8.002998 0.5537 -0.4802 1.0373 -0.03700098 -0.2816961 -0.2008874 -0.789705 0.51012 -8.810362 0.5268 0.1302 0.9028 1.22173

-0.2534218 0.3951425 -0.1338668 -6.910164 0.11772 -8.208028 0.558 -0.4867 1.0272 -0.03700098 -0.2816961 -0.2008874 -0.789705 0.51012 -8.810362 0.5268 0.1302 0.9028 1.22173

-0.1996657 0.4197517 -0.2352704 -6.850323 0.155979 -8.315937 0.554 -0.4768 1.0332 -0.05462881 -0.4033456 -0.2347468 -0.748503 0.507177 -8.786818 0.5377 0.1404 0.8984 1.224416

-0.1996657 0.4197517 -0.2352704 -6.850323 0.155979 -8.315937 0.554 -0.4768 1.0332 -0.07731808 -0.5071927 -0.2813471 -0.727902 0.515025 -8.815267 0.5377 0.1404 0.8984 1.224416

-0.1399754 0.4359832 -0.2998476 -6.775767 0.211896 -8.308089 0.554 -0.4768 1.0332 -0.07836528 -0.5213299 -0.302291 -0.826983 0.543474 -8.886879 0.5332 0.1402 0.8824 1.224416

-0.2303835 0.4366814 -0.3406883 -6.616845 0.031392 -8.196256 0.5291 -0.477 1.0414 -0.07836528 -0.5213299 -0.302291 -0.826983 0.543474 -8.886879 0.5332 0.1402 0.8824 1.224416

-0.2303835 0.4366814 -0.3406883 -6.616845 0.031392 -8.196256 0.5291 -0.477 1.0414 -0.07836528 -0.5213299 -0.302291 -0.826983 0.543474 -8.886879 0.5332 0.1402 0.8824 1.228443

-0.3150319 0.3267256 -0.3099705 -6.446151 -0.077499 -8.157996 0.5291 -0.477 1.0414 -0.07836528 -0.5213299 -0.302291 -0.826983 0.543474 -8.886879 0.5332 0.1402 0.8824 1.228443

-0.3150319 0.3267256 -0.3099705 -6.446151 -0.077499 -8.157996 0.5291 -0.477 1.0414 0.1757547 -0.2734931 -0.5159193 -1.833489 0.615087 -9.100738 0.5617 0.1514 0.8751 1.228443

-0.3150319 0.3267256 -0.3099705 -6.446151 -0.077499 -8.157996 0.5291 -0.477 1.0414 0.1757547 -0.2734931 -0.5159193 -1.833489 0.615087 -9.100738 0.5617 0.1514 0.8751 1.228443

-0.3150319 0.3267256 -0.3099705 -6.446151 -0.077499 -8.157996 0.5291 -0.477 1.0414 0.1577778 -0.3394665 -0.5445427 -1.777572 0.573885 -9.064441 0.5703 0.1494 0.8726 1.235156

-0.3176499 0.3837979 -0.3623303 -6.368652 0.101043 -8.617105 0.504 -0.5009 1.0644 0.1609194 -0.4194026 -0.5771804 -1.821717 0.51993 -9.01539 0.5703 0.1494 0.8726 1.235156

-0.2309071 0.4370305 -0.3933972 -6.390234 0.23544 -8.726976 0.4983 -0.5071 1.0649 0.1609194 -0.4194026 -0.5771804 -1.821717 0.51993 -9.01539 0.5703 0.1494 0.8726 1.235156

-0.2309071 0.4370305 -0.3933972 -6.390234 0.23544 -8.726976 0.4983 -0.5071 1.0649 0.1775 -0.4544837 -0.6054547 -1.928646 0.493443 -8.96634 0.5787 0.1759 0.8762 1.235156

-0.2071706 0.4501204 -0.39235 -6.433398 0.338445 -8.792704 0.4896 -0.5264 1.0471 0.2131047 -0.4783947 -0.6260496 -1.984563 0.481671 -9.001657 0.5912 0.2007 0.8777 1.243212

-0.2071706 0.4501204 -0.39235 -6.433398 0.338445 -8.792704 0.4896 -0.5264 1.0471 0.2131047 -0.4783947 -0.6260496 -1.984563 0.481671 -9.001657 0.5912 0.2007 0.8777 1.243212

-0.2630211 0.4799655 -0.4452335 -6.416721 0.312939 -8.720109 0.4896 -0.5264 1.0471 0.2272419 -0.5188864 -0.6682866 -2.014974 0.423792 -9.000675 0.5912 0.2007 0.8777 1.243212

-0.2602286 0.4639085 -0.4948008 -6.324507 0.18639 -8.674002 0.5022 -0.5326 1.0443 0.2061234 -0.5576327 -0.7180284 -2.116998 0.320787 -8.978112 0.6077 0.2089 0.8619 1.243212

-0.2602286 0.4639085 -0.4948008 -6.324507 0.18639 -8.674002 0.5022 -0.5326 1.0443 0.2061234 -0.5576327 -0.7180284 -2.116998 0.320787 -8.978112 0.6077 0.2089 0.8619 1.244554

-0.3173009 0.5420992 -0.5199336 -6.155775 0.130473 -8.565111 0.5022 -0.5326 1.0443 0.2129302 -0.5368633 -0.7480481 -2.34459 0.271737 -8.949663 0.6077 0.2089 0.8619 1.244554

-0.4113741 0.5976008 -0.5770059 -5.981157 0.064746 -8.507233 0.499 -0.538 1.051 0.2387611 -0.4948008 -0.7873181 -2.597688 0.242307 -8.932005 0.6238 0.2353 0.841 1.244554

-0.4113741 0.5976008 -0.5770059 -5.981157 0.064746 -8.507233 0.499 -0.538 1.051 0.2387611 -0.4948008 -0.7873181 -2.597688 0.242307 -8.932005 0.6238 0.2353 0.841 1.244554

-0.4482006 0.5808455 -0.6267477 -5.79771 -0.092214 -8.414038 0.499 -0.538 1.051 0.2802999 -0.3752458 -0.8340929 -2.802717 0.158922 -8.936911 0.6238 0.2353 0.841 1.247239

-0.5106834 0.5447173 -0.6155776 -5.560308 -0.150093 -8.268849 0.4654 -0.5518 1.054 0.2802999 -0.3752458 -0.8340929 -2.802717 0.158922 -8.936911 0.6238 0.2353 0.841 1.247239

-0.5106834 0.5447173 -0.6155776 -5.560308 -0.150093 -8.268849 0.4654 -0.5518 1.054 0.2802999 -0.3752458 -0.8340929 -2.802717 0.158922 -8.936911 0.6238 0.2353 0.841 1.247239

-0.5019567 0.4920083 -0.6188937 -5.376861 -0.208953 -8.22078 0.45 -0.5618 1.0732 0.2802999 -0.3752458 -0.8340929 -2.802717 0.158922 -8.936911 0.6238 0.2353 0.841 1.247239

-0.5019567 0.4920083 -0.6188937 -5.376861 -0.208953 -8.22078 0.45 -0.5618 1.0732 0.1602212 -0.2693043 -1.089609 -3.061701 -0.275661 -8.441505 0.6307 0.3031 0.8379 1.236499

-0.4452335 0.4653048 -0.631111 -5.212053 -0.202086 -8.185464 0.45 -0.5618 1.0732 0.1602212 -0.2693043 -1.089609 -3.061701 -0.275661 -8.441505 0.6307 0.3031 0.8379 1.236499

-0.4384267 0.4855506 -0.7597418 -5.045283 -0.10791 -8.182522 0.4421 -0.5725 1.0847 0.1387537 -0.2850123 -1.152964 -3.074454 -0.378666 -8.336538 0.6429 0.3343 0.8216 1.236499

-0.4384267 0.4855506 -0.7597418 -5.045283 -0.10791 -8.182522 0.4421 -0.5725 1.0847 0.1333431 -0.1881465 -1.168672 -3.125466 -0.471861 -8.292394 0.6429 0.3343 0.8216 1.236499

-0.4384267 0.4855506 -0.7597418 -5.045283 -0.10791 -8.182522 0.4421 -0.5725 1.0847 0.1333431 -0.1881465 -1.168672 -3.125466 -0.471861 -8.292394 0.6429 0.3343 0.8216 1.213675

-0.4384267 0.4855506 -0.7597418 -5.045283 -0.10791 -8.182522 0.4421 -0.5725 1.0847 0.2342232 -0.03543018 -1.188918 -3.206889 -0.600372 -8.469954 0.6549 0.3634 0.8217 1.213675

-0.1574287 0.3481932 -0.9787807 -4.55184 0.590562 -8.067744 0.4058 -0.601 1.0975 0.2872812 0.05969026 -1.228014 -3.306951 -0.685719 -8.598466 0.6407 0.3858 0.8062 1.213675

-0.1574287 0.3481932 -0.9787807 -4.55184 0.590562 -8.067744 0.4058 -0.601 1.0975 0.2872812 0.05969026 -1.228014 -3.306951 -0.685719 -8.598466 0.6407 0.3858 0.8062 1.213675

-0.04258604 0.3008948 -0.9869837 -4.53222 0.720054 -8.094232 0.3988 -0.6112 1.108 0.2872812 0.05969026 -1.228014 -3.306951 -0.685719 -8.598466 0.6407 0.3858 0.8062 1.213675

-0.04258604 0.3008948 -0.9869837 -4.53222 0.720054 -8.094232 0.3988 -0.6112 1.108 0.2740167 0.02303835 -1.283864 -3.337362 -0.751446 -8.557263 0.6407 0.3858 0.8062 1.193537

-0.01099557 0.30456 -1.002866 -4.568517 0.656289 -8.097175 0.3988 -0.6112 1.108 0.2061234 -0.07766715 -1.341111 -3.20787 -0.840717 -8.469954 0.6205 0.4195 0.7846 1.193537

-0.02617994 0.3090978 -1.069712 -4.575384 0.508158 -8.105022 0.4052 -0.6195 1.1257 0.1413717 -0.1527163 -1.35263 -2.937114 -1.032993 -8.439544 0.6205 0.4195 0.7846 1.193537

-0.02617994 0.3090978 -1.069712 -4.575384 0.508158 -8.105022 0.4052 -0.6195 1.1257 0.1413717 -0.1527163 -1.35263 -2.937114 -1.032993 -8.439544 0.6205 0.4195 0.7846 1.193537

0.01553343 0.2644174 -1.086991 -4.504752 0.5248351 -8.108947 0.3848 -0.6186 1.141 0.06091199 -0.1621411 -1.297652 -2.70756 -1.256661 -8.434638 0.6011 0.468 0.7779 1.14789

0.07225662 0.2045526 -1.099557 -4.393899 0.5356261 -8.125624 0.3848 -0.6186 1.141 0.06091199 -0.1621411 -1.297652 -2.70756 -1.256661 -8.434638 0.6011 0.468 0.7779 1.14789

0.07225662 0.2045526 -1.099557 -4.393899 0.5356261 -8.125624 0.3848 -0.6186 1.141 0.06091199 -0.1621411 -1.297652 -2.70756 -1.256661 -8.434638 0.6011 0.468 0.7779 1.14789

0.08447394 0.1715659 -1.126959 -4.290895 0.514044 -8.145243 0.3621 -0.6189 1.1395 0.05515241 -0.1455605 -1.25751 -2.659491 -1.406754 -8.355178 0.6011 0.468 0.7779 1.14789

0.1466077 0.08464847 -1.086991 -4.20849 0.47088 -8.145243 0.3621 -0.6189 1.1395 0.05515241 -0.1455605 -1.25751 -2.659491 -1.406754 -8.355178 0.6011 0.468 0.7779 1.099557

0.1769764 0.02286381 -1.004611 -4.224186 0.332559 -8.211951 0.3526 -0.6058 1.1495 0.05515241 -0.1455605 -1.25751 -2.659491 -1.406754 -8.355178 0.6011 0.468 0.7779 1.099557

0.1769764 0.02286381 -1.004611 -4.224186 0.332559 -8.211951 0.3526 -0.6058 1.1495 0.05515241 -0.1455605 -1.25751 -2.659491 -1.406754 -8.355178 0.6011 0.468 0.7779 1.099557

0.1780236 -0.03193953 -0.9587094 -4.240863 0.153036 -8.166825 0.3526 -0.6058 1.1495 0.05515241 -0.1455605 -1.25751 -2.659491 -1.406754 -8.355178 0.6011 0.468 0.7779 1.099557

0.1211258 -0.04258604 -0.9691813 -4.298742 -0.119682 -8.17173 0.3467 -0.5888 1.156 0.05515241 -0.1455605 -1.25751 -2.659491 -1.406754 -8.355178 0.6011 0.468 0.7779 1.025717

0.1211258 -0.04258604 -0.9691813 -4.298742 -0.119682 -8.17173 0.3467 -0.5888 1.156 0.1459095 0.05026548 -1.32837 -2.937114 -1.646118 -8.338501 0.5729 0.5088 0.7727 1.025717

-0.02635447 -0.01518436 -0.919614 -4.465512 -0.348255 -8.238439 0.3467 -0.5888 1.156 0.009424779 -0.1579523 -1.431694 -2.408355 -1.963962 -8.198217 0.5173 0.6001 0.7555 1.025717

-0.04101523 0.007853981 -0.8646361 -4.536144 -0.411039 -8.29828 0.3493 -0.585 1.1511 -0.05811946 -0.2064724 -1.342333 -2.329875 -2.221965 -8.194294 0.5173 0.6001 0.7555 1.025717

-0.04101523 0.007853981 -0.8646361 -4.536144 -0.411039 -8.29828 0.3493 -0.585 1.1511 -0.05811946 -0.2064724 -1.342333 -2.329875 -2.221965 -8.194294 0.5173 0.6001 0.7555 0.9800695

-0.0858702 0.04834562 -0.8726646 -4.563612 -0.501291 -8.289451 0.3493 -0.585 1.1511 -0.1017527 -0.1837832 -1.237438 -2.326932 -2.343609 -8.214894 0.4909 0.6262 0.7325 0.9800695

-0.0858702 0.04834562 -0.8726646 -4.563612 -0.501291 -8.289451 0.3493 -0.585 1.1511 -0.08203047 -0.1366593 -1.198518 -2.348514 -2.32497 -8.287488 0.4909 0.6262 0.7325 0.9800695

-0.09634218 0.04415683 -0.887849 -4.543011 -0.521892 -8.286508 0.3328 -0.5809 1.1676 -0.02495821 -0.02897247 -1.165182 -2.400507 -2.342628 -8.37676 0.471 0.6463 0.7277 0.9800695

-0.09634218 0.04415683 -0.887849 -4.543011 -0.521892 -8.286508 0.3328 -0.5809 1.1676 -0.02495821 -0.02897247 -1.165182 -2.400507 -2.342628 -8.37676 0.471 0.6463 0.7277 0.9344224

-0.09634218 0.04415683 -0.887849 -4.543011 -0.521892 -8.286508 0.3328 -0.5809 1.1676 0.01553343 0.03892084 -1.151219 -2.422089 -2.308293 -8.418942 0.471 0.6463 0.7277 0.9344224

-0.06492625 -0.01518436 -0.73426 -4.801014 -0.625878 -8.771121 0.3206 -0.6036 1.1668 0.04886922 0.02775074 -1.18822 -2.370096 -2.253357 -8.423847 0.4568 0.6563 0.7504 0.9344224

-0.06492625 -0.01518436 -0.73426 -4.801014 -0.625878 -8.771121 0.3206 -0.6036 1.1668 0.1017527 0.02897247 -1.225396 -2.249433 -2.291616 -8.487612 0.4568 0.6563 0.7504 0.9344224

-0.08342674 0.03473205 -0.7298967 -4.828482 -0.7298641 -8.945739 0.3206 -0.5903 1.1503 0.1017527 0.02897247 -1.225396 -2.249433 -2.291616 -8.487612 0.4568 0.6563 0.7504 0.8820626

-0.08342674 0.03473205 -0.7298967 -4.828482 -0.7298641 -8.945739 0.3206 -0.5903 1.1503 0.1183333 0.0003490658 -1.215098 -2.097378 -2.392659 -8.454259 0.4411 0.6749 0.7518 0.8820626

-0.09372418 0.04834562 -0.7073819 -4.871646 -0.8995771 -9.001657 0.3206 -0.5903 1.1503 0.1183333 0.0003490658 -1.215098 -2.097378 -2.392659 -8.454259 0.4411 0.6749 0.7518 0.8820626

-0.1223476 0.09494592 -0.7227408 -4.853988 -1.057518 -8.986941 0.3313 -0.5891 1.1362 0.1183333 0.0003490658 -1.215098 -2.097378 -2.392659 -8.454259 0.4411 0.6749 0.7518 0.8820626

-0.1223476 0.09494592 -0.7227408 -4.853988 -1.057518 -8.986941 0.3313 -0.5891 1.1362 0.08534659 -0.09686577 -1.170767 -1.961019 -2.542752 -8.380684 0.4411 0.6749 0.7518 0.8350729

-0.1391027 0.1422443 -0.7262315 -4.77747 -1.166409 -9.014409 0.3313 -0.5891 1.1362 0.08534659 -0.09686577 -1.170767 -1.961019 -2.542752 -8.380684 0.4411 0.6749 0.7518 0.8350729

-0.1391027 0.1422443 -0.7262315 -4.77747 -1.166409 -9.014409 0.3313 -0.5891 1.1362 0.08534659 -0.09686577 -1.170767 -1.961019 -2.542752 -8.380684 0.4411 0.6749 0.7518 0.8350729

-0.1876229 0.1527163 -0.6909758 -4.690161 -1.239003 -8.992827 0.3514 -0.5951 1.1588 0.005410521 -0.2522001 -1.166054 -1.793268 -2.712465 -8.330652 0.4098 0.6987 0.7452 0.8350729

-0.2672099 0.1488766 -0.6832964 -4.609719 -1.299825 -8.87805 0.3514 -0.5951 1.1588 -0.02268928 -0.3886848 -1.151568 -1.673586 -2.763477 -8.327709 0.3655 0.7224 0.7283 0.8001664

-0.2871067 0.1267109 -0.6653195 -4.543992 -1.439127 -8.797608 0.3537 -0.5985 1.1735 -0.02268928 -0.3886848 -1.151568 -1.673586 -2.763477 -8.327709 0.3655 0.7224 0.7283 0.8001664

-0.2871067 0.1267109 -0.6653195 -4.543992 -1.439127 -8.797608 0.3537 -0.5985 1.1735 -0.02268928 -0.3886848 -1.151568 -1.673586 -2.763477 -8.327709 0.3655 0.7224 0.7283 0.8001664

-0.3972369 0.140499 -0.5991716 -4.444911 -1.42245 -8.718147 0.3579 -0.6047 1.1638 -0.02268928 -0.3886848 -1.151568 -1.673586 -2.763477 -8.327709 0.3655 0.7224 0.7283 0.8001664

-0.4181809 0.1380555 -0.5225516 -4.444911 -1.44207 -8.723052 0.3579 -0.6047 1.1638 -0.05340707 -0.424115 -1.133068 -1.728522 -2.803698 -8.389512 0.3655 0.7224 0.7283 0.7451214

-0.4105015 0.1228712 -0.4899139 -4.373298 -1.362609 -8.782893 0.3513 -0.6105 1.1676 -0.05340707 -0.424115 -1.133068 -1.728522 -2.803698 -8.389512 0.3655 0.7224 0.7283 0.7451214

-0.4105015 0.1228712 -0.4899139 -4.373298 -1.362609 -8.782893 0.3513 -0.6105 1.1676 0.1675516 -0.01117011 -1.161342 -2.321046 -2.843919 -8.605332 0.3655 0.7224 0.7283 0.7451214

-0.3487168 0.08918633 -0.4633849 -4.301685 -1.169352 -8.797608 0.3513 -0.6105 1.1676 0.1675516 -0.01117011 -1.161342 -2.321046 -2.843919 -8.605332 0.3655 0.7224 0.7283 0.7451214

-0.2515019 0.08098327 -0.4541347 -4.183965 -0.933912 -8.839791 0.3648 -0.6389 1.1693 0.1675516 -0.01117011 -1.161342 -2.321046 -2.843919 -8.605332 0.3655 0.7224 0.7283 0.6927615

-0.2515019 0.08098327 -0.4541347 -4.183965 -0.933912 -8.839791 0.3648 -0.6389 1.1693 0.1675516 -0.01117011 -1.161342 -2.321046 -2.843919 -8.605332 0.3655 0.7224 0.7283 0.6927615

-0.2515019 0.08098327 -0.4541347 -4.183965 -0.933912 -8.839791 0.3648 -0.6389 1.1693 0.1675516 -0.01117011 -1.161342 -2.321046 -2.843919 -8.605332 0.3655 0.7224 0.7283 0.6927615

-0.2515019 0.08098327 -0.4541347 -4.183965 -0.933912 -8.839791 0.3648 -0.6389 1.1693 0.2617994 0.153589 -1.239358 -1.575486 -3.321666 -8.51508 0.2337 0.817 0.7218 0.6927615

-0.2515019 0.08098327 -0.4541347 -4.183965 -0.933912 -8.839791 0.3648 -0.6389 1.1693 0.2316052 0.1476549 -1.284562 -1.386153 -3.484512 -8.437581 0.2067 0.8361 0.7138 0.6350313

-0.1453859 0.002094395 -0.4941027 -4.098618 -1.061442 -8.680869 0.3646 -0.6529 1.1485 0.1808161 0.04834562 -1.28177 -1.145808 -3.55122 -8.27866 0.2067 0.8361 0.7138 0.6350313

-0.108734 -0.00418879 -0.5103343 -4.039758 -1.116378 -8.674002 0.3664 -0.6708 1.1692 0.1808161 0.04834562 -1.28177 -1.145808 -3.55122 -8.27866 0.2067 0.8361 0.7138 0.6350313

-0.108734 -0.00418879 -0.5103343 -4.039758 -1.116378 -8.674002 0.3664 -0.6708 1.1692 0.1685988 0.03961897 -1.230632 -1.001601 -3.548277 -8.225685 0.1728 0.8442 0.7151 0.6350313

-0.1064651 0.03263766 -0.5609488 -4.015233 -1.131093 -8.70147 0.3792 -0.6765 1.1673 0.2052507 0.08552113 -1.196947 -0.913311 -3.585555 -8.20116 0.1728 0.8442 0.7151 0.5692459

0.04118977 0.03857178 -0.6181956 -3.923019 -1.008468 -8.607294 0.3792 -0.6765 1.1673 0.1939061 0.07470009 -1.198692 -0.743598 -3.729762 -8.15211 0.136 0.8522 0.7015 0.5692459

0.04118977 0.03857178 -0.6181956 -3.923019 -1.008468 -8.607294 0.3792 -0.6765 1.1673 0.1939061 0.07470009 -1.198692 -0.743598 -3.729762 -8.15211 0.136 0.8522 0.7015 0.5692459

0.0970403 0.008901179 -0.6583382 -3.877893 -1.023183 -8.412076 0.3825 -0.6656 1.1638 0.1040216 -0.03612831 -1.163611 -0.595467 -3.897513 -7.968664 0.136 0.8522 0.7015 0.5692459

0.04171337 0.07853982 -0.6752679 -3.907323 -1.012392 -8.27866 0.3825 -0.6656 1.1638 0.03159046 -0.1532399 -1.120152 -0.411039 -3.977955 -7.873507 0.0796 0.8602 0.6957 0.5249413

0.04171337 0.07853982 -0.6752679 -3.907323 -1.012392 -8.27866 0.3825 -0.6656 1.1638 0.03159046 -0.1532399 -1.120152 -0.411039 -3.977955 -7.873507 0.0796 0.8602 0.6957 0.5249413

0.1825614 0.02897247 -0.6705555 -3.815109 -0.81423 -8.13249 0.3907 -0.655 1.1596 -0.01692969 -0.2399828 -1.08193 -0.258984 -3.915171 -7.797969 0.0796 0.8602 0.6957 0.5249413

0.1811652 -0.06283185 -0.7518879 -3.703275 -0.739674 -8.013789 0.3907 -0.655 1.1596 -0.02391101 -0.2740167 -1.027301 -0.221706 -3.785679 -7.744995 0.0337 0.8523 0.6957 0.4792943

0.283616 -0.1867502 -0.7606145 -3.607137 -0.621954 -8.063821 0.4201 -0.6622 1.15 -0.01186824 -0.1047198 -0.8955284 -0.375723 -3.740553 -7.760692 0.0337 0.8523 0.6957 0.4792943

0.283616 -0.1867502 -0.7606145 -3.607137 -0.621954 -8.063821 0.4201 -0.6622 1.15 -0.01186824 -0.1047198 -0.8955284 -0.375723 -3.740553 -7.760692 0.0337 0.8523 0.6957 0.4792943

0.320966 -0.2604031 -0.7269297 -3.615966 -0.663156 -8.131509 0.4201 -0.6622 1.15 0.05375614 0.09407324 -0.8473573 -0.379647 -3.81609 -7.784235 0.0145 0.8417 0.6886 0.4792943

0.320966 -0.2604031 -0.7269297 -3.615966 -0.663156 -8.131509 0.4201 -0.6622 1.15 0.03926991 0.1675516 -0.8763298 -0.13734 -3.97305 -7.85781 -0.0134 0.8442 0.688 0.4511005

0.3054326 -0.3164282 -0.7021459 -3.613023 -0.751446 -8.210971 0.4206 -0.6653 1.1459 0.03926991 0.1675516 -0.8763298 -0.13734 -3.97305 -7.85781 -0.0134 0.8442 0.688 0.4511005

0.3054326 -0.3164282 -0.7021459 -3.613023 -0.751446 -8.210971 0.4206 -0.6653 1.1459 0.03926991 0.1675516 -0.8763298 -0.13734 -3.97305 -7.85781 -0.0134 0.8442 0.688 0.4511005

0.3054326 -0.3164282 -0.7021459 -3.613023 -0.751446 -8.210971 0.4206 -0.6653 1.1459 -0.222704 -0.3408628 -0.5157448 0.213858 -4.01229 -8.097175 -0.0983 0.8468 0.6732 0.4511005

0.3054326 -0.3164282 -0.7021459 -3.613023 -0.751446 -8.210971 0.4206 -0.6653 1.1459 -0.1363102 -0.116588 -0.51941 -0.214839 -3.807261 -8.20999 -0.0983 0.8468 0.6732 0.4390174

0.3054326 -0.3164282 -0.7021459 -3.613023 -0.751446 -8.210971 0.4206 -0.6653 1.1459 -0.06387905 0.09669124 -0.5710717 -0.306072 -3.632643 -8.221762 -0.1125 0.8441 0.6745 0.4390174

0.3054326 -0.3164282 -0.7021459 -3.613023 -0.751446 -8.210971 0.4206 -0.6653 1.1459 -0.06387905 0.09669124 -0.5710717 -0.306072 -3.632643 -8.221762 -0.1125 0.8441 0.6745 0.4390174

0.3054326 -0.3164282 -0.7021459 -3.613023 -0.751446 -8.210971 0.4206 -0.6653 1.1459 0.01832596 0.1090831 -0.5923647 0.07455601 -3.550239 -8.352235 -0.1125 0.8441 0.6745 0.4390174

0.3054326 -0.3164282 -0.7021459 -3.613023 -0.751446 -8.210971 0.4206 -0.6653 1.1459 0.02146755 0.004014257 -0.5274385 0.406134 -3.516885 -8.409133 -0.1164 0.8223 0.6916 0.428277

0.3054326 -0.3164282 -0.7021459 -3.613023 -0.751446 -8.210971 0.4206 -0.6653 1.1459 0.02146755 0.004014257 -0.5274385 0.406134 -3.516885 -8.409133 -0.1164 0.8223 0.6916 0.428277

0.3054326 -0.3164282 -0.7021459 -3.613023 -0.751446 -8.210971 0.4206 -0.6653 1.1459 0.07295476 0.07958701 -0.4672247 0.286452 -3.490398 -8.444448 -0.1164 0.8223 0.6916 0.428277

0.3054326 -0.3164282 -0.7021459 -3.613023 -0.751446 -8.210971 0.4206 -0.6653 1.1459 0.07295476 0.07958701 -0.4672247 0.286452 -3.490398 -8.444448 -0.1164 0.8223 0.6916 0.428277

-0.4509931 -0.177849 -0.3008948 -4.281084 -2.32497 -8.486631 0.4234 -0.6197 1.1453 0.1099557 0.1754056 -0.4171337 0.112815 -3.543372 -8.350272 -0.1271 0.8039 0.7035 0.428277

-0.4509931 -0.177849 -0.3008948 -4.281084 -2.32497 -8.486631 0.4234 -0.6197 1.1453 0.1099557 0.1754056 -0.4171337 0.112815 -3.543372 -8.350272 -0.1271 0.8039 0.7035 0.4336472

-0.4509931 -0.177849 -0.3008948 -4.281084 -2.32497 -8.486631 0.4234 -0.6197 1.1453 0.09075712 0.1647591 -0.418879 0.181485 -3.661092 -8.217837 -0.1403 0.8146 0.7084 0.4336472

-0.4509931 -0.177849 -0.3008948 -4.281084 -2.32497 -8.486631 0.4234 -0.6197 1.1453 0.122173 0.1022763 -0.4333653 0.513063 -3.788622 -8.271792 -0.1403 0.8146 0.7084 0.4336472

-0.3200934 -0.4864233 -0.1132719 -4.529277 -1.52055 -8.92612 0.4659 -0.6212 1.1317 0.06544985 -0.161443 -0.4173082 0.903501 -3.87495 -8.153091 -0.1595 0.8145 0.7153 0.4336472

-0.3199188 -0.3984587 -0.1446878 -4.604814 -1.543113 -8.997733 0.4966 -0.6363 1.1461 0.06544985 -0.161443 -0.4173082 0.903501 -3.87495 -8.153091 -0.1595 0.8145 0.7153 0.428277

-0.3199188 -0.3984587 -0.1446878 -4.604814 -1.543113 -8.997733 0.4966 -0.6363 1.1461 -0.01291544 -0.3508112 -0.3457497 1.023183 -3.941658 -8.125624 -0.1595 0.8145 0.7153 0.428277

-0.3279474 -0.3068289 -0.1621411 -4.686237 -1.580391 -8.972226 0.4966 -0.6363 1.1461 -0.01291544 -0.3508112 -0.3457497 1.023183 -3.941658 -8.125624 -0.1595 0.8145 0.7153 0.428277

-0.307178 -0.2333505 -0.1546362 -4.685256 -1.399887 -8.944758 0.5073 -0.6597 1.1549 0.005410521 -0.2672099 -0.3131121 0.649422 -3.97305 -8.199199 -0.1789 0.8076 0.7063 0.428277

-0.307178 -0.2333505 -0.1546362 -4.685256 -1.399887 -8.944758 0.5073 -0.6597 1.1549 0.005410521 -0.2672099 -0.3131121 0.649422 -3.97305 -8.199199 -0.1789 0.8076 0.7063 0.4215642

-0.1944297 -0.3150319 -0.1310742 -4.514562 -1.045746 -8.873145 0.5073 -0.6597 1.1549 0.03089233 0.03630285 -0.3450516 0.224649 -3.940677 -8.255116 -0.1789 0.8076 0.7063 0.4215642

-0.1944297 -0.3150319 -0.1310742 -4.514562 -1.045746 -8.873145 0.5073 -0.6597 1.1549 0.04764749 0.02879793 -0.4045673 0.376704 -3.860235 -8.259039 -0.1802 0.7984 0.678 0.4215642

-0.2775073 -0.1888446 -0.01780236 -4.780413 -1.302768 -8.371854 0.5588 -0.6944 1.1312 0.04764749 0.02879793 -0.4045673 0.376704 -3.860235 -8.259039 -0.1802 0.7984 0.678 0.4215642

-0.2775073 -0.1888446 -0.01780236 -4.780413 -1.302768 -8.371854 0.5588 -0.6944 1.1312 0.04764749 0.02879793 -0.4045673 0.376704 -3.860235 -8.259039 -0.1802 0.7984 0.678 0.4135088

-0.2345722 -0.222704 -0.04607669 -4.81671 -1.476405 -8.186445 0.5588 -0.6944 1.1312 0.02111848 -0.1319469 -0.4223697 0.70632 -3.807261 -8.23942 -0.1802 0.7984 0.678 0.4135088

-0.2925172 -0.1757547 -0.09197885 -4.746078 -1.389096 -8.04322 0.6051 -0.693 1.1116 0.02111848 -0.1319469 -0.4223697 0.70632 -3.807261 -8.23942 -0.1802 0.7984 0.678 0.4135088

-0.3146829 -0.1448623 -0.1441642 -4.851045 -1.452861 -8.057934 0.6051 -0.693 1.1116 0.02111848 -0.1319469 -0.4223697 0.70632 -3.807261 -8.23942 -0.1802 0.7984 0.678 0.4135088

-0.3146829 -0.1448623 -0.1441642 -4.851045 -1.452861 -8.057934 0.6051 -0.693 1.1116 0.001396263 -0.1982694 -0.3775147 0.8416981 -3.77685 -8.188407 -0.1718 0.7987 0.6694 0.4108237

-0.2326524 -0.1572542 -0.1677261 -4.911867 -1.379286 -8.067744 0.6301 -0.6958 1.0901 -0.01675516 -0.087441 -0.3125885 0.741636 -3.781755 -8.274735 -0.1718 0.7987 0.6694 0.4108237

-0.09302605 -0.1799435 -0.1527163 -4.872627 -1.107549 -8.160939 0.6301 -0.6958 1.0901 -0.01675516 -0.087441 -0.3125885 0.741636 -3.781755 -8.274735 -0.1718 0.7987 0.6694 0.4108237

-0.09302605 -0.1799435 -0.1527163 -4.872627 -1.107549 -8.160939 0.6301 -0.6958 1.0901 0.03892084 0.1312488 -0.3085742 0.87309 -3.798432 -8.119738 -0.2042 0.8087 0.6758 0.4121662

-0.04939282 -0.153589 -0.1007055 -4.824558 -0.741636 -8.314957 0.6331 -0.7088 1.0863 -0.07138397 -0.07243116 -0.2567379 1.093815 -3.830805 -7.963758 -0.2042 0.8087 0.6758 0.4121662

-0.02600541 -0.1775 -0.1263618 -4.815729 -0.615087 -8.389512 0.6331 -0.7088 1.0863 -0.07923795 -0.1361357 -0.1825614 0.905463 -3.87495 -7.858791 -0.2089 0.8075 0.6685 0.4121662

-0.02600541 -0.1775 -0.1263618 -4.815729 -0.615087 -8.389512 0.6331 -0.7088 1.0863 -0.07923795 -0.1361357 -0.1825614 0.905463 -3.87495 -7.858791 -0.2089 0.8075 0.6685 0.4121662

-0.08761553 -0.1738348 -0.09093165 -4.783356 -0.632745 -8.321823 0.6441 -0.7149 1.0768 -0.06911504 -0.008726646 -0.2026327 0.807363 -3.906342 -7.847019 -0.2089 0.8075 0.6685 0.4121662

-0.08290314 -0.1816888 -0.06806784 -4.779432 -0.697491 -8.265906 0.6441 -0.7149 1.0768 -0.04555309 -0.007853981 -0.2108358 0.952551 -3.920076 -7.978474 -0.2153 0.807 0.6749 0.4121662

-0.08290314 -0.1816888 -0.06806784 -4.779432 -0.697491 -8.265906 0.6441 -0.7149 1.0768 -0.1082104 -0.1563815 -0.1649336 1.078119 -4.017195 -7.969644 -0.2153 0.807 0.6749 0.4121662

-0.04485496 -0.1792453 -0.03403392 -4.77747 -0.694548 -8.22078 0.6547 -0.7174 1.0728 -0.1082104 -0.1563815 -0.1649336 1.078119 -4.017195 -7.969644 -0.2153 0.807 0.6749 0.4108237

-0.04485496 -0.1792453 -0.03403392 -4.77747 -0.694548 -8.22078 0.6547 -0.7174 1.0728 -0.1207768 -0.1385791 -0.1373574 0.9849241 -3.961278 -8.03439 -0.2242 0.8003 0.6841 0.4108237

-0.04485496 -0.1792453 -0.03403392 -4.77747 -0.694548 -8.22078 0.6547 -0.7174 1.0728 -0.07190756 0.01884956 -0.148353 0.8171731 -3.871026 -8.106004 -0.2242 0.8003 0.6841 0.4108237

-0.04485496 -0.1792453 -0.03403392 -4.77747 -0.694548 -8.22078 0.6547 -0.7174 1.0728 -0.04852015 0.09738937 -0.1055924 0.8260021 -3.820014 -8.11189 -0.2287 0.7787 0.6932 0.4108237

-0.05078908 -0.04310963 0.1190315 -5.394519 -0.6690421 -8.68185 0.6814 -0.7225 1.0651 -0.04852015 0.09738937 -0.1055924 0.8260021 -3.820014 -8.11189 -0.2287 0.7787 0.6932 0.4108237

-0.0577704 -0.1764528 0.2399828 -5.197338 -0.759294 -8.389512 0.6814 -0.7225 1.0651 0.02897247 -0.1017527 -0.04991641 1.050651 -3.762135 -8.222742 -0.2306 0.7561 0.697 0.4108237

-0.0577704 -0.1764528 0.2399828 -5.197338 -0.759294 -8.389512 0.6814 -0.7225 1.0651 -0.02548181 -0.2064724 -0.009773844 1.151694 -3.783717 -8.331634 -0.2306 0.7561 0.697 0.4108237

-0.004014257 -0.3375467 0.3275983 -5.034492 -0.739674 -8.195274 0.6792 -0.7281 1.0679 -0.02111848 -0.302291 0.003316126 1.117359 -3.772926 -8.531757 -0.2246 0.7534 0.7058 0.4108237

-0.004014257 -0.3375467 0.3275983 -5.034492 -0.739674 -8.195274 0.6792 -0.7281 1.0679 -0.02111848 -0.302291 0.003316126 1.117359 -3.772926 -8.531757 -0.2246 0.7534 0.7058 0.4202216

-0.02024582 -0.2754129 0.2265437 -5.107087 -0.9211591 -8.289451 0.6792 -0.7281 1.0679 -0.04258604 -0.2261947 0.01658063 0.809325 -3.733686 -8.516061 -0.2246 0.7534 0.7058 0.4202216

0.05305801 -0.2644174 0.1359611 -5.127687 -1.033974 -8.284545 0.6746 -0.7298 1.0766 0.0296706 0.08237953 0.03246313 0.374742 -3.70818 -8.51508 -0.2131 0.7613 0.7047 0.4202216

0.07923795 -0.2094395 0.05218535 -5.156137 -1.143846 -8.258059 0.6746 -0.7298 1.0766 0.08621927 0.3216642 -0.026529 0.207972 -3.702294 -8.445429 -0.2131 0.7613 0.7047 0.4202216

0.07923795 -0.2094395 0.05218535 -5.156137 -1.143846 -8.258059 0.6746 -0.7298 1.0766 0.08621927 0.3216642 -0.026529 0.207972 -3.702294 -8.445429 -0.2131 0.7613 0.7047 0.4148513

0.02530728 -0.1263618 0.05096361 -5.225787 -1.193877 -8.203122 0.6922 -0.7334 1.0753 0.06230825 0.3220133 -0.01692969 0.445374 -3.752325 -8.27964 -0.2195 0.7579 0.6972 0.4148513

0.1148427 -0.02565634 0.08953539 -5.272875 -1.099701 -8.256096 0.7114 -0.7349 1.0748 0.06230825 0.3220133 -0.01692969 0.445374 -3.752325 -8.27964 -0.2195 0.7579 0.6972 0.4148513

0.1148427 -0.02565634 0.08953539 -5.272875 -1.099701 -8.256096 0.7114 -0.7349 1.0748 0.06230825 0.3220133 -0.01692969 0.445374 -3.752325 -8.27964 -0.2195 0.7579 0.6972 0.4148513

0.3345796 -0.0996583 -0.03682645 -5.215977 -0.919197 -8.225685 0.7114 -0.7349 1.0748 -0.007853981 0.06126106 0.1029744 0.7318261 -3.851406 -8.194294 -0.2515 0.752 0.7021 0.4269344

0.4386012 -0.1469567 -0.09721484 -5.274837 -1.005525 -8.23942 0.7176 -0.7311 1.0695 -0.007853981 0.06126106 0.1029744 0.7318261 -3.851406 -8.194294 -0.2515 0.752 0.7021 0.4269344

0.4386012 -0.1469567 -0.09721484 -5.274837 -1.005525 -8.23942 0.7176 -0.7311 1.0695 -0.03752458 -0.02687807 0.09128072 0.823059 -3.833748 -8.194294 -0.2515 0.752 0.7021 0.4269344

0.3152064 -0.1427679 -0.0858702 -5.319963 -1.274319 -8.157996 0.7176 -0.7311 1.0695 -0.006108652 0.02199115 0.07487462 0.835812 -3.822957 -8.261002 -0.2446 0.7631 0.6961 0.428277

0.09372418 -0.1033235 -0.02548181 -5.408253 -1.388115 -8.155053 0.7071 -0.7247 1.0616 -0.01308997 0.03543018 0.1066396 0.773028 -3.840615 -8.233533 -0.2349 0.7747 0.677 0.428277

0.09320059 -0.05166174 0.02949606 -5.450436 -1.372419 -8.273754 0.7071 -0.7247 1.0616 -0.01308997 0.03543018 0.1066396 0.773028 -3.840615 -8.233533 -0.2349 0.7747 0.677 0.428277

0.09320059 -0.05166174 0.02949606 -5.450436 -1.372419 -8.273754 0.7071 -0.7247 1.0616 -0.01745329 0.02548181 0.1288053 0.6925861 -3.86514 -8.223723 -0.2349 0.7747 0.677 0.428277

-0.1289798 0.1478294 0.03525565 -5.538726 -1.528398 -8.415018 0.7044 -0.7124 1.0636 -0.02443461 0.04380776 0.1223476 0.6867 -3.868083 -8.232553 -0.2395 0.7792 0.6873 0.428277

-0.1434661 0.03071779 -0.06387905 -5.362146 -1.51074 -8.282583 0.7044 -0.7124 1.0636 -0.009599311 -0.003316126 0.05480334 0.6965101 -3.880836 -8.252172 -0.2395 0.7792 0.6873 0.4363323

-0.134914 -0.09494592 -0.05654867 -5.276799 -1.534284 -8.193313 0.6987 -0.6954 1.0646 -0.009599311 -0.003316126 0.05480334 0.6965101 -3.880836 -8.252172 -0.2395 0.7792 0.6873 0.4363323

-0.134914 -0.09494592 -0.05654867 -5.276799 -1.534284 -8.193313 0.6987 -0.6954 1.0646 0.004886922 0.06510078 0.0429351 0.638631 -3.900456 -8.223723 -0.2395 0.7699 0.704 0.4363323

-0.09442231 -0.0996583 -0.008028515 -5.323887 -1.445994 -8.228628 0.6924 -0.702 1.0677 0.03159046 0.172264 0.07068584 0.628821 -3.918114 -8.236477 -0.2395 0.7699 0.704 0.4363323

0.09634218 -0.04101523 -0.0001745329 -5.457303 -1.410678 -8.305146 0.6924 -0.702 1.0677 0.06335545 0.1673771 0.111352 0.762237 -3.85533 -8.173692 -0.2307 0.7477 0.7158 0.4349898

0.06318092 0.2590069 -0.02094395 -5.734926 -1.496025 -8.565111 0.708 -0.7122 1.0612 0.06335545 0.1673771 0.111352 0.762237 -3.85533 -8.173692 -0.2307 0.7477 0.7158 0.4349898

0.06318092 0.2590069 -0.02094395 -5.734926 -1.496025 -8.565111 0.708 -0.7122 1.0612 0.07766715 0.05096361 0.1179843 1.002582 -3.866121 -8.123662 -0.2307 0.7477 0.7158 0.4349898

0.06370452 0.3813545 -0.07365289 -5.859513 -1.410678 -8.68185 0.708 -0.7122 1.0612 0.05497787 -0.06457718 0.1411971 1.143846 -3.867102 -8.088346 -0.2359 0.743 0.7207 0.4349898

0.1335177 0.3757694 -0.1755801 -5.851665 -1.1772 -8.666155 0.7162 -0.7101 1.0501 0.04729842 -0.1216494 0.1745329 1.171314 -3.873969 -8.165845 -0.2359 0.743 0.7207 0.4349898

0.1335177 0.3757694 -0.1755801 -5.851665 -1.1772 -8.666155 0.7162 -0.7101 1.0501 0.04729842 -0.1216494 0.1745329 1.171314 -3.873969 -8.165845 -0.2359 0.743 0.7207 0.4349898

0.434587 0.2864085 -0.2602286 -5.759451 -0.859356 -8.551377 0.7162 -0.7101 1.0501 0.09564404 -0.01640609 0.2330015 1.107549 -3.810204 -8.316918 -0.247 0.7594 0.7038 0.4349898

0.7548549 0.323235 -0.4290019 -5.80752 -0.711225 -8.688717 0.7064 -0.7065 1.0509 0.1729621 0.003141593 0.3427826 1.116378 -3.7278 -8.397361 -0.2426 0.7753 0.6921 0.4349898

0.9543461 0.381878 -0.5635668 -5.899734 -0.689643 -8.925138 0.7064 -0.7065 1.0509 0.111352 -0.2127556 0.4094542 1.199763 -3.770964 -8.312014 -0.2426 0.7753 0.6921 0.4349898

0.9543461 0.381878 -0.5635668 -5.899734 -0.689643 -8.925138 0.7064 -0.7065 1.0509 0.111352 -0.2127556 0.4094542 1.199763 -3.770964 -8.312014 -0.2426 0.7753 0.6921 0.4349898

0.8393288 0.5356416 -0.5050983 -6.064542 -1.034955 -9.114471 0.6942 -0.6878 1.0621 0.1694715 -0.2604031 0.4148648 1.163466 -3.710142 -8.365969 -0.2386 0.7706 0.6942 0.4349898

0.8393288 0.5356416 -0.5050983 -6.064542 -1.034955 -9.114471 0.6942 -0.6878 1.0621 0.1694715 -0.2604031 0.4148648 1.163466 -3.710142 -8.365969 -0.2386 0.7706 0.6942 0.4349898

0.6653195 0.6691592 -0.4337143 -6.055713 -1.39302 -9.070327 0.6685 -0.6589 1.0719 0.2139774 -0.214501 0.4202753 1.067328 -3.669921 -8.404227 -0.2386 0.7706 0.6942 0.4349898

0.6653195 0.6691592 -0.4337143 -6.055713 -1.39302 -9.070327 0.6685 -0.6589 1.0719 0.2139774 -0.214501 0.4202753 1.067328 -3.669921 -8.404227 -0.2386 0.7706 0.6942 0.4349898

0.5117306 0.834442 -0.2776819 -5.946822 -1.602954 -9.002637 0.6685 -0.6589 1.0719 0.2076942 -0.2733186 0.4565781 0.9849241 -3.676788 -8.394418 -0.2369 0.7732 0.6904 0.4349898

0.5117306 0.834442 -0.2776819 -5.946822 -1.602954 -9.002637 0.6685 -0.6589 1.0719 0.2131047 -0.2583087 0.5359906 0.781857 -3.680712 -8.440524 -0.2369 0.7732 0.6904 0.4349898

0.5117306 0.834442 -0.2776819 -5.946822 -1.602954 -9.002637 0.6685 -0.6589 1.0719 0.2328269 -0.1099557 0.5658357 0.504234 -3.741534 -8.476821 -0.2274 0.809 0.6844 0.4443877

0.1438151 0.9286897 0.132296 -4.668579 -2.049309 -8.462107 0.5729 -0.6193 1.0973 0.2328269 -0.1099557 0.5658357 0.504234 -3.741534 -8.476821 -0.2274 0.809 0.6844 0.4443877

0.1438151 0.9286897 0.132296 -4.668579 -2.049309 -8.462107 0.5729 -0.6193 1.0973 0.2724459 0.1054179 0.567232 0.17658 -3.830805 -8.470936 -0.2274 0.809 0.6844 0.4443877

0.04886922 0.7688175 0.3124139 -4.320324 -2.035575 -8.38755 0.5322 -0.6064 1.1105 0.2928663 0.2350959 0.5314528 0.001962 -3.85533 -8.383627 -0.207 0.8329 0.6744 0.4443877

0.04886922 0.7688175 0.3124139 -4.320324 -2.035575 -8.38755 0.5322 -0.6064 1.1105 0.2928663 0.2350959 0.5314528 0.001962 -3.85533 -8.383627 -0.207 0.8329 0.6744 0.4443877

-0.05742133 0.572817 0.4763004 -4.009347 -2.052252 -8.23942 0.5322 -0.6064 1.1105 0.2612758 0.2480113 0.4923574 0.054936 -3.935772 -8.257077 -0.207 0.8329 0.6744 0.4457302

-0.05742133 0.572817 0.4763004 -4.009347 -2.052252 -8.23942 0.5322 -0.6064 1.1105 0.2890265 0.2300344 0.5085889 0.151074 -4.013271 -8.221762 -0.1738 0.8314 0.6679 0.4457302

-0.006981317 0.4326671 0.5033529 -3.753306 -2.105226 -8.133471 0.4803 -0.5959 1.1187 0.2890265 0.2300344 0.5085889 0.151074 -4.013271 -8.221762 -0.1738 0.8314 0.6679 0.4457302

-0.07173304 0.4635594 0.583289 -3.60027 -2.085606 -8.13249 0.4803 -0.5959 1.1187 0.2626721 0.2204351 0.5494297 0.150093 -4.053492 -8.120718 -0.1556 0.8262 0.6652 0.4470728

-0.2101376 0.5422738 0.6089454 -3.626757 -2.235699 -8.216856 0.4257 -0.5866 1.138 0.2452188 0.2815216 0.5600762 0.105948 -4.084884 -8.054992 -0.1556 0.8262 0.6652 0.4470728

-0.2101376 0.5422738 0.6089454 -3.626757 -2.235699 -8.216856 0.4257 -0.5866 1.138 0.2982768 0.3705334 0.5398303 0.164808 -4.117257 -8.072649 -0.1501 0.8309 0.6569 0.4470728

-0.2387611 0.5684537 0.6000442 -3.655206 -2.424051 -8.365969 0.4257 -0.5866 1.138 0.2982768 0.3705334 0.5398303 0.164808 -4.117257 -8.072649 -0.1501 0.8309 0.6569 0.4470728

-0.1206023 0.4586725 0.5681046 -3.612042 -2.478006 -8.450335 0.3991 -0.5926 1.162 0.2652901 0.3358013 0.5546656 0.28449 -4.201623 -8.012809 -0.1501 0.8309 0.6569 0.4484154

-0.1206023 0.4586725 0.5681046 -3.612042 -2.478006 -8.450335 0.3991 -0.5926 1.162 0.2343977 0.3193952 0.6257005 0.286452 -4.261464 -7.971607 -0.1454 0.849 0.6558 0.4484154

0.0286234 0.2925172 0.5996951 -3.477645 -2.30535 -8.463087 0.3712 -0.603 1.1642 0.2686062 0.4181809 0.6749188 0.171675 -4.303647 -7.979454 -0.1454 0.849 0.6558 0.4484154

0.0286234 0.2925172 0.5996951 -3.477645 -2.30535 -8.463087 0.3712 -0.603 1.1642 0.2686062 0.4181809 0.6749188 0.171675 -4.303647 -7.979454 -0.1454 0.849 0.6558 0.4484154

0.04729842 0.2624975 0.5787511 -3.385431 -2.196459 -8.493499 0.3712 -0.603 1.1642 0.2733186 0.4612905 0.6417575 0.194238 -4.388013 -7.960815 -0.1392 0.8648 0.6509 0.4551282

-0.01780236 0.3265511 0.6356489 -3.411918 -2.214117 -8.623972 0.3463 -0.6021 1.1546 0.2382374 0.3827507 0.6340781 0.322749 -4.447854 -7.86762 -0.1392 0.8648 0.6509 0.4551282

-0.01780236 0.3265511 0.6356489 -3.411918 -2.214117 -8.623972 0.3463 -0.6021 1.1546 0.2054253 0.297055 0.6380924 0.399267 -4.527315 -7.833285 -0.1249 0.8792 0.6415 0.4551282

-0.01780236 0.3265511 0.6356489 -3.411918 -2.214117 -8.623972 0.3463 -0.6021 1.1546 0.2054253 0.297055 0.6380924 0.399267 -4.527315 -7.833285 -0.1249 0.8792 0.6415 0.4551282

-0.01780236 0.3265511 0.6356489 -3.411918 -2.214117 -8.623972 0.3463 -0.6021 1.1546 0.2364921 0.3836234 0.7166322 0.344331 -4.560669 -7.896069 -0.1249 0.8792 0.6415 0.4658687

-0.01780236 0.3265511 0.6356489 -3.411918 -2.214117 -8.623972 0.3463 -0.6021 1.1546 0.2319543 0.3913028 0.7936012 0.358065 -4.747059 -7.964739 -0.1257 0.8922 0.6304 0.4658687

-0.01780236 0.3265511 0.6356489 -3.411918 -2.214117 -8.623972 0.3463 -0.6021 1.1546 0.1895428 0.4026474 0.853466 0.366894 -4.916772 -7.951005 -0.1148 0.8998 0.6235 0.4658687

-0.01780236 0.3265511 0.6356489 -3.411918 -2.214117 -8.623972 0.3463 -0.6021 1.1546 0.1895428 0.4026474 0.853466 0.366894 -4.916772 -7.951005 -0.1148 0.8998 0.6235 0.4658687

-0.01780236 0.3265511 0.6356489 -3.411918 -2.214117 -8.623972 0.3463 -0.6021 1.1546 0.2316052 0.4974188 0.9000663 0.336483 -4.901076 -8.010846 -0.1148 0.8998 0.6235 0.4886922

-0.01780236 0.3265511 0.6356489 -3.411918 -2.214117 -8.623972 0.3463 -0.6021 1.1546 0.2656391 0.606851 0.9215338 0.342369 -4.808862 -7.914709 -0.0965 0.9169 0.611 0.4886922

-0.1219985 0.3799582 0.7288495 -3.106827 -2.032632 -8.820171 0.3118 -0.6063 1.2063 0.280998 0.6154031 0.9665633 0.348255 -4.817691 -7.82838 -0.0965 0.9169 0.611 0.4886922

-0.1219985 0.3799582 0.7288495 -3.106827 -2.032632 -8.820171 0.3118 -0.6063 1.2063 0.2986259 0.6597344 1.009498 0.332559 -4.795128 -7.62237 -0.0977 0.9413 0.5925 0.4886922

-0.1219985 0.3799582 0.7288495 -3.106827 -2.032632 -8.820171 0.3118 -0.6063 1.2063 0.2986259 0.6597344 1.009498 0.332559 -4.795128 -7.62237 -0.0977 0.9413 0.5925 0.5276265

-0.1219985 0.3799582 0.7288495 -3.106827 -2.032632 -8.820171 0.3118 -0.6063 1.2063 0.3008948 0.6632251 1.025555 0.417906 -4.842216 -7.489935 -0.0977 0.9413 0.5925 0.5276265

-0.132296 0.156556 0.7225663 -3.195117 -1.798173 -8.994789 0.2704 -0.6085 1.1869 0.2509784 0.5359906 1.024334 0.62784 -5.000157 -7.360443 -0.0938 0.9527 0.5886 0.5276265

-0.132296 0.156556 0.7225663 -3.195117 -1.798173 -8.994789 0.2704 -0.6085 1.1869 0.1595231 0.3522075 1.101826 0.7867621 -5.07177 -7.235857 -0.0938 0.9527 0.5886 0.5276265

0.001570796 0.2497566 0.678584 -3.235338 -1.639251 -9.043839 0.2563 -0.6102 1.2004 0.1595231 0.3522075 1.101826 0.7867621 -5.07177 -7.235857 -0.0938 0.9527 0.5886 0.562533

0.04118977 0.2551671 0.6447246 -3.157839 -1.512702 -9.060516 0.2563 -0.6102 1.2004 0.1328196 0.2319543 1.227141 0.7229971 -5.047246 -7.2388 -0.0648 0.9527 0.6014 0.562533

0.169646 0.2572615 0.6551966 -3.068568 -1.239003 -9.123301 0.2377 -0.5971 1.2122 0.1197296 0.2661627 1.312313 0.484614 -5.029587 -7.194654 -0.0342 0.9593 0.5995 0.562533

0.169646 0.2572615 0.6551966 -3.068568 -1.239003 -9.123301 0.2377 -0.5971 1.2122 0.1228712 0.3171263 1.31179 0.339426 -5.108067 -7.227027 -0.0342 0.9593 0.5995 0.562533

0.2270673 0.3801327 0.763756 -3.097998 -1.099701 -9.157636 0.2377 -0.5971 1.2122 0.1228712 0.3171263 1.31179 0.339426 -5.108067 -7.227027 -0.0342 0.9593 0.5995 0.6041524

0.2364921 0.3670428 0.7906342 -2.996955 -1.056537 -9.039916 0.1987 -0.5879 1.2172 0.08395033 0.1919862 1.267109 0.387495 -5.210091 -7.204464 -0.0197 0.9763 0.5747 0.6041524

0.2874557 0.2483603 0.7819075 -2.796831 -0.9986581 -8.936911 0.1987 -0.5879 1.2172 0.0005235987 0.04764749 1.310568 0.308034 -5.239521 -7.070067 -0.0197 0.9763 0.5747 0.6041524

0.2874557 0.2483603 0.7819075 -2.796831 -0.9986581 -8.936911 0.1987 -0.5879 1.2172 -0.04485496 -0.02024582 1.337969 0.22563 -5.225787 -7.032789 0.0043 0.9648 0.5598 0.6041524

0.2874557 0.3441789 0.8197812 -2.858634 -1.077138 -8.967321 0.1678 -0.5889 1.2032 -0.04485496 -0.02024582 1.337969 0.22563 -5.225787 -7.032789 0.0043 0.9648 0.5598 0.6457718

0.2546435 0.4883431 0.8309513 -2.889045 -1.239003 -8.92612 0.1678 -0.5889 1.2032 -0.08325221 -0.09302605 1.369211 0.164808 -5.214996 -7.100478 0.0043 0.9648 0.5598 0.6457718

0.2546435 0.4883431 0.8309513 -2.889045 -1.239003 -8.92612 0.1678 -0.5889 1.2032 -0.130027 -0.1663299 1.444085 -0.001962 -5.196357 -7.0632 0.0459 0.9537 0.5562 0.6457718

0.2546435 0.4883431 0.8309513 -2.889045 -1.239003 -8.92612 0.1678 -0.5889 1.2032 -0.1574287 -0.1834341 1.515644 -0.25506 -5.116896 -7.002378 0.0459 0.9537 0.5562 0.6457718

0.2546435 0.4883431 0.8309513 -2.889045 -1.239003 -8.92612 0.1678 -0.5889 1.2032 -0.1574287 -0.1834341 1.515644 -0.25506 -5.116896 -7.002378 0.0459 0.9537 0.5562 0.6457718

0.3577925 0.4773476 0.8262389 -2.778192 -1.298844 -8.768179 0.1595 -0.5848 1.1921 -0.1516691 -0.167028 1.543744 -0.445374 -5.064903 -7.044561 0.0952 0.9694 0.5617 0.6954466

0.4148648 0.4174828 0.8292059 -2.677149 -1.434222 -8.615142 0.1595 -0.5848 1.1921 -0.2062979 -0.3541273 1.51355 -0.538569 -5.030568 -7.039656 0.0952 0.9694 0.5617 0.6954466

0.4148648 0.4174828 0.8292059 -2.677149 -1.434222 -8.615142 0.1595 -0.5848 1.1921 -0.2062979 -0.3541273 1.51355 -0.538569 -5.030568 -7.039656 0.0952 0.9694 0.5617 0.6954466

0.4852015 0.402822 0.8215265 -2.63889 -1.554885 -8.493499 0.1252 -0.5768 1.2061 -0.222704 -0.4248132 1.594184 -0.840717 -4.912848 -6.946462 0.1542 0.9689 0.5711 0.6954466

0.4607669 0.3747222 0.7810348 -2.56041 -1.733427 -8.439544 0.0856 -0.5568 1.2225 -0.1946042 -0.2806489 1.749344 -1.181124 -4.730382 -6.841494 0.2114 0.9687 0.5658 0.7612321

0.4607669 0.3747222 0.7810348 -2.56041 -1.733427 -8.439544 0.0856 -0.5568 1.2225 -0.2389356 -0.4150393 1.82352 -1.048689 -4.665636 -6.862095 0.2114 0.9687 0.5658 0.7612321

0.4619886 0.1989675 0.7379252 -2.392659 -1.810926 -8.448372 0.0856 -0.5568 1.2225 -0.2389356 -0.4150393 1.82352 -1.048689 -4.665636 -6.862095 0.2114 0.9687 0.5658 0.7612321

0.4619886 0.1989675 0.7379252 -2.392659 -1.810926 -8.448372 0.0856 -0.5568 1.2225 -0.2389356 -0.4150393 1.82352 -1.048689 -4.665636 -6.862095 0.2114 0.9687 0.5658 0.7612321

0.4619886 0.1989675 0.7379252 -2.392659 -1.810926 -8.448372 0.0856 -0.5568 1.2225 -0.3591888 -0.8628908 1.862441 -0.845622 -4.655826 -6.77871 0.2657 0.9547 0.5537 0.8552113

0.3707079 0.3885103 0.5942846 -2.384811 -2.198421 -8.72109 0.0539 -0.5343 1.2258 -0.3591888 -0.8628908 1.862441 -0.845622 -4.655826 -6.77871 0.2657 0.9547 0.5537 0.8552113

0.4483751 0.4857251 0.6377433 -2.286711 -2.189592 -8.879031 0.0299 -0.5107 1.2282 -0.6239552 -1.282642 2.030516 -1.176219 -4.546935 -6.620769 0.2657 0.9547 0.5537 0.8552113

0.4483751 0.4857251 0.6377433 -2.286711 -2.189592 -8.879031 0.0299 -0.5107 1.2282 -0.6239552 -1.282642 2.030516 -1.176219 -4.546935 -6.620769 0.2657 0.9547 0.5537 0.8552113

0.3595378 0.6173229 0.6731735 -2.170953 -2.329875 -9.029124 0.0299 -0.5107 1.2282 -0.7670722 -1.629614 2.113768 -1.72656 -4.274217 -6.728679 0.3288 0.9165 0.563 0.9679865

0.4462807 0.5295329 0.622908 -1.779534 -2.231775 -9.060516 -0.0088 -0.4931 1.2158 -0.7670722 -1.629614 2.113768 -1.72656 -4.274217 -6.728679 0.3288 0.9165 0.563 0.9679865

0.7777187 0.3623303 0.6351253 -1.479348 -2.058138 -9.03501 -0.0088 -0.4931 1.2158 -0.4909611 -1.064476 1.981123 -4.565574 -2.987145 -7.380064 0.4863 0.827 0.5978 0.9679865

0.7777187 0.3623303 0.6351253 -1.479348 -2.058138 -9.03501 -0.0088 -0.4931 1.2158 -0.1422443 -0.5202826 1.640086 -5.608377 -2.592783 -7.601769 0.5872 0.7759 0.5717 1.010948

0.8719665 0.3541273 0.7497934 -1.444032 -2.160162 -9.026181 -0.0597 -0.4789 1.2027 0.2694788 0.06405359 1.496794 -6.094953 -2.206269 -7.733223 0.5872 0.7759 0.5717 1.010948

0.6705555 0.5092871 0.8346164 -1.581372 -2.468196 -9.042858 -0.0964 -0.4569 1.1999 0.2694788 0.06405359 1.496794 -6.094953 -2.206269 -7.733223 0.5872 0.7759 0.5717 1.010948

0.6705555 0.5092871 0.8346164 -1.581372 -2.468196 -9.042858 -0.0964 -0.4569 1.1999 0.394968 0.3621558 1.530305 -6.020397 -2.220003 -7.566453 0.6642 0.7356 0.5591 1.010948

0.4010766 0.6923721 0.9489355 -1.71675 -2.730123 -9.006561 -0.0964 -0.4569 1.1999 0.394968 0.3621558 1.530305 -6.020397 -2.220003 -7.566453 0.6642 0.7356 0.5591 1.010948

0.4010766 0.6923721 0.9489355 -1.71675 -2.730123 -9.006561 -0.0964 -0.4569 1.1999 0.2481858 0.2007129 1.606925 -5.511258 -2.551581 -7.223103 0.6642 0.7356 0.5591 1.010948

0.4010766 0.6923721 0.9489355 -1.71675 -2.730123 -9.006561 -0.0964 -0.4569 1.1999 -0.07347836 -0.1478294 1.681101 -5.051169 -2.792907 -6.964119 0.7238 0.7003 0.5535 1.010948

0.4010766 0.6923721 0.9489355 -1.71675 -2.730123 -9.006561 -0.0964 -0.4569 1.1999 -0.07347836 -0.1478294 1.681101 -5.051169 -2.792907 -6.964119 0.7238 0.7003 0.5535 1.010948

0.1802925 0.7770206 1.043532 -1.623555 -2.865501 -8.897671 -0.1257 -0.4185 1.1907 -0.2640683 -0.3305654 1.823171 -4.971708 -2.660472 -6.867981 0.7238 0.7003 0.5535 1.010948

0.1802925 0.7770206 1.043532 -1.623555 -2.865501 -8.897671 -0.1257 -0.4185 1.1907 -0.2537709 -0.4063126 1.72997 -4.941298 -2.3544 -6.93469 0.7625 0.6394 0.5486 1.010948

0.1790708 0.7562512 1.074948 -1.454823 -2.817432 -8.768179 -0.1257 -0.4185 1.1907 -0.2537709 -0.4063126 1.72997 -4.941298 -2.3544 -6.93469 0.7625 0.6394 0.5486 1.010948

0.3457497 0.7506661 1.02189 -1.398906 -2.676168 -8.587674 -0.1657 -0.3785 1.1745 -0.1958259 -0.4063126 1.535541 -5.118858 -1.985544 -6.948423 0.8052 0.583 0.5535 1.138492

0.3457497 0.7506661 1.02189 -1.398906 -2.676168 -8.587674 -0.1657 -0.3785 1.1745 -0.16441 -0.3434808 1.512328 -5.50341 -1.661814 -6.917031 0.8052 0.583 0.5535 1.138492

0.3457497 0.7506661 1.02189 -1.398906 -2.676168 -8.587674 -0.1657 -0.3785 1.1745 -0.16441 -0.3434808 1.512328 -5.50341 -1.661814 -6.917031 0.8052 0.583 0.5535 1.138492

0.3457497 0.7506661 1.02189 -1.398906 -2.676168 -8.587674 -0.1657 -0.3785 1.1745 -0.1258382 -0.2542945 1.500983 -5.773185 -1.445994 -6.953329 0.8455 0.512 0.5583 1.138492

0.3457497 0.7506661 1.02189 -1.398906 -2.676168 -8.587674 -0.1657 -0.3785 1.1745 -0.1258382 -0.2542945 1.500983 -5.773185 -1.445994 -6.953329 0.8455 0.512 0.5583 1.157288

0.3457497 0.7506661 1.02189 -1.398906 -2.676168 -8.587674 -0.1657 -0.3785 1.1745 -0.1258382 -0.2542945 1.500983 -5.773185 -1.445994 -6.953329 0.8455 0.512 0.5583 1.157288

0.03438299 0.4127704 1.228014 -0.948627 -3.643434 -8.811342 -0.2529 -0.2991 1.1426 -0.1258382 -0.2542945 1.500983 -5.773185 -1.445994 -6.953329 0.8455 0.512 0.5583 1.157288

-0.2073451 0.6661921 1.229061 -1.249794 -3.918114 -8.96634 -0.2529 -0.2991 1.1426 0.04747296 0.04520402 1.358913 -5.91543 -0.37278 -6.822855 0.8923 0.408 0.5445 1.157288

-0.2073451 0.6661921 1.229061 -1.249794 -3.918114 -8.96634 -0.2529 -0.2991 1.1426 -0.1110029 -0.1937315 1.354026 -5.628979 -0.185409 -6.644313 0.8923 0.408 0.5445 1.178769

-0.5434955 0.8199556 1.307601 -1.48131 -4.103523 -9.104661 -0.2532 -0.2859 1.1322 -0.1110029 -0.1937315 1.354026 -5.628979 -0.185409 -6.644313 0.8923 0.408 0.5445 1.178769

-0.5434955 0.8199556 1.307601 -1.48131 -4.103523 -9.104661 -0.2532 -0.2859 1.1322 -0.2064724 -0.3487168 1.392424 -5.543632 -0.027468 -6.636466 0.9245 0.3638 0.5403 1.178769

-0.5434955 0.8199556 1.307601 -1.48131 -4.103523 -9.104661 -0.2532 -0.2859 1.1322 -0.2064724 -0.3487168 1.392424 -5.543632 -0.027468 -6.636466 0.9245 0.3638 0.5403 1.178769

-0.5434955 0.8199556 1.307601 -1.48131 -4.103523 -9.104661 -0.2532 -0.2859 1.1322 -0.1775 -0.3904302 1.431519 -5.60053 0.109872 -6.734565 0.9468 0.3091 0.5476 1.197564

-0.5434955 0.8199556 1.307601 -1.48131 -4.103523 -9.104661 -0.2532 -0.2859 1.1322 -0.1775 -0.3904302 1.431519 -5.60053 0.109872 -6.734565 0.9468 0.3091 0.5476 1.197564

-0.5434955 0.8199556 1.307601 -1.48131 -4.103523 -9.104661 -0.2532 -0.2859 1.1322 -0.1106539 -0.3872886 1.432741 -5.711382 0.389457 -6.787539 0.9468 0.3091 0.5476 1.197564

0.09424778 0.7410668 1.154535 -1.397925 -3.567897 -9.106624 -0.267 -0.2792 1.1093 -0.05078908 -0.3672173 1.438675 -5.825178 0.8171731 -6.793425 0.9499 0.2485 0.5535 1.197564

0.09424778 0.7410668 1.154535 -1.326312 -3.205908 -9.051687 -0.267 -0.2792 1.1093 0.01867502 -0.3321362 1.447052 -5.887962 1.1772 -6.762033 0.9499 0.2485 0.5535 1.22173

0.4103269 0.3822271 1.026952 -1.169352 -2.954772 -9.294975 -0.3169 -0.2634 1.092 0.01867502 -0.3321362 1.447052 -5.887962 1.1772 -6.762033 0.9499 0.2485 0.5535 1.22173

0.4103269 0.3822271 1.026952 -1.169352 -2.954772 -9.294975 -0.3169 -0.2634 1.092 0.03368485 -0.3391175 1.536064 -5.898753 1.390077 -6.65118 0.9619 0.2142 0.5488 1.22173

0.5848598 0.5436701 1.041089 -1.253718 -2.743857 -9.351873 -0.3202 -0.2468 1.0871 0.03071779 -0.3152064 1.685813 -5.840874 1.479348 -6.628617 0.9619 0.2142 0.5488 1.22173

0.6101671 0.736878 1.046674 -1.394001 -2.654586 -9.314595 -0.3348 -0.2214 1.085 0.03071779 -0.3152064 1.685813 -5.840874 1.479348 -6.628617 0.9619 0.2142 0.5488 1.247239

0.3778638 0.9810495 1.067618 -1.55979 -2.715408 -9.219439 -0.3348 -0.2214 1.085 0.03071779 -0.3152064 1.685813 -5.840874 1.479348 -6.628617 0.9619 0.2142 0.5488 1.247239

0.3778638 0.9810495 1.067618 -1.55979 -2.715408 -9.219439 -0.3348 -0.2214 1.085 -0.005235988 -0.3330088 1.737475 -5.639769 1.606878 -6.657066 0.9889 0.177 0.5329 1.247239

0.1684243 1.138478 1.179843 -1.538208 -2.634966 -9.0046 -0.3745 -0.1961 1.0629 -0.005235988 -0.3330088 1.737475 -5.639769 1.606878 -6.657066 0.9889 0.177 0.5329 1.247239

0.1211258 1.003913 1.357866 -1.227231 -2.49174 -8.723052 -0.3745 -0.1961 1.0629 -0.02338741 -0.4579744 1.697682 -5.430816 1.902159 -6.628617 0.9961 0.1129 0.5208 1.272748

0.3047345 0.7773697 1.502554 -0.956475 -2.327913 -8.586693 -0.4034 -0.1742 1.0404 -0.02338741 -0.4579744 1.697682 -5.430816 1.902159 -6.628617 0.9961 0.1129 0.5208 1.272748

0.3047345 0.7773697 1.502554 -0.956475 -2.327913 -8.586693 -0.4034 -0.1742 1.0404 -0.08133234 -0.5855579 1.657714 -5.441607 2.146428 -6.656085 0.9961 0.1129 0.5208 1.272748

0.5262167 0.5827654 1.578825 -0.759294 -2.297502 -8.571979 -0.4034 -0.1742 1.0404 -0.1007055 -0.6443755 1.631185 -5.671162 2.420127 -6.709059 1.0007 0.046 0.5139 1.272748

0.4502949 0.4974188 1.641308 -0.698472 -2.631042 -8.758368 -0.4227 -0.1457 1.0256 -0.01518436 -0.6077237 1.603434 -5.996853 2.843919 -6.753204 1.0007 0.046 0.5139 1.272748

0.1377065 0.4941027 1.727352 -0.606258 -3.176478 -9.082099 -0.4227 -0.1457 1.0256 -0.01518436 -0.6077237 1.603434 -5.996853 2.843919 -6.753204 1.0007 0.046 0.5139 1.272748

0.1377065 0.4941027 1.727352 -0.606258 -3.176478 -9.082099 -0.4227 -0.1457 1.0256 0.1027999 -0.540703 1.556136 -6.354918 3.185307 -6.770862 1.0091 -0.012 0.4993 1.260665

-0.1099557 0.5070181 1.783028 -0.488538 -3.599289 -9.369532 -0.4232 -0.1218 1.0141 0.1996657 -0.4803146 1.448972 -6.643332 3.393279 -6.776748 1.0091 -0.012 0.4993 1.260665

-0.1038471 0.5286602 1.76924 -0.427716 -3.777831 -9.670699 -0.4232 -0.1218 1.0141 0.3090978 -0.3714061 1.321389 -6.971967 3.65913 -6.708078 0.9947 -0.0687 0.4837 1.260665

-0.1038471 0.5286602 1.76924 -0.427716 -3.777831 -9.670699 -0.4232 -0.1218 1.0141 0.4310963 -0.2420772 1.273218 -7.188768 3.849444 -6.613902 0.9947 -0.0687 0.4837 1.260665

-0.1038471 0.5286602 1.76924 -0.427716 -3.777831 -9.670699 -0.4232 -0.1218 1.0141 0.4310963 -0.2420772 1.273218 -7.188768 3.849444 -6.613902 0.9947 -0.0687 0.4837 1.217703

0.05585054 0.508938 1.854761 -0.518949 -4.173174 -9.945378 -0.3898 -0.0346 1.0125 0.5258677 -0.2035054 1.185602 -7.178958 3.910266 -6.493239 0.9948 -0.1351 0.4692 1.217703

0.05585054 0.508938 1.854761 -0.518949 -4.173174 -9.945378 -0.3898 -0.0346 1.0125 0.413643 -0.466352 0.8389798 -6.650199 3.697389 -6.146946 0.9811 -0.2272 0.4501 1.217703

0.08866272 0.5913176 1.813223 -0.615087 -4.339944 -9.910063 -0.3898 -0.0346 1.0125 0.3260275 -0.6150541 0.7175049 -6.546213 3.654225 -6.073371 0.9811 -0.2272 0.4501 1.217703

-0.04537856 0.6588618 1.778141 -0.6317641 -4.570479 -9.865917 -0.3775 -0.0265 1.0239 0.3260275 -0.6150541 0.7175049 -6.546213 3.654225 -6.073371 0.9811 -0.2272 0.4501 1.166685

-0.04537856 0.6588618 1.778141 -0.6317641 -4.570479 -9.865917 -0.3775 -0.0265 1.0239 0.3377212 -0.6352999 0.6237807 -6.646276 3.665997 -6.048846 0.984 -0.2625 0.4416 1.166685

-0.0413643 0.5775294 1.752485 -0.473823 -4.55184 -9.774684 -0.3775 -0.0265 1.0239 0.4099778 -0.5508259 0.5845108 -6.852285 3.720933 -6.102801 0.9852 -0.2819 0.4381 1.166685

-0.0413643 0.5775294 1.752485 -0.473823 -4.55184 -9.774684 -0.3775 -0.0265 1.0239 0.4099778 -0.5508259 0.5845108 -6.852285 3.720933 -6.102801 0.9852 -0.2819 0.4381 1.166685

0.0424115 0.5180137 1.783726 -0.424773 -4.533201 -9.656964 -0.3554 -0.0198 1.0347 0.4450589 -0.485027 0.4806637 -7.027884 3.789603 -6.081219 0.9852 -0.2819 0.4381 1.09016

0.1939061 0.5838127 1.693318 -0.452241 -4.54203 -9.522568 -0.3554 -0.0198 1.0347 0.4335398 -0.4576253 0.3673918 -7.093611 3.762135 -6.078276 0.9746 -0.3014 0.4249 1.09016

0.3295181 1.020319 1.329243 -0.621954 -4.715667 -9.420544 -0.3113 0.0057 1.0126 0.4335398 -0.4576253 0.3673918 -7.093611 3.762135 -6.078276 0.9746 -0.3014 0.4249 1.09016

0.3295181 1.020319 1.329243 -0.621954 -4.715667 -9.420544 -0.3113 0.0057 1.0126 0.4399975 -0.3644247 0.2611012 -7.178958 3.667959 -6.078276 0.9746 -0.3014 0.4249 1.09016

0.3928736 1.452463 1.043532 -0.762237 -4.827501 -9.108585 -0.3113 0.0057 1.0126 0.4075344 -0.3192207 0.1867502 -7.330032 3.628719 -6.048846 0.9742 -0.3292 0.4043 0.9894674

0.2595305 1.517913 0.9915215 -0.59841 -5.067846 -8.664192 -0.2772 0.029 1.006 0.3586651 -0.1651081 0.1469567 -7.487973 3.604194 -6.115554 0.9742 -0.3292 0.4043 0.9894674

0.2595305 1.517913 0.9915215 -0.59841 -5.067846 -8.664192 -0.2772 0.029 1.006 0.3586651 -0.1651081 0.1469567 -7.487973 3.604194 -6.115554 0.9742 -0.3292 0.4043 0.9894674

-0.4295255 1.239707 1.043881 -0.399267 -5.537745 -8.460144 -0.2772 0.029 1.006 0.5215043 0.2021091 0.03281219 -7.566453 3.633624 -6.196977 0.9873 -0.3353 0.4011 0.9894674

-1.020843 0.9292133 1.111949 -0.273699 -5.651541 -8.488593 -0.2829 0.052 1.0006 0.6777114 0.64647 -0.05113815 -7.671421 3.817071 -6.097896 0.9873 -0.3353 0.4011 0.9894674

-1.020843 0.9292133 1.111949 -0.273699 -5.651541 -8.488593 -0.2829 0.052 1.0006 0.6777114 0.64647 -0.05113815 -7.671421 3.817071 -6.097896 0.9873 -0.3353 0.4011 0.9894674

-1.161691 0.8054695 1.110728 -0.151074 -5.306229 -8.654383 -0.305 0.0759 0.9904 0.7651523 0.9332275 -0.02897247 -7.615503 3.857292 -6.007644 0.9996 -0.3312 0.4067 0.8229899

-0.9950122 0.8377581 1.11928 -0.086328 -4.882437 -9.065421 -0.305 0.0759 0.9904 0.7651523 0.9332275 -0.02897247 -7.615503 3.857292 -6.007644 0.9996 -0.3312 0.4067 0.8229899

-0.9950122 0.8377581 1.11928 -0.086328 -4.882437 -9.065421 -0.305 0.0759 0.9904 0.7593927 1.010371 -0.07016224 -7.149529 3.579669 -5.966443 0.9996 -0.3312 0.4067 0.8229899

-0.9950122 0.8377581 1.11928 -0.086328 -4.882437 -9.065421 -0.305 0.0759 0.9904 0.7593927 1.010371 -0.07016224 -7.149529 3.579669 -5.966443 0.9996 -0.3312 0.4067 0.8229899

-0.7126179 0.498466 1.169022 0.522873 -4.03191 -9.92772 -0.3302 0.0378 1.0212 0.7593927 1.010371 -0.07016224 -7.149529 3.579669 -5.966443 0.9996 -0.3312 0.4067 0.8229899

-0.4775221 0.3666937 1.232202 0.7475221 -3.664035 -10.10332 -0.3212 0.0112 1.0547 0.7593927 1.010371 -0.07016224 -7.149529 3.579669 -5.966443 0.9996 -0.3312 0.4067 0.8229899

-0.4775221 0.3666937 1.232202 0.7475221 -3.664035 -10.10332 -0.3212 0.0112 1.0547 0.2656391 -0.4783947 -0.1651081 -5.363127 2.552562 -6.218559 0.9827 -0.2867 0.4645 0.8229899

-0.1338668 0.143117 1.307775 0.764199 -3.233376 -10.11509 -0.3212 0.0112 1.0547 0.2905973 -0.545939 -0.07993608 -5.54265 2.663415 -6.377481 0.9827 -0.2867 0.4645 0.8229899

-0.1338668 0.143117 1.307775 0.764199 -3.233376 -10.11509 -0.3212 0.0112 1.0547 0.2905973 -0.545939 -0.07993608 -5.54265 2.663415 -6.377481 0.9827 -0.2867 0.4645 0.6242909

-0.1338668 0.143117 1.307775 0.764199 -3.233376 -10.11509 -0.3212 0.0112 1.0547 0.3312635 -0.578053 -0.07888888 -5.666256 2.601612 -6.525612 0.9736 -0.2717 0.5025 0.6242909

-0.1338668 0.143117 1.307775 0.764199 -3.233376 -10.11509 -0.3212 0.0112 1.0547 0.2663372 -0.6942919 -0.127409 -5.867362 2.411298 -6.671782 0.9736 -0.2717 0.5025 0.6242909

-0.1338668 0.143117 1.307775 0.764199 -3.233376 -10.11509 -0.3212 0.0112 1.0547 0.2663372 -0.6942919 -0.127409 -5.867362 2.411298 -6.671782 0.9736 -0.2717 0.5025 0.6242909

-0.1338668 0.143117 1.307775 0.764199 -3.233376 -10.11509 -0.3212 0.0112 1.0547 0.2907718 -0.5735152 -0.1054179 -6.284286 2.412279 -6.763014 0.9699 -0.2562 0.5085 0.6242909

-0.1338668 0.143117 1.307775 0.764199 -3.233376 -10.11509 -0.3212 0.0112 1.0547 0.4181809 -0.1841322 -0.09040805 -6.784596 2.58003 -6.872887 0.9699 -0.2562 0.5085 0.6242909

-0.1338668 0.143117 1.307775 0.764199 -3.233376 -10.11509 -0.3212 0.0112 1.0547 0.4181809 -0.1841322 -0.09040805 -6.784596 2.58003 -6.872887 0.9699 -0.2562 0.5085 0.5101732

-0.1338668 0.143117 1.307775 0.764199 -3.233376 -10.11509 -0.3212 0.0112 1.0547 0.5508259 0.2218314 -0.1719149 -7.137756 2.590821 -7.00434 0.9772 -0.2412 0.4742 0.5101732

0.5572836 0.1089085 0.9862855 0.37278 -3.46293 -9.629497 -0.3189 -0.0082 1.0906 0.5508259 0.2218314 -0.1719149 -7.137756 2.590821 -7.00434 0.9772 -0.2412 0.4742 0.5101732

-0.2371902 0.111352 0.7553785 0.197181 -4.252635 -9.659907 -0.2898 -0.0155 1.0838 0.6541494 0.5962045 -0.2307325 -7.312375 2.56041 -6.878772 0.9897 -0.2296 0.4488 0.5101732

-0.2371902 0.111352 0.7553785 0.197181 -4.252635 -9.659907 -0.2898 -0.0155 1.0838 0.7602655 0.8925614 -0.222704 -7.13187 2.507436 -6.830704 0.9897 -0.2296 0.4488 0.4430451

-0.2371902 0.111352 0.7553785 0.197181 -4.252635 -9.659907 -0.2898 -0.0155 1.0838 0.7602655 0.8925614 -0.222704 -7.13187 2.507436 -6.830704 0.9897 -0.2296 0.4488 0.4430451

-1.191536 0.1197296 0.7162831 0.130473 -4.465512 -10.31816 -0.2614 0.0114 1.0561 0.7733554 0.9635963 -0.1912881 -6.744375 2.298483 -6.832665 1.0034 -0.2208 0.4618 0.4430451

-1.191536 0.1197296 0.7162831 0.130473 -4.465512 -10.31816 -0.2614 0.0114 1.0561 0.6819001 0.7942993 -0.220086 -6.189129 1.998297 -6.763995 1.0034 -0.2208 0.4618 0.4430451

-1.112647 0.06684611 0.6393141 0.1962 -4.160421 -10.55262 -0.2614 0.0114 1.0561 0.6335545 0.4380777 -0.3171263 -5.53284 1.742256 -6.7689 0.9877 -0.2036 0.4997 0.3812873

-1.112647 0.06684611 0.6393141 0.1962 -4.160421 -10.55262 -0.2614 0.0114 1.0561 0.6335545 0.4380777 -0.3171263 -5.53284 1.742256 -6.7689 0.9877 -0.2036 0.4997 0.3812873

-1.03306 0.1783727 0.6115634 0.023544 -3.958335 -10.60265 -0.2419 0.0074 1.0694 0.4586725 -0.05427974 -0.3626794 -5.025663 1.40283 -6.761052 0.9877 -0.2036 0.4997 0.3812873

-1.03306 0.1783727 0.6115634 0.023544 -3.958335 -10.60265 -0.2419 0.0074 1.0694 0.4586725 -0.05427974 -0.3626794 -5.025663 1.40283 -6.761052 0.9877 -0.2036 0.4997 0.3812873

-0.9639453 0.2890265 0.5476843 0.010791 -3.721914 -10.56831 -0.2419 0.0074 1.0694 0.3434808 -0.3665192 -0.2768092 -5.008005 1.286091 -6.72966 0.9692 -0.1793 0.5486 0.3812873

-0.9639453 0.2890265 0.5476843 0.010791 -3.721914 -10.56831 -0.2419 0.0074 1.0694 0.3843215 -0.1665044 -0.1776745 -5.438664 1.376343 -6.820893 0.9709 -0.1612 0.5581 0.3369828

-0.9639453 0.2890265 0.5476843 0.010791 -3.721914 -10.56831 -0.2419 0.0074 1.0694 0.4366814 0.1213004 -0.2289872 -5.828121 1.205649 -6.866019 0.9709 -0.1612 0.5581 0.3369828

-0.8487536 0.310145 0.4127704 0.275661 -2.977335 -9.744273 -0.1605 -0.0985 1.1668 0.4366814 0.1213004 -0.2289872 -5.828121 1.205649 -6.866019 0.9709 -0.1612 0.5581 0.3369828

-0.8838347 0.1553343 0.4550073 0.473823 -2.816451 -9.441145 -0.1605 -0.0985 1.1668 0.3761185 0.3466224 -0.2815216 -6.088086 1.081062 -6.762033 0.9741 -0.1316 0.5504 0.3369828

-1.118581 -0.01832596 0.4567527 0.60822 -2.611422 -9.274374 -0.1371 -0.1138 1.182 0.44279 0.7047639 -0.2726204 -6.162642 1.035936 -6.962157 0.9741 -0.1316 0.5504 0.3074464

-1.456477 0.1036726 0.3426081 0.707301 -2.60946 -9.282223 -0.1208 -0.1298 1.1911 0.44279 0.7047639 -0.2726204 -6.162642 1.035936 -6.962157 0.9741 -0.1316 0.5504 0.3074464

-1.456477 0.1036726 0.3426081 0.707301 -2.60946 -9.282223 -0.1208 -0.1298 1.1911 0.4679227 0.8962265 -0.2644174 -6.074352 0.896634 -6.94548 0.9821 -0.1002 0.5452 0.3074464

-2.052856 0.2164208 0.1542871 0.672966 -2.575125 -9.27928 -0.1208 -0.1298 1.1911 0.3129375 0.8838347 -0.2707006 -6.019416 0.638631 -6.914088 0.9821 -0.1002 0.5452 0.3074464

-2.255838 0.2391101 -0.002792527 0.675909 -2.476044 -9.441145 -0.1303 -0.1713 1.2055 0.4487241 1.127832 -0.2539454 -6.142041 0.621954 -7.176015 0.9766 -0.0765 0.5622 0.2832804

-2.255838 0.2391101 -0.002792527 0.675909 -2.476044 -9.441145 -0.1303 -0.1713 1.2055 0.4487241 1.127832 -0.2539454 -6.142041 0.621954 -7.176015 0.9766 -0.0765 0.5622 0.2832804

-2.849599 0.2134538 -0.3771656 0.793629 -1.709883 -9.459784 -0.1303 -0.1713 1.2055 0.4251622 1.535715 -0.1991421 -6.705135 0.422811 -7.381044 0.9766 -0.0765 0.5622 0.2832804

-3.777067 0.7145377 -0.2900737 1.005525 -1.172295 -9.45586 -0.1385 -0.2185 1.2247 0.6726499 2.394243 -0.3623303 -7.096554 0.463032 -7.372215 0.9595 -0.0474 0.5985 0.2832804

-2.472608 0.1282817 0.06335545 0.748503 -0.305091 -9.384247 -0.1385 -0.2185 1.2247 0.6726499 2.394243 -0.3623303 -7.096554 0.463032 -7.372215 0.9595 -0.0474 0.5985 0.2268928

-2.472608 0.1282817 0.06335545 0.748503 -0.305091 -9.384247 -0.1385 -0.2185 1.2247 0.6021386 2.586578 -0.6911504 -6.138117 0.374742 -7.103421 0.9283 -0.0194 0.6348 0.2268928

-1.942377 -0.1295034 0.4776966 1.031031 1.91295 -8.629857 -0.0973 -0.2977 1.2593 0.6021386 2.586578 -0.6911504 -6.138117 0.374742 -7.103421 0.9283 -0.0194 0.6348 0.2268928

-2.176251 0.1870993 0.6745698 1.224288 2.436804 -8.608275 -0.0973 -0.2977 1.2593 0.4338889 2.22512 -0.8546878 -4.535163 -0.018639 -7.123042 0.9283 -0.0194 0.6348 0.2268928

-2.176251 0.1870993 0.6745698 1.224288 2.436804 -8.608275 -0.0973 -0.2977 1.2593 0.4338889 2.22512 -0.8546878 -4.535163 -0.018639 -7.123042 0.9283 -0.0194 0.6348 0.11009

-2.176251 0.1870993 0.6745698 1.224288 2.436804 -8.608275 -0.0973 -0.2977 1.2593 0.368439 1.909216 -0.710349 -3.035214 -0.042183 -7.0632 0.8805 0.0093 0.6822 0.11009

-2.176251 0.1870993 0.6745698 1.224288 2.436804 -8.608275 -0.0973 -0.2977 1.2593 0.368439 1.909216 -0.710349 -3.035214 -0.042183 -7.0632 0.8805 0.0093 0.6822 0.11009

0.4085816 0.09110618 0.1436406 1.070271 1.99143 -7.993188 -0.0578 -0.5479 1.2836 0.003490658 -0.5510004 0.002268928 -0.130473 -0.558189 -7.559587 0.7438 0.0502 0.7997 0.11009

0.09826204 0.01727876 0.06579891 1.300806 1.704978 -8.027523 -0.0578 -0.5479 1.2836 0.003490658 -0.5510004 0.002268928 -0.130473 -0.558189 -7.559587 0.7438 0.0502 0.7997 0.07249829

0.3939208 0.08656833 0.0863938 1.296882 2.26611 -7.872525 -0.042 -0.5674 1.2948 -0.07225662 -1.040042 0.0827286 -0.234459 -0.7102441 -7.716546 0.7438 0.0502 0.7997 0.07249829

0.3939208 0.08656833 0.0863938 1.296882 2.26611 -7.872525 -0.042 -0.5674 1.2948 -0.1209513 -1.0369 0.1219985 -1.165428 -0.671985 -7.841134 0.7182 0.0612 0.8315 0.07249829

1.067618 -0.2598795 0.1373574 1.588239 2.891007 -7.793064 -0.0419 -0.567 1.3021 -0.1209513 -1.0369 0.1219985 -1.165428 -0.671985 -7.841134 0.7182 0.0612 0.8315 0.07249829

1.252099 -0.6544985 0.2700024 1.882539 3.09015 -7.911766 -0.0419 -0.567 1.3021 -0.148353 -0.7136651 0.1953023 -2.1582 -0.670023 -7.820533 0.7182 0.0612 0.8315 0.08055366

1.252099 -0.6544985 0.2700024 1.882539 3.09015 -7.911766 -0.0419 -0.567 1.3021 -0.07679449 -0.4845034 0.1391027 -2.861577 -0.609201 -7.890183 0.7322 0.0727 0.8141 0.08055366

1.139351 -0.9417796 0.4452335 1.951209 2.979297 -8.156034 -0.0565 -0.5449 1.3052 -0.07679449 -0.4845034 0.1391027 -2.861577 -0.609201 -7.890183 0.7322 0.0727 0.8141 0.08055366

0.8288569 -1.312662 0.5464626 1.939437 2.689902 -8.393436 -0.0565 -0.5449 1.3052 -0.07330383 -0.2722714 0.03001966 -3.169611 -0.587619 -8.096193 0.756 0.0729 0.8068 0.08055366

0.8288569 -1.312662 0.5464626 1.939437 2.689902 -8.393436 -0.0565 -0.5449 1.3052 -0.05480334 -0.434587 0.01867502 -3.245148 -0.5856571 -8.272773 0.756 0.0729 0.8068 0.08323878

0.2363176 -1.789312 0.5799729 1.820736 2.170953 -8.81919 -0.0518 -0.5138 1.3197 -0.02495821 -0.4265585 -0.02932153 -3.51198 -0.556227 -8.415999 0.7839 0.0639 0.7943 0.08323878

-0.3389429 -1.362055 0.6192428 1.048689 2.070891 -9.539245 -0.0518 -0.5138 1.3197 -0.02495821 -0.4265585 -0.02932153 -3.51198 -0.556227 -8.415999 0.7839 0.0639 0.7943 0.08323878

-0.3389429 -1.362055 0.6192428 1.048689 2.070891 -9.539245 -0.0518 -0.5138 1.3197 0.01396263 0.1185079 0 -4.189851 -0.432621 -8.492517 0.7839 0.0639 0.7943 0.08323878

-0.2909464 -0.8112291 0.5886995 0.616068 2.286711 -10.11313 0.0176 -0.4941 1.297 0.02740167 0.4473279 0.01291544 -4.409595 -0.415944 -8.537643 0.7992 0.069 0.7715 0.08323878

-0.5283112 -0.7241371 0.5541421 0.460089 2.013012 -10.52122 0.0176 -0.4941 1.297 0.04537856 0.5714208 -0.04415683 -4.30659 -0.494424 -8.547453 0.7992 0.069 0.7715 0.08323878

-0.5283112 -0.7241371 0.5541421 0.460089 2.013012 -10.52122 0.0176 -0.4941 1.297 0.04537856 0.5714208 -0.04415683 -4.30659 -0.494424 -8.547453 0.7992 0.069 0.7715 0.08323878

-1.284388 -0.1069887 0.4078835 0.120663 1.661814 -10.79296 0.0897 -0.4894 1.2873 0.1040216 1.014909 -0.1181588 -4.337001 -0.448317 -8.531757 0.7908 0.0691 0.7677 0.08323878

-1.071632 0.259705 0.1708677 0.013734 2.003202 -10.65464 0.0897 -0.4894 1.2873 0.0970403 1.202706 -0.1527163 -3.897513 -0.509139 -8.531757 0.7908 0.0691 0.7677 0.07249829

-1.071632 0.259705 0.1708677 0.013734 2.003202 -10.65464 0.0897 -0.4894 1.2873 0.07801621 0.6887069 -0.1560324 -3.112713 -0.54936 -8.587674 0.7692 0.0554 0.7803 0.07249829

-0.6644468 0.04537856 0.01902409 0.073575 2.064024 -10.42705 0.1412 -0.4922 1.3016 0.07801621 0.6887069 -0.1560324 -3.112713 -0.54936 -8.587674 0.7692 0.0554 0.7803 0.07249829

-0.6644468 0.04537856 0.01902409 0.073575 2.064024 -10.42705 0.1412 -0.4922 1.3016 0.01169371 0.6007423 -0.06143559 -2.737971 -0.456165 -8.560206 0.7692 0.0554 0.7803 0.06981317

-0.6644468 0.04537856 0.01902409 0.073575 2.064024 -10.42705 0.1412 -0.4922 1.3016 0.06265732 0.2790782 -0.03455752 -2.523132 -0.521892 -8.577865 0.7468 0.0634 0.7997 0.06981317

-0.6644468 0.04537856 0.01902409 0.073575 2.064024 -10.42705 0.1412 -0.4922 1.3016 0.02635447 0.4899139 -0.01012291 -2.749743 -0.418887 -8.397361 0.7196 0.085 0.8031 0.06981317

-1.733286 0.2347468 -0.007330383 0.37278 2.824299 -8.903556 0.1841 -0.5465 1.3054 0.02635447 0.4899139 -0.01012291 -2.749743 -0.418887 -8.397361 0.7196 0.085 0.8031 0.06981317

-0.7564257 0.2556907 -0.03525565 0.347274 2.770344 -8.96536 0.1808 -0.5918 1.3095 0.04380776 0.6085963 -0.05497787 -2.760534 -0.516987 -8.460144 0.7196 0.085 0.8031 0.06981317

-0.7564257 0.2556907 -0.03525565 0.347274 2.770344 -8.96536 0.1808 -0.5918 1.3095 0.0280998 0.6499606 -0.1169371 -2.758572 -0.502272 -8.412076 0.6948 0.1033 0.8188 0.06981317

0.05218535 0.07661995 0.01727876 0.308034 3.956373 -8.574922 0.1808 -0.5918 1.3095 0.0280998 0.6499606 -0.1169371 -2.758572 -0.502272 -8.412076 0.6948 0.1033 0.8188 0.06981317

-0.3750713 -0.2586578 0.0413643 0.6317641 4.4145 -8.35714 0.1694 -0.628 1.2934 0.02373648 1.156106 -0.001745329 -2.935152 -0.348255 -8.440524 0.6948 0.1033 0.8188 0.05773012

-0.3750713 -0.2586578 0.0413643 0.6317641 4.4145 -8.35714 0.1694 -0.628 1.2934 -0.005061455 0.6387905 -0.1736602 -1.884501 -0.550341 -8.46505 0.6731 0.0948 0.8418 0.05773012

-0.3563962 -0.2247984 -0.09302605 0.809325 3.936753 -8.334577 0.1694 -0.628 1.2934 -0.005061455 0.6387905 -0.1736602 -1.884501 -0.550341 -8.46505 0.6731 0.0948 0.8418 0.05773012

-0.3563962 -0.2247984 -0.09302605 0.809325 3.936753 -8.334577 0.1694 -0.628 1.2934 0.02443461 -0.04712389 -0.1007055 -1.261566 -0.502272 -8.618085 0.6731 0.0948 0.8418 0.05773012

-0.03490658 -0.4026474 -0.02251475 0.66708 4.193775 -8.248248 0.1742 -0.6563 1.2857 -0.007504916 0.1307252 0.04694936 -1.555866 -0.51012 -8.645553 0.6571 0.0799 0.8539 0.05773012

-0.2909464 -0.3354523 0.02129302 0.748503 4.641111 -8.263945 0.1742 -0.6563 1.2857 0.0158825 -0.08307768 0.02321288 -1.439127 -0.560151 -8.708338 0.6571 0.0799 0.8539 0.055045

-0.2909464 -0.3354523 0.02129302 0.748503 4.641111 -8.263945 0.1742 -0.6563 1.2857 0.0158825 -0.08307768 0.02321288 -1.439127 -0.560151 -8.708338 0.6571 0.0799 0.8539 0.055045

-0.6326818 -0.06597345 0.1167625 0.573885 4.685256 -8.492517 0.1842 -0.6825 1.2904 0.01570796 -0.1450369 -0.001396263 -1.732446 -0.484614 -8.807419 0.6438 0.085 0.8613 0.055045

-0.7880162 -0.2429498 0.1605703 0.360027 4.567536 -8.785836 0.1842 -0.6825 1.2904 0.05078908 0.5958554 0.02897247 -2.367153 -0.477747 -8.684793 0.6438 0.085 0.8613 0.055045

-0.9082693 -0.1134464 0.05654867 0.547398 4.541049 -8.940835 0.18 -0.6965 1.3004 0.0720821 0.7503171 -0.1033235 -2.134656 -0.520911 -8.800551 0.6427 0.0918 0.8597 0.05235988

-0.9082693 -0.1134464 0.05654867 0.547398 4.541049 -8.940835 0.18 -0.6965 1.3004 0.0720821 0.7503171 -0.1033235 -2.134656 -0.520911 -8.800551 0.6427 0.0918 0.8597 0.05235988

-1.037249 0.2647665 -0.05253441 0.455184 4.471398 -9.097795 0.18 -0.6965 1.3004 0.1027999 0.8421214 -0.07749262 -1.950228 -0.593505 -8.771121 0.6427 0.0918 0.8597 0.05235988

-0.6962118 0.323235 -0.08970992 0.345312 4.568517 -9.206685 0.1865 -0.7002 1.3019 0.09669124 0.8862782 -0.04834562 -1.69713 -0.671985 -8.805456 0.6378 0.0946 0.8637 0.05235988

-0.6962118 0.323235 -0.08970992 0.345312 4.568517 -9.206685 0.1865 -0.7002 1.3019 0.09669124 0.8862782 -0.04834562 -1.69713 -0.671985 -8.805456 0.6378 0.0946 0.8637 0.04967476

0.06161012 0.3693117 -0.09285152 0.417906 4.922658 -9.071307 0.2137 -0.7244 1.2946 0.1001819 0.7614872 -0.0731293 -1.36359 -0.734769 -8.789761 0.6147 0.0957 0.8742 0.04967476

0.06161012 0.3693117 -0.09285152 0.417906 4.922658 -9.071307 0.2137 -0.7244 1.2946 0.09267698 0.8503245 -0.03804818 -1.178181 -0.7141681 -8.768179 0.6147 0.0957 0.8742 0.04967476

1.208292 0.1085595 -0.07941248 0.475785 5.430816 -8.575902 0.2137 -0.7244 1.2946 0.07574729 0.546288 -0.07661995 -0.541512 -0.733788 -8.7309 0.5811 0.0962 0.8887 0.04967476

1.113171 -0.211883 -0.1993166 0.66708 5.813406 -7.841134 0.2405 -0.7525 1.2649 0.02548181 -0.4103269 -0.1356121 0.389457 -0.903501 -8.729919 0.5811 0.0962 0.8887 0.03759171

1.113171 -0.211883 -0.1993166 0.66708 5.813406 -7.841134 0.2405 -0.7525 1.2649 0.02548181 -0.4103269 -0.1356121 0.389457 -0.903501 -8.729919 0.5811 0.0962 0.8887 0.03759171

1.113171 -0.211883 -0.1993166 0.66708 5.813406 -7.841134 0.2405 -0.7525 1.2649 0.003839724 -1.044405 -0.02007129 0.287433 -0.9633421 -8.738749 0.5535 0.0964 0.8995 0.03759171

1.113171 -0.211883 -0.1993166 0.66708 5.813406 -7.841134 0.2405 -0.7525 1.2649 0.01029744 -0.1787217 0.1665044 -1.076157 -0.859356 -8.668117 0.5535 0.0964 0.8995 0.03759171

0.2865831 -0.4773476 -0.180467 0.638631 4.164345 -7.952967 0.2369 -0.754 1.2573 0.01029744 -0.1787217 0.1665044 -1.076157 -0.859356 -8.668117 0.5535 0.0964 0.8995 0.0483322

0.2865831 -0.4773476 -0.180467 0.638631 4.164345 -7.952967 0.2369 -0.754 1.2573 -0.04974188 0.6366961 0.04276057 -1.858995 -0.878976 -8.628877 0.5377 0.1148 0.8993 0.0483322

-1.089435 -0.5222025 -0.1219985 0.376704 3.22749 -8.415018 0.2428 -0.7584 1.2673 -0.04747296 0.6592109 -0.1295034 -1.466595 -0.935874 -8.724033 0.5377 0.1148 0.8993 0.0483322

-2.596526 0.6216863 -0.2806489 -0.305091 2.828223 -8.972226 0.2428 -0.7584 1.2673 -0.04747296 0.6592109 -0.1295034 -1.466595 -0.935874 -8.724033 0.5377 0.1148 0.8993 0.0483322

-2.596526 0.6216863 -0.2806489 -0.305091 2.828223 -8.972226 0.2428 -0.7584 1.2673 -0.04747296 0.6592109 -0.1295034 -1.466595 -0.935874 -8.724033 0.5377 0.1148 0.8993 0.04967476

-2.50734 0.890467 -0.1685988 -0.190314 3.967164 -8.60337 0.2686 -0.7517 1.2748 -0.04747296 0.6592109 -0.1295034 -1.466595 -0.935874 -8.724033 0.5377 0.1148 0.8993 0.04967476

-2.482905 0.09180433 -0.04729842 0.12753 4.550859 -8.102079 0.2824 -0.784 1.2673 -0.04817109 1.557008 -0.1282817 -0.862299 -0.586638 -8.715204 0.5217 0.1197 0.9381 0.04967476

-2.482905 0.09180433 -0.04729842 0.12753 4.550859 -8.102079 0.2824 -0.784 1.2673 -0.04817109 1.557008 -0.1282817 -0.862299 -0.586638 -8.715204 0.5217 0.1197 0.9381 0.04967476

-2.438225 0.4782202 -0.07784168 -0.043164 5.420025 -7.673382 0.2824 -0.784 1.2673 -0.08883726 1.105841 -0.243997 0.349236 -0.650403 -8.546473 0.5217 0.1197 0.9381 0.04161939

-0.6906268 0.4860742 0.0296706 0.188352 6.895449 -6.998455 0.2755 -0.8463 1.2216 -0.1452114 -0.3019419 -0.3352777 1.935513 -0.737712 -8.547453 0.4568 0.1062 0.9533 0.04161939
