0.01657188 -5.722046E-08 -0.5097305 270.0198 -2.561322E-06 0

0.008042782 -0.01487526 -0.5097194 270.074 359.0254 0

0.008042782 -0.01487526 -0.5097194 270.074 359.0254 0

0.008042782 -0.01487526 -0.5097194 270.074 359.0254 0

0.007627029 -0.003960056 -0.5099275 270.1725 159.1765 199.1064

0.007431676 -0.007285538 -0.5098937 270.3733 139.5469 217.8946

-0.01705486 0.00937952 -0.5099323 270.9308 120.422 235.8189

-0.01705486 0.00937952 -0.5099323 270.9308 120.422 235.8189

-0.01822294 -0.003994389 -0.5099626 271.2796 112.7561 242.2029

-0.0123329 -0.002163963 -0.51015 272.6277 66.43256 288.634

-0.007538819 -0.005684051 -0.5102105 275.1272 53.35143 301.7278

-0.007538819 -0.005684051 -0.5102105 275.1272 53.35143 301.7278

-0.00145208 -0.002723064 -0.5102884 277.7354 48.89389 306.2314

0.00366892 -0.01599535 -0.5100338 279.9014 45.80698 309.3986

0.01518478 -0.000961647 -0.5100709 281.8303 43.57249 311.4041

0.01518478 -0.000961647 -0.5100709 281.8303 43.57249 311.4041

0.01340206 -0.01380283 -0.509935 283.1613 41.59948 312.7076

0.02536761 0.003904495 -0.5096519 283.2483 38.45817 314.5985

0.02235601 -0.01349682 -0.5096333 283.5697 39.87052 312.0623

0.02235601 -0.01349682 -0.5096333 283.5697 39.87052 312.0623

0.03106858 0.003246803 -0.5093449 284.7875 37.57066 313.3215

0.02651686 -0.01556745 -0.5093747 284.7421 38.72339 311.076

0.03244114 0.002179012 -0.5092651 285.7396 34.37301 314.2747

0.03244114 0.002179012 -0.5092651 285.7396 34.37301 314.2747

0.02733047 -0.01588028 -0.509322 286.6367 36.73278 311.101

0.0355726 -0.0002628136 -0.5090605 286.8944 34.82209 311.8454

0.03589083 -0.0002568054 -0.5090399 286.9659 32.51221 312.8418

0.03693104 -0.01599426 -0.5087142 286.966 32.5122 312.8418

0.03693104 -0.01599426 -0.5087142 285.7287 33.88625 310.3572

0.03693104 -0.01599426 -0.5087142 286.2211 33.01488 309.8975

0.03629453 -0.01599621 -0.5087563 286.7244 33.43766 308.2036

0.03629453 -0.01599621 -0.5087563 286.7244 33.43766 308.2036

0.04488513 -0.00616539 -0.5082848 286.7209 35.00247 305.3689

0.04488513 -0.00616539 -0.5082848 286.6342 29.6548 309.1787

0.04615519 -0.006108513 -0.5081782 285.5663 29.02549 308.2947

0.04310274 -0.0205339 -0.508068 285.5663 29.0255 308.2947

0.0526297 -0.002013874 -0.5075812 285.2686 28.04432 307.5582

0.0526297 -0.002013874 -0.5075812 285.2515 28.30093 305.6695

0.05895348 -0.001584263 -0.5068641 285.2514 28.30092 305.6695

0.05427487 -0.02023905 -0.5069851 284.0557 20.07788 312.0199

0.05427487 -0.02023905 -0.5069851 282.6998 11.4378 318.6033

0.05427487 -0.02023905 -0.5069851 281.3341 5.709053 322.408

0.07405142 -0.0006871033 -0.5046409 281.3341 5.709052 322.408

0.07405142 -0.0006871033 -0.5046409 280.7772 357.6273 328.5519

0.07405142 -0.0006871033 -0.5046409 280.119 352.5757 331.5678

0.07405142 -0.0006871033 -0.5046409 280.119 352.5757 331.5678

0.06063832 -0.01982895 -0.5062518 279.8369 346.0677 335.751

0.06063832 -0.01982895 -0.5062518 278.6797 343.3123 335.9938

0.06063832 -0.01982895 -0.5062518 278.6797 343.3123 335.9938

0.07005401 -0.0009993553 -0.5054231 280.5326 351.9674 325.561

0.08020463 -0.0002780342 -0.5036291 280.2029 1.373337 314.5194

0.08020463 -0.0002780342 -0.5036291 280.2029 1.373337 314.5194

0.08020463 -0.0002780342 -0.5036291 282.5508 353.7234 320.2086

0.0747821 -0.01869856 -0.5041162 282.5508 353.7234 320.2087

0.08585821 -0.01780558 -0.5017872 282.9855 359.2262 313.9351

0.08585821 -0.01780558 -0.5017872 282.9855 359.2262 313.9351

0.09526847 0.0008587074 -0.5004021 284.6815 354.312 316.9623

0.09526847 0.0008587074 -0.5004021 286.4301 352.6529 316.8516

0.07611967 -0.01852123 -0.504014 286.4301 352.6529 316.8516

0.07611967 -0.01852123 -0.504014 288.4787 352.8291 314.9977

0.07611967 -0.01852123 -0.504014 288.4787 352.8291 314.9977

0.07611967 -0.01852123 -0.504014 290.6299 352.4912 313.9639

0.07611967 -0.01852123 -0.504014 290.6299 352.4912 313.9639

0.07611967 -0.01852123 -0.504014 292.0412 354.1418 311.517

0.1705184 -0.009910269 -0.4642147 293.6241 353.3643 311.2573

0.1705184 -0.009910269 -0.4642147 294.6606 357.0379 307.0925

0.1793818 0.007370453 -0.4609098 294.6606 357.0379 307.0925

0.1793818 0.007370453 -0.4609098 295.2178 355.8615 308.1457

0.1961385 0.008730068 -0.4472194 295.0958 358.7119 305.3315

0.1909441 -0.007639132 -0.4494815 295.604 356.2668 307.0881

0.1909441 -0.007639132 -0.4494815 295.604 356.2668 307.0881

0.1909441 -0.007639132 -0.4494815 296.5535 358.3736 304.1492

0.2085214 -0.005566692 -0.4324711 297.1219 357.5091 304.5775

0.2171945 0.01049841 -0.4280885 297.1219 357.5091 304.5775

0.2171945 0.01049841 -0.4280885 297.1219 357.5091 304.5775

0.2120935 -0.005274439 -0.4307342 297.4206 358.2107 303.9094

0.230828 -0.002791643 -0.4074847 296.5798 5.542081 295.7512

0.230828 -0.002791643 -0.4074847 296.5798 5.542081 295.7512

0.230828 -0.002791643 -0.4074847 296.8009 9.737396 291.1755

0.230828 -0.002791643 -0.4074847 296.8009 9.737396 291.1755

0.2470772 -0.0003305054 -0.3809236 296.5133 14.64604 286.6681

0.2470772 -0.0003305054 -0.3809236 295.0398 15.45931 285.8316

0.2470772 -0.0003305054 -0.3809236 295.0398 15.45931 285.8316

0.2567919 0.01274763 -0.3742265 293.8864 20.02129 281.9042

0.2677373 0.01402542 -0.3480846 293.8619 21.75349 280.4949

0.2677373 0.01402542 -0.3480846 293.8619 21.75349 280.4949

0.2642446 0.01478505 -0.3507122 295.1577 26.97985 275.8252

0.2642446 0.01478505 -0.3507122 295.1577 26.97985 275.8252

0.2712447 0.0163252 -0.3275671 296.7687 30.68773 272.671

0.2712447 0.0163252 -0.3275671 297.9454 32.40353 271.705

0.2688553 0.02040911 -0.3293034 300.1312 37.96985 266.9626

0.2688553 0.02040911 -0.3293034 300.1312 37.96985 266.9626

0.2706251 0.02855453 -0.3161469 300.1312 37.96984 266.9626

0.2706251 0.02855453 -0.3161469 300.0731 38.10787 266.9963

0.2706251 0.02855453 -0.3161469 302.295 45.94353 260.8112

0.2708377 0.03771726 -0.3150024 302.295 45.94352 260.8112

0.2729759 0.0388952 -0.3008611 304.4635 51.56661 256.8383

0.281706 0.03594054 -0.2930803 306.8151 55.33989 254.0657

0.2876717 0.02679168 -0.2882243 306.8151 55.33989 254.0657

0.2876717 0.02679168 -0.2882243 305.7809 57.89172 252.1703

0.2930609 0.0139036 -0.2791995 305.7809 57.89174 252.1703

0.2930609 0.0139036 -0.2791995 306.9525 61.60336 248.4035

0.2972755 -0.003429651 -0.2750379 308.2841 65.19677 244.9602

0.2972755 -0.003429651 -0.2750379 308.2841 65.19677 244.9602

0.2972755 -0.003429651 -0.2750379 309.2508 64.49519 247.1248

0.2972755 -0.003429651 -0.2750379 310.7816 67.07238 244.4605

0.2972755 -0.003429651 -0.2750379 310.7816 67.07238 244.4605

0.3083268 -0.008279085 -0.2624812 309.5942 69.98819 241.6504

0.308318 -0.008601522 -0.2659747 309.5942 69.98819 241.6504

0.308318 -0.008601522 -0.2659747 310.7168 73.36004 239.5327

0.308318 -0.008601522 -0.2659747 309.1013 74.0658 239.8783

0.3073913 -0.01385302 -0.2668243 309.1013 74.0658 239.8783

0.3117756 -0.02731461 -0.2634983 309.1013 74.06579 239.8783

0.3117756 -0.02731461 -0.2634983 309.5272 75.98912 240.2249

0.3118102 -0.0273369 -0.263455 309.2907 79.83932 236.3958

0.3118102 -0.0273369 -0.263455 309.2907 79.83932 236.3958

0.3179725 -0.01744088 -0.2565224 308.4222 84.1043 232.6276

0.3161619 -0.02884366 -0.2577288 308.4222 84.10429 232.6277

0.3161619 -0.02884366 -0.2577288 307.1113 87.98843 230.2546

0.316623 -0.04345656 -0.2550997 306.2109 92.21178 227.6655

0.3173624 -0.05543049 -0.2518394 306.2109 92.21179 227.6655

0.3163211 -0.06901431 -0.2497848 305.0376 95.06335 226.1727

0.3163211 -0.06901431 -0.2497848 306.3181 97.95795 224.9208

0.3130175 -0.08478121 -0.2490916 305.7809 99.93508 225.1517

0.3181657 -0.07147963 -0.24673 305.7809 99.93508 225.1517

0.3164004 -0.0792471 -0.2466276 305.1538 102.2069 224.9214

0.3164004 -0.0792471 -0.2466276 304.4292 105.8411 222.5739

0.3196778 -0.07302663 -0.2443106 304.4291 105.8411 222.5738

0.3138493 -0.09012302 -0.2468294 304.6263 107.5616 223.1049

0.3163765 -0.08515251 -0.2453635 302.9624 108.4273 223.0903

0.3163765 -0.08515251 -0.2453635 304.2125 109.6232 223.7064

0.3116649 -0.1010309 -0.2453692 304.2125 109.6232 223.7064

0.316902 -0.08946047 -0.2427992 302.2082 110.2999 223.4331

0.3146544 -0.09451403 -0.2438056 302.3124 113.548 222.1753

0.3146544 -0.09451403 -0.2438056 302.3124 113.548 222.1753

0.3197807 -0.08005995 -0.2423059 300.2409 114.3898 221.5583

0.3183641 -0.08629995 -0.2440868 299.5398 118.0502 219.6072

0.3246233 -0.07901297 -0.2382402 298.025 121.003 217.3729

0.3246233 -0.07901297 -0.2382402 298.025 121.003 217.3729

0.3218666 -0.08828793 -0.2387234 299.6407 122.8161 216.3409

0.3252533 -0.08068112 -0.2392625 297.8001 123.2777 215.8431

0.3214573 -0.08985906 -0.2411145 297.8001 123.2777 215.8431

0.3214573 -0.08985906 -0.2411145 298.497 127.1769 212.0253

0.3263911 -0.07535188 -0.2394506 297.6649 123.9125 215.9408

0.3272092 -0.08020271 -0.24261 297.5936 121.5957 219.6699

0.3272092 -0.08020271 -0.24261 297.5936 121.5957 219.6699

0.3312049 -0.07382974 -0.239187 298.9883 124.3197 217.1306

0.3266689 -0.08733307 -0.2408699 297.313 123.3715 218.1775

0.3266732 -0.08843593 -0.2451967 298.641 126.2384 215.2694

0.3305343 -0.07882504 -0.2432928 298.6411 126.2384 215.2694

0.3236821 -0.09091066 -0.2482395 296.8132 126.6204 214.4159

0.3236821 -0.09091066 -0.2482395 298.1437 128.3844 212.2486

0.3272575 -0.07513861 -0.2498105 296.2056 127.1522 212.9832

0.3239625 -0.08374995 -0.2513618 296.2056 127.1522 212.9832

0.3239625 -0.08374995 -0.2513618 297.8714 125.6771 214.5193

0.327884 -0.07588274 -0.2481034 295.8447 123.6253 216.0333

0.3242721 -0.08741529 -0.2490533 295.8447 123.6253 216.0333

0.3294275 -0.07504243 -0.2463078 297.4153 123.037 216.4559

0.3294275 -0.07504243 -0.2463078 295.3108 122.8449 215.7055

0.3294257 -0.07484038 -0.2453726 295.3108 122.8449 215.7055

0.3262238 -0.08563165 -0.2461206 296.863 123.4443 214.5469

0.3319826 -0.06867222 -0.2437249 296.863 123.4443 214.5469

0.3319826 -0.06867222 -0.2437249 294.9227 121.8976 215.4039

0.3363279 -0.0528569 -0.2399987 294.9227 121.8976 215.4039

0.3472357 -0.04543279 -0.2255502 295.3273 116.319 221.2784

0.3472357 -0.04543279 -0.2255502 295.808 119.8077 217.3201

0.3479393 -0.04841083 -0.2238399 295.808 119.8077 217.3201

0.3539107 -0.03804085 -0.2140626 295.2768 114.5323 222.7324

0.3539107 -0.03804085 -0.2140626 295.2768 114.5323 222.7324

0.3549567 -0.04475176 -0.2110111 296.6851 115.448 221.2361

0.3606636 -0.02993933 -0.2038335 294.5599 114.4206 220.9953

0.3606142 -0.02986341 -0.2035277 294.5599 114.4206 220.9953

0.3609675 -0.02765176 -0.2032134 296.1489 113.8382 220.9

0.3671463 -0.009043879 -0.1935968 294.0427 111.2756 222.1133

0.3671463 -0.009043879 -0.1935968 294.0427 111.2756 222.1133

0.3675906 -0.009792838 -0.1918579 295.4565 111.3546 220.9438

0.3675906 -0.009792838 -0.1918579 293.4574 109.065 222.0385

0.3675906 -0.009792838 -0.1918579 293.4574 109.065 222.0385

0.3724961 -0.01372211 -0.1818971 294.8424 110.3869 219.9303

0.3772261 0.006720171 -0.17607 294.8424 110.3869 219.9303

0.3772261 0.006720171 -0.17607 293.1295 106.663 222.8283

0.3805146 0.02702296 -0.1668048 294.4892 101.6713 227.8284

0.3830868 0.02485521 -0.1611586 294.4891 101.6712 227.8284

0.3846554 0.02352937 -0.1661766 294.4891 101.6713 227.8284

0.3898669 0.03434921 -0.1514991 292.9537 103.512 224.4756

0.39179 0.03744159 -0.1456942 293.4029 97.9917 229.662

0.39179 0.03744159 -0.1456942 293.4029 97.9917 229.662

0.39179 0.03744159 -0.1456942 294.2477 93.51874 233.9617

0.3984067 0.0445068 -0.1336224 294.2477 93.51874 233.9617

0.4002465 0.04235762 -0.1287332 295.4836 90.82177 236.82

0.4041382 0.04868392 -0.1134283 293.7151 92.70525 234.3314

0.4041382 0.04868392 -0.1134283 293.7151 92.70525 234.3314

0.411823 0.0504637 -0.1089342 294.304 90.07144 237.2826

0.411823 0.0504637 -0.1089342 293.8007 89.29699 238.4901

0.411823 0.0504637 -0.1089342 293.8007 89.29699 238.4901

0.4115802 0.05250113 -0.1088892 292.9173 88.47903 239.5008

0.4157704 0.05042958 -0.1193757 294.3776 91.41891 236.5678

0.4157704 0.05042958 -0.1193757 292.5052 89.81033 237.2262

0.4150126 0.05024209 -0.1220614 292.5052 89.81033 237.2261

0.4141818 0.04983027 -0.1250161 290.7922 92.63824 234.1791

0.4193617 0.0464046 -0.141418 290.4115 98.43204 228.696

0.4215674 0.06601983 -0.1262496 290.4115 98.43204 228.696

0.4259002 0.07381584 -0.1057208 288.9784 99.00975 228.016

0.4268953 0.08809698 -0.08953205 290.7649 102.0144 225.0349

0.4306623 0.08718441 -0.09965896 290.7649 102.0144 225.0349

0.4303807 0.08913707 -0.09914654 289.1019 100.8314 225.6408

0.434065 0.08961739 -0.08098963 289.1019 100.8314 225.6408

0.4343793 0.08928285 -0.07966311 288.6198 101.1257 226.033

0.4382282 0.08800811 -0.08971989 288.6198 101.1257 226.033

0.4424631 0.08334556 -0.0715468 289.5213 103.4559 224.6448

0.4423629 0.08520609 -0.069957 287.9273 103.052 224.7985

0.4453184 0.0784001 -0.05817198 287.9273 103.0519 224.7986

0.4498802 0.07708665 -0.06966803 289.1317 107.2211 221.3725

0.448335 0.086344 -0.06876446 289.1317 107.2211 221.3726

0.448335 0.086344 -0.06876446 287.3059 106.4221 221.5261

0.448335 0.086344 -0.06876446 288.512 111.2592 215.9454

0.4515947 0.09615954 -0.0679143 288.512 111.2592 215.9454

0.4515947 0.09615954 -0.0679143 286.7311 108.6283 217.8471

0.4515947 0.09615954 -0.0679143 286.7311 108.6283 217.8471

0.4506625 0.09813078 -0.07120668 288.5178 110.0706 215.5706

0.4553915 0.101198 -0.05894218 286.7016 107.627 217.1821

0.4553915 0.101198 -0.05894218 286.8602 113.8527 209.9818

0.4553915 0.101198 -0.05894218 286.8602 113.8527 209.9818

0.4553915 0.101198 -0.05894218 286.3422 106.3294 217.2614

0.4594406 0.098629 -0.07253843 287.8366 109.6554 213.2779

0.4610617 0.1030219 -0.05370083 286.4551 105.1006 217.4801

0.4603029 0.1069472 -0.05252352 286.4551 105.1006 217.4801

0.4603029 0.1069472 -0.05252352 287.8727 99.19449 223.85

0.4635373 0.1082159 -0.0629755 287.7721 92.01089 230.7897

0.4665529 0.09944346 -0.05461477 287.7721 92.01089 230.7897

0.4665529 0.09944346 -0.05461477 287.7721 92.01089 230.7897

0.4668226 0.1075049 -0.03259993 288.7469 96.6914 225.2955

0.4706483 0.1146072 -0.02253781 288.7469 96.69139 225.2955

0.4684285 0.1254077 -0.000535469 286.8071 98.09205 222.8647

0.4684285 0.1254077 -0.000535469 288.8873 99.03315 221.4696

0.4649414 0.1361079 0.02137348 288.8873 99.03315 221.4696

0.4687514 0.142183 0.006045199 287.1619 96.09559 223.6704

0.4662765 0.1474648 0.02864877 289.1988 95.30016 224.0334

0.4662765 0.1474648 0.02864877 289.1988 95.30016 224.0334

0.4625169 0.1589378 0.02823678 287.2557 94.02643 224.6234

0.4636335 0.1622882 0.04090702 289.0266 96.8308 221.4535

0.4636335 0.1622882 0.04090702 289.0266 96.8308 221.4535

0.4632069 0.1645354 0.03652841 288.4251 92.45034 225.8388

0.466418 0.1609452 0.04862629 290.2722 91.57536 226.9072

0.4672014 0.1591146 0.04710677 289.3588 87.2088 230.4669

0.4672014 0.1591146 0.04710677 289.3588 87.2088 230.4669

0.4638114 0.1611745 0.06866851 290.8686 91.56287 225.1812

0.4588391 0.1795477 0.06842447 290.8686 91.56285 225.1812

0.4630299 0.1645235 0.07738166 289.3987 89.481 226.6104

0.4630299 0.1645235 0.07738166 289.3987 89.481 226.6104

0.4610704 0.1602317 0.09587742 290.8726 86.62099 229.3683

0.4634558 0.1540269 0.09803619 290.8726 86.62101 229.3683

0.4619931 0.1459088 0.1157571 290.8726 86.621 229.3683

0.4619931 0.1459088 0.1157571 288.7841 88.31087 226.7926

0.4594724 0.1378255 0.1342237 288.7841 88.31087 226.7926

0.4591351 0.1492164 0.1250638 288.7841 88.31085 226.7926

0.4591351 0.1492164 0.1250638 288.7841 88.31085 226.7926

0.46014 0.1345 0.1374497 290.9105 89.23629 225.7219

0.46014 0.1345 0.1374497 290.9105 89.23629 225.7219

0.4584314 0.14534 0.1320166 290.0538 93.30388 220.8408

0.4577942 0.14534 0.133122 289.165 97.59366 215.8254

0.4509339 0.1509503 0.1493096 289.165 97.59367 215.8254

0.447876 0.1655693 0.1428802 288.2709 102.1869 210.6633

0.4442372 0.1620175 0.1575576 290.8382 100.3699 213.3654

0.4449117 0.1621096 0.1564786 289.838 99.26139 214.8316

0.4415225 0.1681468 0.1596747 289.8381 99.2614 214.8316

0.4415225 0.1681468 0.1596747 291.8224 102.9 211.2798

0.4436611 0.1690461 0.1526426 290.959 99.62618 214.804

0.4444938 0.169139 0.1512857 290.959 99.62618 214.804

0.4452405 0.1643568 0.1543302 292.0008 94.96988 220.1216

0.4405604 0.1597778 0.1716031 290.6 95.72186 219.5708

0.4405604 0.1597778 0.1716031 292.3502 98.68484 216.4007

0.4416188 0.1598813 0.1700122 292.3502 98.68485 216.4007

0.4403427 0.1714975 0.1618032 293.5971 102.6948 212.0588

0.4403427 0.1714975 0.1618032 295.0647 105.0675 208.9781

0.4403427 0.1714975 0.1618032 293.4362 105.0592 208.4891

0.4395029 0.1610305 0.1747542 293.4362 105.0592 208.4891

0.4424554 0.1635364 0.1646871 295.5263 105.3456 207.8522

0.4424554 0.1635364 0.1646871 295.5931 100.833 212.5923

0.4380021 0.1601096 0.1791151 295.593 100.833 212.5923

0.4345244 0.170563 0.1779321 296.8388 96.69965 216.9434

0.4372783 0.174309 0.167234 296.9703 92.02188 221.3102

0.4372783 0.174309 0.167234 296.9703 92.02188 221.3102

0.4335071 0.169223 0.1816544 298.0844 94.77699 217.7534

0.4354398 0.1753767 0.1708754 296.4065 93.53359 218.3941

0.4318512 0.1714534 0.1834977 296.4064 93.5336 218.394

0.43203 0.1714864 0.1832355 298.1842 95.20683 216.373

0.4352104 0.1740437 0.1730128 298.1841 95.20683 216.3729

0.433512 0.1637096 0.1868135 296.8398 92.82557 218.5524

0.4351824 0.1671473 0.1797524 296.8398 92.8256 218.5524

0.4351824 0.1671473 0.1797524 298.5382 94.60889 216.8134

0.4326049 0.1601994 0.1918905 299.5885 97.64905 213.4814

0.4305138 0.1536449 0.2017026 299.5885 97.64904 213.4814

0.4342887 0.1577893 0.1900752 298.4503 95.96368 215.7344

0.4329859 0.1576263 0.1918809 298.4503 95.96368 215.7344

0.4361632 0.1473626 0.1928396 297.8824 99.48353 211.4572

0.4356554 0.1586531 0.1848642 296.8611 97.41074 214.0648

0.4318272 0.1522444 0.1987157 298.1199 100.7774 210.4254

0.4326035 0.1522847 0.197704 298.1199 100.7774 210.4254

0.4266851 0.1708258 0.1954014 296.2821 101.2796 209.5869

0.4264996 0.1584118 0.2059788 298.1322 101.5844 209.4599

0.4264996 0.1584118 0.2059788 298.1322 101.5844 209.4599

0.4174255 0.166442 0.2164175 298.6122 98.26985 213.3104

0.4174255 0.166442 0.2164175 299.3434 101.6508 209.0883

0.4189078 0.1732021 0.2080886 299.3434 101.6508 209.0883

0.4162251 0.1650279 0.2196223 297.4155 102.239 208.2369

0.4193707 0.1734109 0.2068048 299.0899 104.3629 206.0573

0.4193707 0.1734109 0.2068048 297.5878 102.9108 207.8079

0.4166643 0.1657632 0.2182312 297.5878 102.9108 207.8079

0.4194526 0.1740726 0.2060818 298.5393 105.3925 204.8746

0.4151281 0.1665621 0.2195444 297.0011 103.299 206.953

0.4151281 0.1665621 0.2195444 298.5363 105.269 204.5238

0.4167076 0.1761523 0.2088042 298.5363 105.269 204.5238

0.4135332 0.1685871 0.2210042 297.2907 103.2664 206.8717

0.4157627 0.1787115 0.208689 299.2239 103.4773 207.6958

0.4157627 0.1787115 0.208689 297.0306 103.9605 206.907

0.4132959 0.1723461 0.2187026 297.0306 103.9605 206.907

0.410486 0.1710977 0.2248875 298.5062 104.0538 206.9138

0.4158982 0.1755747 0.2110681 299.4061 100.8821 210.6076

0.4158982 0.1755747 0.2110681 299.4061 100.8821 210.6076

0.4164217 0.1637169 0.2194019 300.0837 98.31181 213.7441

0.4241485 0.1630334 0.204611 299.3354 96.0337 216.5412

0.4224357 0.1597894 0.2106252 299.8033 99.29892 212.5193

0.4224357 0.1597894 0.2106252 299.8033 99.29892 212.5193

0.4323809 0.1539055 0.1941837 296.9957 100.2597 211.2277

0.4323809 0.1539055 0.1941837 296.9957 100.2597 211.2277

0.4302987 0.150935 0.2010203 297.4078 103.7457 207.4719

0.4302987 0.150935 0.2010203 297.4078 103.7457 207.4719

0.4343704 0.1591467 0.1853163 295.1688 107.2514 204.6079

0.4336458 0.1524224 0.1925258 295.1688 107.2514 204.608

0.4357913 0.1598064 0.1799362 295.9909 107.208 204.7011

0.4357913 0.1598064 0.1799362 293.0475 106.2264 205.5941

0.4332415 0.1578092 0.1876892 293.0475 106.2264 205.5941

0.4350771 0.1678391 0.1742614 290.2986 105.0205 206.9233

0.4350771 0.1678391 0.1742614 290.2986 105.0205 206.9233

0.4307111 0.1683497 0.184121 287.947 106.3384 205.0303

0.4322342 0.1806713 0.1681835 287.947 106.3384 205.0303

0.4322342 0.1806713 0.1681835 285.5026 107.5417 203.675

0.4297298 0.1787943 0.1761931 286.8927 106.63 204.9466

0.4330256 0.1864669 0.159368 284.503 105.3962 206.8676

0.4322705 0.1814852 0.1669864 284.503 105.3962 206.8676

0.4322705 0.1814852 0.1669864 284.982 109.5328 203.0214

0.4322379 0.1950936 0.1507073 282.6459 111.6058 201.5404

0.4327689 0.1885864 0.1573214 282.6459 111.6058 201.5404

0.4361069 0.1946245 0.139771 284.2651 107.4297 207.1183

0.4361069 0.1946245 0.139771 284.2651 107.4297 207.1183

0.4340228 0.191867 0.1484432 281.9963 105.0352 209.8735

0.4325732 0.2064135 0.13228 283.4315 107.4118 208.0543

0.4336051 0.1999629 0.138656 283.4315 107.4118 208.0543

0.4336051 0.1999629 0.138656 283.4315 107.4118 208.0543

0.4368547 0.2024878 0.1215 283.4315 107.4118 208.0543

0.4355792 0.2017362 0.1271956 283.4315 107.4118 208.0543

0.4337392 0.2159178 0.108882 281.0989 104.574 211.2093

0.4337392 0.2159178 0.108882 281.0989 104.574 211.2093

0.4367904 0.207516 0.1129458 281.0989 104.574 211.2093

0.4400439 0.2054607 0.09692324 282.5079 106.9886 209.2795

0.4399288 0.203529 0.1014176 280.8043 98.49596 218.5705

0.4376673 0.2163261 0.08304945 280.8043 98.49596 218.5705

0.4336956 0.2153075 0.09133981 282.0075 98.7621 218.3268

0.4347488 0.211349 0.09548374 279.7327 94.00947 222.9847

0.4313565 0.2175385 0.09695736 281.8697 93.39956 224.7435

0.4298183 0.2292221 0.07419976 281.8698 93.3996 224.7435

0.4265553 0.2276595 0.0816612 281.2544 84.67966 234.9172

0.4327989 0.216288 0.07969563 282.7359 89.01349 231.2974

0.4353932 0.2193471 0.05259692 281.8322 79.92858 241.4174

0.4356729 0.2182762 0.05469386 281.8322 79.92862 241.4174

0.4320196 0.2162919 0.06366398 283.5211 80.86388 241.6052

0.4290058 0.2276551 0.04004245 281.8416 73.19737 250.3732

0.4302605 0.2248962 0.04211633 283.1199 77.69305 246.6407

0.4294129 0.2258258 0.04564513 283.1199 77.69304 246.6407

0.4258249 0.2236372 0.05459405 281.0101 70.70613 254.5116

0.4293912 0.2211711 0.03205429 280.8974 78.50251 247.364

0.4285637 0.2227031 0.03251807 280.8974 78.5025 247.364

0.4287862 0.2244672 0.008821034 280.8975 78.50251 247.364

0.4287862 0.2244672 0.008821034 280.8975 78.50251 247.364

0.4267311 0.2186767 0.02004519 278.4241 78.46668 247.2026

0.4251653 0.2221814 0.01381143 279.2569 83.96889 242.1756

0.4251653 0.2221814 0.01381143 279.2569 83.96889 242.1756

0.4257423 0.2210915 -0.013525 276.6675 74.91531 251.8003

0.4214064 0.2169418 -0.0001681995 275.4414 92.61407 234.7285

0.424824 0.2101356 -0.003851094 275.4414 92.61407 234.7285

0.424824 0.2101356 -0.003851094 274.7929 67.94276 259.7978

0.424824 0.2101356 -0.003851094 275.3816 83.26591 244.8361

0.4146736 0.2091297 -0.01245545 275.3815 83.2659 244.8361

0.4146736 0.2091297 -0.01245545 272.8879 63.98719 264.2333

0.4144055 0.2092693 -0.01785954 273.5407 39.28873 288.0411

0.4144055 0.2092693 -0.01785954 273.5407 39.28873 288.0411

0.4040795 0.2009151 -0.02551663 272.4061 48.93644 278.3074

0.4040795 0.2009151 -0.02551663 273.7491 1.729013 325.9558

0.4046388 0.1940349 -0.05400119 275.1833 6.262294 321.3639

0.3996775 0.1871342 -0.06988849 275.1833 6.262238 321.3639

0.3983336 0.1799844 -0.09263708 276.9949 345.7407 342.0433

0.3983336 0.1799844 -0.09263708 275.2663 336.9682 351.6867

0.3959009 0.1718502 -0.1156531 275.2663 336.9682 351.6867

0.3959009 0.1718502 -0.1156531 274.6815 314.4859 14.96527

0.3921453 0.1638484 -0.1379184 274.6815 314.4859 14.96524

0.3862181 0.1580285 -0.1597132 274.6815 314.4858 14.96529

0.3862181 0.1580285 -0.1597132 274.6815 314.4858 14.96529

0.3859739 0.1578027 -0.1605247 277.6848 310.153 20.5221

0.384182 0.1388667 -0.1810137 277.6848 310.153 20.52209

0.384182 0.1388667 -0.1810137 276.5312 313.2606 18.32584

0.377643 0.1256776 -0.1634338 279.4647 315.2606 17.70313

0.3759539 0.1313442 -0.1628712 279.4647 315.2607 17.7031

0.3759539 0.1313442 -0.1628712 278.2516 315.4204 18.62589

0.3715076 0.1190956 -0.1814332 277.2186 315.9435 18.79474

0.3700477 0.1203695 -0.1774103 277.2186 315.9435 18.79475

0.3700477 0.1203695 -0.1774103 278.7979 314.7736 19.35918

0.3700406 0.1205106 -0.1773295 281.238 309.0679 26.29351

0.3667895 0.103629 -0.1939717 282.7949 302.6172 33.94963

0.365235 0.1052359 -0.1893845 282.7949 302.6172 33.94965

0.3638096 0.08429915 -0.2021731 282.9455 298.3444 39.62888

0.3633862 0.06118665 -0.2110552 282.9455 298.3444 39.62888

0.3633862 0.06118665 -0.2110552 282.9455 298.3444 39.62888

0.3624717 0.05477247 -0.2090271 283.0077 294.8542 44.23941

0.3624717 0.05477247 -0.2090271 283.0077 294.8542 44.23941

0.3574966 0.04285306 -0.2200862 283.0706 292.6035 47.23764

0.358182 0.02809493 -0.2213469 282.3114 302.1225 38.49467

0.3585006 0.01932711 -0.2150635 281.6257 311.7616 29.66881

0.3585006 0.01932711 -0.2150635 284.2245 313.8199 29.06724

0.3609908 0.01443247 -0.2112484 284.2245 313.8199 29.06721

0.3614763 0.00930047 -0.2107058 283.2996 318.1525 26.44275

0.3599433 0.01236651 -0.2057087 284.1315 320.2614 27.26072

0.3599433 0.01236651 -0.2057087 283.239 318.1475 31.16556

0.3529822 -0.008190808 -0.2176343 283.239 318.1474 31.16558

0.3529822 -0.008190808 -0.2176343 285.9943 317.7112 34.18293

0.3474451 -0.01739426 -0.21877 285.0634 323.8628 29.83317

0.3474451 -0.01739426 -0.21877 288.0756 326.5913 29.157

0.3487051 -0.02427381 -0.2160937 288.0756 326.5913 29.15697

0.3392298 -0.03624516 -0.2291078 287.237 330.5561 26.65689

0.3396303 -0.03343211 -0.2289421 289.9738 326.5423 32.15963

0.3396303 -0.03343211 -0.2289421 289.9632 323.9786 35.18838

0.3311855 -0.04748465 -0.241736 289.9631 323.9786 35.18839

0.3313036 -0.04079364 -0.2427937 291.6449 322.7814 37.12722

0.3236482 -0.05010853 -0.2512289 291.4388 323.1697 37.10942

0.3241312 -0.04356062 -0.2518262 291.4388 323.1697 37.10943

0.325332 -0.05035031 -0.2593503 291.5278 323.3804 37.22403

0.317049 -0.06105663 -0.2671902 293.4506 320.916 40.88739

0.3074213 -0.07123787 -0.2757825 293.4506 320.916 40.88739

0.3043144 -0.06387588 -0.2809826 293.2872 318.8358 43.71296

0.3045053 -0.07251283 -0.2894814 293.6311 317.617 45.51311

0.2945721 -0.0802537 -0.2976032 293.6311 317.617 45.51312

0.2902492 -0.06830572 -0.304747 293.848 318.0159 45.43492

0.2902492 -0.06830572 -0.304747 293.848 318.0159 45.43492

0.2795307 -0.08876089 -0.3236128 293.7694 318.1444 45.70707

0.2753792 -0.07608037 -0.330332 294.0625 317.6995 46.44518

0.2753792 -0.07608037 -0.330332 294.64 316.6632 47.66121

0.265514 -0.0835352 -0.3365492 294.64 316.6632 47.66121

0.2534911 -0.08479239 -0.3613044 295.4075 315.8757 48.59674

0.2430201 -0.09799876 -0.3651381 296.4963 315.4022 49.25198

0.2430201 -0.09799876 -0.3651381 296.4963 315.4022 49.25198

0.2403609 -0.08288226 -0.3706015 297.0308 315.6542 49.36852

0.2340436 -0.09195731 -0.3724994 297.1041 316.4161 49.08262

0.2340436 -0.09195731 -0.3724994 297.1041 316.4161 49.08262

0.2159547 -0.1252478 -0.3957623 297.319 317.7925 47.99122

0.2159547 -0.1252478 -0.3957623 296.7222 320.2993 45.40965

0.2101782 -0.1107061 -0.4031383 296.7222 320.2993 45.40965

0.2101782 -0.1107061 -0.4031383 296.7222 320.2993 45.40965

0.203948 -0.119478 -0.4038334 295.689 326.2877 40.09175

0.203948 -0.119478 -0.4038334 295.0486 331.9648 35.08366

0.202993 -0.1110219 -0.4067176 295.0486 331.9648 35.0837

0.1999326 -0.1065542 -0.4094195 294.8667 336.9282 30.83448

0.1752044 -0.1405491 -0.4307222 294.8667 336.9282 30.83446

0.1721343 -0.1328779 -0.4343794 294.8667 336.9282 30.83447

0.1680661 -0.1242711 -0.4385005 295.4938 340.8018 27.30835

0.1680661 -0.1242711 -0.4385005 295.4938 340.8018 27.30835

0.1558468 -0.1087638 -0.4470508 295.4938 340.8019 27.30834

0.1482578 -0.1167527 -0.4476166 295.4937 340.8019 27.30834

0.1306791 -0.1352859 -0.4566556 296.162 342.4829 25.56467

0.128949 -0.1176647 -0.4619966 296.162 342.4829 25.56466

0.128949 -0.1176647 -0.4619966 295.4381 338.0627 29.96979

0.1214134 -0.124903 -0.4621381 294.8466 335.0957 32.86811

0.1022486 -0.1140894 -0.4737432 294.8466 335.0957 32.86811

0.1022486 -0.1140894 -0.4737432 294.4001 332.7539 34.89402

0.09254623 -0.1259132 -0.4727418 294.4001 332.7539 34.89401
