-0.7852237 0.1891937 -0.119555 -1.400868 -3.528657 -9.326367 0.1835 0.0345 1.0354 0.07906342 0.2666863 -0.01832596 -2.627118 -0.563094 -8.801532 0.6418 0.0819 0.88 0.06981317

-0.7852237 0.1891937 -0.119555 -1.400868 -3.528657 -9.326367 0.1835 0.0345 1.0354 0.07906342 0.2666863 -0.01832596 -2.627118 -0.563094 -8.801532 0.6418 0.0819 0.88 0.06847061

-0.7852237 0.1891937 -0.119555 -1.400868 -3.528657 -9.326367 0.1835 0.0345 1.0354 0.07906342 0.2666863 -0.01832596 -2.627118 -0.563094 -8.801532 0.6418 0.0819 0.88 0.06847061

-0.7852237 0.1891937 -0.119555 -1.400868 -3.528657 -9.326367 0.1835 0.0345 1.0354 0.07906342 0.2666863 -0.01832596 -2.627118 -0.563094 -8.801532 0.6418 0.0819 0.88 0.06847061

-0.7852237 0.1891937 -0.119555 -1.400868 -3.528657 -9.326367 0.1835 0.0345 1.0354 0.04712389 -0.01186824 0.01780236 -1.810926 -0.6965101 -8.642611 0.6693 0.0779 0.8852 0.06847061

-0.7852237 0.1891937 -0.119555 -1.400868 -3.528657 -9.326367 0.1835 0.0345 1.0354 0.07068584 -0.1706932 0.03700098 -1.696149 -0.70632 -8.61318 0.6693 0.0779 0.8852 -0.0308789

-0.7852237 0.1891937 -0.119555 -1.400868 -3.528657 -9.326367 0.1835 0.0345 1.0354 0.07068584 -0.1706932 0.03700098 -1.696149 -0.70632 -8.61318 0.6693 0.0779 0.8852 -0.0308789

-0.7852237 0.1891937 -0.119555 -1.400868 -3.528657 -9.326367 0.1835 0.0345 1.0354 0.07068584 -0.1706932 0.03700098 -1.696149 -0.70632 -8.61318 0.6693 0.0779 0.8852 -0.0308789

-0.1448623 0.1815142 -0.03246313 -0.148131 0.23544 -10.17591 0.1471 -0.3265 1.2581 0.07068584 -0.1706932 0.03700098 -1.696149 -0.70632 -8.61318 0.6693 0.0779 0.8852 -0.0308789

-0.05393067 0.257087 -0.00593412 -0.157941 0.316863 -10.02092 0.1471 -0.3265 1.2581 0.09616765 0.1628392 0.026529 0.75537 -0.6268591 -8.890803 0.3269 0.1167 1.0144 -0.0308789

0.1027999 0.135263 -0.01902409 -0.040221 0.406134 -9.778608 0.1455 -0.3134 1.2603 0.09128072 0.1877974 0.01954769 0.868185 -0.617049 -8.949663 0.3269 0.1167 1.0144 -0.0308789

0.1027999 0.135263 -0.01902409 -0.040221 0.406134 -9.778608 0.1455 -0.3134 1.2603 0.09128072 0.1877974 0.01954769 0.868185 -0.617049 -8.949663 0.3269 0.1167 1.0144 -0.0308789

0.214501 0.03769911 0.02426008 0.050031 0.515025 -9.604971 0.1455 -0.3134 1.2603 0.09459685 0.02251475 0.055676 1.084986 -0.642555 -8.916309 0.319 0.1209 1.016 -0.0308789

0.02042035 0.06736971 0.07731808 0.057879 0.305091 -9.530416 0.1498 -0.3014 1.2743 0.07382743 -0.1347394 0.05811946 1.246851 -0.7014151 -8.804475 0.3156 0.109 0.9979 -0.0308789

-0.02146755 0.0003490658 0.04328417 0.138321 0.208953 -9.473517 0.1406 -0.2922 1.2881 0.08203047 -0.1429425 0.02844887 1.281186 -0.702396 -8.766216 0.3156 0.109 0.9979 -0.0308789

-0.02146755 0.0003490658 0.04328417 0.138321 0.208953 -9.473517 0.1406 -0.2922 1.2881 0.08203047 -0.1429425 0.02844887 1.281186 -0.702396 -8.766216 0.3156 0.109 0.9979 -0.0308789

-0.04380776 0.03368485 0.006283185 0.124587 0.208953 -9.488233 0.1406 -0.2922 1.2881 0.06894051 -0.1919862 0.01972222 1.295901 -0.771066 -8.743653 0.3074 0.1017 0.9879 -0.0308789

0.09896017 0.121824 -0.02199115 0.077499 0.376704 -9.433296 0.112 -0.2966 1.2783 0.0577704 -0.1797689 0.03735005 1.043784 -0.819135 -8.786818 0.3074 0.1017 0.9879 -0.0308789

0.2455678 -0.03508112 -0.0008726646 0.226611 0.41202 -9.317538 0.112 -0.2966 1.2783 -0.0006981317 0.09843656 0.03822271 0.768123 -0.8260021 -8.717166 0.3153 0.11 1.0001 -0.0308789

0.2455678 -0.03508112 -0.0008726646 0.226611 0.41202 -9.317538 0.112 -0.2966 1.2783 -0.0006981317 0.09843656 0.03822271 0.768123 -0.8260021 -8.717166 0.3153 0.11 1.0001 -0.0308789

0.005410521 -0.01954769 0.02565634 0.17658 0.152055 -9.349912 0.0931 -0.3044 1.2767 0.003665191 0.1642355 0.02530728 0.916254 -0.891729 -8.719129 0.3153 0.11 1.0001 -0.0308789

-0.1570796 0.02513274 -0.001919862 0.170694 0.043164 -9.347949 0.0931 -0.3044 1.2767 0.003141593 -0.1546362 0.005061455 1.256661 -0.8564131 -8.737767 0.3367 0.1318 0.9959 -0.0308789

0.01850049 -0.08028515 -0.03612831 0.244269 0.201105 -9.353835 0.0981 -0.3122 1.2813 0.0005235987 -0.2022837 0.02146755 1.163466 -0.835812 -8.720109 0.3367 0.1318 0.9959 -0.0308789

0.01850049 -0.08028515 -0.03612831 0.244269 0.201105 -9.353835 0.0981 -0.3122 1.2813 0.0005235987 -0.2022837 0.02146755 1.163466 -0.835812 -8.720109 0.3367 0.1318 0.9959 -0.0308789

0.1619665 -0.06859144 -0.04782202 0.218763 0.33354 -9.419562 0.0981 -0.3122 1.2813 -0.02530728 -0.02199115 0.029147 0.927045 -0.900558 -8.715204 0.33 0.1433 0.9776 -0.0308789

0.1432915 -0.06562438 -0.01343904 0.212877 0.320787 -9.570637 0.1084 -0.3124 1.2754 -0.02478367 -0.01658063 0.01605703 0.897615 -0.867204 -8.76033 0.33 0.1433 0.9776 -0.0308789

-0.05585054 -0.06440265 0.04572763 0.222687 0.171675 -9.794304 0.1084 -0.3124 1.2754 -0.009424779 -0.04921828 0.006283185 0.9515701 -0.876033 -8.809381 0.3227 0.1481 0.9793 -0.0308789

-0.05585054 -0.06440265 0.04572763 0.222687 0.171675 -9.794304 0.1084 -0.3124 1.2754 -0.009424779 -0.04921828 0.006283185 0.9515701 -0.876033 -8.809381 0.3227 0.1481 0.9793 -0.0308789

-0.204029 0.003839724 0.03368485 0.125568 0.103986 -9.984618 0.1102 -0.2898 1.2676 0.004886922 -0.1066396 0.002443461 0.9810001 -0.8721091 -8.918271 0.3227 0.1481 0.9793 -0.0308789

-0.07539823 -0.00837758 0.03159046 0.093195 0.199143 -10.04053 0.1102 -0.2898 1.2676 0.0403171 -0.082205 0.006108652 0.849546 -0.768123 -8.999695 0.3376 0.1455 0.9989 -0.0308789

-0.01937315 0.0148353 0.006108652 0.04905 0.204048 -10.07291 0.105 -0.2779 1.2531 0.01134464 0.08412487 0.002443461 0.734769 -0.7445791 -8.974188 0.3481 0.1262 1.0024 -0.0308789

-0.01937315 0.0148353 0.006108652 0.04905 0.204048 -10.07291 0.105 -0.2779 1.2531 0.01134464 0.08412487 0.002443461 0.734769 -0.7445791 -8.974188 0.3481 0.1262 1.0024 -0.0308789

-0.1469567 0.119555 -0.02199115 0 0.027468 -10.09155 0.105 -0.2779 1.2531 0.03752458 0.04660029 -0.004537856 0.8416981 -0.7386931 -9.016372 0.3481 0.1262 1.0024 -0.0308789

-0.09215339 0.06981317 -0.07592182 0.08829 0.135378 -9.994429 0.0876 -0.2866 1.2503 0.02530728 0.03036873 -0.009075711 0.979038 -0.7357501 -8.976151 0.3503 0.1336 1.0016 -0.0308789

-0.09215339 0.06981317 -0.07592182 0.08829 0.135378 -9.994429 0.0876 -0.2866 1.2503 0.02530728 0.03036873 -0.009075711 0.979038 -0.7357501 -8.976151 0.3503 0.1336 1.0016 -0.0308789

0.05166174 0.0158825 -0.04852015 0.133416 0.283509 -9.956169 0.0933 -0.2802 1.2543 0.06108652 -0.04118977 -0.006108652 1.043784 -0.770085 -8.953588 0.3503 0.1336 1.0016 -0.0308789

0.1106539 0.05113815 -0.02897247 0.103005 0.350217 -9.921834 0.0933 -0.2802 1.2543 0.04817109 -0.09494592 0.005410521 1.081062 -0.758313 -8.90748 0.3558 0.128 1.0153 -0.0308789

0.1106539 0.05113815 -0.02897247 0.103005 0.350217 -9.921834 0.0933 -0.2802 1.2543 0.04817109 -0.09494592 0.005410521 1.081062 -0.758313 -8.90748 0.3558 0.128 1.0153 -0.0308789

0.09477138 0.1115265 -0.07278023 0.103005 0.269775 -9.812943 0.1009 -0.2825 1.2534 0.05148721 -0.1096067 0.0001745329 1.054575 -0.7602751 -8.88786 0.3558 0.128 1.0153 -0.0308789

0.05864306 0.02007129 -0.09494592 0.201105 0.178542 -9.700129 0.1009 -0.2825 1.2534 0.04537856 -0.1357866 -0.005410521 1.043784 -0.8210971 -8.891785 0.3648 0.1142 1.0282 -0.0308789

0.05864306 0.02007129 -0.09494592 0.201105 0.178542 -9.700129 0.1009 -0.2825 1.2534 0.04101523 -0.1455605 -0.006457718 1.01043 -0.8524891 -8.883937 0.3648 0.1142 1.0282 -0.0308789

0.05864306 0.02007129 -0.09494592 0.201105 0.178542 -9.700129 0.1009 -0.2825 1.2534 0.04101523 -0.1455605 -0.006457718 1.01043 -0.8524891 -8.883937 0.3648 0.1142 1.0282 -0.0308789

-0.03926991 -0.01064651 -0.08796459 0.201105 0.178542 -9.700129 0.1009 -0.2825 1.2534 0.04555309 -0.1724385 -0.02426008 0.943722 -0.826983 -8.891785 0.3574 0.1152 1.0265 -0.0308789

0.03769911 0.01780236 -0.09843656 0.157941 0.130473 -9.844336 0.1155 -0.2943 1.2528 0.05375614 -0.09721484 -0.02775074 0.779895 -0.8524891 -8.898651 0.3574 0.1152 1.0265 -0.0308789

0.03769911 0.01780236 -0.09843656 0.157941 0.130473 -9.844336 0.1155 -0.2943 1.2528 0.05375614 -0.09721484 -0.02775074 0.779895 -0.8524891 -8.898651 0.3574 0.1152 1.0265 -0.0308789

0.06614798 0.09320059 -0.1143191 0.105948 0.069651 -9.901234 0.1155 -0.2943 1.2528 0.05393067 -0.06161012 -0.01500983 0.763218 -0.8613181 -8.84862 0.3611 0.1271 1.0093 -0.0308789

0.0996583 0.06300639 -0.1752311 0.146169 -0.007848 -9.835506 0.0993 -0.2972 1.2501 0.05899213 -0.122173 -0.06003933 0.8819191 -0.8083441 -8.885899 0.3806 0.1458 0.9974 -0.0308789

0.1630138 -0.002617994 -0.206996 0.184428 -0.022563 -9.802153 0.0993 -0.2972 1.2501 0.07033677 -0.1925098 -0.06527531 0.897615 -0.815211 -8.950644 0.3806 0.1458 0.9974 -0.0308789

0.1630138 -0.002617994 -0.206996 0.184428 -0.022563 -9.802153 0.0993 -0.2972 1.2501 0.07033677 -0.1925098 -0.06527531 0.897615 -0.815211 -8.950644 0.3806 0.1458 0.9974 -0.0308789

0.1630138 -0.002617994 -0.206996 0.184428 -0.022563 -9.802153 0.0993 -0.2972 1.2501 0.07400195 -0.2314307 -0.03420845 0.862299 -0.826983 -8.92612 0.3889 0.1537 1.0018 -0.03007336

0.04817109 0.07801621 -0.312763 0.162846 -0.455184 -10.09449 0.092 -0.2954 1.2689 0.08918633 -0.3113667 -0.06370452 0.9044821 -0.7955911 -8.894728 0.3889 0.1537 1.0018 -0.03007336

0.04817109 0.07801621 -0.312763 0.162846 -0.455184 -10.09449 0.092 -0.2954 1.2689 0.09843656 -0.3070034 -0.07330383 0.793629 -0.805401 -8.913366 0.4014 0.157 0.9989 -0.03007336

-0.06073746 0.143117 -0.3794346 0.07455601 -0.809325 -10.12686 0.0827 -0.3036 1.2596 0.09843656 -0.3070034 -0.07330383 0.793629 -0.805401 -8.913366 0.4014 0.157 0.9989 -0.03007336

-0.1048943 0.3787365 -0.6426302 0.030411 -0.979038 -10.08468 0.0672 -0.2917 1.2505 0.1110029 -0.2455678 -0.06632251 0.621954 -0.894672 -8.974188 0.4014 0.157 0.9989 -0.02497164

0.0715585 0.4468043 -0.8812168 0.076518 -0.8779951 -10.07193 0.0672 -0.2917 1.2505 0.1361357 -0.2242748 -0.08360127 0.60822 -0.91233 -8.929063 0.4065 0.1493 0.9836 -0.02497164

0.0715585 0.4468043 -0.8812168 0.076518 -0.8779951 -10.07193 0.0672 -0.2917 1.2505 0.1361357 -0.2242748 -0.08360127 0.60822 -0.91233 -8.929063 0.4065 0.1493 0.9836 -0.02497164

0.05986479 0.4384267 -0.9379399 0.115758 -0.970209 -10.21123 0.0656 -0.2787 1.2544 0.08395033 -0.4913102 -0.1593486 0.730845 -1.075176 -9.104661 0.4023 0.1556 0.9561 -0.02497164

-0.1089085 0.5258677 -1.029046 0.154017 -1.031031 -10.40351 0.0656 -0.2787 1.2544 0.1286308 -0.6801548 -0.07836528 0.61803 -1.086948 -9.105642 0.4023 0.1556 0.9561 -0.01396263

0.02076942 0.5897468 -1.056622 0.247212 -0.743598 -10.43392 0.0499 -0.2822 1.2666 0.1329941 -0.6485643 -0.05131268 0.481671 -0.9937531 -8.972226 0.423 0.183 0.9774 -0.01396263

0.02076942 0.5897468 -1.056622 0.247212 -0.743598 -10.43392 0.0499 -0.2822 1.2666 0.1329941 -0.6485643 -0.05131268 0.481671 -0.9937531 -8.972226 0.423 0.183 0.9774 -0.01396263

0.286234 0.5483825 -1.04423 0.297243 -0.621954 -10.38389 0.0499 -0.2822 1.2666 0.2111848 -0.7590437 -0.04537856 0.205029 -0.9545131 -9.006561 0.4427 0.1922 0.9698 -0.01396263

0.2216568 0.6167994 -1.116836 0.332559 -0.825021 -10.27401 0.0003 -0.2834 1.2586 0.2073451 -0.6031858 -0.06632251 -0.258984 -1.035936 -8.845677 0.4427 0.1922 0.9698 -0.01396263

0.2216568 0.6167994 -1.116836 0.332559 -0.825021 -10.27401 0.0003 -0.2834 1.2586 0.2073451 -0.6031858 -0.06632251 -0.258984 -1.035936 -8.845677 0.4427 0.1922 0.9698 0.009129399

0.05340707 0.5441937 -1.204277 0.464013 -1.129131 -10.05917 0.0003 -0.2834 1.2586 0.2583087 -0.0996583 -0.1043707 -0.556227 -1.102644 -8.70147 0.4644 0.1778 0.9619 0.009129399

0.02216568 0.4605924 -1.376192 0.551322 -1.184067 -9.842373 -0.0633 -0.2868 1.2495 0.2886775 -0.2062979 -0.323235 -0.243288 -1.135998 -8.674002 0.4644 0.1778 0.9619 0.009129399

0.3242822 0.4077089 -1.439897 0.602334 -0.888786 -9.675603 -0.0633 -0.2868 1.2495 0.2336996 -0.5599017 -0.3783874 0.0981 -1.164447 -8.804475 0.4892 0.1695 0.9467 0.009129399

0.3242822 0.4077089 -1.439897 0.602334 -0.888786 -9.675603 -0.0633 -0.2868 1.2495 0.2336996 -0.5599017 -0.3783874 0.0981 -1.164447 -8.804475 0.4892 0.1695 0.9467 0.05128584

0.0439823 0.3077015 -1.465378 0.854451 -0.945684 -9.421524 -0.1366 -0.2896 1.239 0.2446952 -0.9585348 -0.1904154 0.027468 -1.258623 -8.86824 0.4892 0.1695 0.9467 0.05128584

0.03176499 0.1815142 -1.53013 0.987867 -0.9721711 -9.366589 -0.1819 -0.2947 1.218 0.1478294 -1.106539 -0.04014257 -0.297243 -1.426374 -8.658306 0.5141 0.1943 0.9296 0.05128584

-0.1401499 0.2267183 -1.586504 0.970209 -0.945684 -9.540226 -0.2327 -0.2982 1.2065 0.1239184 -0.8307767 -0.01012291 -0.867204 -1.458747 -8.623972 0.5141 0.1943 0.9296 0.05128584

-0.1401499 0.2267183 -1.586504 0.970209 -0.945684 -9.540226 -0.2327 -0.2982 1.2065 0.1239184 -0.8307767 -0.01012291 -0.867204 -1.458747 -8.623972 0.5141 0.1943 0.9296 0.08860902

-0.1384046 0.4577999 -1.550376 0.925083 -0.615087 -9.687375 -0.2327 -0.2982 1.2065 0.1239184 -0.8307767 -0.01012291 -0.867204 -1.458747 -8.623972 0.5141 0.1943 0.9296 0.08860902

-0.07347836 0.4537856 -1.500634 1.103625 -0.249174 -9.820791 -0.267 -0.3065 1.2094 0.1239184 -0.8307767 -0.01012291 -0.867204 -1.458747 -8.623972 0.5141 0.1943 0.9296 0.08860902

-0.07347836 0.4537856 -1.500634 1.103625 -0.249174 -9.820791 -0.267 -0.3065 1.2094 0.1239184 -0.8307767 -0.01012291 -0.867204 -1.458747 -8.623972 0.5141 0.1943 0.9296 0.08860902

0.09302605 0.2234021 -1.537286 1.328274 0.050031 -10.0425 -0.267 -0.3065 1.2094 0.1239184 -0.8307767 -0.01012291 -0.867204 -1.458747 -8.623972 0.5141 0.1943 0.9296 0.1608388

0.2790782 0.3879867 -1.543569 1.362609 0.31392 -10.16807 -0.2944 -0.3305 1.2133 0.06981317 -0.5091125 -0.2707006 -1.742256 -1.741275 -8.577865 0.5738 0.251 0.8938 0.1608388

0.2790782 0.3879867 -1.543569 1.362609 0.31392 -10.16807 -0.2944 -0.3305 1.2133 0.135263 -0.4487241 -0.2548181 -1.892349 -1.841337 -8.38755 0.5738 0.251 0.8938 0.1608388

0.129678 0.4127704 -1.449845 1.410678 0.248193 -10.27794 -0.2944 -0.3305 1.2133 0.135263 -0.4487241 -0.2548181 -1.892349 -1.841337 -8.38755 0.5738 0.251 0.8938 0.1608388

-0.3476696 0.6431538 -1.407608 1.38321 0.195219 -10.33974 -0.3354 -0.3391 1.2043 0.1624902 -0.4668756 -0.3675663 -1.789344 -1.949247 -8.389512 0.5758 0.2461 0.8709 0.06645676

-0.3476696 0.6431538 -1.407608 1.38321 0.195219 -10.33974 -0.3354 -0.3391 1.2043 0.1624902 -0.4668756 -0.3675663 -1.789344 -1.949247 -8.389512 0.5758 0.2461 0.8709 0.06645676

-0.2090904 0.7148868 -1.409004 1.474443 0.562113 -10.06212 -0.3354 -0.3391 1.2043 0.1450369 -0.7682939 -0.4564036 -1.60884 -2.000259 -8.493499 0.5758 0.2461 0.8709 0.06645676

0.2876303 0.3801327 -1.371131 1.721655 0.845622 -9.712882 -0.3689 -0.3456 1.1953 0.1450369 -0.7682939 -0.4564036 -1.60884 -2.000259 -8.493499 0.5758 0.2461 0.8709 0.06645676

0.2876303 0.3801327 -1.371131 1.721655 0.845622 -9.712882 -0.3689 -0.3456 1.1953 0.1059415 -1.012116 -0.3899066 -1.623555 -2.022822 -8.490555 0.5858 0.2532 0.8613 0.4336472

0.4960226 0.320966 -1.33221 1.773648 0.940779 -9.57358 -0.3689 -0.3456 1.1953 0.1059415 -1.012116 -0.3899066 -1.623555 -2.022822 -8.490555 0.5858 0.2532 0.8613 0.4336472

0.4960226 0.320966 -1.33221 1.773648 0.940779 -9.57358 -0.3689 -0.3456 1.1953 0.06859144 -1.105317 -0.2377138 -1.837413 -2.092473 -8.525871 0.5858 0.2532 0.8613 0.4336472

0.4960226 0.320966 -1.33221 1.773648 0.940779 -9.57358 -0.3689 -0.3456 1.1953 0.06859144 -1.105317 -0.2377138 -1.837413 -2.092473 -8.525871 0.5858 0.2532 0.8613 0.4336472

0.4960226 0.320966 -1.33221 1.773648 0.940779 -9.57358 -0.3689 -0.3456 1.1953 0.06859144 -1.105317 -0.2377138 -1.837413 -2.092473 -8.525871 0.5858 0.2532 0.8613 0.5061455

0.3272492 -0.06649704 -1.478468 1.802097 0.15696 -8.783875 -0.4303 -0.3785 1.1784 0.06859144 -1.105317 -0.2377138 -1.837413 -2.092473 -8.525871 0.5858 0.2532 0.8613 0.5061455

0.2494075 -0.1022763 -1.528385 1.780515 0.092214 -8.677926 -0.4303 -0.3785 1.1784 0.06859144 -1.105317 -0.2377138 -1.837413 -2.092473 -8.525871 0.5858 0.2532 0.8613 0.5061455

0.2494075 -0.1022763 -1.528385 1.780515 0.092214 -8.677926 -0.4303 -0.3785 1.1784 0.06859144 -1.105317 -0.2377138 -1.837413 -2.092473 -8.525871 0.5858 0.2532 0.8613 0.5061455

0.1925098 -0.1638864 -1.558404 1.768743 0.065727 -8.514099 -0.456 -0.3891 1.1685 0.06859144 -1.105317 -0.2377138 -1.837413 -2.092473 -8.525871 0.5858 0.2532 0.8613 0.5692459

0.1064651 -0.270526 -1.612684 1.717731 0.08436601 -8.419923 -0.456 -0.3891 1.1685 0.06859144 -1.105317 -0.2377138 -1.837413 -2.092473 -8.525871 0.5858 0.2532 0.8613 0.5692459

0.1064651 -0.270526 -1.612684 1.717731 0.08436601 -8.419923 -0.456 -0.3891 1.1685 0.01658063 -0.3984587 -0.217468 -3.415842 -1.935513 -8.35812 0.6952 0.2908 0.7943 0.5692459

0.1633628 -0.3464479 -1.615128 1.647099 0.221706 -8.492517 -0.4754 -0.3984 1.1484 0.01658063 -0.3984587 -0.217468 -3.415842 -1.935513 -8.35812 0.6952 0.2908 0.7943 0.5692459

0.2642429 -0.3593633 -1.56748 1.508778 0.381609 -8.583751 -0.4754 -0.3984 1.1484 0.01658063 -0.3984587 -0.217468 -3.415842 -1.935513 -8.35812 0.6952 0.2908 0.7943 0.672623

0.2642429 -0.3593633 -1.56748 1.508778 0.381609 -8.583751 -0.4754 -0.3984 1.1484 0.01658063 -0.3984587 -0.217468 -3.415842 -1.935513 -8.35812 0.6952 0.2908 0.7943 0.672623

0.3708825 -0.44279 -1.552994 1.434222 0.521892 -8.55432 -0.4694 -0.4 1.1373 0.01658063 -0.3984587 -0.217468 -3.415842 -1.935513 -8.35812 0.6952 0.2908 0.7943 0.672623

0.4199262 -0.4888667 -1.56364 1.267452 0.565056 -8.54451 -0.4694 -0.4 1.1373 0.01658063 -0.3984587 -0.217468 -3.415842 -1.935513 -8.35812 0.6952 0.2908 0.7943 0.672623

0.4199262 -0.4888667 -1.56364 1.267452 0.565056 -8.54451 -0.4694 -0.4 1.1373 -0.1354375 -0.03036873 -0.1092576 -3.396222 -2.24649 -8.101098 0.6952 0.2908 0.7943 0.7625746

0.5061455 -0.4885176 -1.485101 1.03986 0.589581 -8.580808 -0.4444 -0.413 1.1555 -0.1354375 -0.03036873 -0.1092576 -3.396222 -2.24649 -8.101098 0.6952 0.2908 0.7943 0.7625746

0.5808455 -0.6084218 -1.446529 0.91233 0.553284 -8.657326 -0.4444 -0.413 1.1555 -0.1354375 -0.03036873 -0.1092576 -3.396222 -2.24649 -8.101098 0.6952 0.2908 0.7943 0.7625746

0.5808455 -0.6084218 -1.446529 0.91233 0.553284 -8.657326 -0.4444 -0.413 1.1555 -0.1354375 -0.03036873 -0.1092576 -3.396222 -2.24649 -8.101098 0.6952 0.2908 0.7943 0.7625746

0.6358234 -0.7426376 -1.580221 0.70632 0.393381 -8.751501 -0.4229 -0.4354 1.1615 -0.4176573 -0.1785472 -0.09250245 -2.951829 -2.084625 -7.931385 0.7411 0.3432 0.7531 0.8672944

0.6358234 -0.7426376 -1.580221 0.70632 0.393381 -8.751501 -0.4229 -0.4354 1.1615 -0.4176573 -0.1785472 -0.09250245 -2.951829 -2.084625 -7.931385 0.7411 0.3432 0.7531 0.8672944

0.6358234 -0.7426376 -1.580221 0.70632 0.393381 -8.751501 -0.4229 -0.4354 1.1615 -0.4750786 -0.2314307 -0.08831366 -2.879235 -2.077758 -7.976511 0.7411 0.3432 0.7531 0.8672944

0.1410226 -0.6222099 -1.678483 0.190314 0.489519 -8.997733 -0.3767 -0.4451 1.1719 -0.4806637 -0.2157227 -0.04956735 -3.018537 -2.036556 -7.917651 0.7544 0.349 0.76 0.8672944

0.5658357 -0.7471755 -1.630312 0.237402 1.112454 -8.838811 -0.3685 -0.4466 1.1658 -0.4806637 -0.2157227 -0.04956735 -3.018537 -2.036556 -7.917651 0.7544 0.349 0.76 0.99081

0.5658357 -0.7471755 -1.630312 0.237402 1.112454 -8.838811 -0.3685 -0.4466 1.1658 -0.4806637 -0.2157227 -0.04956735 -3.018537 -2.036556 -7.917651 0.7544 0.349 0.76 0.99081

0.7293731 -1.048419 -1.446703 0.17658 1.215459 -8.790741 -0.3685 -0.4466 1.1658 -0.4806637 -0.2157227 -0.04956735 -3.018537 -2.036556 -7.917651 0.7544 0.349 0.76 0.99081

-0.02303835 -0.9717993 -1.309346 -0.026487 0.864261 -8.921214 -0.3423 -0.454 1.1711 -0.4806637 -0.2157227 -0.04956735 -3.018537 -2.036556 -7.917651 0.7544 0.349 0.76 0.99081

-0.02303835 -0.9717993 -1.309346 -0.026487 0.864261 -8.921214 -0.3423 -0.454 1.1711 -0.4806637 -0.2157227 -0.04956735 -3.018537 -2.036556 -7.917651 0.7544 0.349 0.76 1.079419

-0.2188643 -1.163437 -1.225745 -0.097119 1.015335 -8.886879 -0.3423 -0.454 1.1711 -0.4806637 -0.2157227 -0.04956735 -3.018537 -2.036556 -7.917651 0.7544 0.349 0.76 1.079419

0.1504474 -1.323658 -1.178272 -0.25506 1.4715 -8.820171 -0.2856 -0.4691 1.1786 -0.4806637 -0.2157227 -0.04956735 -3.018537 -2.036556 -7.917651 0.7544 0.349 0.76 1.079419

0.1504474 -1.323658 -1.178272 -0.25506 1.4715 -8.820171 -0.2856 -0.4691 1.1786 -0.4806637 -0.2157227 -0.04956735 -3.018537 -2.036556 -7.917651 0.7544 0.349 0.76 1.079419

0.3396411 -1.313884 -1.06692 -0.612144 1.590201 -8.914348 -0.2856 -0.4691 1.1786 -0.4806637 -0.2157227 -0.04956735 -3.018537 -2.036556 -7.917651 0.7544 0.349 0.76 1.150575

0.3396411 -1.313884 -1.06692 -0.612144 1.590201 -8.914348 -0.2856 -0.4691 1.1786 -0.4806637 -0.2157227 -0.04956735 -3.018537 -2.036556 -7.917651 0.7544 0.349 0.76 1.150575

0.1171116 -1.340413 -0.9623745 -0.974133 1.398906 -9.076212 -0.2409 -0.4819 1.1765 -0.4806637 -0.2157227 -0.04956735 -3.018537 -2.036556 -7.917651 0.7544 0.349 0.76 1.150575

-0.2462659 -1.211084 -0.8965756 -1.316502 1.239003 -9.209628 -0.2409 -0.4819 1.1765 -0.4806637 -0.2157227 -0.04956735 -3.018537 -2.036556 -7.917651 0.7544 0.349 0.76 1.150575

-0.2462659 -1.211084 -0.8965756 -1.316502 1.239003 -9.209628 -0.2409 -0.4819 1.1765 -0.4806637 -0.2157227 -0.04956735 -3.018537 -2.036556 -7.917651 0.7544 0.349 0.76 1.192194

-0.2542945 -1.316327 -0.8503245 -1.535265 1.303749 -9.124282 -0.2024 -0.4876 1.1889 -0.4806637 -0.2157227 -0.04956735 -3.018537 -2.036556 -7.917651 0.7544 0.349 0.76 1.192194

-0.1206023 -1.307775 -0.7857472 -1.845261 1.446975 -9.135073 -0.1264 -0.4988 1.1914 -0.4806637 -0.2157227 -0.04956735 -3.018537 -2.036556 -7.917651 0.7544 0.349 0.76 1.192194

-0.1206023 -1.307775 -0.7857472 -1.845261 1.446975 -9.135073 -0.1264 -0.4988 1.1914 -0.4806637 -0.2157227 -0.04956735 -3.018537 -2.036556 -7.917651 0.7544 0.349 0.76 1.192194

-0.02617994 -1.299398 -0.6518804 -2.119941 1.602954 -9.206685 -0.1264 -0.4988 1.1914 -0.3619813 0.3122394 -0.0429351 -3.759192 -1.561752 -8.123662 0.7484 0.3261 0.7557 1.215018

-0.02617994 -1.299398 -0.6518804 -2.119941 1.602954 -9.206685 -0.1264 -0.4988 1.1914 -0.3778638 0.3211406 -0.1403245 -3.759192 -1.561752 -8.123662 0.7484 0.3261 0.7557 1.215018

-0.02617994 -1.299398 -0.6518804 -2.119941 1.602954 -9.206685 -0.1264 -0.4988 1.1914 -0.3778638 0.3211406 -0.1403245 -3.759192 -1.561752 -8.123662 0.7484 0.3261 0.7557 1.215018

-0.02617994 -1.299398 -0.6518804 -2.119941 1.602954 -9.206685 -0.1264 -0.4988 1.1914 -0.3778638 0.3211406 -0.1403245 -3.759192 -1.561752 -8.123662 0.7484 0.3261 0.7557 1.215018

0.5799729 -2.50734 0.498117 -3.252015 1.918836 -8.55334 -0.0055 -0.4925 1.1907 -0.3778638 0.3211406 -0.1403245 -3.759192 -1.561752 -8.123662 0.7484 0.3261 0.7557 1.236499

0.4461061 -2.103471 0.3839724 -3.951468 1.472481 -8.584731 0.0811 -0.4844 1.1816 -0.3778638 0.3211406 -0.1403245 -3.759192 -1.561752 -8.123662 0.7484 0.3261 0.7557 1.236499

0.4461061 -2.103471 0.3839724 -3.951468 1.472481 -8.584731 0.0811 -0.4844 1.1816 -0.3778638 0.3211406 -0.1403245 -3.759192 -1.561752 -8.123662 0.7484 0.3261 0.7557 1.236499

0.3295181 -1.363451 -0.008203047 -4.595004 0.9603991 -8.920234 0.0811 -0.4844 1.1816 -0.3778638 0.3211406 -0.1403245 -3.759192 -1.561752 -8.123662 0.7484 0.3261 0.7557 1.236499

0.3295181 -1.363451 -0.008203047 -4.595004 0.9603991 -8.920234 0.0811 -0.4844 1.1816 -0.3778638 0.3211406 -0.1403245 -3.759192 -1.561752 -8.123662 0.7484 0.3261 0.7557 1.228443

0.32882 -1.011244 -0.1949533 -4.978575 0.7269211 -9.047763 0.1772 -0.4696 1.1604 -0.3778638 0.3211406 -0.1403245 -3.759192 -1.561752 -8.123662 0.7484 0.3261 0.7557 1.228443

0.3960152 -1.010197 -0.1094321 -5.279742 0.711225 -9.00558 0.1772 -0.4696 1.1604 -0.3778638 0.3211406 -0.1403245 -3.759192 -1.561752 -8.123662 0.7484 0.3261 0.7557 1.228443

0.3960152 -1.010197 -0.1094321 -5.279742 0.711225 -9.00558 0.1772 -0.4696 1.1604 -0.3778638 0.3211406 -0.1403245 -3.759192 -1.561752 -8.123662 0.7484 0.3261 0.7557 1.228443

0.6796312 -1.06308 0.1014036 -5.540689 0.81423 -8.869222 0.2719 -0.4524 1.1556 -0.3778638 0.3211406 -0.1403245 -3.759192 -1.561752 -8.123662 0.7484 0.3261 0.7557 1.21099

0.4806637 -0.8672541 0.1418953 -5.834988 0.376704 -8.899632 0.3454 -0.4375 1.1535 -0.3778638 0.3211406 -0.1403245 -3.759192 -1.561752 -8.123662 0.7484 0.3261 0.7557 1.21099

0.1295034 -0.5771804 0.0996583 -6.117517 -0.056898 -8.949663 0.3454 -0.4375 1.1535 -0.3778638 0.3211406 -0.1403245 -3.759192 -1.561752 -8.123662 0.7484 0.3261 0.7557 1.21099

0.1295034 -0.5771804 0.0996583 -6.117517 -0.056898 -8.949663 0.3454 -0.4375 1.1535 -0.3944444 0.3047345 -0.29147 -2.159181 -0.414963 -8.503308 0.7484 0.3261 0.7557 1.21099

0.3193952 -0.6459463 0.02391101 -6.143023 -0.034335 -8.709318 0.3845 -0.4264 1.1425 -0.3944444 0.3047345 -0.29147 -2.159181 -0.414963 -8.503308 0.7484 0.3261 0.7557 1.20025

0.5211553 -0.8007571 0.01902409 -6.187167 -0.051012 -8.395398 0.3845 -0.4264 1.1425 -0.2288126 0.4653048 -0.1780236 -2.159181 -0.414963 -8.503308 0.6631 0.217 0.8415 1.20025

0.6510078 -0.7304202 -0.03281219 -6.438303 -0.253098 -8.301222 0.4134 -0.4167 1.1319 -0.2288126 0.4653048 -0.1780236 -2.159181 -0.414963 -8.503308 0.6631 0.217 0.8415 1.20025

0.6510078 -0.7304202 -0.03281219 -6.438303 -0.253098 -8.301222 0.4134 -0.4167 1.1319 -0.2288126 0.4653048 -0.1780236 -2.159181 -0.414963 -8.503308 0.6631 0.217 0.8415 1.20025

0.2965314 -0.5293583 0.0720821 -6.726717 -0.7171111 -8.263945 0.4134 -0.4167 1.1319 -0.4010766 -0.05235988 -0.2237512 -1.466595 0.381609 -8.856468 0.6209 0.1902 0.8573 1.180111

0.1293289 -0.4075344 0.08290314 -6.814026 -0.909387 -8.135433 0.4372 -0.4038 1.1047 -0.3047345 0.0715585 -0.2028073 -1.662795 0.558189 -8.974188 0.6087 0.1794 0.8604 1.180111

0.2652901 -0.4047419 0 -6.791463 -0.914292 -7.944139 0.4372 -0.4038 1.1047 -0.3047345 0.0715585 -0.2028073 -1.662795 0.558189 -8.974188 0.6087 0.1794 0.8604 1.180111

0.2652901 -0.4047419 0 -6.791463 -0.914292 -7.944139 0.4372 -0.4038 1.1047 -0.2139774 0.1654572 -0.156556 -1.660833 0.703377 -9.046782 0.6087 0.1794 0.8604 1.180111

0.2199115 -0.233176 -0.1209513 -6.865038 -1.036917 -7.918633 0.4816 -0.3769 1.0676 -0.2403318 0.1164135 -0.1204277 -1.49112 0.693567 -8.982037 0.6057 0.1542 0.864 1.172056

0.214501 -0.09075712 -0.2769837 -6.863076 -1.078119 -7.869583 0.5117 -0.3693 1.0483 -0.307527 0.02635447 -0.09372418 -1.410678 0.659232 -8.911405 0.6057 0.1542 0.864 1.172056

0.2160718 -0.1890192 -0.1692969 -6.829722 -1.119321 -7.768539 0.5117 -0.3693 1.0483 -0.307527 0.02635447 -0.09372418 -1.410678 0.659232 -8.911405 0.6057 0.1542 0.864 1.172056

0.2160718 -0.1890192 -0.1692969 -6.829722 -1.119321 -7.768539 0.5117 -0.3693 1.0483 -0.2638938 0.05585054 -0.06318092 -1.501911 0.7298641 -8.92612 0.5977 0.1413 0.8774 1.172056

0.1347394 -0.2117084 -0.05445427 -6.815007 -1.134036 -7.680249 0.5256 -0.3658 1.0393 -0.236143 0.09407324 -0.04625123 -1.545075 0.762237 -8.912386 0.6033 0.136 0.8735 1.169371

0.1321214 -0.06178465 -0.0158825 -6.859152 -1.224288 -7.753825 0.5256 -0.3658 1.0393 -0.2342232 0.06492625 -0.03700098 -1.522512 0.7318261 -8.847639 0.6033 0.136 0.8735 1.169371

-0.01675516 0.06230825 -0.1940806 -6.786558 -1.346913 -7.726356 0.5167 -0.3421 1.0307 -0.2342232 0.06492625 -0.03700098 -1.522512 0.7318261 -8.847639 0.6033 0.136 0.8735 1.169371

-0.01675516 0.06230825 -0.1940806 -6.786558 -1.346913 -7.726356 0.5167 -0.3421 1.0307 -0.2342232 0.06492625 -0.03700098 -1.522512 0.7318261 -8.847639 0.6033 0.136 0.8735 1.169371

0.01832596 0.0296706 -0.2528982 -6.603111 -1.233117 -7.58313 0.5167 -0.3421 1.0307 -0.2085668 0.03560472 -0.108734 -1.71675 1.002582 -8.942797 0.5988 0.1475 0.8777 1.172056

-0.03141592 0.005235988 0.026529 -6.600168 -0.945684 -7.601769 0.5102 -0.3229 1.0166 -0.129678 0.1183333 -0.1438151 -1.852128 1.168371 -8.986941 0.5926 0.1362 0.8901 1.172056

-0.03141592 0.005235988 0.026529 -6.600168 -0.945684 -7.601769 0.5102 -0.3229 1.0166 -0.129678 0.1183333 -0.1438151 -1.852128 1.168371 -8.986941 0.5926 0.1362 0.8901 1.172056

0.06544985 0.1052434 0.1946042 -6.713964 -0.8740711 -7.825437 0.5157 -0.3261 1.002 -0.02600541 0.1570796 -0.180467 -1.810926 1.260585 -9.01539 0.5926 0.1362 0.8901 1.172056

-0.1118756 0.02111848 0.1703441 -6.843456 -0.859356 -7.853886 0.5157 -0.3261 1.002 0.03857178 0.084823 -0.2138028 -1.607859 1.241946 -9.01539 0.5836 0.1209 0.8929 1.157288

0.2584833 -0.1712168 -0.08569566 -7.078896 -0.867204 -7.996131 0.5097 -0.3303 1.0042 0.03857178 0.084823 -0.2138028 -1.607859 1.241946 -9.01539 0.5836 0.1209 0.8929 1.157288

0.2584833 -0.1712168 -0.08569566 -7.078896 -0.867204 -7.996131 0.5097 -0.3303 1.0042 0.0424115 -0.05201081 -0.2197369 -1.34397 1.163466 -8.967321 0.5836 0.1209 0.8929 1.157288

0.04206244 -0.05358161 -0.134914 -7.205445 -1.00062 -7.921576 0.5097 -0.3303 1.0042 -0.01518436 -0.2124066 -0.1953023 -1.078119 1.072233 -8.980075 0.5817 0.1205 0.8965 1.157288

0.005759587 0.02687807 -0.1303761 -6.99453 -0.857394 -7.591959 0.515 -0.3308 1.0077 -0.01518436 -0.2124066 -0.1953023 -1.078119 1.072233 -8.980075 0.5817 0.1205 0.8965 1.137149

0.08901179 0.1080359 -0.2316052 -6.859152 -0.8907481 -7.370253 0.515 -0.3308 1.0077 -0.1003564 -0.2424262 -0.1628392 -1.114416 1.06929 -9.000675 0.5875 0.1181 0.8957 1.137149

0.08901179 0.1080359 -0.2316052 -6.859152 -0.8907481 -7.370253 0.515 -0.3308 1.0077 -0.06003933 -0.1373574 -0.09058259 -1.416564 1.165428 -8.99577 0.5875 0.1181 0.8957 1.137149

-0.06510078 0.05305801 -0.1603958 -6.721812 -0.9937531 -7.22016 0.5022 -0.3234 1.0093 -0.06003933 -0.1373574 -0.09058259 -1.416564 1.165428 -8.99577 0.5875 0.1181 0.8957 1.137149

-0.009948377 0.03263766 -0.1343904 -6.687477 -1.011411 -7.275096 0.4866 -0.3148 1.0073 0.03351032 0.06265732 -0.0561996 -1.719693 1.219383 -8.954569 0.5946 0.1216 0.8859 1.11164

-0.009948377 0.03263766 -0.1343904 -6.687477 -1.011411 -7.275096 0.4866 -0.3148 1.0073 0.124442 0.2097886 -0.05218535 -1.786401 1.241946 -8.932986 0.5946 0.1216 0.8859 1.11164

0.03106686 -0.008028515 -0.1668535 -6.695325 -1.072233 -7.320222 0.4866 -0.3148 1.0073 0.124442 0.2097886 -0.05218535 -1.786401 1.241946 -8.932986 0.5946 0.1216 0.8859 1.11164

0.1169371 -0.01972222 -0.1333431 -6.645294 -1.149732 -7.355538 0.4778 -0.3222 1.0064 0.1916371 0.1979203 -0.05078908 -1.61865 1.198782 -8.87805 0.6019 0.1185 0.8818 1.11164

0.1169371 -0.01972222 -0.1333431 -6.645294 -1.149732 -7.355538 0.4778 -0.3222 1.0064 0.08901179 0.03787364 -0.07871436 -1.398906 1.011411 -8.697547 0.6019 0.1185 0.8818 1.096872

0.1302016 -0.1164135 -0.0863938 -6.597225 -1.388115 -7.307469 0.4778 -0.3222 1.0064 0.08901179 0.03787364 -0.07871436 -1.398906 1.011411 -8.697547 0.6019 0.1185 0.8818 1.096872

0.08447394 -0.03246313 -0.10088 -6.830704 -1.740294 -7.55272 0.4703 -0.3134 1.0009 -0.0413643 -0.1773254 -0.084823 -1.207611 0.820116 -8.526853 0.5961 0.1172 0.8801 1.096872

0.08447394 -0.03246313 -0.10088 -6.830704 -1.740294 -7.55272 0.4703 -0.3134 1.0009 -0.0413643 -0.1773254 -0.084823 -1.207611 0.820116 -8.526853 0.5961 0.1172 0.8801 1.096872

0.0008726646 0.03193953 -0.09145525 -7.022979 -2.032632 -7.783254 0.4703 -0.3134 1.0009 -0.1246165 -0.5260422 -0.0720821 -1.241946 0.797553 -8.492517 0.5974 0.1581 0.8657 1.09553

-0.1289798 0.1823869 -0.1579523 -7.156395 -2.297502 -7.974549 0.4757 -0.3032 1.0037 -0.1246165 -0.5260422 -0.0720821 -1.241946 0.797553 -8.492517 0.5974 0.1581 0.8657 1.09553

-0.1485275 0.2602286 -0.1724385 -7.148547 -2.365191 -8.067744 0.4757 -0.3032 1.0037 -0.1295034 -0.5932375 -0.07993608 -1.444032 0.8809381 -8.642611 0.5974 0.1581 0.8657 1.09553

-0.1485275 0.2602286 -0.1724385 -7.148547 -2.365191 -8.067744 0.4757 -0.3032 1.0037 -0.08936086 -0.5684537 -0.09634218 -1.760895 0.933912 -8.825077 0.6011 0.1591 0.8568 1.09553

-0.1968731 0.3441789 -0.2586578 -7.06222 -2.373039 -8.180559 0.4869 -0.3088 1.0214 -0.08936086 -0.5684537 -0.09634218 -1.760895 0.933912 -8.825077 0.6011 0.1591 0.8568 1.110298

-0.158825 0.2478368 -0.24103 -6.879754 -2.24649 -8.198217 0.4935 -0.3079 1.0203 -0.03682645 -0.5279621 -0.1279326 -2.181744 1.040841 -8.977131 0.607 0.1503 0.8484 1.110298

-0.2405064 0.2460914 -0.2406809 -6.792444 -2.233737 -8.301222 0.4935 -0.3079 1.0203 0.0572468 -0.4440118 -0.1747075 -2.57022 1.187991 -9.075232 0.607 0.1503 0.8484 1.110298

-0.2405064 0.2460914 -0.2406809 -6.792444 -2.233737 -8.301222 0.4935 -0.3079 1.0203 0.0572468 -0.4440118 -0.1747075 -2.57022 1.187991 -9.075232 0.607 0.1503 0.8484 1.110298

-0.2405064 0.2460914 -0.2406809 -6.792444 -2.233737 -8.301222 0.4935 -0.3079 1.0203 0.0572468 -0.4440118 -0.1747075 -2.57022 1.187991 -9.075232 0.607 0.1503 0.8484 1.129094

-0.1199041 0.1956514 -0.2438225 -6.735547 -2.144466 -8.359101 0.4753 -0.3061 1.0225 0.1869248 -0.3265511 -0.2270673 -2.804679 1.24587 -9.136053 0.6285 0.1403 0.8472 1.129094

-0.1516691 0.1780236 -0.2787291 -6.684534 -2.210193 -8.404227 0.4753 -0.3061 1.0225 0.2558653 -0.3097959 -0.2820452 -2.820375 1.169352 -9.057573 0.6285 0.1403 0.8472 1.129094

-0.1516691 0.1780236 -0.2787291 -6.684534 -2.210193 -8.404227 0.4753 -0.3061 1.0225 0.2558653 -0.3097959 -0.2820452 -2.820375 1.169352 -9.057573 0.6285 0.1403 0.8472 1.129094

-0.1494002 0.2481858 -0.2839651 -6.678648 -2.258262 -8.474859 0.448 -0.3114 1.0262 0.2391101 -0.3813545 -0.3092723 -2.793888 1.041822 -8.872165 0.6454 0.1333 0.8396 1.143862

-0.1832596 0.3040363 -0.3089233 -6.584472 -2.367153 -8.439544 0.448 -0.3114 1.0262 0.1946042 -0.4921829 -0.315381 -2.758572 0.8897671 -8.689698 0.6454 0.1333 0.8396 1.143862

-0.1832596 0.3040363 -0.3089233 -6.584472 -2.367153 -8.439544 0.448 -0.3114 1.0262 0.1298525 -0.6220353 -0.3748967 -2.751705 0.721035 -8.600428 0.6503 0.1418 0.834 1.143862

-0.1832596 0.3040363 -0.3089233 -6.584472 -2.367153 -8.439544 0.448 -0.3114 1.0262 0.1298525 -0.6220353 -0.3748967 -2.751705 0.721035 -8.600428 0.6503 0.1418 0.834 1.143862

-0.2616248 0.4087561 -0.4714134 -6.152833 -2.37402 -8.324766 0.4443 -0.3381 1.0189 0.1047198 -0.6935939 -0.448026 -2.868444 0.673947 -8.566092 0.6503 0.1418 0.834 1.151917

-0.2616248 0.4087561 -0.4714134 -6.152833 -2.37402 -8.324766 0.4443 -0.3381 1.0189 0.1047198 -0.6935939 -0.448026 -2.868444 0.673947 -8.566092 0.6503 0.1418 0.834 1.151917

-0.2378884 0.4244641 -0.5351179 -5.978214 -2.322027 -8.210971 0.4443 -0.3381 1.0189 0.1047198 -0.6935939 -0.448026 -2.868444 0.673947 -8.566092 0.6503 0.1418 0.834 1.151917

-0.1673771 0.3693117 -0.5510004 -5.773185 -2.251395 -8.047143 0.4372 -0.355 1.0383 0.1047198 -0.6935939 -0.448026 -2.868444 0.673947 -8.566092 0.6503 0.1418 0.834 1.151917

-0.1673771 0.3693117 -0.5510004 -5.773185 -2.251395 -8.047143 0.4372 -0.355 1.0383 0.2600541 -0.3525565 -0.6904523 -4.087827 0.654327 -8.524891 0.734 0.2188 0.7899 1.157288

-0.2590069 0.3639011 -0.6408849 -5.66037 -2.361267 -7.975531 0.4372 -0.355 1.0383 0.2600541 -0.3525565 -0.6904523 -4.087827 0.654327 -8.524891 0.734 0.2188 0.7899 1.157288

-0.2619739 0.3166027 -0.6216863 -5.574042 -2.400507 -7.896069 0.4365 -0.3609 1.0535 0.2497566 -0.3193952 -0.7239625 -4.094694 0.503253 -8.422867 0.734 0.2188 0.7899 1.157288

-0.2619739 0.3166027 -0.6216863 -5.574042 -2.400507 -7.896069 0.4365 -0.3609 1.0535 0.2476622 -0.2693043 -0.7414159 -4.043682 0.37278 -8.352235 0.76 0.2419 0.7848 1.157288

-0.2619739 0.3166027 -0.6216863 -5.574042 -2.400507 -7.896069 0.4365 -0.3609 1.0535 0.2476622 -0.2693043 -0.7414159 -4.043682 0.37278 -8.352235 0.76 0.2419 0.7848 1.157288

-0.2619739 0.3166027 -0.6216863 -5.574042 -2.400507 -7.896069 0.4365 -0.3609 1.0535 0.1775 -0.2602286 -0.7524114 -3.987765 0.206991 -8.290431 0.76 0.2419 0.7848 1.157288

-0.2619739 0.3166027 -0.6216863 -5.574042 -2.400507 -7.896069 0.4365 -0.3609 1.0535 0.1199041 -0.2303835 -0.7634071 -3.995613 0.046107 -8.226666 0.7574 0.2608 0.7685 1.157288

-0.3378958 0.3309144 -0.6728244 -5.478885 -2.532942 -7.77933 0.4365 -0.3609 1.0535 0.1199041 -0.2303835 -0.7634071 -3.995613 0.046107 -8.226666 0.7574 0.2608 0.7685 1.157288

-0.3378958 0.3309144 -0.6728244 -5.478885 -2.532942 -7.77933 0.4365 -0.3609 1.0535 0.1207768 -0.1254892 -0.7878416 -4.142763 -0.046107 -8.188407 0.7574 0.2608 0.7685 1.172056

-0.3378958 0.3309144 -0.6728244 -5.478885 -2.532942 -7.77933 0.4365 -0.3609 1.0535 0.1530654 0.007679448 -0.8093091 -4.347792 -0.097119 -8.128566 0.7522 0.2856 0.7531 1.172056

-0.3378958 0.3309144 -0.6728244 -5.478885 -2.532942 -7.77933 0.4365 -0.3609 1.0535 0.1966986 0.1312488 -0.8218755 -4.441968 -0.182466 -8.065783 0.7522 0.2856 0.7531 1.172056

-0.3378958 0.3309144 -0.6728244 -5.478885 -2.532942 -7.77933 0.4365 -0.3609 1.0535 0.1966986 0.1312488 -0.8218755 -4.441968 -0.182466 -8.065783 0.7522 0.2856 0.7531 1.172056

-0.5532694 0.4333653 -0.7557275 -5.137497 -2.61927 -7.372215 0.3978 -0.3676 1.0749 0.2064724 0.1699951 -0.8859291 -4.332096 -0.318825 -8.038315 0.7476 0.3135 0.7339 1.173398

-0.5532694 0.4333653 -0.7557275 -5.137497 -2.61927 -7.372215 0.3978 -0.3676 1.0749 0.2064724 0.1699951 -0.8859291 -4.332096 -0.318825 -8.038315 0.7476 0.3135 0.7339 1.173398

-0.5532694 0.4333653 -0.7557275 -5.137497 -2.61927 -7.372215 0.3978 -0.3676 1.0749 0.1171116 0.1235693 -0.9496337 -4.154535 -0.457146 -8.001036 0.7476 0.3135 0.7339 1.173398

-0.5532694 0.4333653 -0.7557275 -5.137497 -2.61927 -7.372215 0.3978 -0.3676 1.0749 0.03944444 0.03351032 -0.9679596 -3.976974 -0.570942 -7.951005 0.739 0.3366 0.7235 1.173398

-0.5532694 0.4333653 -0.7557275 -5.137497 -2.61927 -7.372215 0.3978 -0.3676 1.0749 -0.02216568 -0.02007129 -0.9817477 -3.827862 -0.7102441 -7.915689 0.7356 0.36 0.7287 1.177426

-0.5532694 0.4333653 -0.7557275 -5.137497 -2.61927 -7.372215 0.3978 -0.3676 1.0749 -0.02216568 -0.02007129 -0.9817477 -3.827862 -0.7102441 -7.915689 0.7356 0.36 0.7287 1.177426

-0.5640904 -0.09180433 -0.8902924 -4.652883 -1.816812 -7.745976 0.3842 -0.4064 1.1289 -0.05393067 -0.02042035 -1.012465 -3.802356 -0.802458 -7.928442 0.7356 0.36 0.7287 1.177426

-0.5490806 -0.1078613 -0.9314822 -4.744116 -1.74618 -7.853886 0.3706 -0.4259 1.1424 -0.04834562 0.05009095 -0.9843657 -3.929886 -0.797553 -8.016732 0.7228 0.3721 0.7285 1.177426

-0.4967207 -0.1144936 -0.9625491 -4.747059 -1.634346 -7.849962 0.3672 -0.4456 1.1401 -0.04834562 0.05009095 -0.9843657 -3.929886 -0.797553 -8.016732 0.7228 0.3721 0.7285 1.174741

-0.4761258 -0.1399754 -1.017178 -4.623453 -1.600011 -7.784235 0.3672 -0.4456 1.1401 0.008203047 0.1532399 -0.9602802 -3.98286 -0.828945 -8.084421 0.7228 0.3721 0.7285 1.174741

-0.4761258 -0.1399754 -1.017178 -4.623453 -1.600011 -7.784235 0.3672 -0.4456 1.1401 0.008203047 0.1532399 -0.9602802 -3.98286 -0.828945 -8.084421 0.7228 0.3721 0.7285 1.174741

-0.4752531 -0.1977458 -1.011942 -4.451778 -1.551942 -7.728319 0.3671 -0.4585 1.1444 -0.02146755 0.174882 -1.024683 -3.890646 -0.962361 -8.17173 0.7019 0.3932 0.7213 1.174741

-0.4646067 -0.2485349 -0.9628981 -4.412539 -1.518588 -7.728319 0.3671 -0.4585 1.1444 -0.02146755 0.174882 -1.024683 -3.890646 -0.962361 -8.17173 0.7019 0.3932 0.7213 1.174741

-0.4646067 -0.2485349 -0.9628981 -4.412539 -1.518588 -7.719489 0.3671 -0.4585 1.1444 -0.06632251 0.1715659 -1.111949 -3.822957 -1.014354 -8.206065 0.7019 0.3932 0.7213 1.169371

-0.46897 -0.3089233 -0.9285152 -4.472379 -1.517607 -7.77933 0.3703 -0.4696 1.1356 0.02565634 0.3661701 -1.183159 -3.937734 -1.104606 -8.080498 0.6885 0.4656 0.7321 1.169371

-0.46897 -0.3089233 -0.9285152 -4.472379 -1.517607 -7.77933 0.3703 -0.4696 1.1356 0.02565634 0.3661701 -1.183159 -3.937734 -1.104606 -8.080498 0.6885 0.4656 0.7321 1.169371

-0.4694936 -0.3214897 -0.9231046 -4.60089 -1.516626 -7.937271 0.3703 -0.4696 1.1356 0.09651671 0.4302236 -1.207244 -3.759192 -1.217421 -8.084421 0.6575 0.4859 0.7446 1.145205

-0.4394739 -0.3361504 -0.8932595 -4.793166 -1.524474 -8.086383 0.3796 -0.4885 1.1399 0.06614798 0.331438 -1.252099 -3.398184 -1.396944 -8.098155 0.6575 0.4859 0.7446 1.145205

-0.4143412 -0.3169518 -0.8967502 -4.996233 -1.525455 -8.207047 0.3796 -0.4885 1.1399 -0.02094395 0.1609194 -1.249481 -3.06072 -1.547037 -8.045181 0.617 0.5094 0.7375 1.145205

-0.4143412 -0.3169518 -0.8967502 -4.996233 -1.525455 -8.207047 0.3796 -0.4885 1.1399 -0.02094395 0.1609194 -1.249481 -3.06072 -1.547037 -8.045181 0.617 0.5094 0.7375 1.145205

-0.3963642 -0.2452188 -0.9276425 -5.188509 -1.519569 -8.323786 0.3916 -0.503 1.1744 -0.1164135 -0.01780236 -1.20515 -2.8449 -1.666719 -8.052049 0.5689 0.5511 0.7205 1.118353

-0.3963642 -0.2452188 -0.9276425 -5.188509 -1.519569 -8.323786 0.3916 -0.503 1.1744 -0.1445132 -0.1181588 -1.192758 -2.767401 -1.752066 -8.121699 0.5689 0.5511 0.7205 1.118353

-0.3213151 -0.1445132 -0.9203121 -5.553441 -1.561752 -8.535682 0.4141 -0.5149 1.1582 -0.1445132 -0.1181588 -1.192758 -2.767401 -1.752066 -8.121699 0.5689 0.5511 0.7205 1.118353

-0.3272492 -0.09302605 -0.9524261 -5.629959 -1.626498 -8.614161 0.4188 -0.5279 1.1733 -0.124442 -0.1541126 -1.207942 -2.755629 -1.75599 -8.188407 0.5419 0.5847 0.7109 1.118353

-0.3272492 -0.09302605 -0.9524261 -5.629959 -1.626498 -8.614161 0.4188 -0.5279 1.1733 -0.124442 -0.1541126 -1.207942 -2.755629 -1.75599 -8.188407 0.5419 0.5847 0.7109 1.086132

-0.3132866 -0.05742133 -0.946143 -5.64958 -1.621593 -8.637706 0.4188 -0.5279 1.1733 -0.1143191 -0.1432915 -1.172163 -2.828223 -1.766781 -8.27964 0.5419 0.5847 0.7109 1.086132

-0.2047271 -0.06335545 -0.9189159 -5.568156 -1.555866 -8.674002 0.4106 -0.5345 1.1636 -0.1143191 -0.1432915 -1.172163 -2.828223 -1.766781 -8.27964 0.5419 0.5847 0.7109 1.086132

-0.2047271 -0.06335545 -0.9189159 -5.568156 -1.555866 -8.674002 0.4106 -0.5345 1.1636 -0.1143191 -0.1432915 -1.172163 -2.828223 -1.766781 -8.27964 0.5419 0.5847 0.7109 1.086132

-0.1808161 -0.03543018 -0.8951794 -5.495562 -1.610802 -8.687737 0.4106 -0.5345 1.1636 -0.1143191 -0.1432915 -1.172163 -2.828223 -1.766781 -8.27964 0.5419 0.5847 0.7109 1.04854

-0.1898918 0.001745329 -0.8932595 -5.443569 -1.719693 -8.66223 0.4171 -0.5378 1.1516 -0.1143191 -0.1432915 -1.172163 -2.828223 -1.766781 -8.27964 0.5419 0.5847 0.7109 1.04854

-0.1898918 0.001745329 -0.8932595 -5.443569 -1.719693 -8.66223 0.4171 -0.5378 1.1516 -0.1143191 -0.1432915 -1.172163 -2.828223 -1.766781 -8.27964 0.5419 0.5847 0.7109 1.04854

-0.2204351 0.0408407 -0.8861037 -5.420025 -1.812888 -8.625934 0.4171 -0.5378 1.1516 -0.1143191 -0.1432915 -1.172163 -2.828223 -1.766781 -8.27964 0.5419 0.5847 0.7109 1.04854

-0.1919862 0.04171337 -0.800408 -5.386671 -1.816812 -8.638686 0.4407 -0.5364 1.1519 -0.1143191 -0.1432915 -1.172163 -2.828223 -1.766781 -8.27964 0.5419 0.5847 0.7109 1.006921

-0.1919862 0.04171337 -0.800408 -5.386671 -1.816812 -8.638686 0.4407 -0.5364 1.1519 -0.1143191 -0.1432915 -1.172163 -2.828223 -1.766781 -8.27964 0.5419 0.5847 0.7109 1.006921

-0.1548107 0.005759587 -0.744732 -5.295438 -1.835451 -8.622009 0.4407 -0.5364 1.1519 -0.1143191 -0.1432915 -1.172163 -2.828223 -1.766781 -8.27964 0.5419 0.5847 0.7109 1.006921

-0.1548107 0.005759587 -0.744732 -5.295438 -1.835451 -8.622009 0.4407 -0.5364 1.1519 -0.1143191 -0.1432915 -1.172163 -2.828223 -1.766781 -8.27964 0.5419 0.5847 0.7109 1.006921

-0.1603958 0.01448623 -0.7433357 -5.21892 -1.868805 -8.558244 0.443 -0.5423 1.1467 0.01972222 -0.1335177 -1.207942 -2.918475 -1.771686 -8.462107 0.4864 0.6354 0.7452 0.9505332

-0.1132719 -0.01745329 -0.6646214 -5.144364 -1.876653 -8.38755 0.4396 -0.5476 1.1392 -0.01466077 -0.1473058 -1.233075 -2.900817 -1.913931 -8.518023 0.4864 0.6354 0.7452 0.9505332

-0.1769764 -0.01815142 -0.5897468 -5.076675 -1.984563 -8.210971 0.4396 -0.5476 1.1392 -0.01466077 -0.1473058 -1.233075 -2.900817 -1.913931 -8.518023 0.4864 0.6354 0.7452 0.9505332

-0.1769764 -0.01815142 -0.5897468 -5.076675 -1.984563 -8.210971 0.4396 -0.5476 1.1392 -0.01466077 -0.1473058 -1.233075 -2.900817 -1.913931 -8.518023 0.4864 0.6354 0.7452 0.9505332

-0.1769764 -0.01815142 -0.5897468 -5.076675 -1.984563 -8.210971 0.4396 -0.5476 1.1392 -0.01466077 -0.1473058 -1.233075 -2.900817 -1.913931 -8.518023 0.4864 0.6354 0.7452 0.8874328

-0.1769764 -0.01815142 -0.5897468 -5.076675 -1.984563 -8.210971 0.4396 -0.5476 1.1392 0.2508038 0.06405359 -1.361706 -2.518227 -2.280825 -8.514099 0.3827 0.7008 0.7178 0.8874328

-0.1769764 -0.01815142 -0.5897468 -5.076675 -1.984563 -8.210971 0.4396 -0.5476 1.1392 0.2508038 0.06405359 -1.361706 -2.518227 -2.280825 -8.514099 0.3827 0.7008 0.7178 0.8874328

-0.1377065 -0.2933898 -0.2832669 -4.829463 -1.926684 -7.796988 0.4456 -0.5633 1.1421 0.2823943 0.1267109 -1.329941 -2.478987 -2.375982 -8.512137 0.3386 0.7209 0.7285 0.8874328

-0.1377065 -0.2933898 -0.2832669 -4.829463 -1.926684 -7.796988 0.4456 -0.5633 1.1421 0.2823943 0.1267109 -1.329941 -2.478987 -2.375982 -8.512137 0.3386 0.7209 0.7285 0.8874328

-0.2736676 -0.2115339 -0.3199188 -4.868703 -2.026746 -7.796008 0.4349 -0.5556 1.1665 0.3394665 0.2336996 -1.320167 -2.47212 -2.485854 -8.492517 0.3386 0.7209 0.7285 0.8229899

-0.2736676 -0.2115339 -0.3199188 -4.868703 -2.026746 -7.796008 0.4349 -0.5556 1.1665 0.4043928 0.3942699 -1.306553 -2.529999 -2.579049 -8.479765 0.3045 0.7544 0.7307 0.8229899

-0.3164282 -0.190939 -0.3108431 -4.852026 -1.997316 -7.776387 0.4349 -0.5556 1.1665 0.4858997 0.5656612 -1.310393 -2.459367 -2.695788 -8.48467 0.3045 0.7544 0.7307 0.8229899

-0.2541199 -0.2549926 -0.2548181 -4.851045 -1.882539 -7.776387 0.4443 -0.5619 1.1586 0.4858997 0.5656612 -1.310393 -2.459367 -2.695788 -8.48467 0.3045 0.7544 0.7307 0.8229899

-0.2169444 -0.2893756 -0.2426008 -4.866741 -1.789344 -7.799931 0.4443 -0.5619 1.1586 0.5084144 0.6058038 -1.369734 -2.088549 -2.855691 -8.432676 0.2633 0.7731 0.7176 0.7478065

-0.2169444 -0.2893756 -0.2426008 -4.866741 -1.789344 -7.799931 0.4443 -0.5619 1.1586 0.4494223 0.5002114 -1.387362 -1.676529 -3.096036 -8.275716 0.2633 0.7731 0.7176 0.7478065

-0.1698205 -0.3038618 -0.2417281 -4.891266 -1.745199 -7.8274 0.4741 -0.5687 1.1548 0.3637266 0.3886848 -1.284562 -1.369476 -3.382488 -8.064801 0.2235 0.7902 0.712 0.7478065

-0.1162389 -0.3183481 -0.2506293 -4.931487 -1.698111 -7.787179 0.5094 -0.5774 1.1559 0.3637266 0.3886848 -1.284562 -1.369476 -3.382488 -8.064801 0.2235 0.7902 0.712 0.7478065

-0.1162389 -0.3183481 -0.2506293 -4.931487 -1.698111 -7.787179 0.5094 -0.5774 1.1559 0.3021165 0.3307399 -1.165007 -1.132074 -3.626757 -7.923537 0.2235 0.7902 0.712 0.6833636

-0.1162389 -0.3183481 -0.2506293 -4.931487 -1.698111 -7.787179 0.5094 -0.5774 1.1559 0.3021165 0.3307399 -1.165007 -1.132074 -3.626757 -7.923537 0.2235 0.7902 0.712 0.6833636

-0.1366593 -0.2698279 -0.2905973 -5.029587 -1.742256 -7.816608 0.5094 -0.5774 1.1559 0.3021165 0.3307399 -1.165007 -1.132074 -3.626757 -7.923537 0.2235 0.7902 0.712 0.6833636

-0.08011062 -0.2392846 -0.304909 -5.072751 -1.681434 -7.839171 0.5297 -0.5706 1.1484 0.1389282 0.0694641 -0.9868092 -0.06867 -4.095675 -7.684173 0.0807 0.8774 0.6728 0.6833636

-0.08011062 -0.2392846 -0.304909 -5.072751 -1.681434 -7.839171 0.5297 -0.5706 1.1484 0.0970403 0.03351032 -0.9470156 0.103005 -4.183965 -7.735186 0.0807 0.8774 0.6728 0.6363739

-0.08307768 -0.166679 -0.320966 -5.137497 -1.722636 -7.793064 0.5297 -0.5706 1.1484 0.0970403 0.03351032 -0.9470156 0.103005 -4.183965 -7.735186 0.0807 0.8774 0.6728 0.6363739

-0.08307768 -0.166679 -0.320966 -5.137497 -1.722636 -7.793064 0.5297 -0.5706 1.1484 0.05637414 -0.01884956 -0.917345 0.192276 -4.243806 -7.765596 0.0455 0.8915 0.6528 0.6363739

-0.07033677 -0.1502728 -0.3509857 -5.110029 -1.699092 -7.762653 0.5345 -0.5513 1.1131 0.06056292 0.006981317 -0.8557349 0.177561 -4.196718 -7.829361 0.0455 0.8915 0.6528 0.6363739

-0.07033677 -0.1502728 -0.3509857 -5.110029 -1.699092 -7.762653 0.5345 -0.5513 1.1131 0.06056292 0.006981317 -0.8557349 0.177561 -4.196718 -7.829361 0.0455 0.8915 0.6528 0.5853566

-0.1123992 -0.2078687 -0.254469 -5.302305 -1.753047 -7.833285 0.5549 -0.5798 1.1172 0.1164135 0.09005898 -0.8311257 0.178542 -4.175136 -7.908823 0.006 0.8949 0.6565 0.5853566

-0.1123992 -0.2078687 -0.254469 -5.302305 -1.753047 -7.833285 0.5549 -0.5798 1.1172 0.1164135 0.09005898 -0.8311257 0.178542 -4.175136 -7.908823 0.006 0.8949 0.6565 0.5853566

-0.082205 -0.2015855 -0.2403318 -5.391576 -1.724598 -7.923537 0.5801 -0.5921 1.1081 0.1345649 0.1373574 -0.8185595 0.238383 -4.190832 -7.952967 0.006 0.8949 0.6565 0.5853566

-0.08360127 -0.1802925 -0.1939061 -5.423949 -1.71675 -7.952967 0.5801 -0.5921 1.1081 0.1345649 0.1373574 -0.8185595 0.238383 -4.190832 -7.952967 0.006 0.8949 0.6565 0.5571628

-0.08360127 -0.1802925 -0.1939061 -5.423949 -1.71675 -7.952967 0.5801 -0.5921 1.1081 0.1345649 0.1373574 -0.8185595 0.238383 -4.190832 -7.952967 0.006 0.8949 0.6565 0.5571628

-0.0694641 -0.1680752 -0.1384046 -5.431797 -1.688301 -7.976511 0.6143 -0.6139 1.0994 0.1345649 0.1373574 -0.8185595 0.238383 -4.190832 -7.952967 0.006 0.8949 0.6565 0.5571628

-0.09162979 -0.1806416 -0.07522369 -5.441607 -1.742256 -7.928442 0.6143 -0.6139 1.0994 0.1345649 0.1373574 -0.8185595 0.238383 -4.190832 -7.952967 0.006 0.8949 0.6565 0.5571628

-0.09162979 -0.1806416 -0.07522369 -5.441607 -1.742256 -7.928442 0.6143 -0.6139 1.0994 0.1345649 0.1373574 -0.8185595 0.238383 -4.190832 -7.952967 0.006 0.8949 0.6565 0.516886

-0.1298525 -0.198793 -0.05305801 -5.432778 -1.794249 -7.901955 0.6119 -0.6088 1.0954 0.1345649 0.1373574 -0.8185595 0.238383 -4.190832 -7.952967 0.006 0.8949 0.6565 0.516886

-0.1818633 -0.1569051 -0.01064651 -5.524011 -1.850166 -7.907842 0.6119 -0.6088 1.0954 0.1345649 0.1373574 -0.8185595 0.238383 -4.190832 -7.952967 0.006 0.8949 0.6565 0.516886

-0.1818633 -0.1569051 -0.01064651 -5.524011 -1.850166 -7.907842 0.6119 -0.6088 1.0954 0.1345649 0.1373574 -0.8185595 0.238383 -4.190832 -7.952967 0.006 0.8949 0.6565 0.516886

-0.2139774 -0.1171116 0.04869469 -5.610339 -1.88352 -7.87743 0.6209 -0.5905 1.1042 0.1345649 0.1373574 -0.8185595 0.238383 -4.190832 -7.952967 0.006 0.8949 0.6565 0.4725815

-0.3040363 -0.08080874 0.03001966 -5.657427 -1.996335 -7.838191 0.6209 -0.5905 1.1042 0.1345649 0.1373574 -0.8185595 0.238383 -4.190832 -7.952967 0.006 0.8949 0.6565 0.4725815

-0.3040363 -0.08080874 0.03001966 -5.657427 -1.996335 -7.838191 0.6209 -0.5905 1.1042 0.1345649 0.1373574 -0.8185595 0.238383 -4.190832 -7.952967 0.006 0.8949 0.6565 0.4725815

-0.3661701 -0.03385939 0.0280998 -5.684896 -2.003202 -7.748919 0.6511 -0.6002 1.1028 0.1345649 0.1373574 -0.8185595 0.238383 -4.190832 -7.952967 0.006 0.8949 0.6565 0.4725815

-0.4049164 0.001047197 0.02391101 -5.622111 -1.888425 -7.656705 0.6639 -0.6209 1.0971 0.1345649 0.1373574 -0.8185595 0.238383 -4.190832 -7.952967 0.006 0.8949 0.6565 0.4524431

-0.3066543 -0.09983283 0.01710423 -5.372937 -1.533303 -7.59294 0.6639 -0.6209 1.0971 0.1345649 0.1373574 -0.8185595 0.238383 -4.190832 -7.952967 0.006 0.8949 0.6565 0.4524431

-0.3066543 -0.09983283 0.01710423 -5.372937 -1.533303 -7.59294 0.6639 -0.6209 1.0971 0.1345649 0.1373574 -0.8185595 0.238383 -4.190832 -7.952967 0.006 0.8949 0.6565 0.4524431

-0.03176499 -0.280998 -0.00122173 -5.134554 -1.127169 -7.670439 0.6647 -0.637 1.1153 0.1345649 0.1373574 -0.8185595 0.238383 -4.190832 -7.952967 0.006 0.8949 0.6565 0.4524431

-0.03176499 -0.280998 -0.00122173 -5.134554 -1.127169 -7.670439 0.6647 -0.637 1.1153 0.1345649 0.1373574 -0.8185595 0.238383 -4.190832 -7.952967 0.006 0.8949 0.6565 0.4524431

0.1172861 -0.2797763 -0.03996804 -5.14044 -1.024164 -7.753825 0.6647 -0.637 1.1153 0.1345649 0.1373574 -0.8185595 0.238383 -4.190832 -7.952967 0.006 0.8949 0.6565 0.428277

0.1776745 -0.2736676 -0.0301942 -5.220882 -1.104606 -7.755786 0.6828 -0.6488 1.1154 0.1345649 0.1373574 -0.8185595 0.238383 -4.190832 -7.952967 0.006 0.8949 0.6565 0.428277

0.177849 -0.2265437 -0.08936086 -5.33664 -1.272357 -7.850944 0.6828 -0.6488 1.1154 0.1345649 0.1373574 -0.8185595 0.238383 -4.190832 -7.952967 0.006 0.8949 0.6565 0.428277

0.177849 -0.2265437 -0.08936086 -5.33664 -1.272357 -7.850944 0.6828 -0.6488 1.1154 0.1345649 0.1373574 -0.8185595 0.238383 -4.190832 -7.952967 0.006 0.8949 0.6565 0.428277

0.1494002 -0.1731367 -0.09372418 -5.526954 -1.507797 -7.850944 0.6992 -0.6546 1.1129 0.1345649 0.1373574 -0.8185595 0.238383 -4.190832 -7.952967 0.006 0.8949 0.6565 0.4000832

0.03892084 -0.1214749 -0.07976155 -5.734926 -1.75599 -7.755786 0.6921 -0.6454 1.1199 0.1345649 0.1373574 -0.8185595 0.238383 -4.190832 -7.952967 0.006 0.8949 0.6565 0.4000832

0.03892084 -0.1214749 -0.07976155 -5.734926 -1.75599 -7.755786 0.6921 -0.6454 1.1199 0.1345649 0.1373574 -0.8185595 0.238383 -4.190832 -7.952967 0.006 0.8949 0.6565 0.4000832

-0.05270894 -0.08936086 -0.08604473 -5.879134 -1.929627 -7.72047 0.6921 -0.6454 1.1199 0.1345649 0.1373574 -0.8185595 0.238383 -4.190832 -7.952967 0.006 0.8949 0.6565 0.4000832

-0.09040805 -0.08621927 -0.1080359 -5.937012 -1.944342 -7.688097 0.6917 -0.6388 1.1149 0.1345649 0.1373574 -0.8185595 0.238383 -4.190832 -7.952967 0.006 0.8949 0.6565 0.3812873

-0.08342674 -0.1188569 -0.06981317 -5.958594 -1.861938 -7.684173 0.6917 -0.6388 1.1149 -0.003665191 0.0710349 -0.4286529 1.8639 -4.229091 -7.832304 -0.2796 0.8515 0.6121 0.3812873

-0.08342674 -0.1188569 -0.06981317 -5.958594 -1.861938 -7.684173 0.6917 -0.6388 1.1149 -0.003665191 0.0710349 -0.4286529 1.8639 -4.229091 -7.832304 -0.2796 0.8515 0.6121 0.3812873

-0.03804818 -0.1705187 -0.0408407 -5.932107 -1.797192 -7.633162 0.6911 -0.6528 1.0946 -0.03560472 -0.03630285 -0.3820526 2.108169 -4.230072 -7.753825 -0.2796 0.8515 0.6121 0.3812873

-0.1167625 -0.1837832 -0.09948377 -5.901696 -1.837413 -7.555663 0.6911 -0.6528 1.0946 -0.04415683 -0.1668535 -0.2651155 2.251395 -4.215357 -7.748919 -0.2809 0.8438 0.5991 0.3759171

-0.1167625 -0.1837832 -0.09948377 -5.901696 -1.837413 -7.555663 0.6911 -0.6528 1.0946 -0.05427974 -0.2099631 -0.2124066 2.213136 -4.176117 -7.717527 -0.2809 0.8438 0.5991 0.3759171

-0.1082104 -0.1583014 -0.1589995 -5.870304 -1.777572 -7.549776 0.7034 -0.6566 1.0689 -0.05427974 -0.2099631 -0.2124066 2.213136 -4.176117 -7.717527 -0.2809 0.8438 0.5991 0.3759171

-0.04555309 -0.1511455 -0.1640609 -5.811444 -1.588239 -7.479144 0.7172 -0.6475 1.072 -0.05427974 -0.2099631 -0.2124066 2.213136 -4.176117 -7.717527 -0.2809 0.8438 0.5991 0.3759171

-0.04852015 -0.1616175 -0.1171116 -5.822236 -1.497987 -7.495821 0.7172 -0.6475 1.072 -0.009773844 -0.1099557 -0.2241003 2.115036 -4.127067 -7.798951 -0.2837 0.8476 0.5866 0.3759171

-0.00715585 -0.16441 -0.0694641 -5.818311 -1.413621 -7.54389 0.7297 -0.6434 1.0734 -0.03543018 -0.1211258 -0.2153736 2.10915 -4.186908 -7.848981 -0.2869 0.8469 0.5839 0.3759171

-0.00715585 -0.16441 -0.0694641 -5.818311 -1.413621 -7.54389 0.7297 -0.6434 1.0734 -0.08691739 -0.1514946 -0.1260128 2.107188 -4.173174 -7.868601 -0.2869 0.8469 0.5839 0.3799448

-0.03106686 -0.1979203 0.0001745329 -5.816349 -1.41264 -7.531137 0.7297 -0.6434 1.0734 -0.08691739 -0.1514946 -0.1260128 2.107188 -4.173174 -7.868601 -0.2869 0.8469 0.5839 0.3799448

-0.04677482 -0.2165954 0.05637414 -5.849703 -1.486215 -7.50367 0.7339 -0.6324 1.0714 -0.08691739 -0.1514946 -0.1260128 2.107188 -4.173174 -7.868601 -0.2869 0.8469 0.5839 0.3799448

-0.04677482 -0.2165954 0.05637414 -5.849703 -1.486215 -7.50367 0.7339 -0.6324 1.0714 -0.103149 -0.08045968 -0.05497787 1.923741 -4.095675 -7.954929 -0.313 0.8109 0.6282 0.3799448

-0.08045968 -0.2691298 0.1174607 -5.84676 -1.525455 -7.469334 0.7339 -0.6324 1.0714 -0.1164135 -0.01500983 -0.03316126 2.028708 -4.116276 -7.954929 -0.3172 0.813 0.6341 0.3826299

0.07522369 -0.2349213 0.04415683 -6.017454 -1.542132 -7.719489 0.7391 -0.6306 1.0783 -0.0301942 0.1202532 -0.02687807 1.889406 -4.078998 -7.949043 -0.3172 0.813 0.6341 0.3826299

0.07522369 -0.2349213 0.04415683 -6.017454 -1.542132 -7.719489 0.7391 -0.6306 1.0783 -0.0301942 0.1202532 -0.02687807 1.889406 -4.078998 -7.949043 -0.3172 0.813 0.6341 0.3826299

0.1059415 0.07400195 -0.1462586 -6.644313 -1.758933 -8.372835 0.7391 -0.6306 1.0783 0.01745329 0.02129302 -0.002443461 1.794249 -3.96324 -7.986321 -0.333 0.8001 0.6225 0.3799448

0.07365289 -0.03787364 -0.03351032 -6.848361 -1.708902 -8.41698 0.7376 -0.6436 1.0841 0.01361357 -0.1877974 0.03752458 2.007126 -3.980898 -7.998093 -0.3236 0.7971 0.6344 0.3799448

0.1038471 -0.04991641 0.04433136 -6.609978 -1.698111 -7.99515 0.7327 -0.652 1.0864 -0.06370452 -0.4377286 0.06370452 2.335761 -4.027005 -8.097175 -0.3236 0.7971 0.6344 0.3799448

0.1038471 -0.04991641 0.04433136 -6.609978 -1.698111 -7.99515 0.7327 -0.652 1.0864 -0.06370452 -0.4377286 0.06370452 2.335761 -4.027005 -8.097175 -0.3236 0.7971 0.6344 0.3799448

0.1027999 -0.182736 0.1668535 -6.251914 -1.729503 -7.466391 0.7327 -0.652 1.0864 -0.09442231 -0.3933972 0.0858702 2.484873 -4.053492 -8.106984 -0.3241 0.8051 0.6442 0.3799448

0.0954695 -0.3326598 0.2925172 -6.060618 -1.728522 -7.267249 0.7471 -0.6531 1.0929 -0.009773844 -0.01989675 0.08342674 2.124846 -4.004442 -8.120718 -0.3241 0.8051 0.6442 0.3799448

0.08674286 -0.3534292 0.2743658 -6.035112 -1.752066 -7.340824 0.7471 -0.6531 1.0929 0.03769911 0.2946116 -0.06894051 1.473462 -3.899475 -8.11189 -0.3373 0.7994 0.6479 0.3893427

0.08674286 -0.3534292 0.2743658 -6.035112 -1.752066 -7.340824 0.7471 -0.6531 1.0929 0.03769911 0.2946116 -0.06894051 1.473462 -3.899475 -8.11189 -0.3373 0.7994 0.6479 0.3893427

0.03926991 -0.2422517 0.1471313 -6.081219 -1.904121 -7.523289 0.7521 -0.6432 1.0876 0.03525565 0.3494149 -0.07923795 1.145808 -3.890646 -8.123662 -0.3373 0.7994 0.6479 0.3893427

-0.02879793 -0.1867502 0.1347394 -6.044922 -1.913931 -7.533099 0.7521 -0.6432 1.0876 -0.05270894 0.1026254 -0.0884882 1.305711 -3.981879 -8.057934 -0.3275 0.8037 0.6426 0.3839724

-0.02879793 -0.1867502 0.1347394 -6.044922 -1.913931 -7.533099 0.7521 -0.6432 1.0876 -0.05270894 0.1026254 -0.0884882 1.305711 -3.981879 -8.057934 -0.3275 0.8037 0.6426 0.3839724

-0.01204277 -0.1860521 0.08901179 -6.148908 -2.061081 -7.491898 0.7713 -0.6414 1.0671 -0.07120943 -0.1401499 -0.0541052 1.770705 -4.109409 -8.009866 -0.3275 0.8037 0.6426 0.3812873

0.01884956 -0.153938 0.004014257 -6.361785 -2.209212 -7.488955 0.7985 -0.6397 1.0524 -0.08674286 -0.1734857 -0.04450589 2.045385 -4.097637 -7.981416 -0.3168 0.794 0.6284 0.3812873

0.01518436 0.08045968 -0.1143191 -6.495202 -2.26611 -7.51446 0.7985 -0.6397 1.0524 -0.06824237 -0.08709192 -0.0434587 2.04048 -4.026024 -7.953948 -0.317 0.7814 0.6409 0.3812873

-0.082205 0.1687733 -0.09110618 -6.330393 -2.163105 -7.290792 0.8002 -0.6318 1.0467 -0.06824237 -0.08709192 -0.0434587 2.04048 -4.026024 -7.953948 -0.317 0.7814 0.6409 0.3812873

-0.082205 0.1687733 -0.09110618 -6.330393 -2.163105 -7.290792 0.8002 -0.6318 1.0467 -0.0593412 0.04834562 -0.05846853 1.882539 -3.935772 -8.015751 -0.317 0.7814 0.6409 0.3812873

-0.4546582 0.1206023 0.1233948 -6.191091 -2.181744 -6.895449 0.8002 -0.6318 1.0467 -0.01186824 0.1790708 -0.09407324 1.690263 -3.859254 -8.057934 -0.3306 0.7847 0.6564 0.3812873

-0.7105235 0.09285152 0.2260201 -6.186186 -2.066967 -6.858171 0.7946 -0.6326 1.0365 -0.01239184 0.27838 -0.1172861 1.62846 -3.779793 -8.088346 -0.3306 0.7847 0.6564 0.3812873

-0.7105235 0.09285152 0.2260201 -6.186186 -2.066967 -6.858171 0.7946 -0.6326 1.0365 -0.01239184 0.27838 -0.1172861 1.62846 -3.779793 -8.088346 -0.3306 0.7847 0.6564 0.3799448

-0.5689773 0.03455752 0.2012365 -6.161661 -1.728522 -7.015131 0.7946 -0.6326 1.0365 0.0143117 0.471937 -0.06527531 1.586277 -3.780774 -8.047143 -0.3407 0.7907 0.6628 0.3799448

-0.5689773 0.03455752 0.2012365 -6.161661 -1.728522 -7.015131 0.7946 -0.6326 1.0365 0.0148353 0.4831071 -0.0270526 1.550961 -3.858273 -8.011827 -0.3407 0.7907 0.6628 0.3799448

-0.5689773 0.03455752 0.2012365 -6.161661 -1.728522 -7.015131 0.7946 -0.6326 1.0365 0.008028515 0.204029 0.02251475 1.861938 -3.90438 -7.927461 -0.3472 0.7955 0.6582 0.3799448

-0.5689773 0.03455752 0.2012365 -6.161661 -1.728522 -7.015131 0.7946 -0.6326 1.0365 0.008028515 0.204029 0.02251475 1.861938 -3.90438 -7.927461 -0.3472 0.7955 0.6582 0.3799448

0.1825614 0.464083 -0.4803146 -7.235857 -1.335141 -8.616123 0.7945 -0.6713 1.0187 -0.02600541 -0.08203047 0.1279326 2.269053 -3.952449 -7.831324 -0.3472 0.7955 0.6582 0.3799448

-0.05009095 0.6962118 -0.4387757 -7.424208 -1.370457 -8.72109 0.7969 -0.6843 1.0269 0.03909538 -0.2150246 0.1768019 2.526075 -3.975993 -7.755786 -0.3562 0.7908 0.6407 0.3799448

-0.05009095 0.6962118 -0.4387757 -7.424208 -1.370457 -8.72109 0.7969 -0.6843 1.0269 0.1110029 -0.1406735 0.212232 2.663415 -3.919095 -7.839171 -0.3562 0.7908 0.6407 0.3732319

-0.2104867 0.8127998 -0.3375467 -7.322184 -1.032012 -8.776026 0.7969 -0.6843 1.0269 0.1110029 -0.1406735 0.212232 2.663415 -3.919095 -7.839171 -0.3562 0.7908 0.6407 0.3732319

-0.3146829 0.8018042 -0.1317724 -7.140699 -0.694548 -8.733843 0.7735 -0.6769 1.0416 0.1389282 -0.1052434 0.3183481 2.669301 -3.832767 -7.957872 -0.3673 0.7863 0.6348 0.3732319

-0.3146829 0.8018042 -0.1317724 -7.140699 -0.694548 -8.733843 0.7735 -0.6769 1.0416 0.1389282 -0.1052434 0.3183481 2.669301 -3.832767 -7.957872 -0.3673 0.7863 0.6348 0.3732319

-0.2853613 0.7579965 0.1406735 -7.012188 -0.3924 -8.532738 0.7559 -0.6677 1.0523 0.1389282 -0.1052434 0.3183481 2.669301 -3.832767 -7.957872 -0.3673 0.7863 0.6348 0.3732319

-0.2385865 0.7058111 0.3019419 -6.866019 -0.251136 -8.291412 0.7559 -0.6677 1.0523 0.1389282 -0.1052434 0.3183481 2.669301 -3.832767 -7.957872 -0.3673 0.7863 0.6348 0.3732319

-0.2385865 0.7058111 0.3019419 -6.866019 -0.251136 -8.291412 0.7559 -0.6677 1.0523 0.1389282 -0.1052434 0.3183481 2.669301 -3.832767 -7.957872 -0.3673 0.7863 0.6348 0.3732319

-0.09651671 0.6304129 0.3565708 -6.640389 -0.116739 -8.045181 0.7351 -0.6609 1.0622 0.1389282 -0.1052434 0.3183481 2.669301 -3.832767 -7.957872 -0.3673 0.7863 0.6348 0.3732319

-0.09651671 0.6304129 0.3565708 -6.640389 -0.116739 -8.045181 0.7351 -0.6609 1.0622 0.1389282 -0.1052434 0.3183481 2.669301 -3.832767 -7.957872 -0.3673 0.7863 0.6348 0.3665192

0.09686577 0.5927138 0.3516838 -6.412797 -0.07946101 -7.904899 0.7351 -0.6609 1.0622 0.1389282 -0.1052434 0.3183481 2.669301 -3.832767 -7.957872 -0.3673 0.7863 0.6348 0.3665192

0.2581342 0.5050983 0.3649483 -6.19011 -0.138321 -7.770502 0.6881 -0.6487 1.0695 0.1389282 -0.1052434 0.3183481 2.669301 -3.832767 -7.957872 -0.3673 0.7863 0.6348 0.3665192

0.2312561 0.5260422 0.4386012 -6.040017 -0.394362 -7.736166 0.6881 -0.6487 1.0695 0.1389282 -0.1052434 0.3183481 2.669301 -3.832767 -7.957872 -0.3673 0.7863 0.6348 0.3665192

0.2312561 0.5260422 0.4386012 -6.040017 -0.394362 -7.736166 0.6881 -0.6487 1.0695 0.1389282 -0.1052434 0.3183481 2.669301 -3.832767 -7.957872 -0.3673 0.7863 0.6348 0.3759171

0.2776819 0.6564183 0.4546582 -5.873247 -0.689643 -7.626295 0.6504 -0.648 1.0852 0.1389282 -0.1052434 0.3183481 2.669301 -3.832767 -7.957872 -0.3673 0.7863 0.6348 0.3759171

0.5307546 0.8025024 0.378911 -5.661351 -1.022202 -7.394778 0.6278 -0.6575 1.0951 0.1389282 -0.1052434 0.3183481 2.669301 -3.832767 -7.957872 -0.3673 0.7863 0.6348 0.3759171

0.5307546 0.8025024 0.378911 -5.661351 -1.022202 -7.394778 0.6278 -0.6575 1.0951 0.1389282 -0.1052434 0.3183481 2.669301 -3.832767 -7.957872 -0.3673 0.7863 0.6348 0.3759171

0.6030113 0.9267698 0.1607448 -5.496543 -1.55979 -7.226046 0.6278 -0.6575 1.0951 0.1389282 -0.1052434 0.3183481 2.669301 -3.832767 -7.957872 -0.3673 0.7863 0.6348 0.3947129

0.3255039 0.6852162 -0.1155408 -5.232654 -2.029689 -7.201521 0.6058 -0.6542 1.1123 0.1389282 -0.1052434 0.3183481 2.669301 -3.832767 -7.957872 -0.3673 0.7863 0.6348 0.3947129

0.4038692 0.3700098 -0.2694788 -4.946202 -1.966905 -7.421266 0.6058 -0.6542 1.1123 0.1389282 -0.1052434 0.3183481 2.669301 -3.832767 -7.957872 -0.3673 0.7863 0.6348 0.3947129

0.4038692 0.3700098 -0.2694788 -4.946202 -1.966905 -7.421266 0.6058 -0.6542 1.1123 0.2837905 0.1272345 0.4342379 2.415222 -3.656187 -8.296318 -0.3661 0.7933 0.6568 0.3947129

0.4152139 0.4914847 -0.2356194 -5.034492 -2.080701 -7.803855 0.5701 -0.6448 1.1343 0.2837905 0.1272345 0.4342379 2.415222 -3.656187 -8.296318 -0.3661 0.7933 0.6568 0.4658687

0.1822124 0.7618362 -0.1408481 -5.107087 -2.306331 -8.070687 0.5701 -0.6448 1.1343 0.06736971 -0.4323181 1.407608 1.60884 -3.95343 -7.830342 -0.3661 0.7933 0.6568 0.4658687

0.1822124 0.7618362 -0.1408481 -5.107087 -2.306331 -8.070687 0.5701 -0.6448 1.1343 0.06736971 -0.4323181 1.407608 1.60884 -3.95343 -7.830342 -0.3661 0.7933 0.6568 0.4658687

-0.04729842 0.9768608 -0.07190756 -4.931487 -2.33478 -8.253154 0.5452 -0.626 1.1367 0.1792453 0.02565634 1.518785 0.823059 -3.936753 -7.868601 -0.2127 0.8537 0.5956 0.4658687

-0.04729842 0.9768608 -0.07190756 -4.931487 -2.33478 -8.253154 0.5452 -0.626 1.1367 0.2790782 0.3193952 1.377763 0.418887 -3.999537 -7.925499 -0.2127 0.8537 0.5956 0.5343392

-0.1947787 0.9791297 -0.02024582 -4.618548 -2.190573 -8.292394 0.5452 -0.626 1.1367 0.3152064 0.2855359 1.239882 0.593505 -4.095675 -7.952967 -0.1665 0.8771 0.6115 0.5343392

-0.1603958 0.7239625 0.1148427 -4.175136 -1.81485 -8.192331 0.5094 -0.6154 1.143 0.3152064 0.2855359 1.239882 0.593505 -4.095675 -7.952967 -0.1665 0.8771 0.6115 0.5732735

-0.1603958 0.7239625 0.1148427 -4.175136 -1.81485 -8.192331 0.5094 -0.6154 1.143 0.2132792 0.0158825 1.327847 0.8603371 -4.297761 -7.831324 -0.1665 0.8771 0.6115 0.5732735

-0.1603958 0.7239625 0.1148427 -4.175136 -1.81485 -8.192331 0.5094 -0.6154 1.143 0.06806784 -0.1260128 1.543395 0.7749901 -4.490037 -7.72047 -0.129 0.8961 0.6228 0.5732735

0.00122173 0.2556907 0.60912 -3.47274 -1.239003 -8.114832 0.3962 -0.6157 1.1678 0.0884882 -0.08028515 1.700474 0.331578 -4.513581 -7.841134 -0.0866 0.9143 0.6159 0.5732735

0.00122173 0.2556907 0.60912 -3.47274 -1.239003 -8.114832 0.3962 -0.6157 1.1678 0.1567306 0.1942551 1.665917 -0.193257 -4.464531 -7.879393 -0.0866 0.9143 0.6159 0.6699379

-0.1439897 0.2167699 0.6853908 -3.309894 -1.389096 -8.018694 0.368 -0.6247 1.172 0.1567306 0.1942551 1.665917 -0.193257 -4.464531 -7.879393 -0.0866 0.9143 0.6159 0.6699379

-0.1439897 0.2167699 0.6853908 -3.309894 -1.389096 -8.018694 0.368 -0.6247 1.172 0.1953023 0.2867576 1.443038 -0.398286 -4.489056 -7.883317 -0.0368 0.93 0.6054 0.6699379

-0.1439897 0.2167699 0.6853908 -3.309894 -1.389096 -8.018694 0.368 -0.6247 1.172 0.1745329 0.2703515 1.331163 -0.332559 -4.597947 -7.826418 -0.0368 0.93 0.6054 0.6699379

-0.1439897 0.2167699 0.6853908 -3.309894 -1.389096 -8.018694 0.368 -0.6247 1.172 0.03211406 0.1321214 1.387013 -0.276642 -4.715667 -7.708698 -0.0006 0.9387 0.6035 0.7464639

-0.1439897 0.2167699 0.6853908 -3.309894 -1.389096 -8.018694 0.368 -0.6247 1.172 0.03211406 0.1321214 1.387013 -0.276642 -4.715667 -7.708698 -0.0006 0.9387 0.6035 0.7464639

-0.1439897 0.2167699 0.6853908 -3.309894 -1.389096 -8.018694 0.368 -0.6247 1.172 -0.03316126 0.1181588 1.513898 -0.5356261 -4.684275 -7.637085 -0.0006 0.9387 0.6035 0.7464639

-0.1439897 0.2167699 0.6853908 -3.309894 -1.389096 -8.018694 0.368 -0.6247 1.172 -0.01413717 0.2614503 1.540777 -0.89271 -4.623453 -7.667496 0.03 0.9446 0.5956 0.7464639

-0.1439897 0.2167699 0.6853908 -3.309894 -1.389096 -8.018694 0.368 -0.6247 1.172 -0.01413717 0.2614503 1.540777 -0.89271 -4.623453 -7.667496 0.03 0.9446 0.5956 0.8162771

-0.1439897 0.2167699 0.6853908 -3.309894 -1.389096 -8.018694 0.368 -0.6247 1.172 -0.01413717 0.2614503 1.540777 -0.89271 -4.623453 -7.667496 0.03 0.9446 0.5956 0.8162771

-0.1439897 0.2167699 0.6853908 -3.309894 -1.389096 -8.018694 0.368 -0.6247 1.172 -0.1342158 0.3026401 1.510757 -0.965304 -4.572441 -7.385949 0.1231 0.9411 0.5915 0.8162771

0.003839724 -0.07714356 0.861669 -3.037176 -1.184067 -7.971607 0.3509 -0.6167 1.1888 -0.2546435 0.08831366 1.540428 -0.7965721 -4.699971 -7.174053 0.1448 0.941 0.6048 0.8162771

0.0572468 -0.174882 0.9622 -3.100941 -1.154637 -8.083441 0.3509 -0.6167 1.1888 -0.286234 0.05637414 1.583188 -0.723978 -4.730382 -7.140699 0.1448 0.941 0.6048 0.8726646

0.04939282 0.03298672 0.9602802 -3.571821 -1.421469 -8.283565 0.3288 -0.6283 1.1887 -0.286234 0.05637414 1.583188 -0.723978 -4.730382 -7.140699 0.1448 0.941 0.6048 0.8726646

0.04939282 0.03298672 0.9602802 -3.571821 -1.421469 -8.283565 0.3288 -0.6283 1.1887 -0.2726204 0.05497787 1.617746 -0.81423 -4.609719 -7.263324 0.1742 0.934 0.608 0.8726646

0.04939282 0.03298672 0.9602802 -3.571821 -1.421469 -8.283565 0.3288 -0.6283 1.1887 -0.2726204 0.05497787 1.617746 -0.81423 -4.609719 -7.263324 0.1742 0.934 0.608 0.8726646

0.04939282 0.03298672 0.9602802 -3.571821 -1.421469 -8.283565 0.3288 -0.6283 1.1887 -0.3108431 -0.01780236 1.561895 -1.004544 -4.484151 -7.3575 0.1742 0.934 0.608 0.9290522

0.4358087 0.09826204 0.888198 -3.862197 -1.435203 -8.497422 0.3065 -0.6112 1.2127 -0.3108431 -0.01780236 1.561895 -1.004544 -4.484151 -7.3575 0.1742 0.934 0.608 0.9290522

0.3495895 0.1764528 0.8257153 -3.920076 -1.600011 -8.496442 0.3065 -0.6112 1.2127 -0.3431317 -0.08150688 1.532225 -1.189953 -4.357602 -7.394778 0.2178 0.9036 0.5999 0.9290522

0.3080506 0.09110618 0.7749262 -3.832767 -1.641213 -8.456221 0.2958 -0.6012 1.2174 -0.3563962 -0.143117 1.534493 -1.41264 -4.251654 -7.433038 0.2178 0.9036 0.5999 0.9290522

0.3080506 0.09110618 0.7749262 -3.832767 -1.641213 -8.456221 0.2958 -0.6012 1.2174 -0.3563962 -0.143117 1.534493 -1.41264 -4.251654 -7.433038 0.2178 0.9036 0.5999 0.9800695

0.4591961 0.03385939 0.7454301 -3.778812 -1.539189 -8.458182 0.2958 -0.6012 1.2174 -0.3563962 -0.143117 1.534493 -1.41264 -4.251654 -7.433038 0.2178 0.9036 0.5999 0.9800695

0.6373942 0.03211406 0.7536331 -3.777831 -1.494063 -8.551377 0.2945 -0.5894 1.2142 -0.371057 -0.2012365 1.518436 -1.600011 -4.154535 -7.531137 0.2789 0.8839 0.6178 0.9800695

0.5152212 0.1130973 0.8147197 -3.882798 -1.688301 -8.659287 0.2945 -0.5894 1.2142 -0.371057 -0.2012365 1.518436 -1.600011 -4.154535 -7.531137 0.2789 0.8839 0.6178 0.9800695

0.5152212 0.1130973 0.8147197 -3.882798 -1.688301 -8.659287 0.2945 -0.5894 1.2142 -0.371057 -0.2012365 1.518436 -1.600011 -4.154535 -7.531137 0.2789 0.8839 0.6178 1.027059

0.3960152 0.2802999 0.8758062 -4.04172 -1.891368 -8.729919 0.2873 -0.5742 1.21 -0.371057 -0.2012365 1.518436 -1.600011 -4.154535 -7.531137 0.2789 0.8839 0.6178 1.027059

0.2464405 0.4619886 0.885231 -4.197699 -2.110131 -8.702451 0.2873 -0.5742 1.21 -0.3473205 -0.1766273 1.524196 -1.75599 -3.971088 -7.609617 0.2789 0.8839 0.6178 1.027059

0.08552113 0.3672173 0.9276425 -4.16925 -2.224908 -8.594542 0.2718 -0.5581 1.2056 -0.3473205 -0.1766273 1.524196 -1.75599 -3.971088 -7.609617 0.2789 0.8839 0.6178 1.027059

0.08552113 0.3672173 0.9276425 -4.16925 -2.224908 -8.594542 0.2718 -0.5581 1.2056 -0.2659882 -0.09634218 1.548805 -1.953171 -3.736629 -7.715565 0.3285 0.8675 0.6472 1.086132

0.001919862 0.2504548 1.027475 -4.127067 -2.16801 -8.597485 0.2718 -0.5581 1.2056 -0.2035054 -0.06771877 1.577428 -2.150352 -3.470778 -7.746957 0.3285 0.8675 0.6472 1.086132

0.03979351 0.2584833 1.090133 -4.099599 -2.058138 -8.692641 0.2327 -0.5422 1.2278 -0.2035054 -0.06771877 1.577428 -2.279844 -3.299103 -7.800912 0.3791 0.8366 0.6518 1.086132

0.03979351 0.2584833 1.090133 -4.099599 -2.058138 -8.692641 0.2327 -0.5422 1.2278 -0.2035054 -0.06771877 1.577428 -2.279844 -3.299103 -7.800912 0.3791 0.8366 0.6518 1.086132

0.320966 0.2707006 1.022414 -4.015233 -1.832508 -8.7309 0.1974 -0.5311 1.2316 -0.2035054 -0.06771877 1.577428 -2.279844 -3.299103 -7.800912 0.3791 0.8366 0.6518 1.143862

0.5414011 0.3139847 0.906873 -3.980898 -1.757952 -8.74071 0.1974 -0.5311 1.2316 -0.2099631 -0.158825 1.594882 -3.29616 -2.56041 -8.135433 0.5214 0.7458 0.6578 1.143862

0.4408702 0.3307399 0.8899434 -3.988746 -1.966905 -8.724033 0.1844 -0.5194 1.2205 -0.1394518 -0.06143559 1.607274 -3.557106 -2.293578 -8.145243 0.5645 0.7058 0.6726 1.143862

0.4408702 0.3307399 0.8899434 -3.988746 -1.966905 -8.724033 0.1844 -0.5194 1.2205 -0.1394518 -0.06143559 1.607274 -3.557106 -2.293578 -8.145243 0.5645 0.7058 0.6726 1.143862

0.2028073 0.3193952 0.9587094 -3.971088 -2.137599 -8.744635 0.1844 -0.5194 1.2205 -0.1394518 -0.06143559 1.607274 -3.557106 -2.293578 -8.145243 0.5645 0.7058 0.6726 1.143862

0.2619739 0.3230605 0.996583 -3.908304 -1.975734 -8.805456 0.1784 -0.513 1.21 -0.1394518 -0.06143559 1.607274 -3.557106 -2.293578 -8.145243 0.5645 0.7058 0.6726 1.143862

0.4358087 0.4468043 0.9630727 -3.880836 -1.803078 -8.906499 0.1784 -0.513 1.21 -0.1394518 -0.06143559 1.607274 -3.557106 -2.293578 -8.145243 0.5645 0.7058 0.6726 1.20025

0.4358087 0.4468043 0.9630727 -3.880836 -1.803078 -8.906499 0.1784 -0.513 1.21 -0.1394518 -0.06143559 1.607274 -3.557106 -2.293578 -8.145243 0.5645 0.7058 0.6726 1.20025

0.4042183 0.5932375 0.9463176 -3.89457 -1.807983 -9.001657 0.1677 -0.5117 1.2029 -0.1394518 -0.06143559 1.607274 -3.557106 -2.293578 -8.145243 0.5645 0.7058 0.6726 1.20025

0.1059415 0.6469935 1.032886 -3.913209 -1.987506 -9.048744 0.1677 -0.5117 1.2029 -0.1394518 -0.06143559 1.607274 -3.557106 -2.293578 -8.145243 0.5645 0.7058 0.6726 1.253952

-0.2291617 0.7468264 1.058368 -3.95343 -2.178801 -9.114471 0.1513 -0.4973 1.2053 -0.1394518 -0.06143559 1.607274 -3.557106 -2.293578 -8.145243 0.5645 0.7058 0.6726 1.253952

-0.2291617 0.7468264 1.058368 -3.95343 -2.178801 -9.114471 0.1513 -0.4973 1.2053 -0.1394518 -0.06143559 1.607274 -3.557106 -2.293578 -8.145243 0.5645 0.7058 0.6726 1.253952

-0.2975786 0.8180358 1.090482 -3.895551 -2.053233 -9.137034 0.1513 -0.4973 1.2053 -0.1394518 -0.06143559 1.607274 -3.557106 -2.293578 -8.145243 0.5645 0.7058 0.6726 1.253952

-0.2324778 0.8733628 1.114218 -3.75723 -1.84428 -9.197857 0.1163 -0.4941 1.2009 -0.1394518 -0.06143559 1.607274 -3.557106 -2.293578 -8.145243 0.5645 0.7058 0.6726 1.303627

-0.2673844 0.9217084 1.120152 -3.617928 -1.715769 -9.277317 0.0723 -0.4919 1.1939 -0.1394518 -0.06143559 1.607274 -3.557106 -2.293578 -8.145243 0.5645 0.7058 0.6726 1.303627

-0.2673844 0.9217084 1.120152 -3.617928 -1.715769 -9.277317 0.0723 -0.4919 1.1939 -0.1394518 -0.06143559 1.607274 -3.557106 -2.293578 -8.145243 0.5645 0.7058 0.6726 1.303627

-0.1799435 0.8972738 1.136558 -3.441348 -1.513683 -9.264565 0.0723 -0.4919 1.1939 -0.1394518 -0.06143559 1.607274 -3.557106 -2.293578 -8.145243 0.5645 0.7058 0.6726 1.303627

0.01186824 0.8525933 1.132719 -3.190212 -1.260585 -9.24004 0.0365 -0.4867 1.1988 -0.1525418 -0.1226966 1.671153 -3.674826 -1.940418 -8.045181 0.662 0.5952 0.6745 1.341218

0.2371902 0.7782423 1.10427 -2.890026 -1.058499 -9.24102 0.0365 -0.4867 1.1988 -0.1525418 -0.1226966 1.671153 -3.674826 -1.940418 -8.045181 0.662 0.5952 0.6745 1.341218

0.2371902 0.7782423 1.10427 -2.890026 -1.058499 -9.24102 0.0365 -0.4867 1.1988 -0.2015855 -0.2099631 1.739221 -3.687579 -1.73637 -8.002017 0.662 0.5952 0.6745 1.341218

0.4270821 0.6752679 1.144587 -2.623194 -0.9025201 -9.211591 -0.0107 -0.4754 1.1903 -0.2015855 -0.2099631 1.739221 -3.687579 -1.73637 -8.002017 0.662 0.5952 0.6745 1.357329

0.4270821 0.6752679 1.144587 -2.623194 -0.9025201 -9.211591 -0.0107 -0.4754 1.1903 -0.2015855 -0.2099631 1.739221 -3.687579 -1.73637 -8.002017 0.662 0.5952 0.6745 1.357329

1.211433 0.5578072 1.307077 -2.537847 -0.6621751 -9.487251 -0.0915 -0.4522 1.2012 -0.2015855 -0.2099631 1.739221 -3.687579 -1.73637 -8.002017 0.662 0.5952 0.6745 1.357329

1.211433 0.5578072 1.307077 -2.537847 -0.6621751 -9.487251 -0.0915 -0.4522 1.2012 -0.2015855 -0.2099631 1.739221 -3.687579 -1.73637 -8.002017 0.662 0.5952 0.6745 1.357329

1.515469 0.556411 1.229061 -2.378925 -0.557208 -9.464688 -0.0915 -0.4522 1.2012 -0.2197369 -0.625526 2.038894 -4.167288 -0.022563 -7.064181 0.808 0.3522 0.6875 1.389551

1.542696 0.5401794 1.245292 -2.143485 -0.684738 -9.417601 -0.1251 -0.4278 1.1913 -0.2197369 -0.625526 2.038894 -4.167288 -0.022563 -7.064181 0.808 0.3522 0.6875 1.389551

1.542696 0.5401794 1.245292 -2.143485 -0.684738 -9.417601 -0.1251 -0.4278 1.1913 -0.2197369 -0.625526 2.038894 -4.167288 -0.022563 -7.064181 0.808 0.3522 0.6875 1.389551

1.440944 0.6260496 1.346347 -2.004183 -0.9329311 -9.371493 -0.1672 -0.3935 1.1634 -0.2197369 -0.625526 2.038894 -4.167288 -0.022563 -7.064181 0.808 0.3522 0.6875 1.389551

1.290671 0.7333874 1.448623 -2.047347 -1.230174 -9.325387 -0.1672 -0.3935 1.1634 -0.574737 -1.387362 1.686861 -4.521429 1.175238 -7.010227 0.8736 0.1973 0.6694 1.385523

1.092227 0.7504916 1.547933 -1.978677 -1.588239 -9.225325 -0.2136 -0.3427 1.1436 -0.4117232 -1.25367 1.692097 -5.257179 1.700073 -7.015131 0.8932 0.1253 0.6453 1.385523

1.092227 0.7504916 1.547933 -1.978677 -1.588239 -9.225325 -0.2136 -0.3427 1.1436 -0.1923353 -1.036726 1.728574 -5.867362 2.146428 -7.123042 0.8932 0.1253 0.6453 1.385523

0.8595747 0.7377506 1.647765 -1.790325 -1.951209 -9.051687 -0.2136 -0.3427 1.1436 -0.1923353 -1.036726 1.728574 -5.867362 2.146428 -7.123042 0.8932 0.1253 0.6453 1.385523

0.7047639 0.7023205 1.738522 -1.652985 -2.276901 -8.902575 -0.2459 -0.2855 1.1194 -0.02740167 -0.8864527 1.615826 -6.191091 2.385792 -7.294716 0.9272 0.0569 0.6172 1.365384

0.6714282 0.5592035 1.804845 -1.552923 -2.531961 -8.76033 -0.2459 -0.2855 1.1194 0.0731293 -0.7860963 1.455256 -6.401025 2.587878 -7.341804 0.9272 0.0569 0.6172 1.365384

0.6714282 0.5592035 1.804845 -1.552923 -2.531961 -8.76033 -0.2459 -0.2855 1.1194 0.0731293 -0.7860963 1.455256 -6.401025 2.587878 -7.341804 0.9272 0.0569 0.6172 1.365384

0.7578219 0.3186971 1.841846 -1.406754 -2.680092 -8.60337 -0.2729 -0.2309 1.0907 0.1293289 -0.69691 1.393122 -6.62175 2.740914 -7.323165 0.964 0.0064 0.5766 1.365384

0.7424631 0.2185152 1.842893 -1.237041 -2.810565 -8.480745 -0.2729 -0.2309 1.0907 0.2089159 -0.5914921 1.339889 -6.806178 2.797812 -7.264305 0.964 0.0064 0.5766 1.311682

0.5112069 0.2827434 1.83661 -1.254699 -3.106827 -8.561187 -0.294 -0.1777 1.0865 0.2563888 -0.4895648 1.226967 -6.897411 2.851767 -7.217217 0.9898 -0.0638 0.5482 1.311682

0.5112069 0.2827434 1.83661 -1.254699 -3.106827 -8.561187 -0.294 -0.1777 1.0865 0.2563888 -0.4895648 1.226967 -6.897411 2.851767 -7.217217 0.9898 -0.0638 0.5482 1.311682

0.5112069 0.2827434 1.83661 -1.254699 -3.106827 -8.561187 -0.294 -0.1777 1.0865 0.2942625 -0.4270821 1.091703 -6.91507 2.954772 -7.13187 0.9971 -0.124 0.535 1.282146

0.5112069 0.2827434 1.83661 -1.254699 -3.106827 -8.561187 -0.294 -0.1777 1.0865 0.3476696 -0.3132866 0.978257 -6.974911 3.075435 -7.013169 0.9971 -0.124 0.535 1.282146

0.5112069 0.2827434 1.83661 -1.254699 -3.106827 -8.561187 -0.294 -0.1777 1.0865 0.4141666 -0.1474803 0.8913397 -7.080859 3.11958 -6.913107 0.9934 -0.1777 0.5168 1.282146

0.3141593 0.2693043 1.8778 -1.909026 -4.034853 -9.050706 -0.2295 -0.0825 1.0729 0.4520403 -0.0715585 0.8389798 -7.115193 3.16863 -6.792444 0.9934 -0.1777 0.5168 1.282146

0.153589 0.3352777 1.796118 -2.042442 -4.253616 -9.14292 -0.2295 -0.0825 1.0729 0.4520403 -0.0715585 0.8389798 -7.115193 3.16863 -6.792444 0.9934 -0.1777 0.5168 1.282146

0.153589 0.3352777 1.796118 -2.042442 -4.253616 -9.14292 -0.2295 -0.0825 1.0729 0.4316199 -0.04974188 0.8114036 -6.956271 3.106827 -6.746337 0.9874 -0.2118 0.5098 1.282146

0.1024508 0.4108505 1.721418 -2.122884 -4.212414 -9.255735 -0.2108 -0.0754 1.0711 0.4391248 -0.05148721 0.7482226 -6.614883 2.939076 -6.620769 0.9874 -0.2118 0.5098 1.282146

0.1024508 0.4108505 1.721418 -2.122884 -4.212414 -9.255735 -0.2108 -0.0754 1.0711 0.4391248 -0.05148721 0.7482226 -6.614883 2.939076 -6.620769 0.9874 -0.2118 0.5098 1.282146

0.06195919 0.4602433 1.725433 -2.125827 -3.987765 -9.366589 -0.2108 -0.0754 1.0711 0.4391248 -0.05148721 0.7482226 -6.614883 2.939076 -6.620769 0.9874 -0.2118 0.5098 1.282146

0.1560324 0.5016076 1.717579 -2.034594 -3.660111 -9.37836 -0.192 -0.0578 1.0654 0.4223697 -0.03193953 0.5405285 -6.547194 2.991069 -6.343146 0.9783 -0.2472 0.5177 1.099557

0.5508259 0.5098106 1.668884 -1.936494 -3.232395 -9.264565 -0.192 -0.0578 1.0654 0.3822271 -0.08307768 0.3947935 -6.461847 2.974392 -6.437322 0.9784 -0.2769 0.5171 1.099557

0.5508259 0.5098106 1.668884 -1.936494 -3.232395 -9.264565 -0.192 -0.0578 1.0654 0.3822271 -0.08307768 0.3947935 -6.461847 2.974392 -6.437322 0.9784 -0.2769 0.5171 1.099557

0.9005899 0.4735078 1.615128 -1.81485 -3.019518 -9.104661 -0.1686 -0.0454 1.0839 0.3183481 -0.1507965 0.2104867 -6.320583 2.892969 -6.503049 0.9784 -0.2769 0.5171 1.099557

0.6051056 0.5740388 1.629788 -1.947285 -3.331476 -9.10368 -0.1686 -0.0454 1.0839 0.2340486 -0.2593559 0.1144936 -6.283305 2.860596 -6.500106 0.9872 -0.3016 0.5076 0.9948377

-0.0122173 0.7070329 1.775872 -2.083644 -3.717009 -9.140959 -0.1556 -0.0311 1.081 0.2340486 -0.2593559 0.1144936 -6.283305 2.860596 -6.500106 0.9872 -0.3016 0.5076 0.9948377

-0.0122173 0.7070329 1.775872 -2.083644 -3.717009 -9.140959 -0.1556 -0.0311 1.081 0.1989675 -0.2527237 0.0408407 -6.40593 2.872368 -6.581529 0.9778 -0.3078 0.4989 0.9948377

-0.2206096 0.6990044 1.905201 -2.133675 -3.75723 -9.061497 -0.1556 -0.0311 1.081 0.2815216 -0.132645 -0.03281219 -6.527575 2.891988 -6.677667 0.9778 -0.3078 0.4989 0.9948377

-0.122173 0.5761331 1.899267 -2.164086 -3.692484 -9.010486 -0.1178 -0.0203 1.0612 0.2815216 -0.132645 -0.03281219 -6.527575 2.891988 -6.677667 0.9778 -0.3078 0.4989 0.8659518

-0.122173 0.5761331 1.899267 -2.164086 -3.692484 -9.010486 -0.1178 -0.0203 1.0612 0.3837979 0.06003933 -0.09180433 -6.646276 2.891988 -6.69042 0.9572 -0.3082 0.4876 0.8659518

-0.3230605 0.5216789 1.796991 -2.311236 -3.910266 -9.125262 -0.0697 -0.011 1.0689 0.3712315 0.1134464 -0.1043707 -6.640389 2.837052 -6.608997 0.9572 -0.3082 0.4876 0.8659518

-0.3691371 0.5447173 1.741839 -2.434842 -3.964221 -9.267508 -0.0697 -0.011 1.0689 0.3712315 0.1134464 -0.1043707 -6.640389 2.837052 -6.608997 0.9572 -0.3082 0.4876 0.8659518

-0.3691371 0.5447173 1.741839 -2.434842 -3.964221 -9.267508 -0.0697 -0.011 1.0689 0.3907792 0.1860521 -0.1069887 -6.556023 2.761515 -6.599187 0.9605 -0.3017 0.481 0.7263255

-0.3691371 0.5447173 1.741839 -2.434842 -3.964221 -9.267508 -0.0697 -0.011 1.0689 0.4668756 0.3033382 -0.08953539 -6.416721 2.712465 -6.700231 0.9605 -0.3017 0.481 0.7263255

-0.3691371 0.5447173 1.741839 -2.434842 -3.964221 -9.267508 -0.0697 -0.011 1.0689 0.503702 0.376642 -0.07627089 -6.259761 2.611422 -6.819912 0.9642 -0.2789 0.4897 0.7263255

-0.3691371 0.5447173 1.741839 -2.434842 -3.964221 -9.267508 -0.0697 -0.011 1.0689 0.503702 0.376642 -0.07627089 -6.259761 2.611422 -6.819912 0.9642 -0.2789 0.4897 0.7263255

-1.727701 1.168847 0.4621632 -2.816451 -5.15025 -10.11117 -0.0054 -0.0204 1.0964 0.5263913 0.4991642 -0.06544985 -6.263685 2.4525 -7.023961 0.9642 -0.2789 0.4897 0.617578

-1.75074 1.325577 0.623257 -2.742876 -4.805919 -10.29756 0.0037 -0.0347 1.1284 0.5318018 0.7885398 -0.003665191 -6.48441 2.38383 -7.105383 0.9499 -0.2661 0.5106 0.617578

-1.75074 1.325577 0.623257 -2.742876 -4.805919 -10.29756 0.0037 -0.0347 1.1284 0.6010914 1.212829 0.0429351 -6.638427 2.411298 -7.186806 0.9336 -0.259 0.5209 0.617578

-1.600292 1.418429 0.8389798 -2.524113 -4.106466 -10.4604 0.0037 -0.0347 1.1284 0.6010914 1.212829 0.0429351 -6.638427 2.411298 -7.186806 0.9336 -0.259 0.5209 0.617578

-1.693144 1.295907 0.847881 -2.188611 -3.425652 -10.41234 0.0017 -0.0684 1.1657 0.583289 1.496096 0.05270894 -6.581529 2.338704 -7.222122 0.9336 -0.259 0.5209 0.538367

-1.916197 0.8180358 0.7293731 -1.6677 -3.105846 -10.07879 0.0017 -0.0684 1.1657 0.5705481 1.527163 -0.04520402 -6.13125 2.182725 -7.124022 0.9214 -0.2604 0.5305 0.538367

-1.916197 0.8180358 0.7293731 -1.6677 -3.105846 -10.07879 0.0017 -0.0684 1.1657 0.5705481 1.527163 -0.04520402 -6.13125 2.182725 -7.124022 0.9214 -0.2604 0.5305 0.538367

-2.090555 0.5935864 0.6792821 -1.097739 -2.787021 -9.809019 -0.0009 -0.1246 1.1921 0.5106834 1.35839 -0.2275909 -5.358222 2.073834 -7.089687 0.9214 -0.2604 0.5305 0.538367

-2.17311 0.6222099 0.7562512 -0.752427 -2.510379 -9.743293 -0.0009 -0.1246 1.1921 0.5106834 1.35839 -0.2275909 -5.358222 2.073834 -7.089687 0.9214 -0.2604 0.5305 0.4564707

-2.17311 0.6222099 0.7562512 -0.752427 -2.510379 -9.743293 -0.0009 -0.1246 1.1921 0.3745476 1.216669 -0.2761111 -4.772565 1.858014 -7.262343 0.8973 -0.2499 0.5685 0.4564707

-2.6159 0.540703 0.6775368 -0.7955911 -2.078739 -9.551016 -0.0334 -0.1766 1.219 0.2998476 1.059066 -0.2935644 -4.285008 1.675548 -7.390854 0.8973 -0.2499 0.5685 0.4564707

-2.588847 0.2963569 0.5988225 -0.396324 -1.720674 -9.617724 -0.0411 -0.2391 1.2435 0.2998476 1.059066 -0.2935644 -4.285008 1.675548 -7.390854 0.8973 -0.2499 0.5685 0.4564707

-2.588847 0.2963569 0.5988225 -0.396324 -1.720674 -9.617724 -0.0411 -0.2391 1.2435 0.2024582 1.188046 -0.2090904 -4.112352 1.60884 -7.57234 0.8618 -0.2245 0.6261 0.3893427

-2.81382 0.1874484 0.3954916 -0.114777 -1.190934 -9.567694 -0.0411 -0.2391 1.2435 0.2024582 1.188046 -0.2090904 -4.112352 1.60884 -7.57234 0.8618 -0.2245 0.6261 0.3893427

-2.81382 0.1874484 0.3954916 -0.114777 -1.190934 -9.567694 -0.0411 -0.2391 1.2435 0.2785546 1.709725 -0.1921608 -3.838653 1.446975 -7.958853 0.8172 -0.1799 0.7188 0.3893427

-3.217689 -0.4431391 0.1729621 0.103005 -0.665118 -9.583389 -0.0309 -0.323 1.2567 0.2790782 2.050762 -0.2099631 -3.804318 1.405773 -8.292394 0.7841 -0.1544 0.7501 0.3624915

-3.217689 -0.4431391 0.1729621 0.103005 -0.665118 -9.583389 -0.0309 -0.323 1.2567 0.2790782 2.050762 -0.2099631 -3.804318 1.405773 -8.292394 0.7841 -0.1544 0.7501 0.3624915

-3.217689 -0.4431391 0.1729621 0.103005 -0.665118 -9.583389 -0.0309 -0.323 1.2567 0.3064798 2.236639 -0.1589995 -3.891627 1.289034 -8.283565 0.7841 -0.1544 0.7501 0.3624915

-3.217689 -0.4431391 0.1729621 0.103005 -0.665118 -9.583389 -0.0309 -0.323 1.2567 0.3064798 2.236639 -0.1589995 -3.891627 1.289034 -8.283565 0.7841 -0.1544 0.7501 0.3141593

-3.217689 -0.4431391 0.1729621 0.103005 -0.665118 -9.583389 -0.0309 -0.323 1.2567 0.4408702 2.755526 -0.2724459 -3.631662 1.36359 -7.964739 0.7229 -0.1505 0.7988 0.3141593

-2.702817 -0.4593706 0.3576179 0.283509 4.11039 -8.897671 0.0223 -0.5466 1.2997 0.4408702 2.755526 -0.2724459 -3.631662 1.36359 -7.964739 0.7229 -0.1505 0.7988 0.3141593

-2.702817 -0.4593706 0.3576179 0.283509 4.11039 -8.897671 0.0223 -0.5466 1.2997 0.5469862 3.236364 -0.4459316 -2.849805 1.33416 -7.891165 0.7229 -0.1421 0.8593 0.1919862

-2.464056 -0.3530801 0.5661848 0.160884 4.803957 -8.891785 0.0696 -0.6496 1.2889 0.2497566 2.504373 -0.7812093 -1.344951 0.862299 -7.767559 0.6412 -0.1421 0.8593 0.1919862

-2.464056 -0.3530801 0.5661848 0.160884 4.803957 -8.891785 0.0696 -0.6496 1.2889 0.2497566 2.504373 -0.7812093 -1.344951 0.862299 -7.767559 0.6412 -0.1421 0.8593 0.1919862

-2.218488 -0.2933898 0.638616 0.061803 5.225787 -8.706375 0.0696 -0.6496 1.2889 0.2099631 1.833119 -0.6902777 -0.175599 0.828945 -8.05401 0.6412 -0.1421 0.8593 0.1919862

-2.154085 -0.3797837 0.4769985 0.182466 5.407272 -8.5347 0.1332 -0.7457 1.2652 0.1265364 1.312313 -0.3745476 0.5444551 0.792648 -8.313975 0.5495 -0.1215 0.9147 0.1919862

-2.411696 -0.1417207 0.2366666 -0.018639 5.401386 -8.452296 0.1332 -0.7457 1.2652 0.1265364 1.312313 -0.3745476 0.5444551 0.792648 -8.313975 0.5495 -0.1215 0.9147 0.1476817

-2.411696 -0.1417207 0.2366666 -0.018639 5.401386 -8.452296 0.1332 -0.7457 1.2652 0.03193953 1.114742 -0.1027999 0.8083441 0.668061 -8.590617 0.5495 -0.1215 0.9147 0.1476817

-2.411696 -0.1417207 0.2366666 -0.018639 5.401386 -8.452296 0.1332 -0.7457 1.2652 0.0561996 1.253495 0.06126106 0.5356261 0.7445791 -8.86824 0.4563 -0.098 0.9505 0.1476817

-2.627419 0.2858849 0.111352 -0.241326 5.683914 -8.163882 0.1886 -0.8345 1.2473 0.1277581 1.654572 0.02408554 0.296262 0.7779331 -8.725996 0.4563 -0.098 0.9505 0.1476817

-2.627419 0.2858849 0.111352 -0.241326 5.683914 -8.163882 0.1886 -0.8345 1.2473 0.1607448 1.968906 -0.08796459 0.296262 0.793629 -8.764255 0.4037 -0.0927 0.9703 0.122173

-2.627419 0.2858849 0.111352 -0.241326 5.683914 -8.163882 0.1886 -0.8345 1.2473 0.1607448 1.968906 -0.08796459 0.296262 0.793629 -8.764255 0.4037 -0.0927 0.9703 0.122173

-2.627419 0.2858849 0.111352 -0.241326 5.683914 -8.163882 0.1886 -0.8345 1.2473 0.1979203 2.058092 -0.198793 0.652365 0.7995151 -8.609257 0.3505 -0.0905 0.9974 0.122173

-2.627419 0.2858849 0.111352 -0.241326 5.683914 -8.163882 0.1886 -0.8345 1.2473 0.1979203 2.058092 -0.198793 0.652365 0.7995151 -8.609257 0.3505 -0.0905 0.9974 0.122173

-2.627419 0.2858849 0.111352 -0.241326 5.683914 -8.163882 0.1886 -0.8345 1.2473 0.1425934 2.055823 -0.2576106 1.306692 0.7651801 -8.277678 0.3505 -0.0905 0.9974 0.122173

-2.627419 0.2858849 0.111352 -0.241326 5.683914 -8.163882 0.1886 -0.8345 1.2473 0.1466077 1.799085 -0.2975786 2.253357 0.740655 -8.288469 0.2782 -0.1033 1.0184 0.05907268

-2.627419 0.2858849 0.111352 -0.241326 5.683914 -8.163882 0.1886 -0.8345 1.2473 0.1466077 1.799085 -0.2975786 2.253357 0.740655 -8.288469 0.2782 -0.1033 1.0184 0.05907268

-2.627419 0.2858849 0.111352 -0.241326 5.683914 -8.163882 0.1886 -0.8345 1.2473 0.1466077 1.799085 -0.2975786 2.253357 0.740655 -8.288469 0.2782 -0.1033 1.0184 0.05907268

-2.627419 0.2858849 0.111352 -0.241326 5.683914 -8.163882 0.1886 -0.8345 1.2473 0.1466077 1.799085 -0.2975786 2.253357 0.740655 -8.288469 0.2782 -0.1033 1.0184 0.05907268

-2.190563 0.2068215 -0.005061455 0.142245 7.170129 -7.134813 0.2262 -0.9103 1.216 0.2546435 -1.255939 0.2345722 5.084523 0.870147 -7.71066 0.1219 -0.0535 1.0503 -0.002685122

-2.190563 0.2068215 -0.005061455 0.142245 7.170129 -7.134813 0.2262 -0.9103 1.216 0.2546435 -1.255939 0.2345722 5.084523 0.870147 -7.71066 0.1219 -0.0535 1.0503 -0.002685122

-2.190563 0.2068215 -0.005061455 0.142245 7.170129 -7.134813 0.2262 -0.9103 1.216 0.2043781 -1.077043 0.2326524 4.358583 0.741636 -7.811703 0.1219 -0.0535 1.0503 -0.002685122

-2.190563 0.2068215 -0.005061455 0.142245 7.170129 -7.134813 0.2262 -0.9103 1.216 0.307527 -1.244769 0.1792453 3.781755 0.7691041 -7.976511 0.0907 -0.0398 1.0476 -0.002685122

-2.190563 0.2068215 -0.005061455 0.142245 7.170129 -7.134813 0.2262 -0.9103 1.216 0.307527 -1.244769 0.1792453 3.781755 0.7691041 -7.976511 0.0907 -0.0398 1.0476 0

-2.190563 0.2068215 -0.005061455 0.142245 7.170129 -7.134813 0.2262 -0.9103 1.216 0.2412045 -0.7681194 0.2474877 3.101922 0.697491 -7.918633 0.0907 -0.0398 1.0476 0

-2.190563 0.2068215 -0.005061455 0.142245 7.170129 -7.134813 0.2262 -0.9103 1.216 0.1682497 -0.8169886 0.1605703 3.101922 0.379647 -8.17075 0.1136 -0.034 1.0418 0

2.712765 -0.7206464 0.4560545 0.958437 9.036972 -4.485132 0.2956 -1.1259 1.0164 0.1682497 -0.8169886 0.1605703 3.101922 0.379647 -8.17075 0.1136 -0.034 1.0418 0

2.712765 -0.7206464 0.4560545 0.958437 9.036972 -4.485132 0.2956 -1.1259 1.0164 0.1635374 -1.312487 0.1544616 3.201003 0.271737 -8.258059 0.1136 -0.034 1.0418 -0.01611073

7.115184 -2.589894 1.105666 0.5356261 7.10244 -4.182003 0.2956 -1.1259 1.0164 0.1436406 -1.394343 0.1261873 2.845881 0.297243 -8.269831 0.1546 -0.0315 1.0346 -0.01611073

7.115184 -2.589894 1.105666 0.5356261 7.10244 -4.182003 0.2956 -1.1259 1.0164 0.1820378 -1.079137 0.05846853 1.944342 0.345312 -8.516061 0.1785 -0.0237 1.0245 -0.01611073

5.287649 -1.809557 0.9450958 -0.327654 4.093713 -5.862456 0.2439 -0.9845 1.1563 0.1820378 -1.079137 0.05846853 1.944342 0.345312 -8.516061 0.1785 -0.0237 1.0245 -0.01611073

2.932328 -0.8096582 0.5623451 -0.846603 2.026746 -7.278039 0.2439 -0.9845 1.1563 0.1624902 -0.1775 0.02583087 1.082043 0.328635 -8.546473 0.1785 -0.0237 1.0245 -0.009397927

2.932328 -0.8096582 0.5623451 -0.846603 2.026746 -7.278039 0.2439 -0.9845 1.1563 0.1132719 0.2256711 0.03054326 1.072233 0.263889 -8.487612 0.2052 -0.0075 1.025 -0.009397927

2.167524 -1.064651 0.442441 -0.659232 1.469538 -7.834267 0.256 -0.8272 1.2172 0.1132719 0.2256711 0.03054326 1.072233 0.263889 -8.487612 0.2052 -0.0075 1.025 -0.009397927

1.936094 -1.009673 0.4471534 -0.74556 1.571562 -8.169768 0.256 -0.8272 1.2172 0.2232276 -0.3659955 -0.1542871 1.717731 0.391419 -8.569036 0.2052 -0.0075 1.025 -0.009397927

2.248508 -1.757372 0.5427974 -0.774009 1.276281 -8.508213 0.2932 -0.6572 1.2455 0.1836087 -0.3926991 -0.1851794 1.905102 0.299205 -8.549416 0.2291 -0.0067 1.0134 -0.02013841

2.248508 -1.757372 0.5427974 -0.774009 1.276281 -8.508213 0.2932 -0.6572 1.2455 0.1836087 -0.3926991 -0.1851794 1.905102 0.299205 -8.549416 0.2291 -0.0067 1.0134 -0.02013841

0.2522001 -0.570199 0.4321435 -1.616688 -0.173637 -9.650097 0.2932 -0.6572 1.2455 0.1823869 -0.5190609 -0.07487462 1.911969 0.183447 -8.6328 0.2291 -0.0067 1.0134 -0.02013841

0.2522001 -0.570199 0.4321435 -1.616688 -0.173637 -9.650097 0.2932 -0.6572 1.2455 0.1822124 -0.5864306 0.01745329 1.973772 0.109872 -8.661249 0.2549 0.0004 1.0109 -0.02013841

1.665742 -0.575435 -0.116588 -1.259604 0.8897671 -9.644212 0.3574 -0.4375 1.2926 0.1822124 -0.5864306 0.01745329 1.973772 0.109872 -8.661249 0.2549 0.0004 1.0109 -0.02148098

1.346521 -0.5316273 -0.143117 -1.38321 0.308034 -9.81883 0.3628 -0.386 1.2697 0.1368338 -0.9281661 0.03385939 2.044404 -0.020601 -8.844696 0.2549 0.0004 1.0109 -0.02148098

0.004014257 0.1705187 -0.1530654 -1.596087 -0.25506 -9.917911 0.3681 -0.3424 1.26 0.1368338 -0.9281661 0.03385939 2.044404 -0.020601 -8.844696 0.2549 0.0004 1.0109 -0.02148098

0.004014257 0.1705187 -0.1530654 -1.596087 -0.25506 -9.917911 0.3681 -0.3424 1.26 0.1507965 -0.2125811 0.03769911 0.361008 -0.194238 -8.978112 0.329 0.0411 1.0098 -0.02148098

-0.3003711 0.4799655 -0.2528982 -1.54998 0.144207 -9.89829 0.3681 -0.3424 1.26 0.1507965 -0.2125811 0.03769911 0.361008 -0.194238 -8.978112 0.329 0.0411 1.0098 -0.01342561

0.2808235 0.153589 -0.1188569 -1.274319 0.761256 -9.699147 0.3669 -0.3067 1.2532 0.1141445 -0.1438151 0.02722714 0.513063 -0.178542 -8.94672 0.329 0.0411 1.0098 -0.01342561

1.096416 -0.659909 0.1132719 -1.050651 0.905463 -9.47646 0.3669 -0.3067 1.2532 0.1335177 -0.4246386 0.02844887 0.685719 -0.204048 -9.020295 0.362 0.0366 0.9976 -0.01342561

1.096416 -0.659909 0.1132719 -1.050651 0.905463 -9.47646 0.3669 -0.3067 1.2532 0.1335177 -0.4246386 0.02844887 0.685719 -0.204048 -9.020295 0.362 0.0366 0.9976 -0.01342561

0.405789 -0.2270673 0.09267698 -1.390077 0.130473 -9.900252 0.3569 -0.3031 1.2424 0.1167625 -0.3666937 0.05009095 0.483633 -0.24525 -8.94672 0.362 0.0366 0.9976 -0.01074049

-0.3960152 0.3874631 -0.002094395 -1.547037 -0.124587 -9.975789 0.3569 -0.3031 1.2424 0.1080359 -0.1211258 0.01640609 0.31392 -0.268794 -8.918271 0.3961 0.037 0.9665 -0.01074049

-0.3960152 0.3874631 -0.002094395 -1.547037 -0.124587 -9.975789 0.3569 -0.3031 1.2424 0.1080359 -0.1211258 0.01640609 0.31392 -0.268794 -8.918271 0.3961 0.037 0.9665 -0.01074049
