1.117883 0.005061455 -0.009773844 0.263889 0.422811 -9.563769 0.1315 -0.3197 1.3081 0.03577925 0.05829399 0.006108652 -1.071252 -0.649422 -8.906499 0.5355 0.0655 0.9104 -0.009397927

1.117883 0.005061455 -0.009773844 0.263889 0.422811 -9.563769 0.1315 -0.3197 1.3081 0.01937315 -0.02478367 0.01832596 -0.999639 -0.643536 -8.925138 0.5355 0.0655 0.9104 -0.01342561

1.117883 0.005061455 -0.009773844 0.263889 0.422811 -9.563769 0.1315 -0.3197 1.3081 0.01937315 -0.02478367 0.01832596 -0.999639 -0.643536 -8.925138 0.5355 0.0655 0.9104 -0.01342561

1.117883 0.005061455 -0.009773844 0.263889 0.422811 -9.563769 0.1315 -0.3197 1.3081 0.01937315 -0.02478367 0.01832596 -0.999639 -0.643536 -8.925138 0.5355 0.0655 0.9104 -0.01342561

1.117883 0.005061455 -0.009773844 0.263889 0.422811 -9.563769 0.1315 -0.3197 1.3081 0.01937315 -0.02478367 0.01832596 -0.999639 -0.643536 -8.925138 0.5355 0.0655 0.9104 -0.01342561

1.117883 0.005061455 -0.009773844 0.263889 0.422811 -9.563769 0.1315 -0.3197 1.3081 -0.03036873 0.02722714 0.0143117 -0.826983 -0.723978 -8.762292 0.543 0.0725 0.9116 -0.01342561

-0.1919862 0.04101523 -0.006283185 0.5552461 -0.306072 -9.614781 0.0757 -0.2456 1.2386 -0.01117011 -0.07888888 0.006108652 -0.6710041 -0.72594 -8.823114 0.543 0.0725 0.9116 -0.02148098

-0.1919862 0.04101523 -0.006283185 0.5552461 -0.306072 -9.614781 0.0757 -0.2456 1.2386 -0.01117011 -0.07888888 0.006108652 -0.6710041 -0.72594 -8.823114 0.543 0.0725 0.9116 -0.02148098

-0.1919862 0.04101523 -0.006283185 0.5552461 -0.306072 -9.614781 0.0757 -0.2456 1.2386 -0.01117011 -0.07888888 0.006108652 -0.6710041 -0.72594 -8.823114 0.543 0.0725 0.9116 -0.02013841

-0.08290314 -0.0127409 0.04223697 -0.016677 0.251136 -9.869842 0.2092 -0.3118 1.2645 -0.005410521 0.1965241 -0.006981317 -0.521892 -0.7867621 -8.989884 0.4796 0.0867 0.9432 -0.02013841

-0.08290314 -0.0127409 0.04223697 -0.016677 0.251136 -9.869842 0.2092 -0.3118 1.2645 -0.01064651 0.1106539 0.005759587 -0.32373 -0.7995151 -9.027163 0.4886 0.0923 0.9649 -0.02013841

-0.08290314 -0.0127409 0.04223697 -0.016677 0.251136 -9.869842 0.2092 -0.3118 1.2645 -0.01064651 0.1106539 0.005759587 -0.32373 -0.7995151 -9.027163 0.4886 0.0923 0.9649 -0.02013841

-0.08290314 -0.0127409 0.04223697 -0.016677 0.251136 -9.869842 0.2092 -0.3118 1.2645 0.01780236 -0.07993608 0.03193953 -0.138321 -0.775971 -9.003618 0.4886 0.0923 0.9649 -0.02013841

-0.08290314 -0.0127409 0.04223697 -0.016677 0.251136 -9.869842 0.2092 -0.3118 1.2645 -0.01064651 -0.01884956 0.03560472 -0.168732 -0.728883 -8.961435 0.4966 0.081 0.9598 -0.02013841

-0.08290314 -0.0127409 0.04223697 -0.016677 0.251136 -9.869842 0.2092 -0.3118 1.2645 -0.00593412 -0.04537856 0.03001966 -0.223668 -0.730845 -9.035992 0.4966 0.081 0.9598 -0.02013841

-0.08290314 -0.0127409 0.04223697 -0.016677 0.251136 -9.869842 0.2092 -0.3118 1.2645 -0.00593412 -0.04537856 0.03001966 -0.223668 -0.730845 -9.035992 0.4966 0.081 0.9598 -0.02013841

-0.08290314 -0.0127409 0.04223697 -0.016677 0.251136 -9.869842 0.2092 -0.3118 1.2645 0.004886922 0.02949606 0.02879793 -0.346293 -0.743598 -9.010486 0.4932 0.0694 0.9459 -0.02282354

-0.08290314 -0.0127409 0.04223697 -0.016677 0.251136 -9.869842 0.2092 -0.3118 1.2645 -0.01047198 0.1467822 0.01902409 -0.347274 -0.748503 -8.975169 0.4932 0.0694 0.9459 -0.02282354

-0.08290314 -0.0127409 0.04223697 -0.016677 0.251136 -9.869842 0.2092 -0.3118 1.2645 0.0122173 -0.01082104 0.02373648 -0.14715 -0.748503 -8.972226 0.4941 0.0714 0.9518 -0.02282354

-0.08290314 -0.0127409 0.04223697 -0.016677 0.251136 -9.869842 0.2092 -0.3118 1.2645 0.0122173 -0.01082104 0.02373648 -0.14715 -0.748503 -8.972226 0.4941 0.0714 0.9518 -0.02282354

-0.08290314 -0.0127409 0.04223697 -0.016677 0.251136 -9.869842 0.2092 -0.3118 1.2645 -0.0005235987 -0.180118 0.01448623 0 -0.732807 -8.959474 0.488 0.0881 0.9567 -0.02013841

-0.08290314 -0.0127409 0.04223697 -0.016677 0.251136 -9.869842 0.2092 -0.3118 1.2645 0.02251475 -0.2235767 0.01518436 -0.099081 -0.6994531 -8.963397 0.488 0.0881 0.9567 -0.02013841

-0.08290314 -0.0127409 0.04223697 -0.016677 0.251136 -9.869842 0.2092 -0.3118 1.2645 0.001745329 -0.1469567 0.02984513 -0.309996 -0.74556 -8.968303 0.4944 0.1089 0.9587 -0.02013841

-0.08290314 -0.0127409 0.04223697 -0.016677 0.251136 -9.869842 0.2092 -0.3118 1.2645 0.001745329 -0.1469567 0.02984513 -0.309996 -0.74556 -8.968303 0.4944 0.1089 0.9587 -0.02013841

-0.08290314 -0.0127409 0.04223697 -0.016677 0.251136 -9.869842 0.2092 -0.3118 1.2645 0.01797689 -0.04276057 0.01291544 -0.478728 -0.774009 -8.937891 0.4944 0.1089 0.9587 -0.01745329

-0.08290314 -0.0127409 0.04223697 -0.016677 0.251136 -9.869842 0.2092 -0.3118 1.2645 0.01797689 -0.04276057 0.01291544 -0.478728 -0.774009 -8.937891 0.4944 0.1089 0.9587 -0.01745329

-0.08290314 -0.0127409 0.04223697 -0.016677 0.251136 -9.869842 0.2092 -0.3118 1.2645 -0.0008726646 0.07347836 -0.006283185 -0.51012 -0.772047 -8.957511 0.506 0.1085 0.9549 -0.01745329

-0.08290314 -0.0127409 0.04223697 -0.016677 0.251136 -9.869842 0.2092 -0.3118 1.2645 0.00418879 -0.04223697 0.01867502 -0.415944 -0.776952 -8.970264 0.506 0.1085 0.9549 -0.01745329

-0.08290314 -0.0127409 0.04223697 -0.016677 0.251136 -9.869842 0.2092 -0.3118 1.2645 0.01570796 -0.01727876 0.03368485 -0.512082 -0.773028 -8.953588 0.504 0.0924 0.9367 -0.02013841

-0.08290314 -0.0127409 0.04223697 -0.016677 0.251136 -9.869842 0.2092 -0.3118 1.2645 0.01570796 -0.01727876 0.03368485 -0.512082 -0.773028 -8.953588 0.504 0.0924 0.9367 -0.02013841

-0.08290314 -0.0127409 0.04223697 -0.016677 0.251136 -9.869842 0.2092 -0.3118 1.2645 0.0008726646 0.1090831 0.002443461 -0.581733 -0.805401 -8.947701 0.504 0.0924 0.9367 -0.02013841

-0.08290314 -0.0127409 0.04223697 -0.016677 0.251136 -9.869842 0.2092 -0.3118 1.2645 0.01256637 0.03961897 -0.003839724 -0.420849 -0.791667 -8.9271 0.5009 0.0834 0.922 -0.02013841

-0.08290314 -0.0127409 0.04223697 -0.016677 0.251136 -9.869842 0.2092 -0.3118 1.2645 0.0006981317 -0.08150688 0.02792527 -0.269775 -0.771066 -8.914348 0.5009 0.0834 0.922 -0.01745329

-0.08290314 -0.0127409 0.04223697 -0.016677 0.251136 -9.869842 0.2092 -0.3118 1.2645 -0.01169371 -0.1713913 0.03769911 -0.211896 -0.811287 -8.901594 0.4996 0.0841 0.9253 -0.01745329

-0.08290314 -0.0127409 0.04223697 -0.016677 0.251136 -9.869842 0.2092 -0.3118 1.2645 -0.01169371 -0.1713913 0.03769911 -0.211896 -0.811287 -8.901594 0.4996 0.0841 0.9253 -0.01745329

-0.08290314 -0.0127409 0.04223697 -0.016677 0.251136 -9.869842 0.2092 -0.3118 1.2645 -0.02408554 -0.2244493 0.04450589 -0.209934 -0.7955911 -8.902575 0.4996 0.0841 0.9253 -0.01745329

-0.08290314 -0.0127409 0.04223697 -0.016677 0.251136 -9.869842 0.2092 -0.3118 1.2645 -0.02408554 -0.2244493 0.04450589 -0.209934 -0.7955911 -8.902575 0.4996 0.0841 0.9253 -0.01745329

-0.08290314 -0.0127409 0.04223697 -0.016677 0.251136 -9.869842 0.2092 -0.3118 1.2645 -0.02268928 -0.3059562 0.04555309 -0.309015 -0.779895 -8.884917 0.5013 0.0821 0.9338 -0.01342561

-0.08290314 -0.0127409 0.04223697 -0.016677 0.251136 -9.869842 0.2092 -0.3118 1.2645 -0.02373648 -0.1752311 0.04380776 -0.498348 -0.789705 -8.875107 0.5062 0.077 0.9371 -0.01342561

-0.08290314 -0.0127409 0.04223697 -0.016677 0.251136 -9.869842 0.2092 -0.3118 1.2645 -0.0439823 -0.1420698 0.02076942 -0.509139 -0.7779331 -8.912386 0.5062 0.077 0.9371 -0.01342561

-0.08290314 -0.0127409 0.04223697 -0.016677 0.251136 -9.869842 0.2092 -0.3118 1.2645 -0.0439823 -0.1420698 0.02076942 -0.509139 -0.7779331 -8.912386 0.5062 0.077 0.9371 -0.01342561

-0.08290314 -0.0127409 0.04223697 -0.016677 0.251136 -9.869842 0.2092 -0.3118 1.2645 -0.0439823 -0.1420698 0.02076942 -0.509139 -0.7779331 -8.912386 0.5062 0.077 0.9371 -0.01342561

-0.08290314 -0.0127409 0.04223697 -0.016677 0.251136 -9.869842 0.2092 -0.3118 1.2645 -0.006981317 -0.103149 0.03071779 -0.5356261 -0.721035 -8.980075 0.5205 0.08 0.9441 -0.01342561

-0.08290314 -0.0127409 0.04223697 -0.016677 0.251136 -9.869842 0.2092 -0.3118 1.2645 -0.01466077 -0.1595231 0.01466077 -0.541512 -0.7298641 -8.956531 0.5166 0.0599 0.9346 -0.01342561

-0.08290314 -0.0127409 0.04223697 -0.016677 0.251136 -9.869842 0.2092 -0.3118 1.2645 -0.01466077 -0.1595231 0.01466077 -0.541512 -0.7298641 -8.956531 0.5166 0.0599 0.9346 -0.01342561

-0.08290314 -0.0127409 0.04223697 -0.016677 0.251136 -9.869842 0.2092 -0.3118 1.2645 0.01658063 -0.09040805 0.01937315 -0.732807 -0.720054 -8.942797 0.5166 0.0599 0.9346 -0.01342561

-0.08290314 -0.0127409 0.04223697 -0.016677 0.251136 -9.869842 0.2092 -0.3118 1.2645 0.006806784 0.1164135 0.007504916 -0.8907481 -0.739674 -8.938872 0.5128 0.0537 0.9188 -0.01342561

-0.08290314 -0.0127409 0.04223697 -0.016677 0.251136 -9.869842 0.2092 -0.3118 1.2645 0.01658063 0.1240929 -0.0158825 -0.783819 -0.759294 -8.969284 0.5128 0.0537 0.9188 -0.01342561

-0.08290314 -0.0127409 0.04223697 -0.016677 0.251136 -9.869842 0.2092 -0.3118 1.2645 0.01658063 0.1240929 -0.0158825 -0.783819 -0.759294 -8.969284 0.5128 0.0537 0.9188 -0.01342561

-0.08290314 -0.0127409 0.04223697 -0.016677 0.251136 -9.869842 0.2092 -0.3118 1.2645 -0.006283185 0.0280998 -0.0132645 -0.580752 -0.751446 -9.007543 0.5203 0.0648 0.931 -0.01342561

-0.08290314 -0.0127409 0.04223697 -0.016677 0.251136 -9.869842 0.2092 -0.3118 1.2645 -0.003316126 -0.1417207 0.01256637 -0.460089 -0.797553 -8.973207 0.5235 0.074 0.9408 -0.01342561

-0.08290314 -0.0127409 0.04223697 -0.016677 0.251136 -9.869842 0.2092 -0.3118 1.2645 -0.007853981 -0.1771509 0.01954769 -0.472842 -0.828945 -8.949663 0.5235 0.074 0.9408 -0.01342561

-0.08290314 -0.0127409 0.04223697 -0.016677 0.251136 -9.869842 0.2092 -0.3118 1.2645 -0.007853981 -0.1771509 0.01954769 -0.472842 -0.828945 -8.949663 0.5235 0.074 0.9408 -0.01342561

-0.08290314 -0.0127409 0.04223697 -0.016677 0.251136 -9.869842 0.2092 -0.3118 1.2645 0.03211406 -0.1157153 0.01570796 -0.661194 -0.798534 -8.953588 0.5203 0.0825 0.9308 -0.01288859

-0.08290314 -0.0127409 0.04223697 -0.016677 0.251136 -9.869842 0.2092 -0.3118 1.2645 0.0137881 0.08395033 -0.02268928 -0.802458 -0.819135 -8.897671 0.5203 0.0825 0.9308 -0.01288859

-0.08290314 -0.0127409 0.04223697 -0.016677 0.251136 -9.869842 0.2092 -0.3118 1.2645 0.01797689 0.06684611 -0.02740167 -0.619992 -0.836793 -8.87805 0.5415 0.0815 0.9219 -0.01288859

-0.004537856 -0.07068584 -0.02513274 0.085347 -0.036297 -9.711901 0.1681 -0.271 1.2561 0.01797689 0.06684611 -0.02740167 -0.619992 -0.836793 -8.87805 0.5415 0.0815 0.9219 -0.01288859

-0.004537856 -0.07068584 -0.02513274 0.085347 -0.036297 -9.711901 0.1681 -0.271 1.2561 0.01989675 -0.1679007 -0.03543018 -0.336483 -0.822078 -8.861373 0.5415 0.0815 0.9219 -0.01047196

-0.004537856 -0.07068584 -0.02513274 0.085347 -0.036297 -9.711901 0.1681 -0.271 1.2561 0.01727876 -0.2720968 -0.04101523 -0.248193 -0.823059 -8.850582 0.557 0.0742 0.9205 -0.01047196

-0.004537856 -0.07068584 -0.02513274 0.085347 -0.036297 -9.711901 0.1681 -0.271 1.2561 0.01727876 -0.2720968 -0.04101523 -0.248193 -0.823059 -8.850582 0.557 0.0742 0.9205 -0.01047196

-0.004537856 -0.07068584 -0.02513274 0.085347 -0.036297 -9.711901 0.1681 -0.271 1.2561 0.01186824 -0.3574434 -0.03543018 -0.250155 -0.8210971 -8.815267 0.557 0.0742 0.9205 -0.008055366

-0.004537856 -0.07068584 -0.02513274 0.085347 -0.036297 -9.711901 0.1681 -0.271 1.2561 -0.01640609 -0.4394739 -0.04450589 -0.224649 -0.820116 -8.814285 0.5367 0.0802 0.9436 -0.008055366

-0.004537856 -0.07068584 -0.02513274 0.085347 -0.036297 -9.711901 0.1681 -0.271 1.2561 -0.02024582 -0.6162758 0.003490658 -0.358065 -0.752427 -8.873145 0.5367 0.0802 0.9436 -0.008055366

0.3083997 -0.2611012 -0.4515167 -0.018639 -1.23606 -9.536302 0.148 -0.2694 1.2534 -0.02024582 -0.6162758 0.003490658 -0.358065 -0.752427 -8.873145 0.5367 0.0802 0.9436 -0.008055366

0.01762783 0.1314233 -0.6122615 -0.172656 -1.380267 -9.61282 0.1447 -0.2567 1.2583 -0.07696902 -0.5880014 0.06370452 -0.722016 -0.8436601 -8.905519 0.535 0.0897 0.9462 0.00295365

0.01762783 0.1314233 -0.6122615 -0.172656 -1.380267 -9.61282 0.1447 -0.2567 1.2583 -0.0842994 -0.3429572 0.08325221 -1.135017 -0.9476461 -8.790741 0.5448 0.0913 0.9093 0.00295365

0.01762783 0.1314233 -0.6122615 -0.172656 -1.380267 -9.61282 0.1447 -0.2567 1.2583 -0.06614798 -0.2403318 -0.006108652 -1.283148 -0.848565 -8.76033 0.5448 0.0913 0.9093 0.00295365

0.01762783 0.1314233 -0.6122615 -0.172656 -1.380267 -9.61282 0.1447 -0.2567 1.2583 -0.06614798 -0.2403318 -0.006108652 -1.283148 -0.848565 -8.76033 0.5448 0.0913 0.9093 0.00295365

-0.5084144 -0.3810054 -0.8047713 -0.260946 -1.916874 -9.449973 0.124 -0.2524 1.2442 -0.02268928 -0.357967 -0.06911504 -1.274319 -0.750465 -8.734824 0.5629 0.0875 0.8916 0.03356402

-0.5084144 -0.3810054 -0.8047713 -0.260946 -1.916874 -9.449973 0.124 -0.2524 1.2442 -0.1038471 -0.5078908 -0.169646 -1.460709 -0.672966 -8.495461 0.5717 0.0722 0.889 0.03356402

-0.4858997 -0.2778564 -0.8822639 -0.571923 -1.820736 -9.444087 0.124 -0.2524 1.2442 -0.2946116 -0.5312783 -0.2462659 -1.494063 -0.779895 -8.476821 0.5717 0.0722 0.889 0.03356402

-0.4872959 -0.08499753 -1.012815 -0.83385 -1.87371 -9.495099 0.1134 -0.2456 1.2412 -0.2946116 -0.5312783 -0.2462659 -1.494063 -0.779895 -8.476821 0.5717 0.0722 0.889 0.03356402

-0.6335545 0.1150172 -1.173908 -1.041822 -2.090511 -9.625572 0.1195 -0.2383 1.2347 -0.137881 -0.2179916 -0.07923795 -1.804059 -0.6572701 -8.668117 0.6012 0.0704 0.8831 0.07410938

-0.6335545 0.1150172 -1.173908 -1.041822 -2.090511 -9.625572 0.1195 -0.2383 1.2347 -0.1848304 -0.1692969 -0.07749262 -1.87371 -0.5886 -8.639668 0.6012 0.0704 0.8831 0.07410938

-0.7215191 0.2488839 -1.337795 -1.20663 -2.115036 -9.732501 0.1195 -0.2383 1.2347 -0.1848304 -0.1692969 -0.07749262 -1.87371 -0.5886 -8.639668 0.6012 0.0704 0.8831 0.07410938

-0.6567674 0.3364995 -1.404467 -1.292958 -1.806021 -9.781551 0.1261 -0.2487 1.2478 -0.2246239 -0.174882 -0.08936086 -1.910988 -0.573885 -8.626915 0.6158 0.0718 0.9019 0.07410938

-0.4321435 0.4045673 -1.406386 -1.290015 -1.367514 -9.827658 0.1261 -0.2487 1.2478 -0.1752311 -0.07749262 -0.07033677 -2.038518 -0.499329 -8.645553 0.6158 0.0718 0.9019 0.1197565

-0.2933898 0.4811873 -1.447052 -1.270395 -0.994734 -9.896329 0.123 -0.2809 1.2771 -0.1942551 -0.05061455 -0.0301942 -2.041461 -0.501291 -8.560206 0.6354 0.0724 0.9051 0.1197565

-0.2933898 0.4811873 -1.447052 -1.270395 -0.994734 -9.896329 0.123 -0.2809 1.2771 -0.1942551 -0.05061455 -0.0301942 -2.041461 -0.501291 -8.560206 0.6354 0.0724 0.9051 0.1197565

-0.1687733 0.5286602 -1.443213 -1.217421 -0.611163 -9.92772 0.123 -0.2809 1.2771 -0.2438225 -0.2211332 -0.04049164 -1.920798 -0.584676 -8.447392 0.6569 0.0636 0.8923 0.1197565

0.05445427 0.4523893 -1.430995 -1.084005 -0.311958 -9.922815 0.0892 -0.301 1.2842 -0.2438225 -0.2211332 -0.04049164 -1.920798 -0.584676 -8.447392 0.6569 0.0636 0.8923 0.1197565

0.2879793 0.5120796 -1.345998 -1.027107 -0.06867 -9.923797 0.0892 -0.301 1.2842 -0.3073525 -0.4255112 -0.03665191 -1.783458 -0.6925861 -8.392455 0.6569 0.0636 0.8923 0.05732737

0.2879793 0.5120796 -1.345998 -1.027107 -0.06867 -9.923797 0.0892 -0.301 1.2842 -0.3741986 -0.7431612 0.02548181 -1.704978 -0.719073 -8.38755 0.657 0.0507 0.8821 0.05732737

-0.2480113 0.5441937 -1.514248 -0.573885 -0.149112 -9.639306 -0.0135 -0.3301 1.276 -0.3741986 -0.7431612 0.02548181 -1.704978 -0.719073 -8.38755 0.657 0.0507 0.8821 0.05732737

-0.2480113 0.5441937 -1.514248 -0.573885 -0.149112 -9.639306 -0.0135 -0.3301 1.276 -0.3837979 -0.7216936 0.2244493 -1.972791 -0.532683 -8.404227 0.657 0.0507 0.8821 0.4860071

0.1394518 0.1179843 -1.463633 -0.33354 0.221706 -9.50491 -0.0579 -0.3137 1.2572 -0.3775147 -0.6126105 0.4124213 -2.309274 -0.430659 -8.355178 0.6591 0.0434 0.8758 0.4860071

0.3748967 0.1635374 -1.402721 -0.379647 0.414963 -9.580446 -0.1096 -0.3037 1.2414 -0.3775147 -0.6126105 0.4124213 -2.309274 -0.430659 -8.355178 0.6591 0.0434 0.8758 0.4860071

0.3748967 0.1635374 -1.402721 -0.379647 0.414963 -9.580446 -0.1096 -0.3037 1.2414 -0.3775147 -0.6126105 0.4124213 -2.309274 -0.430659 -8.355178 0.6591 0.0434 0.8758 0.4860071

0.3925245 0.4555309 -1.361008 -0.398286 0.454203 -9.660889 -0.1096 -0.3037 1.2414 -0.3775147 -0.6126105 0.4124213 -2.309274 -0.430659 -8.355178 0.6591 0.0434 0.8758 0.6511421

0.3925245 0.4555309 -1.361008 -0.398286 0.454203 -9.660889 -0.1096 -0.3037 1.2414 -0.7354817 -0.8077384 0.4776966 -2.575125 -0.234459 -7.663572 0.7097 0.0003 0.8424 0.6511421

0.5721189 0.4078835 -1.399405 -0.208953 0.505215 -9.627535 -0.1378 -0.3169 1.2506 -0.7354817 -0.8077384 0.4776966 -2.575125 -0.234459 -7.663572 0.7097 0.0003 0.8424 0.6511421

0.7356563 0.3619813 -1.487195 -0.081423 0.515025 -9.513739 -0.1378 -0.3169 1.2506 -0.8468338 -0.9046042 0.5342453 -2.675187 -0.134397 -7.593921 0.7097 0.0003 0.8424 0.6511421

0.7356563 0.3619813 -1.487195 -0.081423 0.515025 -9.513739 -0.1378 -0.3169 1.2506 -0.9513789 -0.9840167 0.5375614 -2.834109 0.038259 -7.490916 0.7146 -0.026 0.8328 0.6511421

1.01648 0.2420772 -1.570971 0.061803 0.563094 -9.345006 -0.1769 -0.3192 1.2465 -0.9513789 -0.9840167 0.5375614 -2.834109 0.038259 -7.490916 0.7146 -0.026 0.8328 0.8216473

1.255415 0.08080874 -1.593137 0.174618 0.59841 -9.189027 -0.1769 -0.3192 1.2465 -1.071458 -0.9824458 0.5202826 -3.113694 0.272718 -7.427151 0.7254 -0.0507 0.8006 0.8216473

1.355597 -0.002094395 -1.563466 0.183447 0.488538 -9.130167 -0.2178 -0.2975 1.2183 -1.110378 -0.8813913 0.5014331 -3.456063 0.6405931 -7.419303 0.7254 -0.0507 0.8006 0.8216473

1.355597 -0.002094395 -1.563466 0.183447 0.488538 -9.130167 -0.2178 -0.2975 1.2183 -1.110378 -0.8813913 0.5014331 -3.456063 0.6405931 -7.419303 0.7254 -0.0507 0.8006 0.9921526

1.355248 -0.004014257 -1.549852 0.154017 0.3924 -9.116433 -0.2178 -0.2975 1.2183 -1.098685 -0.6644468 0.5204571 -3.821976 1.033974 -7.383987 0.7568 -0.0887 0.7679 0.9921526

1.490686 -0.06771877 -1.535192 0.17658 0.410058 -9.019314 -0.2535 -0.2811 1.202 -1.097638 -0.5414011 0.4918338 -4.027986 1.43226 -7.349652 0.7568 -0.0887 0.7679 0.9921526

1.490686 -0.06771877 -1.535192 0.17658 0.410058 -9.019314 -0.2535 -0.2811 1.202 -1.097638 -0.5414011 0.4918338 -4.027986 1.43226 -7.349652 0.7568 -0.0887 0.7679 0.9921526

1.490686 -0.06771877 -1.535192 0.17658 0.410058 -9.019314 -0.2535 -0.2811 1.202 -1.103397 -0.4288274 0.4733333 -4.154535 1.727541 -7.323165 0.7989 -0.139 0.7424 1.134464

1.490686 -0.06771877 -1.535192 0.17658 0.410058 -9.019314 -0.2535 -0.2811 1.202 -1.146681 -0.368439 0.4766494 -4.173174 1.951209 -7.291773 0.7989 -0.139 0.7424 1.134464

2.309943 -0.476824 -1.100954 0.8691661 -0.272718 -8.69166 -0.3363 -0.2277 1.1356 -1.146681 -0.368439 0.4766494 -4.173174 1.951209 -7.291773 0.7989 -0.139 0.7424 1.134464

2.309943 -0.476824 -1.100954 0.8691661 -0.272718 -8.69166 -0.3363 -0.2277 1.1356 -1.202881 -0.3731514 0.4475024 -4.074093 2.188611 -7.150509 0.8161 -0.1919 0.713 1.134464

2.418677 -0.6630506 -1.030792 0.948627 -0.736731 -8.605332 -0.3918 -0.1764 1.1054 -1.202881 -0.3731514 0.4475024 -4.074093 2.188611 -7.150509 0.8161 -0.1919 0.713 1.229786

2.435083 -0.7360053 -0.9419542 0.949608 -1.338084 -8.645553 -0.3918 -0.1764 1.1054 -1.275661 -0.4092797 0.4621632 -4.102542 2.48193 -7.04358 0.8161 -0.1919 0.713 1.229786

2.435083 -0.7360053 -0.9419542 0.949608 -1.338084 -8.645553 -0.3918 -0.1764 1.1054 -1.275661 -0.4092797 0.4621632 -4.102542 2.48193 -7.04358 0.8161 -0.1919 0.713 1.229786

2.37295 -0.6234316 -0.8731882 0.916254 -1.876653 -8.693623 -0.4379 -0.1201 1.0608 -1.246863 -0.1874484 0.3160791 -4.344849 3.497265 -7.176996 0.833 -0.3157 0.6409 1.229786

2.37295 -0.6234316 -0.8731882 0.916254 -1.876653 -8.693623 -0.4379 -0.1201 1.0608 -1.246863 -0.1874484 0.3160791 -4.344849 3.497265 -7.176996 0.833 -0.3157 0.6409 1.298257

2.439796 -0.7225663 -0.7773697 0.925083 -2.466234 -8.696566 -0.4379 -0.1201 1.0608 -1.138478 -0.04747296 0.3021165 -4.47336 3.80628 -7.115193 0.833 -0.3157 0.6409 1.298257

2.274862 -0.672999 -0.7298967 0.703377 -3.242205 -8.791722 -0.4503 -0.0596 0.9991 -1.138478 -0.04747296 0.3021165 -4.47336 3.80628 -7.115193 0.833 -0.3157 0.6409 1.298257

2.274862 -0.672999 -0.7298967 0.703377 -3.242205 -8.791722 -0.4503 -0.0596 0.9991 -1.054528 0.0720821 0.3548254 -4.559688 4.136877 -7.022979 0.8272 -0.36 0.6064 1.298257

2.27015 -0.6461209 -0.6647959 0.67689 -3.836691 -8.813305 -0.4503 -0.0596 0.9991 -1.054528 0.0720821 0.3548254 -4.559688 4.136877 -7.022979 0.8272 -0.36 0.6064 1.351959

2.592338 -0.588176 -0.5782276 0.665118 -4.161402 -8.736787 -0.4811 0.0087 0.9393 -1.054528 0.0720821 0.3548254 -4.559688 4.136877 -7.022979 0.8272 -0.36 0.6064 1.351959

2.592338 -0.588176 -0.5782276 0.665118 -4.161402 -8.736787 -0.4811 0.0087 0.9393 -1.054528 0.0720821 0.3548254 -4.559688 4.136877 -7.022979 0.8272 -0.36 0.6064 1.351959

2.886251 -0.5565855 -0.4949754 0.697491 -4.680351 -8.530776 -0.4811 0.0087 0.9393 -1.054528 0.0720821 0.3548254 -4.559688 4.136877 -7.022979 0.8272 -0.36 0.6064 1.351959

2.886251 -0.5565855 -0.4949754 0.697491 -4.680351 -8.530776 -0.4811 0.0087 0.9393 -1.054528 0.0720821 0.3548254 -4.559688 4.136877 -7.022979 0.8272 -0.36 0.6064 1.351959

2.832146 -0.5499532 -0.5494297 0.764199 -5.526954 -8.225685 -0.5139 0.0813 0.8682 -0.975639 0.2045526 0.3913028 -4.480227 4.421367 -6.942537 0.8272 -0.36 0.6064 1.389551

2.69601 -0.479791 -0.445408 0.7141681 -6.283305 -7.834267 -0.5284 0.1464 0.7936 -0.975639 0.2045526 0.3913028 -4.480227 4.421367 -6.942537 0.8272 -0.36 0.6064 1.389551

2.69601 -0.479791 -0.445408 0.7141681 -6.283305 -7.834267 -0.5284 0.1464 0.7936 -0.9313077 0.2309071 0.3249803 -4.252635 4.572441 -6.7689 0.8221 -0.4129 0.5849 1.389551

2.69601 -0.479791 -0.445408 0.7141681 -6.283305 -7.834267 -0.5284 0.1464 0.7936 -1.070759 0.07086036 0.2527237 -3.997575 4.73823 -6.528555 0.8221 -0.4129 0.5849 1.389551

3.122569 -0.3010693 -0.2478368 0.761256 -7.635123 -6.406911 -0.5962 0.296 0.5649 -1.070759 0.07086036 0.2527237 -3.997575 4.73823 -6.528555 0.8221 -0.4129 0.5849 1.419087

3.122569 -0.3010693 -0.2478368 0.761256 -7.635123 -6.406911 -0.5962 0.296 0.5649 -1.070759 0.07086036 0.2527237 -3.997575 4.73823 -6.528555 0.8221 -0.4129 0.5849 1.419087

3.122569 -0.3010693 -0.2478368 0.761256 -7.635123 -6.406911 -0.5962 0.296 0.5649 -1.36956 -0.1813397 0.08080874 -3.997575 4.73823 -6.528555 0.8221 -0.4129 0.5849 1.419087

2.763205 -0.3092723 -0.1418953 0.855432 -8.338501 -5.980176 -0.5962 0.296 0.5649 -1.29294 -0.09424778 -0.001745329 -4.111371 5.579928 -6.263685 0.7973 -0.5218 0.5371 1.419087

2.584833 -0.2949606 -0.1230457 0.8721091 -8.667135 -5.441607 -0.593 0.3313 0.4429 -1.29294 -0.09424778 -0.001745329 -4.111371 5.579928 -6.263685 0.7973 -0.5218 0.5371 1.43117

2.584833 -0.2949606 -0.1230457 0.8721091 -8.667135 -5.441607 -0.593 0.3313 0.4429 -1.121374 0.1185079 -0.055676 -4.283046 5.947803 -6.321564 0.8157 -0.556 0.5015 1.43117

2.599843 -0.3190462 -0.1343904 0.925083 -8.851563 -4.884399 -0.593 0.3313 0.4429 -0.9697049 0.2616248 -0.02251475 -4.534182 6.275457 -6.302925 0.8292 -0.576 0.4763 1.43117

2.593908 -0.3972369 -0.0006981317 0.906444 -9.131148 -4.38507 -0.6015 0.3613 0.2962 -0.9496337 0.2975786 -0.01902409 -4.726458 6.486372 -6.151851 0.8292 -0.576 0.4763 1.43117

2.072927 -0.333707 0.09930924 0.8260021 -9.729559 -4.044663 -0.6155 0.4035 0.1583 -0.9496337 0.2975786 -0.01902409 -4.726458 6.486372 -6.151851 0.8292 -0.576 0.4763 1.435198

2.072927 -0.333707 0.09930924 0.8260021 -9.729559 -4.044663 -0.6155 0.4035 0.1583 -0.9496337 0.2975786 -0.01902409 -4.726458 6.486372 -6.151851 0.8292 -0.576 0.4763 1.435198

1.814619 -0.3255039 0.0863938 0.79461 -9.972847 -3.623814 -0.6155 0.4035 0.1583 -0.7428122 0.2577851 -0.1534144 -4.153554 7.138737 -5.440626 0.8275 -0.6423 0.3677 1.435198

1.814619 -0.3255039 0.0863938 0.79461 -9.972847 -3.623814 -0.6155 0.4035 0.1583 -0.7428122 0.2577851 -0.1534144 -4.153554 7.138737 -5.440626 0.8275 -0.6423 0.3677 1.435198

1.814619 -0.3255039 0.0863938 0.79461 -9.972847 -3.623814 -0.6155 0.4035 0.1583 -0.6881833 0.2614503 -0.09791297 -4.05153 7.260382 -5.214015 0.8275 -0.6423 0.3677 1.437883

1.756848 -0.3269002 0.09110618 0.648441 -10.02484 -3.221604 -0.645 0.4314 0.0447 -0.6356489 0.2635447 -0.04590216 -3.915171 7.309432 -5.058036 0.8185 -0.6614 0.3357 1.437883

1.756848 -0.3269002 0.09110618 0.648441 -10.02484 -3.221604 -0.645 0.4314 0.0447 -0.6115634 0.167028 -0.09721484 -3.70818 7.286868 -4.964841 0.8185 -0.6614 0.3357 1.437883

1.756848 -0.3269002 0.09110618 0.648441 -10.02484 -3.221604 -0.645 0.4314 0.0447 -0.6115634 0.167028 -0.09721484 -3.70818 7.286868 -4.964841 0.8185 -0.6614 0.3357 1.437883

1.756848 -0.3269002 0.09110618 0.648441 -10.02484 -3.221604 -0.645 0.4314 0.0447 -0.6288421 0.1216494 -0.1078613 -3.609099 7.287849 -4.86576 0.8283 -0.6739 0.3178 1.440568

1.756848 -0.3269002 0.09110618 0.648441 -10.02484 -3.221604 -0.645 0.4314 0.0447 -0.6370451 0.130027 -0.03508112 -3.612042 7.38693 -4.665636 0.8323 -0.6882 0.2961 1.440568

1.756848 -0.3269002 0.09110618 0.648441 -10.02484 -3.221604 -0.645 0.4314 0.0447 -0.6370451 0.130027 -0.03508112 -3.612042 7.38693 -4.665636 0.8323 -0.6882 0.2961 1.440568

1.756848 -0.3269002 0.09110618 0.648441 -10.02484 -3.221604 -0.645 0.4314 0.0447 -0.6607817 0.04450589 -0.00715585 -3.529638 7.530156 -4.462569 0.8323 -0.6882 0.2961 1.440568

1.756848 -0.3269002 0.09110618 0.648441 -10.02484 -3.221604 -0.645 0.4314 0.0447 -0.6724753 -0.03263766 -0.01204277 -3.518847 7.623352 -4.444911 0.8253 -0.6939 0.2875 1.443253

1.756848 -0.3269002 0.09110618 0.648441 -10.02484 -3.221604 -0.645 0.4314 0.0447 -0.6724753 -0.03263766 -0.01204277 -3.518847 7.623352 -4.444911 0.8253 -0.6939 0.2875 1.443253

1.756848 -0.3269002 0.09110618 0.648441 -10.02484 -3.221604 -0.645 0.4314 0.0447 -0.5789257 0.05602507 -0.008028515 -3.614004 7.639047 -4.495923 0.8253 -0.6939 0.2875 1.443253

1.756848 -0.3269002 0.09110618 0.648441 -10.02484 -3.221604 -0.645 0.4314 0.0447 -0.5789257 0.05602507 -0.008028515 -3.614004 7.639047 -4.495923 0.8253 -0.6939 0.2875 1.443253

1.756848 -0.3269002 0.09110618 0.648441 -10.02484 -3.221604 -0.645 0.4314 0.0447 -0.4923574 0.1328196 -0.001047197 -3.729762 7.701831 -4.474341 0.8265 -0.6919 0.2883 1.443253

1.756848 -0.3269002 0.09110618 0.648441 -10.02484 -3.221604 -0.645 0.4314 0.0447 -0.4539602 0.1398009 0.01117011 -3.742515 7.760692 -4.388994 0.8265 -0.6919 0.2883 1.449966

1.756848 -0.3269002 0.09110618 0.648441 -10.02484 -3.221604 -0.645 0.4314 0.0447 -0.3972369 0.1607448 0.01396263 -3.710142 7.777369 -4.255579 0.8316 -0.6864 0.2791 1.449966

1.756848 -0.3269002 0.09110618 0.648441 -10.02484 -3.221604 -0.645 0.4314 0.0447 -0.3972369 0.1607448 0.01396263 -3.710142 7.777369 -4.255579 0.8316 -0.6864 0.2791 1.449966

1.756848 -0.3269002 0.09110618 0.648441 -10.02484 -3.221604 -0.645 0.4314 0.0447 -0.3883358 0.1413717 0.004537856 -3.691503 7.804836 -4.117257 0.8316 -0.6864 0.2791 1.449966

1.756848 -0.3269002 0.09110618 0.648441 -10.02484 -3.221604 -0.645 0.4314 0.0447 -0.4290019 0.1158899 -0.01466077 -3.692484 7.815628 -4.00248 0.8442 -0.6996 0.2596 1.456679

1.756848 -0.3269002 0.09110618 0.648441 -10.02484 -3.221604 -0.645 0.4314 0.0447 -0.4265585 0.1219985 -0.03054326 -3.724857 7.868601 -3.897513 0.8432 -0.7127 0.2529 1.456679

1.756848 -0.3269002 0.09110618 0.648441 -10.02484 -3.221604 -0.645 0.4314 0.0447 -0.4265585 0.1219985 -0.03054326 -3.724857 7.868601 -3.897513 0.8432 -0.7127 0.2529 1.456679

1.756848 -0.3269002 0.09110618 0.648441 -10.02484 -3.221604 -0.645 0.4314 0.0447 -0.4206243 0.1366593 -0.006632251 -3.791565 7.941195 -3.810204 0.8432 -0.7127 0.2529 1.456679

1.756848 -0.3269002 0.09110618 0.648441 -10.02484 -3.221604 -0.645 0.4314 0.0447 -0.4206243 0.1366593 -0.006632251 -3.791565 7.941195 -3.810204 0.8432 -0.7127 0.2529 1.447281

1.756848 -0.3269002 0.09110618 0.648441 -10.02484 -3.221604 -0.645 0.4314 0.0447 -0.3796091 0.1436406 0.01239184 -3.772926 7.985341 -3.730743 0.8293 -0.7042 0.2406 1.447281

1.756848 -0.3269002 0.09110618 0.648441 -10.02484 -3.221604 -0.645 0.4314 0.0447 -0.344528 0.1209513 0.02321288 -3.699351 7.983378 -3.617928 0.8293 -0.7042 0.2406 1.447281

1.756848 -0.3269002 0.09110618 0.648441 -10.02484 -3.221604 -0.645 0.4314 0.0447 -0.344528 0.1209513 0.02321288 -3.699351 7.983378 -3.617928 0.8293 -0.7042 0.2406 1.447281

1.756848 -0.3269002 0.09110618 0.648441 -10.02484 -3.221604 -0.645 0.4314 0.0447 -0.3588397 0.07679449 0.009948377 -3.607137 7.958853 -3.59046 0.8281 -0.7052 0.2131 1.444596

1.756848 -0.3269002 0.09110618 0.648441 -10.02484 -3.221604 -0.645 0.4314 0.0447 -0.3221878 0.0986111 0.02827433 -3.550239 7.983378 -3.562011 0.8281 -0.7052 0.2131 1.444596

1.756848 -0.3269002 0.09110618 0.648441 -10.02484 -3.221604 -0.645 0.4314 0.0447 -0.2738422 0.08936086 0.0694641 -3.525714 8.104041 -3.474702 0.8274 -0.715 0.2098 1.444596

1.756848 -0.3269002 0.09110618 0.648441 -10.02484 -3.221604 -0.645 0.4314 0.0447 -0.2738422 0.08936086 0.0694641 -3.525714 8.104041 -3.474702 0.8274 -0.715 0.2098 1.444596

1.756848 -0.3269002 0.09110618 0.648441 -10.02484 -3.221604 -0.645 0.4314 0.0447 -0.2724459 0.009948377 0.07330383 -3.48255 8.148187 -3.402108 0.8274 -0.715 0.2098 1.451308

1.756848 -0.3269002 0.09110618 0.648441 -10.02484 -3.221604 -0.645 0.4314 0.0447 -0.3029892 -0.03926991 0.05427974 -3.474702 8.087364 -3.416823 0.8317 -0.7237 0.2036 1.451308

1.756848 -0.3269002 0.09110618 0.648441 -10.02484 -3.221604 -0.645 0.4314 0.0447 -0.3371976 -0.08936086 0.03612831 -3.504132 8.116795 -3.425652 0.8317 -0.7237 0.2036 1.451308

1.756848 -0.3269002 0.09110618 0.648441 -10.02484 -3.221604 -0.645 0.4314 0.0447 -0.3371976 -0.08936086 0.03612831 -3.504132 8.116795 -3.425652 0.8317 -0.7237 0.2036 1.451308

1.756848 -0.3269002 0.09110618 0.648441 -10.02484 -3.221604 -0.645 0.4314 0.0447 -0.3171263 -0.09075712 0.03420845 -3.60027 8.23942 -3.386412 0.8357 -0.7156 0.1844 1.462049

1.756848 -0.3269002 0.09110618 0.648441 -10.02484 -3.221604 -0.645 0.4314 0.0447 -0.2457424 -0.0403171 0.03996804 -3.73761 8.369892 -3.390336 0.8309 -0.7059 0.1657 1.462049

1.756848 -0.3269002 0.09110618 0.648441 -10.02484 -3.221604 -0.645 0.4314 0.0447 -0.137532 0.03804818 0.02129302 -3.829824 8.459163 -3.408975 0.8309 -0.7059 0.1657 1.462049

1.756848 -0.3269002 0.09110618 0.648441 -10.02484 -3.221604 -0.645 0.4314 0.0447 -0.137532 0.03804818 0.02129302 -3.829824 8.459163 -3.408975 0.8309 -0.7059 0.1657 1.462049

1.756848 -0.3269002 0.09110618 0.648441 -10.02484 -3.221604 -0.645 0.4314 0.0447 -0.05218535 0.1078613 0.02234021 -3.912228 8.467993 -3.398184 0.8286 -0.7106 0.152 1.462049

1.756848 -0.3269002 0.09110618 0.648441 -10.02484 -3.221604 -0.645 0.4314 0.0447 0.004712389 0.1206023 0.03071779 -3.891627 8.415018 -3.322647 0.8286 -0.7106 0.152 1.462049

1.756848 -0.3269002 0.09110618 0.648441 -10.02484 -3.221604 -0.645 0.4314 0.0447 -0.005759587 0.02164208 0.01239184 -3.772926 8.342424 -3.2373 0.8207 -0.7241 0.1583 1.462049

1.756848 -0.3269002 0.09110618 0.648441 -10.02484 -3.221604 -0.645 0.4314 0.0447 -0.005759587 0.02164208 0.01239184 -3.772926 8.342424 -3.2373 0.8207 -0.7241 0.1583 1.462049

1.756848 -0.3269002 0.09110618 0.648441 -10.02484 -3.221604 -0.645 0.4314 0.0447 -0.07661995 -0.06998771 -0.04450589 -3.664035 8.241382 -3.193155 0.8207 -0.7241 0.1583 1.449966

1.756848 -0.3269002 0.09110618 0.648441 -10.02484 -3.221604 -0.645 0.4314 0.0447 -0.1478294 -0.08168141 -0.1054179 -3.666978 8.228628 -3.20787 0.8197 -0.7359 0.1585 1.449966

1.756848 -0.3269002 0.09110618 0.648441 -10.02484 -3.221604 -0.645 0.4314 0.0447 -0.1411971 0.05427974 -0.1110029 -3.843558 8.275716 -3.193155 0.8197 -0.7359 0.1585 1.449966

1.756848 -0.3269002 0.09110618 0.648441 -10.02484 -3.221604 -0.645 0.4314 0.0447 -0.04153884 0.1764528 -0.03106686 -4.095675 8.316918 -3.076416 0.8306 -0.7345 0.1466 1.449966

1.756848 -0.3269002 0.09110618 0.648441 -10.02484 -3.221604 -0.645 0.4314 0.0447 -0.04153884 0.1764528 -0.03106686 -4.095675 8.316918 -3.076416 0.8306 -0.7345 0.1466 1.451308

1.756848 -0.3269002 0.09110618 0.648441 -10.02484 -3.221604 -0.645 0.4314 0.0447 0.1118756 0.2851868 0.05323254 -4.08096 8.353215 -3.036195 0.8374 -0.7316 0.1346 1.451308

1.756848 -0.3269002 0.09110618 0.648441 -10.02484 -3.221604 -0.645 0.4314 0.0447 0.198793 0.297055 -0.0137881 -3.790584 8.324766 -3.059739 0.8374 -0.7316 0.1346 1.451308

1.756848 -0.3269002 0.09110618 0.648441 -10.02484 -3.221604 -0.645 0.4314 0.0447 0.103498 0.2000147 -0.07068584 -3.553182 8.136415 -2.99205 0.8402 -0.7304 0.1248 1.451308

1.756848 -0.3269002 0.09110618 0.648441 -10.02484 -3.221604 -0.645 0.4314 0.0447 0.103498 0.2000147 -0.07068584 -3.553182 8.136415 -2.99205 0.8402 -0.7304 0.1248 1.463391

1.756848 -0.3269002 0.09110618 0.648441 -10.02484 -3.221604 -0.645 0.4314 0.0447 -0.105767 0.07487462 -0.03316126 -3.512961 7.918633 -2.843919 0.8402 -0.7304 0.1248 1.463391

1.756848 -0.3269002 0.09110618 0.648441 -10.02484 -3.221604 -0.645 0.4314 0.0447 -0.1933825 0.02321288 0.0439823 -3.631662 7.918633 -2.811546 0.8414 -0.7256 0.1345 1.463391

1.756848 -0.3269002 0.09110618 0.648441 -10.02484 -3.221604 -0.645 0.4314 0.0447 -0.1572542 0.05515241 0.004363323 -3.77685 8.07363 -2.880216 0.8414 -0.7256 0.1345 1.463391

1.756848 -0.3269002 0.09110618 0.648441 -10.02484 -3.221604 -0.645 0.4314 0.0447 -0.1572542 0.05515241 0.004363323 -3.77685 8.07363 -2.880216 0.8414 -0.7256 0.1345 1.49427

1.756848 -0.3269002 0.09110618 0.648441 -10.02484 -3.221604 -0.645 0.4314 0.0447 -0.07592182 0.1188569 -0.08970992 -3.893589 8.229609 -3.026385 0.8284 -0.7234 0.1677 1.49427

1.756848 -0.3269002 0.09110618 0.648441 -10.02484 -3.221604 -0.645 0.4314 0.0447 -0.01047198 0.1769764 -0.1429425 -4.016214 8.311032 -3.066606 0.8284 -0.7234 0.1677 1.49427

1.756848 -0.3269002 0.09110618 0.648441 -10.02484 -3.221604 -0.645 0.4314 0.0447 -0.01047198 0.1769764 -0.1429425 -4.016214 8.311032 -3.066606 0.8284 -0.7234 0.1677 1.49427

1.756848 -0.3269002 0.09110618 0.648441 -10.02484 -3.221604 -0.645 0.4314 0.0447 -0.02391101 0.2275909 -0.1701696 -4.116276 8.29926 -3.085245 0.8275 -0.7271 0.1815 1.537232

1.756848 -0.3269002 0.09110618 0.648441 -10.02484 -3.221604 -0.645 0.4314 0.0447 -0.0424115 0.2659882 -0.2242748 -4.163364 8.258059 -3.116637 0.8463 -0.7307 0.1756 1.537232

1.756848 -0.3269002 0.09110618 0.648441 -10.02484 -3.221604 -0.645 0.4314 0.0447 -0.03804818 0.3563962 -0.2542945 -4.242825 8.199199 -3.12939 0.8463 -0.7307 0.1756 1.537232

1.756848 -0.3269002 0.09110618 0.648441 -10.02484 -3.221604 -0.645 0.4314 0.0447 -0.03804818 0.3563962 -0.2542945 -4.242825 8.199199 -3.12939 0.8463 -0.7307 0.1756 1.537232

1.756848 -0.3269002 0.09110618 0.648441 -10.02484 -3.221604 -0.645 0.4314 0.0447 -0.01692969 0.4527384 -0.2865831 -4.333077 8.204103 -3.120561 0.8531 -0.7208 0.1656 1.577509

1.756848 -0.3269002 0.09110618 0.648441 -10.02484 -3.221604 -0.645 0.4314 0.0447 0.01832596 0.5351179 -0.3145083 -4.386051 8.223723 -3.084264 0.8531 -0.7208 0.1656 1.577509

1.756848 -0.3269002 0.09110618 0.648441 -10.02484 -3.221604 -0.645 0.4314 0.0447 0.01832596 0.5351179 -0.3145083 -4.386051 8.223723 -3.084264 0.8531 -0.7208 0.1656 1.577509

1.756848 -0.3269002 0.09110618 0.648441 -10.02484 -3.221604 -0.645 0.4314 0.0447 0.01832596 0.5351179 -0.3145083 -4.386051 8.223723 -3.084264 0.8531 -0.7208 0.1656 1.577509

1.756848 -0.3269002 0.09110618 0.648441 -10.02484 -3.221604 -0.645 0.4314 0.0447 0.01832596 0.5351179 -0.3145083 -4.386051 8.223723 -3.084264 0.8531 -0.7208 0.1656 1.612416

1.756848 -0.3269002 0.09110618 0.648441 -10.02484 -3.221604 -0.645 0.4314 0.0447 0.01832596 0.5351179 -0.3145083 -4.386051 8.223723 -3.084264 0.8531 -0.7208 0.1656 1.612416

1.756848 -0.3269002 0.09110618 0.648441 -10.02484 -3.221604 -0.645 0.4314 0.0447 -0.1633628 0.6419321 -0.5183628 -4.190832 7.901955 -2.887083 0.8509 -0.6934 0.176 1.612416

1.756848 -0.3269002 0.09110618 0.648441 -10.02484 -3.221604 -0.645 0.4314 0.0447 -0.2052507 0.6883578 -0.522028 -4.18887 7.854867 -2.914551 0.8555 -0.6636 0.2187 1.612416

1.756848 -0.3269002 0.09110618 0.648441 -10.02484 -3.221604 -0.645 0.4314 0.0447 -0.2052507 0.6883578 -0.522028 -4.18887 7.854867 -2.914551 0.8555 -0.6636 0.2187 1.64061

1.756848 -0.3269002 0.09110618 0.648441 -10.02484 -3.221604 -0.645 0.4314 0.0447 -0.2143264 0.7189011 -0.5729916 -4.233996 7.791102 -2.977335 0.8639 -0.6456 0.251 1.64061

0.3286455 -0.8670796 0.7154105 0.876033 -7.347691 6.09201 -0.7149 0.1032 -0.5084 -0.230558 0.7611381 -0.6361725 -4.284027 7.751862 -3.046005 0.8639 -0.6456 0.251 1.64061

0.3286455 -0.8670796 0.7154105 0.876033 -7.347691 6.09201 -0.7149 0.1032 -0.5084 -0.230558 0.7611381 -0.6361725 -4.284027 7.751862 -3.046005 0.8639 -0.6456 0.251 1.650007

0.3286455 -0.8670796 0.7154105 0.876033 -7.347691 6.09201 -0.7149 0.1032 -0.5084 -0.2281145 0.8255407 -0.6712536 -4.362507 7.77933 -3.106827 0.8793 -0.6395 0.2638 1.650007

0.3286455 -0.8670796 0.7154105 0.876033 -7.347691 6.09201 -0.7149 0.1032 -0.5084 -0.2047271 0.8883726 -0.6951647 -4.450797 7.86664 -3.11958 0.8793 -0.6395 0.2638 1.650007

0.3286455 -0.8670796 0.7154105 0.876033 -7.347691 6.09201 -0.7149 0.1032 -0.5084 -0.2047271 0.8883726 -0.6951647 -4.450797 7.86664 -3.11958 0.8793 -0.6395 0.2638 1.652693

0.3286455 -0.8670796 0.7154105 0.876033 -7.347691 6.09201 -0.7149 0.1032 -0.5084 -0.1781981 0.941256 -0.7489208 -4.519467 7.958853 -3.150972 0.8895 -0.6371 0.2733 1.652693

0.2401573 -0.9925687 0.7370525 1.00062 -7.495821 6.165585 -0.6894 0.1087 -0.4522 -0.1781981 0.941256 -0.7489208 -4.519467 7.958853 -3.150972 0.8895 -0.6371 0.2733 1.652693

0.1820378 -1.041089 0.7026695 1.00062 -7.495821 6.165585 -0.6894 0.1087 -0.4522 -0.1816888 0.9655161 -0.7944739 -4.556746 7.947082 -3.195117 0.8895 -0.6371 0.2733 1.652693

-0.03228859 -0.9950122 0.6124361 0.96138 -7.790121 6.132231 -0.6865 0.1377 -0.4022 -0.1816888 0.9655161 -0.7944739 -4.556746 7.947082 -3.195117 0.8895 -0.6371 0.2733 1.652693

-0.03228859 -0.9950122 0.6124361 0.96138 -7.790121 6.132231 -0.6865 0.1377 -0.4022 -0.212232 0.9800024 -0.8040732 -4.622472 7.830342 -3.24711 0.8944 -0.6267 0.2873 1.652693

0.06440265 -1.022414 0.6703809 0.9908101 -7.695945 6.130269 -0.6865 0.1377 -0.4022 -0.2562144 0.9485864 -0.8623672 -4.652883 7.764615 -3.251034 0.8944 -0.6267 0.2873 1.652693

0.007853981 -0.9974557 0.6848672 0.982962 -7.802875 6.040017 -0.6952 0.1542 -0.3946 -0.264941 0.9292133 -0.9534734 -4.6107 7.736166 -3.27654 0.9035 -0.5968 0.3003 1.652693

0.08621927 -0.964818 0.6876597 0.952551 -7.767559 5.990967 -0.6979 0.1714 -0.3804 -0.264941 0.9292133 -0.9534734 -4.6107 7.736166 -3.27654 0.9035 -0.5968 0.3003 1.652693

0.08621927 -0.964818 0.6876597 0.952551 -7.767559 5.990967 -0.6979 0.1714 -0.3804 -0.2595305 0.9620255 -1.004088 -4.565574 7.707717 -3.351096 0.9072 -0.5678 0.3279 1.652693

0.119206 -0.9873328 0.6724753 0.934893 -7.782273 6.009606 -0.6979 0.1714 -0.3804 -0.2733186 0.9882054 -1.045627 -4.621491 7.653762 -3.44331 0.9072 -0.5678 0.3279 1.652693

0.1701696 -0.9592329 0.6544985 0.8299261 -7.786197 6.047865 -0.6863 0.1987 -0.3718 -0.2733186 0.9882054 -1.045627 -4.621491 7.653762 -3.44331 0.9072 -0.5678 0.3279 1.652693

0.1478294 -0.9410815 0.638616 0.732807 -7.87743 6.15087 -0.6863 0.1987 -0.3718 -0.2733186 0.9882054 -1.045627 -4.621491 7.653762 -3.44331 0.9072 -0.5678 0.3279 1.652693

0.1478294 -0.9410815 0.638616 0.732807 -7.87743 6.15087 -0.6863 0.1987 -0.3718 -0.2733186 0.9882054 -1.045627 -4.621491 7.653762 -3.44331 0.9072 -0.5678 0.3279 1.601675

0.04694936 -0.9953613 0.6351253 0.695529 -8.007903 6.23818 -0.6581 0.2197 -0.3709 -0.3529056 0.956615 -1.127832 -4.905982 7.247628 -3.624795 0.9408 -0.4712 0.4089 1.601675

-0.07347836 -1.000946 0.5735152 0.6798331 -8.144262 6.207768 -0.6581 0.2197 -0.3709 -0.3529056 0.956615 -1.127832 -4.905982 7.247628 -3.624795 0.9408 -0.4712 0.4089 1.582879

-0.04642576 -1.029744 0.5427974 0.704358 -8.094232 6.1803 -0.6602 0.229 -0.3553 -0.3529056 0.956615 -1.127832 -4.905982 7.247628 -3.624795 0.9408 -0.4712 0.4089 1.582879

-0.04642576 -1.029744 0.5427974 0.704358 -8.094232 6.1803 -0.6602 0.229 -0.3553 -0.3567453 0.9341002 -1.167102 -4.931487 7.230951 -3.69837 0.9408 -0.4712 0.4089 1.582879

-0.04642576 -1.052608 0.5129523 0.727902 -8.109927 6.136156 -0.6602 0.229 -0.3553 -0.3567453 0.9341002 -1.167102 -4.931487 7.230951 -3.69837 0.9408 -0.4712 0.4089 1.54663

0.03961897 -1.044929 0.4892158 0.721035 -8.038315 6.028245 -0.6742 0.2415 -0.3398 -0.3567453 0.9341002 -1.167102 -4.931487 7.230951 -3.69837 0.9408 -0.4712 0.4089 1.54663

0.127409 -0.9852384 0.3921755 0.645498 -7.948062 5.830083 -0.6933 0.2434 -0.3262 -0.3567453 0.9341002 -1.167102 -4.931487 7.230951 -3.69837 0.9408 -0.4712 0.4089 1.54663

0.127409 -0.9852384 0.3921755 0.645498 -7.948062 5.830083 -0.6933 0.2434 -0.3262 -0.3567453 0.9341002 -1.167102 -4.931487 7.230951 -3.69837 0.9408 -0.4712 0.4089 1.54663

0.1818633 -1.011418 0.2958333 0.736731 -7.801893 5.652522 -0.6933 0.2434 -0.3262 -0.3567453 0.9341002 -1.167102 -4.931487 7.230951 -3.69837 0.9408 -0.4712 0.4089 1.492928

0.1975713 -1.006706 0.2865831 0.883881 -7.612561 5.507334 -0.705 0.2393 -0.3008 -0.3567453 0.9341002 -1.167102 -4.931487 7.230951 -3.69837 0.9408 -0.4712 0.4089 1.492928

0.1975713 -1.006706 0.2865831 0.883881 -7.612561 5.507334 -0.705 0.2393 -0.3008 -0.3567453 0.9341002 -1.167102 -4.931487 7.230951 -3.69837 0.9408 -0.4712 0.4089 1.492928

0.3319616 -0.8751081 0.4227187 0.816192 -7.490916 5.426892 -0.705 0.2393 -0.3008 -0.3567453 0.9341002 -1.167102 -4.931487 7.230951 -3.69837 0.9408 -0.4712 0.4089 1.492928

0.4571017 -0.7572984 0.5656612 0.7102441 -7.579206 5.514201 -0.7059 0.2498 -0.2885 -0.3567453 0.9341002 -1.167102 -4.931487 7.230951 -3.69837 0.9408 -0.4712 0.4089 1.492928

0.4571017 -0.7572984 0.5656612 0.7102441 -7.579206 5.514201 -0.7059 0.2498 -0.2885 -0.3518584 0.9623745 -1.142667 -4.996233 7.24861 -3.743496 0.9396 -0.4306 0.41 1.43117

0.4571017 -0.7572984 0.5656612 0.7102441 -7.579206 5.514201 -0.7059 0.2498 -0.2885 -0.3518584 0.9623745 -1.142667 -4.996233 7.24861 -3.743496 0.9396 -0.4306 0.41 1.43117

0.5609488 -0.6174975 0.3583161 0.70632 -8.764255 6.447132 -0.666 0.2511 -0.3164 -0.3518584 0.9623745 -1.142667 -4.996233 7.24861 -3.743496 0.9396 -0.4306 0.41 1.43117

0.5609488 -0.6174975 0.3583161 0.70632 -8.764255 6.447132 -0.666 0.2511 -0.3164 -0.3518584 0.9623745 -1.142667 -4.996233 7.24861 -3.743496 0.9396 -0.4306 0.41 1.43117

0.4825835 -0.7682939 0.2523746 0.849546 -8.918271 6.619788 -0.6668 0.2618 -0.3158 -0.3518584 0.9623745 -1.142667 -4.996233 7.24861 -3.743496 0.9396 -0.4306 0.41 1.376125

0.3881612 -0.7801622 0.1998402 0.876033 -9.009504 6.640389 -0.6668 0.2618 -0.3158 -0.3518584 0.9623745 -1.142667 -4.996233 7.24861 -3.743496 0.9396 -0.4306 0.41 1.376125

0.3881612 -0.7801622 0.1998402 0.876033 -9.009504 6.640389 -0.6668 0.2618 -0.3158 -0.3518584 0.9623745 -1.142667 -4.996233 7.24861 -3.743496 0.9396 -0.4306 0.41 1.376125

0.3331833 -0.731642 0.2164208 0.831888 -9.016372 6.650199 -0.667 0.2819 -0.3156 -0.3518584 0.9623745 -1.142667 -4.996233 7.24861 -3.743496 0.9396 -0.4306 0.41 1.376125

0.3331833 -0.731642 0.2164208 0.831888 -9.016372 6.650199 -0.667 0.2819 -0.3156 -0.3518584 0.9623745 -1.142667 -4.996233 7.24861 -3.743496 0.9396 -0.4306 0.41 1.307654

0.2755875 -0.6684611 0.2179916 0.8299261 -8.85745 6.655104 -0.667 0.2819 -0.3156 -0.3518584 0.9623745 -1.142667 -4.996233 7.24861 -3.743496 0.9396 -0.4306 0.41 1.307654

0.2755875 -0.6684611 0.2179916 0.8299261 -8.85745 6.655104 -0.667 0.2819 -0.3156 -0.3518584 0.9623745 -1.142667 -4.996233 7.24861 -3.743496 0.9396 -0.4306 0.41 1.307654

0.2043781 -0.6817256 0.3017674 0.956475 -8.615142 6.68061 -0.6659 0.2852 -0.3104 -0.3518584 0.9623745 -1.142667 -4.996233 7.24861 -3.743496 0.9396 -0.4306 0.41 1.307654

0.1785472 -0.7501425 0.3625049 1.033974 -8.33752 6.619788 -0.6659 0.2852 -0.3104 -0.3518584 0.9623745 -1.142667 -4.996233 7.24861 -3.743496 0.9396 -0.4306 0.41 1.247239

0.1394518 -0.7719591 0.2855359 1.10853 -8.224705 6.472638 -0.6563 0.2793 -0.308 -0.3518584 0.9623745 -1.142667 -4.996233 7.24861 -3.743496 0.9396 -0.4306 0.41 1.247239

0.1394518 -0.7719591 0.2855359 1.10853 -8.224705 6.472638 -0.6563 0.2793 -0.308 -0.3518584 0.9623745 -1.142667 -4.996233 7.24861 -3.743496 0.9396 -0.4306 0.41 1.247239

0.03054326 -0.6901032 0.1951278 1.091853 -8.064801 6.353937 -0.6563 0.2793 -0.308 -0.3518584 0.9623745 -1.142667 -4.996233 7.24861 -3.743496 0.9396 -0.4306 0.41 1.247239

0.1659808 -0.6846927 0.2602286 1.101663 -7.692021 6.344128 -0.659 0.272 -0.3096 -0.3518584 0.9623745 -1.142667 -4.996233 7.24861 -3.743496 0.9396 -0.4306 0.41 1.178769

0.1579523 -0.6117379 0.2363176 1.028088 -7.637085 6.254856 -0.6732 0.2767 -0.3022 -0.3518584 0.9623745 -1.142667 -4.996233 7.24861 -3.743496 0.9396 -0.4306 0.41 1.178769

0.1579523 -0.6117379 0.2363176 1.028088 -7.637085 6.254856 -0.6732 0.2767 -0.3022 -0.3518584 0.9623745 -1.142667 -4.996233 7.24861 -3.743496 0.9396 -0.4306 0.41 1.178769

0.1288053 -0.5674065 0.1494002 1.048689 -7.559587 6.149889 -0.6732 0.2767 -0.3022 -0.3518584 0.9623745 -1.142667 -4.996233 7.24861 -3.743496 0.9396 -0.4306 0.41 1.178769

0.1288053 -0.5674065 0.1494002 1.048689 -7.559587 6.149889 -0.6732 0.2767 -0.3022 -0.3518584 0.9623745 -1.142667 -4.996233 7.24861 -3.743496 0.9396 -0.4306 0.41 1.118353

0.0858702 -0.5722935 0.1708677 1.055556 -7.526232 6.099858 -0.682 0.2959 -0.3071 -0.3518584 0.9623745 -1.142667 -4.996233 7.24861 -3.743496 0.9396 -0.4306 0.41 1.118353

0.1640609 -0.6417575 0.2185152 1.139922 -7.41538 6.087106 -0.682 0.2959 -0.3071 -0.3518584 0.9623745 -1.142667 -4.996233 7.24861 -3.743496 0.9396 -0.4306 0.41 1.118353

0.06230825 -0.5850344 0.2241003 1.126188 -7.51446 5.986062 -0.7053 0.2978 -0.3012 -0.3518584 0.9623745 -1.142667 -4.996233 7.24861 -3.743496 0.9396 -0.4306 0.41 1.118353

0.06230825 -0.5850344 0.2241003 1.126188 -7.51446 5.986062 -0.7053 0.2978 -0.3012 -0.3518584 0.9623745 -1.142667 -4.996233 7.24861 -3.743496 0.9396 -0.4306 0.41 1.055253

0.1776745 -0.4658284 0.3134611 1.006506 -7.409493 5.942898 -0.7053 0.2978 -0.3012 -0.3518584 0.9623745 -1.142667 -4.996233 7.24861 -3.743496 0.9396 -0.4306 0.41 1.055253

0.1743584 -0.3284709 0.3242822 0.9378361 -7.544871 5.897772 -0.7183 0.2832 -0.281 -0.3518584 0.9623745 -1.142667 -4.996233 7.24861 -3.743496 0.9396 -0.4306 0.41 1.055253

0.2422517 -0.2542945 0.3031637 0.9172351 -7.477182 5.898753 -0.7183 0.2832 -0.281 -0.3518584 0.9623745 -1.142667 -4.996233 7.24861 -3.743496 0.9396 -0.4306 0.41 1.055253

0.2422517 -0.2542945 0.3031637 0.9172351 -7.477182 5.898753 -0.7183 0.2832 -0.281 -0.3518584 0.9623745 -1.142667 -4.996233 7.24861 -3.743496 0.9396 -0.4306 0.41 1.055253

0.2495821 -0.1914626 0.2715732 0.9211591 -7.495821 5.859513 -0.7174 0.2825 -0.2743 -0.3518584 0.9623745 -1.142667 -4.996233 7.24861 -3.743496 0.9396 -0.4306 0.41 0.9934951

0.2495821 -0.1914626 0.2715732 0.9211591 -7.495821 5.859513 -0.7174 0.2825 -0.2743 -0.3518584 0.9623745 -1.142667 -4.996233 7.24861 -3.743496 0.9396 -0.4306 0.41 0.9934951

0.243648 -0.2312561 0.2204351 1.051632 -7.528194 5.86638 -0.7143 0.2885 -0.2666 -0.3518584 0.9623745 -1.142667 -4.996233 7.24861 -3.743496 0.9396 -0.4306 0.41 0.9934951

0.03752458 -0.1626647 0.2043781 1.073214 -7.722432 5.829103 -0.7143 0.2885 -0.2666 -0.3518584 0.9623745 -1.142667 -4.996233 7.24861 -3.743496 0.9396 -0.4306 0.41 0.9934951

-0.08656833 -0.1624902 0.2448697 1.097739 -7.682211 5.816349 -0.7026 0.2925 -0.2468 -0.3518584 0.9623745 -1.142667 -4.996233 7.24861 -3.743496 0.9396 -0.4306 0.41 0.9411352

-0.08656833 -0.1624902 0.2448697 1.097739 -7.682211 5.816349 -0.7026 0.2925 -0.2468 -0.3518584 0.9623745 -1.142667 -4.996233 7.24861 -3.743496 0.9396 -0.4306 0.41 0.9411352

-0.2206096 -0.1673771 0.2441716 1.166409 -7.620408 5.734926 -0.7026 0.2925 -0.2468 -0.3518584 0.9623745 -1.142667 -4.996233 7.24861 -3.743496 0.9396 -0.4306 0.41 0.9411352

-0.2982768 -0.1427679 0.2432989 1.200744 -7.541928 5.584833 -0.6977 0.2949 -0.2441 -0.3518584 0.9623745 -1.142667 -4.996233 7.24861 -3.743496 0.9396 -0.4306 0.41 0.9411352

-0.2982768 -0.1427679 0.2432989 1.200744 -7.541928 5.584833 -0.6977 0.2949 -0.2441 -0.3518584 0.9623745 -1.142667 -4.996233 7.24861 -3.743496 0.9396 -0.4306 0.41 0.88072

-0.2680826 -0.10088 0.2438225 1.15758 -7.433038 5.466132 -0.6977 0.2949 -0.2441 -0.3518584 0.9623745 -1.142667 -4.996233 7.24861 -3.743496 0.9396 -0.4306 0.41 0.88072

-0.2680826 -0.10088 0.2438225 1.15758 -7.433038 5.466132 -0.6977 0.2949 -0.2441 -0.3518584 0.9623745 -1.142667 -4.996233 7.24861 -3.743496 0.9396 -0.4306 0.41 0.88072

-0.3382448 -0.09651671 0.3007202 1.121283 -7.458543 5.429835 -0.7002 0.2923 -0.2431 -0.3518584 0.9623745 -1.142667 -4.996233 7.24861 -3.743496 0.9396 -0.4306 0.41 0.88072

-0.1685988 -0.1736602 0.4284783 1.155618 -7.299621 5.438664 -0.7002 0.2923 -0.2431 -0.3518584 0.9623745 -1.142667 -4.996233 7.24861 -3.743496 0.9396 -0.4306 0.41 0.88072

-0.1685988 -0.1736602 0.4284783 1.155618 -7.299621 5.438664 -0.7002 0.2923 -0.2431 -0.3518584 0.9623745 -1.142667 -4.996233 7.24861 -3.743496 0.9396 -0.4306 0.41 0.8216473

-0.2275909 -0.03106686 0.387114 1.048689 -7.560567 5.324868 -0.6842 0.2833 -0.229 -0.3518584 0.9623745 -1.142667 -4.996233 7.24861 -3.743496 0.9396 -0.4306 0.41 0.8216473

-0.1342158 0.0001745329 0.360585 0.980019 -7.615503 5.36607 -0.6894 0.2806 -0.2288 -0.3518584 0.9623745 -1.142667 -4.996233 7.24861 -3.743496 0.9396 -0.4306 0.41 0.8216473

-0.1342158 0.0001745329 0.360585 0.980019 -7.615503 5.36607 -0.6894 0.2806 -0.2288 -0.3518584 0.9623745 -1.142667 -4.996233 7.24861 -3.743496 0.9396 -0.4306 0.41 0.8216473

0.01239184 -0.0127409 0.3171263 0.8564131 -7.743033 5.376861 -0.6894 0.2806 -0.2288 -0.3518584 0.9623745 -1.142667 -4.996233 7.24861 -3.743496 0.9396 -0.4306 0.41 0.7652597

-0.0572468 0.02199115 0.1834341 0.840717 -8.018694 5.378823 -0.6868 0.2866 -0.2151 -0.3518584 0.9623745 -1.142667 -4.996233 7.24861 -3.743496 0.9396 -0.4306 0.41 0.7652597

-0.0572468 0.02199115 0.1834341 0.840717 -8.018694 5.378823 -0.6868 0.2866 -0.2151 -0.3518584 0.9623745 -1.142667 -4.996233 7.24861 -3.743496 0.9396 -0.4306 0.41 0.7384086

-0.0572468 0.02199115 0.1834341 0.840717 -8.018694 5.378823 -0.6868 0.2866 -0.2151 -0.3518584 0.9623745 -1.142667 -4.996233 7.24861 -3.743496 0.9396 -0.4306 0.41 0.7384086

-0.1747075 -0.09215339 0.002268928 0.8328691 -8.257077 5.533822 -0.6408 0.3057 -0.2047 -0.3518584 0.9623745 -1.142667 -4.996233 7.24861 -3.743496 0.9396 -0.4306 0.41 0.7384086

-0.09110618 -0.08918633 0.05218535 0.722016 -8.085402 5.528916 -0.6472 0.3055 -0.19 -0.3518584 0.9623745 -1.142667 -4.996233 7.24861 -3.743496 0.9396 -0.4306 0.41 0.7384086

-0.08045968 -0.01727876 0.1158899 0.668061 -8.041257 5.524992 -0.6472 0.3055 -0.19 -0.1799435 0.05288348 -0.5038766 -5.957613 1.758933 -5.834988 0.694 0.2997 0.7544 0.7021594

-0.08045968 -0.01727876 0.1158899 0.668061 -8.041257 5.524992 -0.6472 0.3055 -0.19 -0.1799435 0.05288348 -0.5038766 -5.957613 1.758933 -5.834988 0.694 0.2997 0.7544 0.7021594

-0.06911504 -0.03804818 0.1925098 0.654327 -7.969644 5.555403 -0.6344 0.289 -0.1857 -0.1850049 -0.002617994 -0.4192281 -6.059637 1.705959 -5.943879 0.694 0.2997 0.7544 0.7021594

-0.1230457 -0.04520402 0.145735 0.56898 -8.039295 5.475942 -0.6344 0.289 -0.1857 -0.1850049 -0.002617994 -0.4192281 -6.059637 1.705959 -5.943879 0.694 0.2997 0.7544 0.7021594

-0.2392846 0.01605703 0.1260128 0.533664 -8.080498 5.41414 -0.627 0.2999 -0.1918 -0.1228712 0.09145525 -0.3567453 -6.195015 1.732446 -6.036093 0.6683 0.3152 0.7681 0.6766508

-0.2392846 0.01605703 0.1260128 0.533664 -8.080498 5.41414 -0.627 0.2999 -0.1918 -0.08988446 0.1026254 -0.317999 -6.210711 1.714788 -6.12144 0.6683 0.3152 0.7681 0.6766508

-0.2789036 -0.03839725 0.1415462 0.64746 -8.09325 5.442588 -0.627 0.2999 -0.1918 -0.08988446 0.1026254 -0.317999 -6.210711 1.714788 -6.12144 0.6683 0.3152 0.7681 0.6766508

-0.2213078 -0.1111775 0.1544616 0.6239161 -8.025561 5.409235 -0.6446 0.3275 -0.1946 -0.08988446 0.1026254 -0.317999 -6.210711 1.714788 -6.12144 0.6683 0.3152 0.7681 0.6766508

-0.2213078 -0.1111775 0.1544616 0.6239161 -8.025561 5.409235 -0.6446 0.3275 -0.1946 -0.08988446 0.1026254 -0.317999 -6.210711 1.714788 -6.12144 0.6683 0.3152 0.7681 0.6753082

-0.1692969 -0.08604473 0.1448623 0.545436 -8.071669 5.279742 -0.6446 0.3275 -0.1946 -0.04886922 0.08063421 -0.07627089 -6.182262 1.525455 -6.199921 0.6334 0.2979 0.7529 0.6753082

-0.1776745 -0.03665191 0.07923795 0.6229351 -8.140339 5.241484 -0.6326 0.3173 -0.1795 -0.04886922 0.08063421 -0.07627089 -6.182262 1.525455 -6.199921 0.6334 0.2979 0.7529 0.6753082

-0.1776745 -0.03665191 0.07923795 0.6229351 -8.140339 5.241484 -0.6326 0.3173 -0.1795 -0.07696902 0.03804818 -0.04590216 -6.199921 1.464633 -6.205806 0.6305 0.3271 0.7528 0.6753082

-0.1059415 -0.08150688 0.08709192 0.788724 -8.100117 5.354298 -0.6225 0.3118 -0.1635 -0.06562438 0.06998771 0.06667157 -6.265647 1.534284 -6.195996 0.6305 0.3271 0.7528 0.6766508

0.06422812 -0.2569125 0.08080874 0.975114 -8.036352 5.537745 -0.6225 0.3118 -0.1635 -0.05393067 0.02426008 0.1308997 -6.113592 1.545075 -6.081219 0.6248 0.3307 0.7666 0.6766508

0.06422812 -0.2569125 0.08080874 0.975114 -8.036352 5.537745 -0.6225 0.3118 -0.1635 -0.05393067 0.02426008 0.1308997 -6.113592 1.545075 -6.081219 0.6248 0.3307 0.7666 0.6766508

0.03822271 -0.2878048 0.03944444 0.9966961 -8.142301 5.578948 -0.6167 0.317 -0.1344 -0.1487021 -0.1637119 0.07417649 -5.961537 1.526436 -5.896791 0.6174 0.3181 0.768 0.6766508

-0.03700098 -0.1870993 -0.00593412 0.93195 -8.192331 5.541669 -0.6167 0.317 -0.1344 -0.1864012 -0.3225368 0.05829399 -5.990967 1.477386 -5.853627 0.6174 0.3181 0.768 0.6766508

-0.03700098 -0.1870993 -0.00593412 0.93195 -8.192331 5.541669 -0.6167 0.317 -0.1344 -0.2167699 -0.3626794 0.08796459 -6.175395 1.436184 -5.868342 0.6168 0.3111 0.7616 0.6766508

-0.1143191 -0.02844887 0.00296706 0.8956531 -8.176636 5.548536 -0.6102 0.3226 -0.1231 -0.2167699 -0.3626794 0.08796459 -6.175395 1.436184 -5.868342 0.6168 0.3111 0.7616 0.6766508

-0.1111775 -0.00837758 0.07766715 0.945684 -8.108947 5.609358 -0.6102 0.3226 -0.1231 -0.2167699 -0.3626794 0.08796459 -6.175395 1.436184 -5.868342 0.6168 0.3111 0.7616 0.6766508

-0.1111775 -0.00837758 0.07766715 0.945684 -8.108947 5.609358 -0.6102 0.3226 -0.1231 -0.03787364 0.1303761 0.05689773 -7.235857 1.624536 -6.188148 0.6357 0.3026 0.7553 0.6766508

-0.3010693 0.01832596 0.1213004 0.9986581 -8.2404 5.573061 -0.6092 0.3246 -0.126 -0.06894051 0.09040805 0.03508112 -7.27902 1.642194 -6.225426 0.6357 0.3026 0.7553 0.6766508

-0.3588397 0.02042035 0.2035054 1.087929 -8.194294 5.520087 -0.6092 0.3246 -0.126 -0.1179843 0.0280998 0.04956735 -7.128927 1.601973 -6.15087 0.6357 0.2879 0.7538 0.6766508

-0.2188643 0.01361357 0.02495821 1.156599 -8.163882 5.593662 -0.6099 0.318 -0.1143 -0.1179843 0.0280998 0.04956735 -7.128927 1.601973 -6.15087 0.6355 0.2879 0.7538 0.6766508

-0.2188643 0.01361357 0.02495821 1.156599 -8.163882 5.593662 -0.6099 0.318 -0.1143 -0.09686577 0.04886922 0.06283185 -7.045543 1.576467 -6.05277 0.6355 0.2879 0.7538 0.6766508

-0.1553343 -0.283616 -0.3221878 1.129131 -9.38719 5.864419 -0.6151 0.3085 -0.0927 0.02059488 -0.06649704 0.05585054 -7.017094 1.62846 -5.953689 0.6399 0.2824 0.7485 0.6766508

-0.1553343 -0.283616 -0.3221878 1.129131 -9.38719 5.864419 -0.6151 0.3085 -0.0927 0.02059488 -0.06649704 0.05585054 -7.017094 1.62846 -5.953689 0.6399 0.2824 0.7485 0.6766508

-0.3466224 -0.09564404 -0.1064651 1.038879 -9.061497 5.726097 -0.6151 0.3085 -0.0927 -0.07522369 -0.1642355 -0.0127409 -6.792444 1.75599 -6.000777 0.6399 0.2824 0.7485 0.6766508

0.006457718 0.01396263 0.03281219 0.978057 -8.460144 5.448474 -0.6238 0.2983 -0.0766 -0.1406735 -0.1811652 0.03316126 -6.779691 1.604916 -5.996853 0.6529 0.2913 0.7439 0.6793358

-0.03961897 0.08726646 -0.1137955 1.099701 -8.502327 5.33566 -0.6238 0.2983 -0.0766 -0.09162979 -0.07138397 0.02460914 -6.918993 1.672605 -5.953689 0.6607 0.2973 0.7489 0.6793358

-0.03961897 0.08726646 -0.1137955 1.099701 -8.502327 5.33566 -0.6238 0.2983 -0.0766 -0.09162979 -0.07138397 0.02460914 -6.918993 1.672605 -5.953689 0.6607 0.2973 0.7489 0.6793358

-0.03961897 0.08726646 -0.1137955 1.099701 -8.502327 5.33566 -0.6238 0.2983 -0.0766 0.01291544 0.09599311 0.009424779 -7.160319 1.793268 -5.943879 0.6607 0.2973 0.7489 0.6793358

-0.1069887 0.08499753 -0.1595231 1.13796 -8.652421 5.376861 -0.6156 0.2944 -0.0745 0.01291544 0.09599311 0.009424779 -7.160319 1.793268 -5.943879 0.6607 0.2973 0.7489 0.6793358

-0.1130973 0.1118756 -0.08290314 1.093815 -8.495461 5.390595 -0.6156 0.2944 -0.0745 0.04625123 0.1799435 0 -7.32807 1.908045 -6.001759 0.6686 0.2999 0.7696 0.6793358

-0.1130973 0.1118756 -0.08290314 1.093815 -8.495461 5.390595 -0.6156 0.2944 -0.0745 -0.006457718 0.06911504 -0.004537856 -7.212312 1.89333 -5.980176 0.6686 0.2999 0.7696 0.6793358

-0.1130973 0.1118756 -0.08290314 1.093815 -8.495461 5.390595 -0.6156 0.2944 -0.0745 -0.03403392 -0.05899213 0.0005235987 -6.923898 1.817793 -5.917392 0.6604 0.2987 0.7815 0.6806784

-0.1130973 0.1118756 -0.08290314 1.093815 -8.495461 5.390595 -0.6156 0.2944 -0.0745 -0.03403392 -0.05899213 0.0005235987 -6.923898 1.817793 -5.917392 0.6604 0.2987 0.7815 0.6806784

-0.04520402 0.06475171 -0.1024508 1.16739 -8.359101 5.166927 -0.6089 0.2927 -0.0723 -0.01884956 -0.02932153 0.02792527 -6.776748 1.816812 -5.853627 0.6604 0.2987 0.7815 0.6806784

-0.04520402 0.06475171 -0.1024508 1.16739 -8.359101 5.166927 -0.6089 0.2927 -0.0723 -0.03473205 -0.03543018 0.03612831 -6.837571 1.810926 -5.852646 0.6594 0.2915 0.7511 0.682021

-0.02303835 0.1855285 -0.08063421 1.045746 -8.415999 5.082561 -0.6089 0.2927 -0.0723 -0.03612831 -0.06335545 0.02617994 -6.881715 1.817793 -5.844798 0.6594 0.2915 0.7511 0.682021

-0.2008874 0.2591814 -0.137532 1.046727 -8.731881 5.072751 -0.6284 0.2933 -0.0574 -0.03612831 -0.06335545 0.02617994 -6.881715 1.817793 -5.844798 0.6594 0.2915 0.7511 0.682021

-0.2008874 0.2591814 -0.137532 1.046727 -8.731881 5.072751 -0.6284 0.2933 -0.0574 -0.02164208 -0.04625123 0.009075711 -6.905259 1.846242 -5.853627 0.6612 0.2862 0.7265 0.682021

-0.4031711 0.2506293 -0.2567379 1.056537 -8.876088 5.072751 -0.6284 0.2933 -0.0574 0.0143117 0.008901179 0.01029744 -6.948423 1.868805 -5.873247 0.6612 0.2862 0.7265 0.682021

-0.5595526 0.3108431 -0.4567527 0.9986581 -8.928082 4.941298 -0.6395 0.308 -0.0586 0.0143117 0.008901179 0.01029744 -6.948423 1.868805 -5.873247 0.6612 0.2862 0.7265 0.682021

-0.5595526 0.3108431 -0.4567527 0.9986581 -8.928082 4.941298 -0.6395 0.308 -0.0586 0.01919862 0.01797689 0.03403392 -6.987663 1.870767 -5.910525 0.6598 0.2862 0.7322 0.682021

-0.8210029 0.6237807 -0.6782349 0.7661611 -9.179217 4.82652 -0.6395 0.308 -0.0586 -0.04433136 -0.0148353 0.03193953 -6.938613 1.853109 -5.892868 0.6598 0.2862 0.7322 0.682021

-1.1397 0.5703736 -0.7983136 1.050651 -9.299881 4.727439 -0.6348 0.3233 -0.0744 -0.04433136 -0.0148353 0.03193953 -6.938613 1.853109 -5.892868 0.6598 0.2862 0.7322 0.6927615

-1.1397 0.5703736 -0.7983136 1.050651 -9.299881 4.727439 -0.6348 0.3233 -0.0744 -0.007330383 0.05131268 0.06440265 -6.871905 1.840356 -5.834988 0.6592 0.2861 0.7439 0.6927615

-0.9499827 0.3916519 -0.6824237 1.272357 -8.782893 4.712724 -0.6348 0.3233 -0.0744 -0.007330383 0.05131268 0.06440265 -6.871905 1.840356 -5.834988 0.6592 0.2861 0.7439 0.6927615

-0.8166395 0.2082178 -0.6010914 1.448937 -8.661249 4.506714 -0.6451 0.3136 -0.0709 0.007679448 0.08883726 0.09773844 -6.882697 1.80504 -5.871285 0.6496 0.2861 0.7541 0.6927615

-0.8166395 0.2082178 -0.6010914 1.448937 -8.661249 4.506714 -0.6451 0.3136 -0.0709 0.03647738 0.1062906 0.1178097 -6.890544 1.757952 -5.862456 0.6496 0.2861 0.7541 0.7035019

-1.255066 0.5071927 -0.6832964 1.091853 -9.106624 4.039758 -0.6825 0.3014 -0.039 0.03647738 0.1062906 0.1178097 -6.890544 1.757952 -5.862456 0.6496 0.2861 0.7541 0.7035019

-1.255066 0.5071927 -0.6832964 1.091853 -9.106624 4.039758 -0.6825 0.3014 -0.039 0.03700098 0.03054326 0.1324705 -6.838551 1.779534 -5.921317 0.6593 0.2861 0.7533 0.7035019

-1.24791 0.7101744 -0.7124434 1.162485 -9.24004 3.6297 -0.6825 0.3014 -0.039 -0.02460914 -0.02443461 0.1621411 -6.674725 1.816812 -5.940936 0.6593 0.2861 0.7533 0.7035019

-1.063255 0.7195992 -0.7080801 1.327293 -9.267508 3.530619 -0.721 0.2907 -0.005 -0.02460914 -0.02443461 0.1621411 -6.674725 1.816812 -5.940936 0.6593 0.2861 0.7533 0.7035019

-1.063255 0.7195992 -0.7080801 1.327293 -9.267508 3.530619 -0.721 0.2907 -0.005 -0.02460914 -0.02443461 0.1621411 -6.674725 1.816812 -5.940936 0.6593 0.2861 0.7533 0.7035019

-0.9337512 0.3195698 -0.6551966 1.858014 -9.204723 3.554163 -0.721 0.2907 -0.005 -0.02460914 -0.02443461 0.1621411 -6.674725 1.816812 -5.940936 0.6593 0.2861 0.7533 0.7209553

-0.3677409 0.05515241 -0.6527532 1.917855 -9.031086 3.351096 -0.7347 0.2671 0.0182 -0.02460914 -0.02443461 0.1621411 -6.674725 1.816812 -5.940936 0.6593 0.2861 0.7533 0.7209553

-0.3677409 0.05515241 -0.6527532 1.917855 -9.031086 3.351096 -0.7347 0.2671 0.0182 0.127409 -0.11397 0.267559 -6.431437 2.209212 -5.977233 0.6615 0.2694 0.7608 0.7209553

-0.3677409 0.05515241 -0.6527532 1.917855 -9.031086 3.351096 -0.7347 0.2671 0.0182 0.1399754 -0.2256711 0.3267256 -6.226407 2.316141 -5.942898 0.6615 0.2694 0.7608 0.7209553

-0.6981317 0.4815363 -0.5124287 1.193877 -9.560826 2.671263 -0.774 0.2549 0.032 0.1399754 -0.2256711 0.3267256 -6.226407 2.316141 -5.942898 0.6615 0.2694 0.7608 0.737066

-0.6981317 0.4815363 -0.5124287 1.193877 -9.560826 2.671263 -0.774 0.2549 0.032 0.1399754 -0.2256711 0.3267256 -6.226407 2.316141 -5.942898 0.6615 0.2694 0.7608 0.737066

-0.1434661 0.2523746 -0.5513495 1.514664 -9.01539 2.832147 -0.7746 0.2555 0.0428 0.1399754 -0.2256711 0.3267256 -6.226407 2.316141 -5.942898 0.6615 0.2694 0.7608 0.737066

-0.1434661 0.2523746 -0.5513495 1.514664 -9.01539 2.832147 -0.7746 0.2555 0.0428 0.1399754 -0.2256711 0.3267256 -6.226407 2.316141 -5.942898 0.6615 0.2694 0.7608 0.737066

-0.03368485 0.1471313 -0.3860669 1.672605 -9.11251 2.771325 -0.7746 0.2555 0.0428 0.1399754 -0.2256711 0.3267256 -6.226407 2.316141 -5.942898 0.6615 0.2694 0.7608 0.737066

-0.03368485 0.1471313 -0.3860669 1.672605 -9.11251 2.771325 -0.7746 0.2555 0.0428 0.1399754 -0.2256711 0.3267256 -6.226407 2.316141 -5.942898 0.6615 0.2694 0.7608 0.7800279

-0.05916666 0.1012291 -0.2035054 1.766781 -9.115453 2.720313 -0.7821 0.2471 0.0661 0.1399754 -0.2256711 0.3267256 -6.226407 2.316141 -5.942898 0.6615 0.2694 0.7608 0.7800279

0.08080874 0.1527163 -0.08342674 1.849185 -8.956531 2.751705 -0.7821 0.2471 0.0661 0.1399754 -0.2256711 0.3267256 -6.226407 2.316141 -5.942898 0.6615 0.2694 0.7608 0.7800279

0.08552113 0.1253146 0.01797689 1.999278 -8.940835 2.838033 -0.8087 0.2381 0.0777 0.1399754 -0.2256711 0.3267256 -6.226407 2.316141 -5.942898 0.6615 0.2694 0.7608 0.7800279

0.08552113 0.1253146 0.01797689 1.999278 -8.940835 2.838033 -0.8087 0.2381 0.0777 0.1399754 -0.2256711 0.3267256 -6.226407 2.316141 -5.942898 0.6615 0.2694 0.7608 0.8243324

0.03141592 0.1864012 0.05166174 2.033613 -9.017352 2.832147 -0.8087 0.2381 0.0777 0.1399754 -0.2256711 0.3267256 -6.226407 2.316141 -5.942898 0.6615 0.2694 0.7608 0.8243324

0.1083849 0.1155408 0.0710349 2.180763 -9.023238 2.935152 -0.8241 0.2405 0.0534 0.1399754 -0.2256711 0.3267256 -6.226407 2.316141 -5.942898 0.6615 0.2694 0.7608 0.8243324

0.1083849 0.1155408 0.0710349 2.180763 -9.023238 2.935152 -0.8241 0.2405 0.0534 0.1399754 -0.2256711 0.3267256 -6.226407 2.316141 -5.942898 0.6615 0.2694 0.7608 0.8243324

0.1038471 0.03560472 0.121824 2.193516 -9.068364 3.002841 -0.8394 0.2428 0.0466 0.1399754 -0.2256711 0.3267256 -6.226407 2.316141 -5.942898 0.6615 0.2694 0.7608 0.8726646

0.1254892 0.01396263 0.08517207 2.145447 -9.147825 3.015594 -0.8394 0.2428 0.0466 0.1399754 -0.2256711 0.3267256 -6.226407 2.316141 -5.942898 0.6615 0.2694 0.7608 0.8726646

0.1014036 0.1471313 -0.005410521 2.0601 -9.233172 2.981259 -0.8369 0.2416 0.046 0.1399754 -0.2256711 0.3267256 -6.226407 2.316141 -5.942898 0.6615 0.2694 0.7608 0.8726646

0.02181662 0.1768019 -0.08552113 2.132694 -9.274374 3.030309 -0.8369 0.2416 0.046 0.1399754 -0.2256711 0.3267256 -6.226407 2.316141 -5.942898 0.6615 0.2694 0.7608 0.8726646

0.02181662 0.1768019 -0.08552113 2.132694 -9.274374 3.030309 -0.8369 0.2416 0.046 0.1399754 -0.2256711 0.3267256 -6.226407 2.316141 -5.942898 0.6615 0.2694 0.7608 0.9196543

-0.1308997 0.1635374 -0.0986111 2.22687 -9.333234 3.062682 -0.8257 0.2414 0.0323 0.1399754 -0.2256711 0.3267256 -6.226407 2.316141 -5.942898 0.6615 0.2694 0.7608 0.9196543

-0.03385939 0.09145525 -0.04223697 2.253357 -9.140959 3.10977 -0.8257 0.2414 0.0323 0.1399754 -0.2256711 0.3267256 -6.226407 2.316141 -5.942898 0.6615 0.2694 0.7608 0.9196543

-0.03385939 0.09145525 -0.04223697 2.253357 -9.140959 3.10977 -0.8257 0.2414 0.0323 0.1399754 -0.2256711 0.3267256 -6.226407 2.316141 -5.942898 0.6615 0.2694 0.7608 0.9196543

0.06265732 0.2075197 -0.03420845 2.10915 -8.989884 3.071511 -0.8117 0.229 0.0372 0.1399754 -0.2256711 0.3267256 -6.226407 2.316141 -5.942898 0.6615 0.2694 0.7608 0.9653013

0.06265732 0.2075197 -0.03420845 2.10915 -8.989884 3.071511 -0.8117 0.229 0.0372 0.1399754 -0.2256711 0.3267256 -6.226407 2.316141 -5.942898 0.6615 0.2694 0.7608 0.9653013

0.04764749 0.2398082 -0.03804818 2.174877 -9.01539 3.1392 -0.8117 0.229 0.0372 0.1399754 -0.2256711 0.3267256 -6.226407 2.316141 -5.942898 0.6615 0.2694 0.7608 0.9653013

-0.03543018 0.1672025 -0.04014257 2.28573 -9.043839 3.267711 -0.815 0.2247 0.0422 0.1399754 -0.2256711 0.3267256 -6.226407 2.316141 -5.942898 0.6615 0.2694 0.7608 0.9653013

-0.03438299 0.01972222 0.01343904 2.325951 -8.899632 3.385431 -0.815 0.2247 0.0422 0.1399754 -0.2256711 0.3267256 -6.226407 2.316141 -5.942898 0.6615 0.2694 0.7608 1.008263

0.09983283 -0.06457718 0.05131268 2.249433 -8.716186 3.518847 -0.8268 0.235 0.0389 0.1399754 -0.2256711 0.3267256 -6.226407 2.316141 -5.942898 0.6615 0.2694 0.7608 1.008263

0.09983283 -0.06457718 0.05131268 2.249433 -8.716186 3.518847 -0.8268 0.235 0.0389 0.1399754 -0.2256711 0.3267256 -6.226407 2.316141 -5.942898 0.6615 0.2694 0.7608 1.008263

-0.04328417 0.08656833 0.0567232 2.04048 -8.914348 3.417804 -0.8237 0.2529 0.0172 0.1399754 -0.2256711 0.3267256 -6.226407 2.316141 -5.942898 0.6615 0.2694 0.7608 1.008263

-0.2928663 0.1975713 0.04904375 1.964943 -9.160578 3.294198 -0.8237 0.2529 0.0172 0.1399754 -0.2256711 0.3267256 -6.226407 2.316141 -5.942898 0.6615 0.2694 0.7608 1.055253

-0.2928663 0.1975713 0.04904375 1.964943 -9.160578 3.294198 -0.8237 0.2529 0.0172 0.1399754 -0.2256711 0.3267256 -6.226407 2.316141 -5.942898 0.6615 0.2694 0.7608 1.055253

-0.3275983 0.2260201 0.01239184 2.002221 -9.197857 3.249072 -0.8248 0.2715 -0.0091 0.1399754 -0.2256711 0.3267256 -6.226407 2.316141 -5.942898 0.6615 0.2694 0.7608 1.055253

-0.1185079 0.1155408 0.02426008 2.115036 -9.048744 3.322647 -0.8248 0.2715 -0.0091 0.1399754 -0.2256711 0.3267256 -6.226407 2.316141 -5.942898 0.6615 0.2694 0.7608 1.055253

0.0408407 0.05602507 0.05288348 2.123865 -9.003618 3.324609 -0.8235 0.2776 -0.0014 0.1399754 -0.2256711 0.3267256 -6.226407 2.316141 -5.942898 0.6615 0.2694 0.7608 1.108955

0.07243116 0.124791 0.006108652 2.071872 -9.09387 3.267711 -0.8235 0.2776 -0.0014 0.1399754 -0.2256711 0.3267256 -6.226407 2.316141 -5.942898 0.6615 0.2694 0.7608 1.108955

0.07243116 0.124791 0.006108652 2.071872 -9.09387 3.267711 -0.8235 0.2776 -0.0014 0.1399754 -0.2256711 0.3267256 -6.226407 2.316141 -5.942898 0.6615 0.2694 0.7608 1.108955

-0.04328417 0.1167625 -0.0275762 2.036556 -9.250831 3.186288 -0.8096 0.2749 0.0128 0.1399754 -0.2256711 0.3267256 -6.226407 2.316141 -5.942898 0.6615 0.2694 0.7608 1.108955

-0.1185079 0.264941 -0.07784168 1.870767 -9.265546 3.084264 -0.8096 0.2749 0.0128 0.1399754 -0.2256711 0.3267256 -6.226407 2.316141 -5.942898 0.6615 0.2694 0.7608 1.157288

-0.1185079 0.264941 -0.07784168 1.870767 -9.265546 3.084264 -0.8096 0.2749 0.0128 0.1399754 -0.2256711 0.3267256 -6.226407 2.316141 -5.942898 0.6615 0.2694 0.7608 1.157288

-0.201411 0.4228933 -0.07068584 1.8639 -9.258678 3.019518 -0.8105 0.2695 0.0106 0.1399754 -0.2256711 0.3267256 -6.226407 2.316141 -5.942898 0.6615 0.2694 0.7608 1.157288

-0.1764528 0.2937389 -0.0572468 2.044404 -9.219439 3.02148 -0.8246 0.2644 0.0174 0.1399754 -0.2256711 0.3267256 -6.226407 2.316141 -5.942898 0.6615 0.2694 0.7608 1.157288

-0.1764528 0.2937389 -0.0572468 2.044404 -9.219439 3.02148 -0.8246 0.2644 0.0174 0.1399754 -0.2256711 0.3267256 -6.226407 2.316141 -5.942898 0.6615 0.2694 0.7608 1.20025

-0.07522369 0.2633702 -0.1064651 1.968867 -9.136053 2.934171 -0.8246 0.2644 0.0174 0.1399754 -0.2256711 0.3267256 -6.226407 2.316141 -5.942898 0.6615 0.2694 0.7608 1.20025

-0.03508112 0.2879793 -0.1596976 1.88352 -9.089946 2.843919 -0.8157 0.258 0.0341 0.1399754 -0.2256711 0.3267256 -6.226407 2.316141 -5.942898 0.6615 0.2694 0.7608 1.20025

-0.03508112 0.2879793 -0.1596976 1.88352 -9.089946 2.843919 -0.8157 0.258 0.0341 0.1399754 -0.2256711 0.3267256 -6.226407 2.316141 -5.942898 0.6615 0.2694 0.7608 1.20025

-0.1368338 0.4497713 -0.1106539 1.685358 -9.078175 2.761515 -0.8157 0.258 0.0341 0.1399754 -0.2256711 0.3267256 -6.226407 2.316141 -5.942898 0.6615 0.2694 0.7608 1.25798

-0.1368338 0.4497713 -0.1106539 1.685358 -9.078175 2.761515 -0.8157 0.258 0.0341 0.1399754 -0.2256711 0.3267256 -6.226407 2.316141 -5.942898 0.6615 0.2694 0.7608 1.25798

-0.1368338 0.4497713 -0.1106539 1.685358 -9.078175 2.761515 -0.8157 0.258 0.0341 0.1399754 -0.2256711 0.3267256 -6.226407 2.316141 -5.942898 0.6615 0.2694 0.7608 1.25798

-0.1368338 0.4497713 -0.1106539 1.685358 -9.078175 2.761515 -0.8157 0.258 0.0341 0.1399754 -0.2256711 0.3267256 -6.226407 2.316141 -5.942898 0.6615 0.2694 0.7608 1.25798

-0.1616175 0.991347 -0.1658063 1.445994 -8.993809 2.525094 -0.8095 0.2566 0.0225 0.1399754 -0.2256711 0.3267256 -6.226407 2.316141 -5.942898 0.6615 0.2694 0.7608 1.308997

-0.1616175 0.991347 -0.1658063 1.445994 -8.993809 2.525094 -0.8095 0.2566 0.0225 0.1399754 -0.2256711 0.3267256 -6.226407 2.316141 -5.942898 0.6615 0.2694 0.7608 1.308997

-0.3447025 1.133591 -0.2223549 1.33416 -9.237097 2.500569 -0.8095 0.2566 0.0225 0.1399754 -0.2256711 0.3267256 -6.226407 2.316141 -5.942898 0.6615 0.2694 0.7608 1.308997

-0.5726426 1.185253 -0.3443534 1.254699 -9.490194 2.492721 -0.8272 0.2715 -0.0096 0.1399754 -0.2256711 0.3267256 -6.226407 2.316141 -5.942898 0.6615 0.2694 0.7608 1.308997

-0.5726426 1.185253 -0.3443534 1.254699 -9.490194 2.492721 -0.8272 0.2715 -0.0096 0.1399754 -0.2256711 0.3267256 -6.226407 2.316141 -5.942898 0.6615 0.2694 0.7608 1.354644

-0.8183849 1.296082 -0.4412192 1.171314 -9.607914 2.43288 -0.8272 0.2715 -0.0096 0.1399754 -0.2256711 0.3267256 -6.226407 2.316141 -5.942898 0.6615 0.2694 0.7608 1.354644

-0.9053023 1.35839 -0.4576253 1.190934 -9.495099 2.447595 -0.8313 0.2719 -0.0336 0.1399754 -0.2256711 0.3267256 -6.226407 2.316141 -5.942898 0.6615 0.2694 0.7608 1.354644

-0.9053023 1.35839 -0.4576253 1.190934 -9.495099 2.447595 -0.8313 0.2719 -0.0336 0.2991494 -0.7101744 1.307252 -5.826159 5.289552 -4.356621 0.8877 0.0272 0.602 1.354644

-0.8285078 1.428028 -0.3738495 1.168371 -9.270451 2.474082 -0.8313 0.2719 -0.0336 0.2991494 -0.7101744 1.307252 -5.826159 5.289552 -4.356621 0.8877 0.0272 0.602 1.405661

-0.8285078 1.428028 -0.3738495 1.168371 -9.270451 2.474082 -0.8313 0.2719 -0.0336 0.2991494 -0.7101744 1.307252 -5.826159 5.289552 -4.356621 0.8877 0.0272 0.602 1.405661

-0.8700466 1.439722 -0.2576106 1.240965 -9.248868 2.547657 -0.8218 0.2562 -0.0327 0.2138028 -1.039518 1.418429 -5.350374 6.23818 -4.202604 0.929 -0.1037 0.5603 1.405661

-0.8450884 1.412495 -0.1129228 1.409697 -9.197857 2.615346 -0.8218 0.2562 -0.0327 0.2138028 -1.039518 1.418429 -5.350374 6.23818 -4.202604 0.929 -0.1037 0.5603 1.405661

-0.8450884 1.412495 -0.1129228 1.409697 -9.197857 2.615346 -0.8218 0.2562 -0.0327 0.2138028 -1.039518 1.418429 -5.350374 6.23818 -4.202604 0.929 -0.1037 0.5603 1.445938

-0.6984808 1.437104 0 1.514664 -9.126244 2.625156 -0.8312 0.2358 -0.0215 0.2138028 -1.039518 1.418429 -5.350374 6.23818 -4.202604 0.929 -0.1037 0.5603 1.445938

-0.6984808 1.437104 0 1.514664 -9.126244 2.625156 -0.8312 0.2358 -0.0215 0.2138028 -1.039518 1.418429 -5.350374 6.23818 -4.202604 0.929 -0.1037 0.5603 1.445938

-0.5262167 1.528385 0.05637414 1.44207 -9.203742 2.627118 -0.8396 0.2345 -0.0247 0.2138028 -1.039518 1.418429 -5.350374 6.23818 -4.202604 0.929 -0.1037 0.5603 1.445938

-0.5736897 1.59366 0.07749262 1.341027 -9.461745 2.650662 -0.8396 0.2345 -0.0247 0.2138028 -1.039518 1.418429 -5.350374 6.23818 -4.202604 0.929 -0.1037 0.5603 1.479502

-0.5736897 1.59366 0.07749262 1.341027 -9.461745 2.650662 -0.8396 0.2345 -0.0247 0.5508259 -0.7944739 1.629614 -5.921317 7.080859 -4.182003 0.9629 -0.2469 0.4978 1.479502

-0.5736897 1.59366 0.07749262 1.341027 -9.461745 2.650662 -0.8396 0.2345 -0.0247 0.5867797 -0.7995353 1.566433 -5.775147 7.270192 -4.024062 0.9604 -0.2978 0.4775 1.479502

-1.266236 1.764179 -0.2272419 0.778914 -10.4967 2.368134 -0.846 0.2388 -0.0329 0.5867797 -0.7995353 1.566433 -5.775147 7.270192 -4.024062 0.9604 -0.2978 0.4775 1.479502

-1.266236 1.764179 -0.2272419 0.778914 -10.4967 2.368134 -0.846 0.2388 -0.0329 0.5867797 -0.7995353 1.566433 -5.775147 7.270192 -4.024062 0.9604 -0.2978 0.4775 1.513066

-1.360833 1.77308 -0.2473132 0.771066 -10.49964 2.261205 -0.8568 0.2451 -0.0537 0.5867797 -0.7995353 1.566433 -5.775147 7.270192 -4.024062 0.9604 -0.2978 0.4775 1.513066

-1.360833 1.77308 -0.2473132 0.771066 -10.49964 2.261205 -0.8568 0.2451 -0.0537 0.5867797 -0.7995353 1.566433 -5.775147 7.270192 -4.024062 0.9604 -0.2978 0.4775 1.513066

-1.304983 1.684068 -0.1872738 0.837774 -10.3417 2.093454 -0.8568 0.2451 -0.0537 0.5867797 -0.7995353 1.566433 -5.775147 7.270192 -4.024062 0.9604 -0.2978 0.4775 1.513066

-1.208117 1.760688 -0.1532399 0.761256 -10.17984 1.777572 -0.8433 0.2486 -0.0677 0.5867797 -0.7995353 1.566433 -5.775147 7.270192 -4.024062 0.9604 -0.2978 0.4775 1.513066

-1.208117 1.760688 -0.1532399 0.761256 -10.17984 1.777572 -0.8433 0.2486 -0.0677 0.6972591 -0.7730063 1.585981 -4.807881 7.661611 -3.891627 0.9527 -0.3413 0.4539 1.54126

-1.276359 1.912706 -0.1610939 0.723978 -10.16316 1.418526 -0.8433 0.2486 -0.0677 0.6972591 -0.7730063 1.585981 -4.807881 7.661611 -3.891627 0.9527 -0.3413 0.4539 1.54126

-1.276359 1.912706 -0.1610939 0.723978 -10.16316 1.418526 -0.8433 0.2486 -0.0677 0.7134906 -0.8705702 1.547933 -4.487094 7.754805 -3.81609 0.9511 -0.3965 0.4357 1.54126

-1.453336 2.087763 -0.1291544 0.724959 -10.12294 1.106568 -0.8494 0.2492 -0.0681 0.7044149 -0.9635963 1.552819 -4.487094 7.754805 -3.81609 0.9511 -0.3965 0.4357 1.54126

-1.423491 2.162114 -0.03577925 0.81423 -9.930663 0.918216 -0.8623 0.2483 -0.0843 0.7044149 -0.9635963 1.552819 -4.487094 7.754805 -3.81609 0.9511 -0.3965 0.4357 1.552001

-1.316327 2.151293 0.07190756 0.9044821 -9.813924 0.7298641 -0.8623 0.2483 -0.0843 0.7044149 -0.9635963 1.552819 -4.487094 7.754805 -3.81609 0.9511 -0.3965 0.4357 1.552001

-1.316327 2.151293 0.07190756 0.9044821 -9.813924 0.7298641 -0.8623 0.2483 -0.0843 0.6417575 -1.210909 1.533097 -3.911247 8.0236 -3.571821 0.8846 -0.547 0.3959 1.552001

-1.281246 2.212554 0.1411971 0.8132491 -9.828639 0.532683 -0.8542 0.2451 -0.0965 0.6593854 -1.279326 1.455081 -3.869064 8.141319 -3.588498 0.8846 -0.547 0.3959 1.552001

-1.281246 2.212554 0.1411971 0.8132491 -9.828639 0.532683 -0.8542 0.2451 -0.0965 0.6593854 -1.279326 1.455081 -3.869064 8.141319 -3.588498 0.8846 -0.547 0.3959 1.543945

-1.281246 2.212554 0.1411971 0.8132491 -9.828639 0.532683 -0.8542 0.2451 -0.0965 0.6593854 -1.279326 1.455081 -3.869064 8.141319 -3.588498 0.8846 -0.547 0.3959 1.543945

-1.438151 2.307674 0.190939 0.63765 -10.07193 0.349236 -0.8542 0.2451 -0.0965 1.078963 -1.098859 1.423491 -4.003461 8.438562 -3.913209 0.8049 -0.6427 0.3559 1.543945

-1.438151 2.307674 0.190939 0.63765 -10.07193 0.349236 -0.8542 0.2451 -0.0965 1.078963 -1.098859 1.423491 -4.003461 8.438562 -3.913209 0.8049 -0.6427 0.3559 1.543945

-1.410924 2.326524 0.3237586 0.435564 -10.24949 0.253098 -0.8476 0.2529 -0.1122 1.045976 -1.145634 1.359262 -3.847482 8.341443 -3.985803 0.7887 -0.6685 0.3571 1.527834

-1.410924 2.326524 0.3237586 0.435564 -10.24949 0.253098 -0.8476 0.2529 -0.1122 1.045976 -1.145634 1.359262 -3.847482 8.341443 -3.985803 0.7887 -0.6685 0.3571 1.527834

-1.410924 2.326524 0.3237586 0.435564 -10.24949 0.253098 -0.8476 0.2529 -0.1122 1.045976 -1.145634 1.359262 -3.847482 8.341443 -3.985803 0.7887 -0.6685 0.3571 1.527834

-2.371728 2.583262 -0.4010766 0.5444551 -11.76513 -0.8819191 -0.816 0.3418 -0.1812 0.9784316 -1.236391 1.258557 -3.64932 8.19037 -4.004442 0.7887 -0.6685 0.3571 1.527834

-2.191261 2.625499 -0.1865757 0.600372 -11.09903 -0.953532 -0.816 0.3418 -0.1812 0.9784316 -1.236391 1.258557 -3.64932 8.19037 -4.004442 0.7887 -0.6685 0.3571 1.491585

-2.191261 2.625499 -0.1865757 0.600372 -11.09903 -0.953532 -0.816 0.3418 -0.1812 0.8737118 -1.321389 1.140922 -3.489417 8.087364 -3.936753 0.7706 -0.6815 0.3505 1.491585

-1.414066 2.373299 0.1213004 0.9603991 -10.29756 -0.964323 -0.7812 0.3972 -0.2036 0.8737118 -1.321389 1.140922 -3.489417 8.087364 -3.936753 0.7706 -0.6815 0.3505 1.491585

-1.290496 2.258281 0.1110029 1.326312 -10.29952 -1.274319 -0.7404 0.4373 -0.1807 0.8491027 -1.35839 1.016829 -3.494322 8.046163 -3.942639 0.7381 -0.7075 0.3501 1.491585

-1.290496 2.258281 0.1110029 1.326312 -10.29952 -1.274319 -0.7404 0.4373 -0.1807 0.8491027 -1.35839 1.016829 -3.494322 8.046163 -3.942639 0.7381 -0.7075 0.3501 1.427142

-1.290496 2.258281 0.1110029 1.326312 -10.29952 -1.274319 -0.7404 0.4373 -0.1807 0.7897615 -1.401499 0.847881 -3.625776 8.0236 -3.966183 0.7381 -0.7075 0.3501 1.427142

-1.898395 2.292665 0.04223697 1.398906 -10.83515 -1.75599 -0.7404 0.4373 -0.1807 0.7897615 -1.401499 0.847881 -3.625776 8.0236 -3.966183 0.7381 -0.7075 0.3501 1.427142

-1.898395 2.292665 0.04223697 1.398906 -10.83515 -1.75599 -0.7404 0.4373 -0.1807 0.7897615 -1.401499 0.847881 -3.625776 8.0236 -3.966183 0.7381 -0.7075 0.3501 1.427142

-2.240654 2.414488 0.1436406 1.351818 -10.91853 -2.025765 -0.7158 0.4601 -0.1386 0.7897615 -1.401499 0.847881 -3.625776 8.0236 -3.966183 0.7381 -0.7075 0.3501 1.335848

-2.240654 2.414488 0.1436406 1.351818 -10.91853 -2.025765 -0.7158 0.4601 -0.1386 0.7897615 -1.401499 0.847881 -3.625776 8.0236 -3.966183 0.7381 -0.7075 0.3501 1.335848

-1.995435 2.280971 0.2008874 1.676529 -10.57224 -2.173896 -0.7158 0.4601 -0.1386 1.015083 -1.245816 0.429351 -4.124124 7.977492 -4.803957 0.7084 -0.7365 0.3527 1.335848

-2.069612 2.048493 0.1308997 2.017917 -10.64385 -2.379906 -0.705 0.4806 -0.0865 1.052433 -1.105492 0.2588323 -4.30659 7.830342 -5.087466 0.7099 -0.7466 0.3582 1.335848

-2.069612 2.048493 0.1308997 2.017917 -10.64385 -2.379906 -0.705 0.4806 -0.0865 1.052433 -1.105492 0.2588323 -4.30659 7.830342 -5.087466 0.7099 -0.7466 0.3582 1.335848

-2.755875 1.965939 0.1926844 1.986525 -11.03625 -2.604555 -0.705 0.4806 -0.0865 1.052433 -1.105492 0.2588323 -4.30659 7.830342 -5.087466 0.7099 -0.7466 0.3582 1.20562

-3.081728 1.769066 0.1895428 2.238642 -10.97837 -2.763477 -0.6987 0.4878 -0.011 1.052433 -1.105492 0.2588323 -4.30659 7.830342 -5.087466 0.7099 -0.7466 0.3582 1.20562

-3.203028 1.599943 0.1771509 2.456424 -10.64385 -3.045024 -0.6987 0.4878 -0.011 1.324007 -0.2816961 -0.6134833 -5.269932 6.584472 -5.894829 0.7335 -0.7256 0.3456 1.145205

-3.203028 1.599943 0.1771509 2.456424 -10.64385 -3.045024 -0.6987 0.4878 -0.011 1.324007 -0.2816961 -0.6134833 -5.269932 6.584472 -5.894829 0.7335 -0.7256 0.3456 1.145205

-3.267605 1.224872 0.2724459 2.625156 -9.350892 -4.113333 -0.7079 0.4211 0.2904 1.309346 -0.09581857 -0.7351326 -5.452398 6.294096 -5.894829 0.7335 -0.7256 0.3456 1.145205

-3.267605 1.224872 0.2724459 2.625156 -9.350892 -4.113333 -0.7079 0.4211 0.2904 1.358215 0.1228712 -0.7749262 -5.488695 6.095934 -5.996853 0.7455 -0.7029 0.3576 1.145205

-3.267605 1.224872 0.2724459 2.625156 -9.350892 -4.113333 -0.7079 0.4211 0.2904 1.358215 0.1228712 -0.7749262 -5.488695 6.095934 -5.996853 0.7455 -0.7029 0.3576 0.9854398

-3.047519 0.8667305 0.4516912 2.780154 -8.618085 -4.401747 -0.7079 0.4211 0.2904 1.391202 0.2762856 -0.8403761 -5.397462 5.860494 -6.079257 0.7455 -0.7029 0.3576 0.9854398

-2.789036 0.6974335 0.3269002 2.655567 -8.15113 -4.946202 -0.7283 0.3755 0.4214 1.317898 0.3544764 -0.8660324 -5.37588 5.538726 -6.113592 0.7677 -0.6593 0.3982 0.9854398

-2.795494 0.6609561 0.1398009 2.47212 -8.065783 -5.594643 -0.7283 0.3755 0.4214 1.317898 0.3544764 -0.8660324 -5.37588 5.538726 -6.113592 0.7677 -0.6593 0.3982 0.9854398

-2.795494 0.6609561 0.1398009 2.47212 -8.065783 -5.594643 -0.7283 0.3755 0.4214 1.271821 0.5068436 -0.8740609 -5.244426 5.178699 -6.23916 0.7677 -0.6593 0.3982 0.8162771

-2.99516 0.5019567 0.1471313 2.643795 -7.821513 -6.074352 -0.7168 0.3126 0.5526 1.250877 0.6574655 -0.890467 -5.031549 4.786299 -6.264666 0.7876 -0.611 0.4318 0.8162771

-2.99516 0.5019567 0.1471313 2.643795 -7.821513 -6.074352 -0.7168 0.3126 0.5526 1.139002 0.6682866 -0.8820894 -4.83535 4.368393 -6.281343 0.7876 -0.611 0.4318 0.8162771

-2.861467 0.1876229 0.3914773 2.96262 -7.068105 -6.293115 -0.7168 0.3126 0.5526 1.139002 0.6682866 -0.8820894 -4.83535 4.368393 -6.281343 0.7876 -0.611 0.4318 0.8162771

-2.861467 0.1876229 0.3914773 2.96262 -7.068105 -6.293115 -0.7168 0.3126 0.5526 1.083326 0.6906268 -0.8845329 -4.774527 3.983841 -6.449094 0.812 -0.5565 0.4813 0.6645677

-3.364995 0.02356195 0.4417428 3.004803 -6.981778 -6.780673 -0.7184 0.2715 0.6521 1.054877 0.8395033 -0.9208357 -4.809843 3.677769 -6.566814 0.8339 -0.4949 0.5374 0.6645677

-3.765722 0.1970477 0.2815216 2.791926 -6.659028 -7.284906 -0.7027 0.2129 0.7575 0.9920452 0.9368927 -0.9691813 -4.735287 3.381507 -6.656085 0.8339 -0.4949 0.5374 0.6645677

-3.713712 0.3562217 0.02844887 2.871387 -5.86638 -7.667496 -0.7027 0.2129 0.7575 0.9920452 0.9368927 -0.9691813 -4.735287 3.381507 -6.656085 0.8339 -0.4949 0.5374 0.6645677

-3.713712 0.3562217 0.02844887 2.871387 -5.86638 -7.667496 -0.7027 0.2129 0.7575 0.9119346 0.9800024 -0.9548696 -4.648959 3.209832 -6.794406 0.8411 -0.4347 0.5823 0.5249413

-3.668508 0.3464479 0.06614798 2.886102 -4.930506 -7.890183 -0.6632 0.1123 0.873 0.8962265 1.242151 -0.826937 -4.722534 3.1392 -7.074972 0.8411 -0.4347 0.5823 0.5249413

-3.056944 -0.4061381 0.2893756 2.932209 -3.938715 -7.86664 -0.6632 0.1123 0.873 0.8962265 1.242151 -0.826937 -4.722534 3.1392 -7.074972 0.8411 -0.4347 0.5823 0.5249413

-3.234968 -0.1420698 0.5071927 2.447595 -3.320685 -8.143281 -0.6269 0.0005 0.9767 0.9334021 1.760863 -0.7344346 -4.876551 2.979297 -7.286868 0.8266 -0.3642 0.6244 0.5249413

-3.234968 -0.1420698 0.5071927 2.447595 -3.320685 -8.143281 -0.6269 0.0005 0.9767 0.9334021 1.760863 -0.7344346 -4.876551 2.979297 -7.286868 0.8266 -0.3642 0.6244 0.4108237

-3.234968 -0.1420698 0.5071927 2.447595 -3.320685 -8.143281 -0.6269 0.0005 0.9767 0.9334021 1.760863 -0.7344346 -4.876551 2.979297 -7.286868 0.8266 -0.3642 0.6244 0.4108237

-3.234968 -0.1420698 0.5071927 2.447595 -3.320685 -8.143281 -0.6269 0.0005 0.9767 0.8761553 3.657163 -0.4974188 -4.058397 2.05029 -7.306488 0.7687 -0.259 0.7362 0.4108237

-3.825936 0.4403466 -0.8761553 1.700073 -1.812888 -8.149167 -0.5379 -0.1977 1.138 0.6468191 3.691022 -0.4017748 -3.252015 1.542132 -7.32807 0.7687 -0.259 0.7362 0.4108237

-3.825936 0.4403466 -0.8761553 1.700073 -1.812888 -8.149167 -0.5379 -0.1977 1.138 0.6468191 3.691022 -0.4017748 -3.252015 1.542132 -7.32807 0.7687 -0.259 0.7362 0.3356403

-3.485597 0.2823943 -0.7583455 2.297502 -0.075537 -7.862716 -0.5379 -0.1977 1.138 0.4382522 3.373721 -0.3954916 -2.537847 0.97119 -6.829722 0.701 -0.2153 0.7949 0.3356403

-3.121347 0.03141592 -0.4831071 2.830185 1.611783 -7.393797 -0.4714 -0.2985 1.186 0.4382522 3.373721 -0.3954916 -2.537847 0.97119 -6.829722 0.701 -0.2153 0.7949 0.3356403

-3.121347 0.03141592 -0.4831071 2.830185 1.611783 -7.393797 -0.4714 -0.2985 1.186 0.3974115 3.647913 -0.4150393 -1.850166 0.850527 -6.640389 0.701 -0.2153 0.7949 0.3356403

-2.948734 -0.2120575 -0.3078761 2.954772 2.69775 -7.116174 -0.4302 -0.4149 1.2194 0.4239405 3.610214 -0.6647959 -0.7475221 0.715149 -6.753204 0.6031 -0.1718 0.8551 0.22018

-2.948734 -0.2120575 -0.3078761 2.954772 2.69775 -7.116174 -0.4302 -0.4149 1.2194 0.1706932 2.998476 -0.8683013 0.429678 0.48069 -6.890544 0.6031 -0.1718 0.8551 0.22018

-3.83571 0.0863938 -0.4846779 2.683035 2.876292 -7.280001 -0.4302 -0.4149 1.2194 0.1706932 2.998476 -0.8683013 0.429678 0.48069 -6.890544 0.6031 -0.1718 0.8551 0.22018

-3.83571 0.0863938 -0.4846779 2.683035 2.876292 -7.280001 -0.4302 -0.4149 1.2194 -0.05270894 1.935919 -0.7257079 1.565676 0.426735 -7.303545 0.4891 -0.1532 0.9236 0.22018

-3.653498 0.09023352 -0.4056145 2.726199 4.252635 -7.073991 -0.3894 -0.5395 1.2389 -0.08203047 1.54706 -0.3120649 1.967886 0.5748661 -7.365348 0.3726 -0.1461 0.9771 0.131571

-2.091952 -0.3223623 0.04468043 3.231414 6.45498 -6.746337 -0.3894 -0.5395 1.2389 -0.07906342 1.701521 -0.09948377 2.183706 0.6965101 -7.247628 0.3726 -0.1461 0.9771 0.131571

-0.7651523 -0.8683013 0.5677556 3.604194 7.555663 -6.585453 -0.3462 -0.6621 1.2336 -0.07906342 1.701521 -0.09948377 2.183706 0.6965101 -7.247628 0.3726 -0.1461 0.9771 0.131571

-0.7651523 -0.8683013 0.5677556 3.604194 7.555663 -6.585453 -0.3462 -0.6621 1.2336 -0.05759586 1.676389 -0.2319543 2.891007 0.7269211 -7.4556 0.2355 -0.1243 0.9981 0.131571

-0.4527384 -0.9887291 0.6339036 3.40407 7.335918 -6.895449 -0.3462 -0.6621 1.2336 -0.03298672 1.05732 -0.310145 3.853368 0.842679 -7.575282 0.2355 -0.1243 0.9981 0.04967476

-0.0720821 -0.6702064 0.606851 2.970468 7.510537 -7.314336 -0.3048 -0.7643 1.196 -0.0541052 0.2907718 -0.1219985 4.563612 0.9682471 -7.685154 0.1445 -0.0898 1.0045 0.04967476

-0.0720821 -0.6702064 0.606851 2.970468 7.510537 -7.314336 -0.3048 -0.7643 1.196 -0.0541052 0.2907718 -0.1219985 4.563612 0.9682471 -7.685154 0.1445 -0.0898 1.0045 0.04967476

1.391027 -0.9372418 0.9820968 3.257901 8.40717 -7.230951 -0.3048 -0.7643 1.196 0.01029744 -0.1225221 0.1223476 4.791204 1.058499 -7.755786 0.1445 -0.0898 1.0045 0.04967476

1.391027 -0.9372418 0.9820968 3.257901 8.40717 -7.230951 -0.3048 -0.7643 1.196 0.0541052 -0.1623156 0.2378884 4.795128 1.103625 -7.929423 0.1042 -0.0916 1.0095 -0.002685122

1.391027 -0.9372418 0.9820968 3.257901 8.40717 -7.230951 -0.3048 -0.7643 1.196 0.1233948 -0.2528982 0.2865831 4.783356 1.193877 -8.159958 0.1042 -0.0916 1.0095 -0.002685122

3.279299 -2.422517 1.245467 3.18825 6.024321 -7.275096 -0.188 -0.8005 1.2032 0.1233948 -0.2528982 0.2865831 4.783356 1.193877 -8.159958 0.1042 -0.0916 1.0095 -0.002685122

0.8279842 -1.220683 0.8417723 2.124846 3.31578 -8.478784 -0.188 -0.8005 1.2032 0.2462659 -0.837409 0.3888594 4.758831 1.095777 -8.380684 0.0805 -0.0992 1.0187 -0.002685122

0.8279842 -1.220683 0.8417723 2.124846 3.31578 -8.478784 -0.188 -0.8005 1.2032 0.2874557 -0.8353146 0.4124213 4.540068 1.138941 -8.334577 0.0805 -0.0992 1.0187 -0.02013841

0.4927064 -0.365821 0.3738495 1.698111 3.074454 -8.687737 -0.1448 -0.7373 1.243 0.2874557 -0.8353146 0.4124213 4.540068 1.138941 -8.334577 0.0805 -0.0992 1.0187 -0.02013841

2.515718 -1.38649 0.3874631 1.886463 3.657168 -7.847019 -0.1448 -0.7373 1.243 0.2874557 -0.8353146 0.4124213 4.540068 1.138941 -8.334577 0.0805 -0.0992 1.0187 -0.02013841

2.515718 -1.38649 0.3874631 1.886463 3.657168 -7.847019 -0.1448 -0.7373 1.243 0.2874557 -0.8353146 0.4124213 4.540068 1.138941 -8.334577 0.0805 -0.0992 1.0187 -0.03356402

3.061831 -1.056971 0.3790855 1.28511 3.318723 -7.727337 -0.0754 -0.6684 1.2725 0.2874557 -0.8353146 0.4124213 4.540068 1.138941 -8.334577 0.0805 -0.0992 1.0187 -0.03356402

3.111922 -1.154186 0.3947935 1.423431 2.475063 -7.718509 -0.0754 -0.6684 1.2725 -0.05218535 -0.7555531 0.2050762 3.36483 0.316863 -8.185464 0.0962 -0.1044 1.0085 -0.03356402

3.111922 -1.154186 0.3947935 1.423431 2.475063 -7.718509 -0.0754 -0.6684 1.2725 -0.0439823 -0.8306022 0.1560324 2.967525 0.563094 -8.444448 0.0962 -0.1044 1.0085 -0.03490658

2.387959 -1.450194 0.4457571 1.176219 1.136979 -8.035372 -0.0525 -0.5848 1.2769 -0.0439823 -0.8306022 0.1560324 2.967525 0.563094 -8.444448 0.0962 -0.1044 1.0085 -0.03490658

0.7272786 -0.4546582 0.1602212 0.72594 0.283509 -8.601408 -0.0525 -0.5848 1.2769 0.002617994 -0.6515315 0.137532 2.512341 0.734769 -8.510176 0.1178 -0.1 1.023 -0.03490658

0.7272786 -0.4546582 0.1602212 0.72594 0.283509 -8.601408 -0.0525 -0.5848 1.2769 0.05288348 -0.6845182 0.1635374 2.314179 0.7563511 -8.542548 0.1178 -0.1 1.023 -0.03490658

0.5206317 -0.7323402 -0.05515241 1.116378 0.403191 -8.769159 -0.0257 -0.4974 1.2867 0.05288348 -0.6845182 0.1635374 2.314179 0.7563511 -8.542548 0.1178 -0.1 1.023 -0.03490658

0.5206317 -0.7323402 -0.05515241 1.116378 0.403191 -8.769159 -0.0257 -0.4974 1.2867 0.1647591 -0.5817183 0.1438151 2.007126 0.936855 -8.572959 0.1449 -0.0982 1.0386 -0.03490658

1.101303 -1.503601 0.02408554 1.249794 0.6033151 -9.14292 -0.0257 -0.4974 1.2867 0.07592182 -0.4455826 0.111352 1.990449 0.75537 -8.557263 0.1449 -0.0982 1.0386 -0.03490658

1.058019 -1.027301 0.2158972 0.6690421 0.72594 -9.909081 0.0129 -0.4335 1.2935 0.1583014 -0.6581637 0.07784168 1.965924 0.773028 -8.716186 0.1878 -0.0928 1.0356 -0.03490658

1.034282 -0.7822565 0.4384267 0.233478 0.26487 -10.47512 0.0379 -0.3725 1.2779 0.1583014 -0.6581637 0.07784168 1.965924 0.773028 -8.716186 0.1878 -0.0928 1.0356 -0.03490658

1.034282 -0.7822565 0.4384267 0.233478 0.26487 -10.47512 0.0379 -0.3725 1.2779 0.1851794 -0.4743805 0.06405359 1.492101 0.846603 -8.682832 0.1878 -0.0928 1.0356 -0.03490658

-0.3010693 0.2188643 0.2555162 -0.2943 -0.6268591 -10.93815 0.0379 -0.3725 1.2779 0.1448623 0.003665191 0.03560472 1.093815 0.63765 -8.795647 0.2148 -0.0768 1.0344 -0.03490658
