0.106116 -0.01047198 -0.02129302 1.156599 -0.252117 -9.729559 -0.0281 -0.1571 1.2117 0.01064651 -0.06335545 0.02565634 -1.390077 -0.678852 -8.824096 0.5834 0.093 0.8466 0.0792111

0.004014257 0.01675516 -0.04258604 1.129131 -0.374742 -9.767817 -0.0281 -0.1571 1.2117 0.007679448 -0.05515241 0.01466077 -1.479348 -0.748503 -8.830962 0.5834 0.093 0.8466 0.0792111

0.004014257 0.01675516 -0.04258604 1.129131 -0.374742 -9.767817 -0.0281 -0.1571 1.2117 0.007679448 -0.05515241 0.01466077 -1.479348 -0.748503 -8.830962 0.5834 0.093 0.8466 0.0792111

0.004014257 0.01675516 -0.04258604 1.129131 -0.374742 -9.767817 -0.0281 -0.1571 1.2117 0.007679448 -0.05515241 0.01466077 -1.479348 -0.748503 -8.830962 0.5834 0.093 0.8466 0.0792111

0.004014257 0.01675516 -0.04258604 1.129131 -0.374742 -9.767817 -0.0281 -0.1571 1.2117 0.007679448 -0.05515241 0.01466077 -1.479348 -0.748503 -8.830962 0.5834 0.093 0.8466 0.0792111

0.09424778 0.01012291 0.02635447 1.126188 -0.232497 -9.714844 -0.0165 -0.1732 1.2393 0.01867502 -0.06894051 0.06091199 -1.414602 -0.672966 -8.766216 0.5969 0.0883 0.8371 0.0792111

-0.07958701 0.00418879 -0.03839725 1.141884 -0.532683 -9.65206 -0.0084 -0.1667 1.2417 -0.003316126 0.004712389 -0.01117011 -1.414602 -0.672966 -8.766216 0.6206 0.109 0.833 0.0792111

-0.07958701 0.00418879 -0.03839725 1.141884 -0.532683 -9.65206 -0.0084 -0.1667 1.2417 -0.003316126 0.004712389 -0.01117011 -1.414602 -0.672966 -8.766216 0.6206 0.109 0.833 0.0792111

-0.07958701 0.00418879 -0.03839725 1.141884 -0.532683 -9.65206 -0.0084 -0.1667 1.2417 0.05323254 -0.05829399 0.1206023 -1.783458 -0.837774 -8.756407 0.643 0.1003 0.8175 0.0792111

0.1408481 -0.05305801 0.06876598 1.119321 0.032373 -9.679527 -0.0376 -0.1899 1.2198 0.02216568 -0.06981317 -0.04223697 -1.774629 -1.130112 -8.716186 0.6512 0.0982 0.8223 0.0792111

-0.07627089 -0.08534659 -0.04764749 1.037898 -0.400248 -9.758988 -0.0184 -0.1951 1.2072 -0.01989675 -0.08080874 -0.02234021 -1.728522 -0.927045 -8.749539 0.6512 0.0982 0.8223 0.0792111

-0.07627089 -0.08534659 -0.04764749 1.037898 -0.400248 -9.758988 -0.0184 -0.1951 1.2072 -0.01989675 -0.08080874 -0.02234021 -1.728522 -0.927045 -8.749539 0.6512 0.0982 0.8223 0.0792111

0.03769911 -0.0403171 -0.06073746 0.991791 -0.318825 -9.84826 -0.0184 -0.1951 1.2072 0.08604473 -0.1312488 0.1359611 -1.861938 -0.767142 -8.883937 0.637 0.1064 0.8244 0.0792111

0.103498 0.0970403 -0.06544985 0.934893 -0.159903 -9.837468 -0.0095 -0.1923 1.2045 0.007853981 -0.02600541 0.04625123 -2.074815 -1.053594 -8.751501 0.637 0.1064 0.8244 0.0792111

0.08656833 -0.03700098 -0.04014257 1.03986 -0.138321 -9.704052 -0.0095 -0.1923 1.2045 0.007853981 -0.02600541 0.04625123 -2.074815 -1.053594 -8.751501 0.637 0.1064 0.8244 0.06847061

0.08656833 -0.03700098 -0.04014257 1.03986 -0.138321 -9.704052 -0.0095 -0.1923 1.2045 -0.02617994 0.1815142 -0.1021018 -2.190573 -0.965304 -8.698527 0.6377 0.1212 0.8276 0.06847061

0.1069887 0.003839724 -0.003839724 1.01043 -0.05886 -9.675603 -0.0138 -0.1788 1.2059 -0.02617994 0.1815142 -0.1021018 -2.190573 -0.965304 -8.698527 0.6377 0.1212 0.8276 0.06847061

0.0280998 0.07888888 -0.005061455 0.987867 -0.092214 -9.598104 -0.0138 -0.1788 1.2059 -0.009773844 -0.1691224 0.1110029 -1.853109 -0.942741 -8.595523 0.6483 0.0943 0.8159 0.06847061

0.0280998 0.07888888 -0.005061455 0.987867 -0.092214 -9.598104 -0.0138 -0.1788 1.2059 -0.009773844 -0.1691224 0.1110029 -1.853109 -0.942741 -8.595523 0.6483 0.0943 0.8159 0.06847061

0.05148721 -0.03525565 -0.01413717 1.057518 -0.145188 -9.468613 -0.0293 -0.1816 1.2259 -0.04310963 0.0270526 0.004363323 -1.927665 -1.040841 -8.584731 0.6483 0.0943 0.8159 0.06847061

0.1080359 -0.02059488 -0.01937315 1.03986 -0.131454 -9.497062 -0.0293 -0.1816 1.2259 -0.02042035 0.08831366 0.04904375 -2.175858 -1.063404 -8.567074 0.649 0.0867 0.817 0.06847061

-0.02460914 0.08080874 -0.0439823 1.024164 -0.181485 -9.511777 -0.0468 -0.1826 1.2334 0.03525565 -0.06736971 0.1246165 -2.126808 -0.934893 -8.646534 0.649 0.0867 0.817 0.06847061

-0.001570796 -0.02722714 0.003141593 1.084005 -0.103005 -9.444087 -0.0468 -0.1826 1.2334 -0.0280998 0.09372418 -0.01850049 -2.034594 -0.999639 -8.664192 0.6612 0.1094 0.82 0.06847061

-0.001570796 -0.02722714 0.003141593 1.084005 -0.103005 -9.444087 -0.0468 -0.1826 1.2334 -0.0280998 0.09372418 -0.01850049 -2.034594 -0.999639 -8.664192 0.6612 0.1094 0.82 0.06847061

0.02687807 -0.1083849 0.02617994 1.111473 -0.101043 -9.540226 -0.0329 -0.1836 1.2287 -0.01500983 0.1363102 0.006981317 -2.179782 -1.164447 -8.631819 0.6612 0.1094 0.82 0.06847061

-0.1665044 -0.01466077 0.06021386 1.08891 -0.157941 -9.750159 -0.0059 -0.1863 1.2294 0.02530728 -0.2218314 0.1260128 -2.000259 -0.9721711 -8.697547 0.6746 0.1089 0.8211 0.06847061

-0.1665044 -0.01466077 0.06021386 1.08891 -0.157941 -9.750159 -0.0059 -0.1863 1.2294 0.02530728 -0.2218314 0.1260128 -2.000259 -0.9721711 -8.697547 0.6746 0.1089 0.8211 0.06847061

-0.0280998 0.02111848 0.05148721 1.076157 -0.123606 -9.743293 -0.0059 -0.1863 1.2294 -0.04712389 -0.1328196 0.03752458 -1.649061 -0.992772 -8.733843 0.6581 0.1042 0.8215 0.06847061

0.1254892 -0.05759586 -0.02303835 1.114416 -0.202086 -9.722692 -0.0064 -0.1908 1.2166 -0.01570796 0.06457718 0.01151917 -1.867824 -1.070271 -8.683812 0.6581 0.1042 0.8215 0.06847061

0.02460914 0.03193953 -0.02373648 1.052613 -0.34335 -9.788419 -0.0064 -0.1908 1.2166 0.003316126 -0.06981317 0.07714356 -2.068929 -0.9260641 -8.718147 0.6399 0.1044 0.8194 0.06847061

0.02460914 0.03193953 -0.02373648 1.052613 -0.34335 -9.788419 -0.0064 -0.1908 1.2166 0.003316126 -0.06981317 0.07714356 -2.068929 -0.9260641 -8.718147 0.6399 0.1044 0.8194 0.06847061

-0.09651671 0.02879793 -0.05916666 1.068309 -0.425754 -9.699147 -0.02 -0.1899 1.2163 -0.03508112 -0.006981317 0.0561996 -1.941399 -0.966285 -8.639668 0.6399 0.1044 0.8194 0.06847061

0.07819075 -0.05829399 -0.05340707 1.094796 -0.209934 -9.654021 -0.02 -0.1899 1.2163 -0.04799655 -0.006283185 0.02879793 -1.940418 -0.995715 -8.559225 0.6432 0.1023 0.8208 0.06847061

0.1387537 0.02042035 -0.008726646 1.018278 -0.124587 -9.723672 -0.0222 -0.178 1.2241 -0.08970992 -0.1712168 0.08901179 -1.847223 -1.003563 -8.571979 0.6432 0.1023 0.8208 0.06847061

0.1387537 0.02042035 -0.008726646 1.018278 -0.124587 -9.723672 -0.0222 -0.178 1.2241 -0.08970992 -0.1712168 0.08901179 -1.847223 -1.003563 -8.571979 0.6432 0.1023 0.8208 0.06847061

-0.08534659 0.08726646 -0.04590216 1.016316 -0.334521 -9.638326 -0.0222 -0.178 1.2241 -0.1054179 -0.2239257 0.1516691 -1.645137 -1.012392 -8.533719 0.6291 0.1036 0.8191 0.06847061

-0.08534659 0.08726646 -0.04590216 1.016316 -0.334521 -9.638326 -0.0222 -0.178 1.2241 -0.1054179 -0.2239257 0.1516691 -1.645137 -1.012392 -8.533719 0.6291 0.1036 0.8191 0.06847061

0.1094321 0.06195919 -0.1038471 1.054575 -0.272718 -9.397981 -0.0245 -0.1824 1.2165 -0.1410226 -0.264941 0.09948377 -1.5696 -0.9819811 -8.424829 0.6291 0.1036 0.8191 0.11009

0.2556907 0.03316126 -0.1178097 1.071252 -0.266832 -9.145864 -0.0245 -0.1824 1.2165 -0.2281145 -0.3146829 0.1141445 -1.504854 -1.011411 -8.356158 0.6232 0.1133 0.8137 0.11009

0.07365289 -0.04904375 -0.1333431 1.139922 -0.547398 -8.96634 -0.0225 -0.1914 1.2137 -0.2316052 -0.5016076 0.3853687 -1.331217 -1.007487 -8.400303 0.6232 0.1133 0.8137 0.11009

0.07365289 -0.04904375 -0.1333431 1.139922 -0.547398 -8.96634 -0.0225 -0.1914 1.2137 -0.2614503 -0.4272566 0.4956735 -1.368495 -0.9476461 -8.342424 0.6409 0.1333 0.8137 0.11009

0.1476549 -0.1455605 -0.2087414 1.194858 -0.81423 -8.806437 -0.0225 -0.1914 1.2137 -0.2614503 -0.4272566 0.4956735 -1.368495 -0.9476461 -8.342424 0.6409 0.1333 0.8137 0.11009

0.2933898 -0.1092576 -0.4646067 1.125207 -1.070271 -8.743653 -0.0178 -0.1958 1.2046 -0.3434808 -0.1558579 0.182736 -1.858995 -0.8171731 -8.055972 0.6409 0.1333 0.8137 0.1557371

0.3724533 -0.07504916 -0.4892158 1.034955 -0.962361 -8.660268 -0.0178 -0.1958 1.2046 -0.3940953 -0.1357866 0.06300639 -2.410317 -0.807363 -8.09325 0.6527 0.1281 0.809 0.1557371

0.3724533 -0.07504916 -0.4892158 1.034955 -0.962361 -8.660268 -0.0178 -0.1958 1.2046 -0.3940953 -0.1357866 0.06300639 -2.410317 -0.807363 -8.09325 0.6527 0.1281 0.809 0.1557371

0.4043928 -0.2097886 -0.3916519 0.994734 -0.770085 -8.500365 -0.0214 -0.1813 1.1902 -0.3940953 -0.1357866 0.06300639 -2.410317 -0.807363 -8.09325 0.6527 0.1281 0.809 0.1557371

0.5583308 -0.3598869 -0.2677335 0.962361 -0.689643 -8.251191 -0.0236 -0.152 1.1867 -0.5229006 -0.2129302 -0.07888888 -1.983582 -0.571923 -8.039295 0.6912 0.0243 0.7784 0.177218

0.5583308 -0.3598869 -0.2677335 0.962361 -0.689643 -8.251191 -0.0236 -0.152 1.1867 -0.5654867 -0.4865978 0.1089085 -1.751085 -0.430659 -7.987302 0.6912 0.0243 0.7784 0.177218

0.5583308 -0.3598869 -0.2677335 0.962361 -0.689643 -8.251191 -0.0236 -0.152 1.1867 -0.5654867 -0.4865978 0.1089085 -1.751085 -0.430659 -7.987302 0.6912 0.0243 0.7784 0.177218

0.421497 -0.3989823 -0.68382 0.497367 -1.45188 -8.741692 -0.0355 -0.1321 1.1879 -0.5764822 -0.6347762 0.2153736 -1.673586 -0.301167 -7.96572 0.7046 0.0093 0.78 0.177218

0.6187192 -0.3743731 -0.6332054 0.373761 -1.318464 -8.906499 -0.0355 -0.1321 1.1879 -0.6340781 -0.9000663 0.2244493 -1.603935 -0.200124 -7.90686 0.7046 0.0093 0.78 0.2121246

0.6323328 -0.3368485 -0.5745624 0.270756 -1.444032 -8.894728 -0.0343 -0.1224 1.1672 -0.6611307 -1.075646 0.3602359 -1.731465 -0.075537 -7.894107 0.7237 0.0075 0.776 0.2121246

0.6323328 -0.3368485 -0.5745624 0.270756 -1.444032 -8.894728 -0.0343 -0.1224 1.1672 -0.6611307 -1.075646 0.3602359 -1.731465 -0.075537 -7.894107 0.7237 0.0075 0.776 0.2121246

0.7241371 -0.4790929 -0.6188937 0.303129 -1.676529 -8.714224 -0.0343 -0.1224 1.1672 -0.7372271 -1.12277 0.4324926 -2.074815 0.085347 -7.75971 0.7237 0.0075 0.776 0.2121246

0.9335766 -0.6564183 -0.699528 0.212877 -1.829565 -8.653401 -0.0386 -0.0967 1.1505 -0.8189085 -1.220858 0.3672173 -2.488797 0.243288 -7.650819 0.7538 -0.0204 0.7649 0.2805952

1.051212 -0.5892231 -0.8435177 -0.126549 -2.077758 -8.822133 -0.0386 -0.0967 1.1505 -0.8977973 -1.250354 0.320966 -2.897874 0.31392 -7.560567 0.7538 -0.0204 0.7649 0.2805952

1.051212 -0.5892231 -0.8435177 -0.126549 -2.077758 -8.822133 -0.0386 -0.0967 1.1505 -0.8977973 -1.250354 0.320966 -2.897874 0.31392 -7.560567 0.7538 -0.0204 0.7649 0.2805952

1.127832 -0.2047271 -1.000074 -0.406134 -2.229813 -9.01539 -0.0168 -0.0728 1.1541 -1.024159 -1.209339 0.297055 -3.314799 0.492462 -7.440885 0.7765 -0.052 0.7254 0.3235572

1.383173 -0.09564404 -0.978257 -0.473823 -2.233737 -8.969284 -0.0168 -0.0728 1.1541 -1.011767 -1.030268 0.3293436 -3.742515 0.87309 -7.491898 0.7765 -0.052 0.7254 0.3235572

1.564862 -0.2401573 -0.9311332 -0.438507 -2.426013 -8.769159 0.0014 -0.0537 1.145 -1.000074 -0.9478883 0.3302163 -4.094694 1.112454 -7.492878 0.8026 -0.082 0.6871 0.3235572

1.564862 -0.2401573 -0.9311332 -0.438507 -2.426013 -8.769159 0.0014 -0.0537 1.145 -1.000074 -0.9478883 0.3302163 -4.094694 1.112454 -7.492878 0.8026 -0.082 0.6871 0.3235572

1.562593 -0.4234169 -0.8958775 -0.344331 -2.80566 -8.529796 -0.026 -0.0149 1.1089 -1.000074 -0.9478883 0.3302163 -4.094694 1.112454 -7.492878 0.8026 -0.082 0.6871 0.3906852

1.545489 -0.7086036 -0.9985029 -0.231516 -3.313818 -8.394418 -0.026 -0.0149 1.1089 -1.000074 -0.9478883 0.3302163 -4.094694 1.112454 -7.492878 0.8026 -0.082 0.6871 0.3906852

1.379334 -0.6735225 -1.033933 -0.452241 -3.719952 -8.574922 -0.0609 0.0478 1.0703 -1.128006 -0.2949606 0.3185226 -5.241484 2.019879 -7.078896 0.8737 -0.1614 0.6206 0.3906852

1.379334 -0.6735225 -1.033933 -0.452241 -3.719952 -8.574922 -0.0609 0.0478 1.0703 -1.128006 -0.2949606 0.3185226 -5.241484 2.019879 -7.078896 0.8737 -0.1614 0.6206 0.4457302

1.613557 -0.641583 -0.9210103 -0.478728 -4.436082 -8.710299 -0.1106 0.1512 0.9861 -1.161866 -0.3014184 0.2417281 -5.453379 2.234718 -6.936651 0.9011 -0.2009 0.5959 0.4457302

1.641308 -0.4593706 -0.9140289 -0.675909 -4.78728 -8.696566 -0.1106 0.1512 0.9861 -1.117534 -0.3021165 0.1911135 -5.460246 2.574144 -6.895449 0.9011 -0.2009 0.5959 0.4457302

1.561546 -0.5113814 -0.9025097 -0.537588 -5.27778 -8.50527 -0.1582 0.2029 0.8929 -1.117534 -0.3021165 0.1911135 -5.460246 2.574144 -6.895449 0.9011 -0.2009 0.5959 0.4457302

1.561546 -0.5113814 -0.9025097 -0.537588 -5.27778 -8.50527 -0.1582 0.2029 0.8929 -1.110553 -0.1816888 0.1623156 -5.501448 2.851767 -6.895449 0.9097 -0.2494 0.5567 0.4927199

1.310219 -0.758171 -0.8600982 -0.293319 -5.811444 -8.40717 -0.1949 0.2678 0.7961 -1.150347 -0.08011062 0.1167625 -5.662332 3.003822 -6.752223 0.9097 -0.2494 0.5567 0.4927199

1.335002 -0.7285004 -0.7946484 -0.411039 -6.025302 -8.498404 -0.1949 0.2678 0.7961 -1.150347 -0.08011062 0.1167625 -5.662332 3.003822 -6.752223 0.9097 -0.2494 0.5567 0.4927199

1.593486 -0.5892231 -0.8225737 -0.540531 -6.178339 -8.480745 -0.216 0.3291 0.7233 -1.131671 -0.1387537 0.07278023 -5.736888 3.211794 -6.595263 0.9067 -0.2848 0.4962 0.4927199

1.593486 -0.5892231 -0.8225737 -0.540531 -6.178339 -8.480745 -0.216 0.3291 0.7233 -1.088736 -0.121824 0.01082104 -5.695686 3.538467 -6.581529 0.9067 -0.2848 0.4962 0.4927199

1.614604 -0.6525786 -0.8285078 -0.381609 -6.60213 -8.264925 -0.216 0.3291 0.7233 -1.088736 -0.121824 0.01082104 -5.695686 3.538467 -6.581529 0.9067 -0.2848 0.4962 0.4927199

1.441118 -0.8112291 -0.8201302 -0.244269 -7.157376 -8.089326 -0.2276 0.3768 0.6584 -1.104619 -0.03996804 -0.03595378 -5.644674 3.695427 -6.61194 0.9142 -0.3117 0.4638 0.2656929

1.441118 -0.8112291 -0.8201302 -0.244269 -7.157376 -8.089326 -0.2276 0.3768 0.6584 -1.128879 -0.0720821 -0.1055924 -5.668218 3.780774 -6.492259 0.9217 -0.3457 0.4407 0.2656929

1.434661 -0.7937757 -0.8197812 -0.33354 -7.443829 -8.032428 -0.2276 0.3768 0.6584 -1.128879 -0.0720821 -0.1055924 -5.668218 3.780774 -6.492259 0.9217 -0.3457 0.4407 0.2656929

1.509361 -0.7332128 -0.8841838 -0.439488 -7.695945 -7.951986 -0.2478 0.4187 0.577 -1.089958 -0.07557275 -0.1158899 -5.635846 4.019157 -6.337261 0.9217 -0.3457 0.4407 0.2656929

1.509361 -0.7332128 -0.8841838 -0.439488 -7.695945 -7.951986 -0.2478 0.4187 0.577 -1.057495 0.0001745329 -0.1408481 -5.667237 4.295799 -6.30783 0.9293 -0.3559 0.4214 0.2656929

1.446878 -0.681551 -0.8506735 -0.440469 -7.960815 -7.88724 -0.2478 0.4187 0.577 -1.057495 0.0001745329 -0.1408481 -5.667237 4.295799 -6.30783 0.9293 -0.3559 0.4214 0.2656929

1.446878 -0.681551 -0.8506735 -0.440469 -7.960815 -7.88724 -0.2478 0.4187 0.577 -1.057495 0.0001745329 -0.1408481 -5.667237 4.295799 -6.30783 0.9293 -0.3559 0.4214 0.2656929

1.446878 -0.681551 -0.8506735 -0.440469 -7.960815 -7.88724 -0.2478 0.4187 0.577 -1.057495 0.0001745329 -0.1408481 -5.667237 4.295799 -6.30783 0.9293 -0.3559 0.4214 0.2656929

1.446878 -0.681551 -0.8506735 -0.440469 -7.960815 -7.88724 -0.2478 0.4187 0.577 -1.032362 -0.002094395 -0.3682645 -5.637807 5.155155 -5.736888 0.9162 -0.4044 0.3569 0.2656929

1.310917 -0.4204498 -0.8274606 -0.340407 -8.597485 -6.985702 -0.3968 0.5172 0.2893 -1.032362 -0.002094395 -0.3682645 -5.637807 5.155155 -5.736888 0.9162 -0.4044 0.3569 0.2656929

1.23674 -0.5450663 -0.7855726 -0.10791 -8.700489 -6.704154 -0.3968 0.5172 0.2893 -1.013862 -0.0842994 -0.3488913 -5.586795 5.268951 -5.703534 0.9243 -0.4237 0.3413 0.2656929

1.23674 -0.5450663 -0.7855726 -0.10791 -8.700489 -6.704154 -0.3968 0.5172 0.2893 -1.013862 -0.0842994 -0.3488913 -5.586795 5.268951 -5.703534 0.9243 -0.4237 0.3413 0.2656929

0.9859365 -0.5166175 -0.779464 -0.08338501 -8.941815 -6.657066 -0.4449 0.5381 0.1805 -0.9993755 -0.08063421 -0.3371976 -5.703534 5.341545 -5.639769 0.9243 -0.4237 0.3413 0.2656929

0.9859365 -0.5166175 -0.779464 -0.08338501 -8.941815 -6.657066 -0.4449 0.5381 0.1805 -0.9459684 0.008203047 -0.37926 -5.841855 5.512239 -5.544612 0.9433 -0.4208 0.3276 0.2656929

0.9717993 -0.3651229 -0.7602655 -0.05886 -8.918271 -6.656085 -0.4449 0.5381 0.1805 -0.9459684 0.008203047 -0.37926 -5.841855 5.512239 -5.544612 0.9433 -0.4208 0.3276 0.6793358

1.156455 -0.2061234 -0.7140142 0.073575 -8.747578 -6.565834 -0.4851 0.5553 0.082 -0.832522 0.0593412 -0.4417428 -5.879134 5.712363 -5.430816 0.9433 -0.4208 0.3276 0.6793358

1.156455 -0.2061234 -0.7140142 0.073575 -8.747578 -6.565834 -0.4851 0.5553 0.082 -0.8021533 0.05218535 -0.5047492 -5.862456 5.745717 -5.298381 0.9541 -0.4265 0.3044 0.6793358

1.246514 -0.1185079 -0.6140068 0.206991 -8.711281 -6.351975 -0.4851 0.5553 0.082 -0.8637635 -0.03281219 -0.5539675 -5.870304 5.752584 -5.107087 0.9541 -0.4265 0.3044 0.6793358

1.135686 -0.1083849 -0.5513495 0.320787 -8.90748 -6.132231 -0.5305 0.5601 -0.0261 -0.8637635 -0.03281219 -0.5539675 -5.870304 5.752584 -5.107087 0.9541 -0.4265 0.3044 0.6806784

1.135686 -0.1083849 -0.5513495 0.320787 -8.90748 -6.132231 -0.5305 0.5601 -0.0261 -0.8637635 -0.03281219 -0.5539675 -5.870304 5.752584 -5.107087 0.9541 -0.4265 0.3044 0.6806784

1.000074 -0.06544985 -0.5242969 0.452241 -9.131148 -5.945841 -0.5305 0.5601 -0.0261 -0.8637635 -0.03281219 -0.5539675 -5.870304 5.752584 -5.107087 0.9541 -0.4265 0.3044 0.6806784

1.015782 0.01762783 -0.5262167 0.518949 -9.236115 -5.811444 -0.5671 0.547 -0.1051 -0.8637635 -0.03281219 -0.5539675 -5.870304 5.752584 -5.107087 0.9541 -0.4265 0.3044 0.6806784

1.015782 0.01762783 -0.5262167 0.518949 -9.236115 -5.811444 -0.5671 0.547 -0.1051 -0.8332202 -0.1200787 -0.5234242 -5.940936 5.951727 -5.039397 0.967 -0.4241 0.2817 0.682021

1.041613 0.1038471 -0.5045747 0.607239 -9.269469 -5.613282 -0.6071 0.5333 -0.1916 -0.7035422 -0.04764749 -0.5057964 -6.040998 6.088086 -5.113954 0.9771 -0.4052 0.2535 0.682021

0.9414306 0.1200787 -0.4148648 0.768123 -9.349912 -5.360184 -0.6071 0.5333 -0.1916 -0.7035422 -0.04764749 -0.5057964 -6.040998 6.088086 -5.113954 0.9771 -0.4052 0.2535 0.682021

0.9414306 0.1200787 -0.4148648 0.768123 -9.349912 -5.360184 -0.6071 0.5333 -0.1916 -0.7035422 -0.04764749 -0.5057964 -6.040998 6.088086 -5.113954 0.9771 -0.4052 0.2535 0.682021

0.8316494 0.05602507 -0.3857178 0.9025201 -9.458802 -5.074713 -0.6343 0.4954 -0.3049 -0.4101524 0.01047198 -0.5949827 -6.085143 6.166566 -4.771585 0.982 -0.3529 0.2106 0.6766508

0.8316494 0.05602507 -0.3857178 0.9025201 -9.458802 -5.074713 -0.6343 0.4954 -0.3049 -0.4183554 -0.02268928 -0.6241297 -6.135174 6.192072 -4.665636 0.982 -0.3529 0.2106 0.6766508

0.8316494 0.05602507 -0.3857178 0.9025201 -9.458802 -5.074713 -0.6343 0.4954 -0.3049 -0.4183554 -0.02268928 -0.6241297 -6.135174 6.192072 -4.665636 0.982 -0.3529 0.2106 0.6766508

0.5373869 0.8155923 -0.6106907 0.770085 -9.401904 -4.744116 -0.6271 0.4056 -0.4805 -0.4707153 -0.1015782 -0.6789331 -6.130269 6.133212 -4.541049 1.0014 -0.3341 0.1949 0.6766508

0.9274679 0.7984881 -0.3701843 1.0791 -8.803494 -4.255579 -0.6271 0.4056 -0.4805 -0.4471534 -0.0996583 -0.7119198 -6.089067 6.034132 -4.399785 1.0014 -0.3341 0.1949 0.6645677

0.9274679 0.7984881 -0.3701843 1.0791 -8.803494 -4.255579 -0.6271 0.4056 -0.4805 -0.4113741 -0.1164135 -0.7173303 -6.154794 6.010587 -4.337001 1.0343 -0.3145 0.1765 0.6645677

1.133068 0.6506587 -0.1745329 1.340046 -8.644572 -3.771945 -0.5895 0.3338 -0.5367 -0.4113741 -0.1164135 -0.7173303 -6.154794 6.010587 -4.337001 1.0343 -0.3145 0.1765 0.6645677

0.8822639 0.6293657 -0.1251401 1.445994 -8.974188 -3.537486 -0.5154 0.258 -0.6017 -0.336325 -0.0705113 -0.665145 -6.276438 6.010587 -4.283046 1.0397 -0.2882 0.1594 0.6444293

0.8822639 0.6293657 -0.1251401 1.445994 -8.974188 -3.537486 -0.5154 0.258 -0.6017 -0.317999 -0.04363323 -0.6501352 -6.427512 6.006663 -4.232034 1.0397 -0.2882 0.1594 0.6444293

0.6171485 0.6283185 -0.1366593 1.477386 -9.226306 -3.221604 -0.5154 0.258 -0.6017 -0.317999 -0.04363323 -0.6501352 -6.427512 6.006663 -4.232034 1.0397 -0.2882 0.1594 0.6444293

0.6171485 0.6283185 -0.1366593 1.477386 -9.226306 -3.221604 -0.5154 0.258 -0.6017 -0.3335324 -0.03979351 -0.6714282 -6.473619 5.916411 -4.200642 1.0516 -0.257 0.1318 0.6444293

0.4623377 0.5679302 -0.1240929 1.487196 -9.303804 -2.90376 -0.4268 0.1879 -0.6405 -0.2691298 0.03403392 -0.6469935 -6.46479 5.823216 -4.15944 1.0516 -0.257 0.1318 0.6444293

0.2972296 0.3504621 -0.02251475 1.668681 -9.2989 -2.635947 -0.4268 0.1879 -0.6405 -0.2691298 0.03403392 -0.6469935 -6.46479 5.823216 -4.15944 1.0516 -0.257 0.1318 0.6444293

0.1848304 0.3869395 0.04450589 1.55979 -9.246906 -2.618289 -0.3285 0.1138 -0.6429 -0.2691298 0.03403392 -0.6469935 -6.46479 5.823216 -4.15944 1.0516 -0.257 0.1318 0.6444293

0.1848304 0.3869395 0.04450589 1.55979 -9.246906 -2.618289 -0.3285 0.1138 -0.6429 -0.2691298 0.03403392 -0.6469935 -6.46479 5.823216 -4.15944 1.0516 -0.257 0.1318 0.5759587

0.1865757 0.4836307 0.005061455 1.462671 -9.190989 -2.633004 -0.3285 0.1138 -0.6429 -0.1258382 0.1979203 -0.4420919 -6.537385 5.473 -3.96324 1.0671 -0.1779 0.1164 0.5759587

0.1865757 0.4836307 0.005061455 1.462671 -9.190989 -2.633004 -0.3285 0.1138 -0.6429 -0.1258382 0.1979203 -0.4420919 -6.537385 5.473 -3.96324 1.0671 -0.1779 0.1164 0.5759587

0.2108358 0.4438372 0.0006981317 1.474443 -9.163521 -2.495664 -0.2153 0.0514 -0.6337 -0.09477138 0.1914626 -0.413643 -6.428493 5.392558 -3.91419 1.0671 -0.1779 0.1164 0.5679033

0.06370452 0.336674 0.04642576 1.604916 -9.222382 -2.323989 -0.2153 0.0514 -0.6337 -0.06841691 0.1490511 -0.3738495 -6.359823 5.300344 -3.889665 1.0587 -0.1573 0.1196 0.5679033

0.03944444 0.1947787 0.05532694 1.699092 -9.200799 -2.200383 -0.1197 0.0108 -0.6158 -0.1059415 0.08115781 -0.3242822 -6.31764 5.172813 -3.846501 1.0587 -0.1573 0.1196 0.5679033

0.03944444 0.1947787 0.05532694 1.699092 -9.200799 -2.200383 -0.1197 0.0108 -0.6158 -0.1059415 0.08115781 -0.3242822 -6.31764 5.172813 -3.846501 1.0587 -0.1573 0.1196 0.5450798

0.04799655 0.2928663 0.09930924 1.516626 -9.150768 -2.269053 -0.0595 -0.0266 -0.5836 -0.1328196 0.03944444 -0.262323 -6.311754 5.165946 -3.790584 1.0529 -0.1417 0.114 0.5450798

0.07504916 0.3183481 0.124442 1.448937 -9.108585 -2.273958 -0.0595 -0.0266 -0.5836 -0.09721484 0.008552114 -0.1809906 -6.31764 5.182623 -3.78666 1.0529 -0.1417 0.114 0.5450798

0.1986185 0.2391101 0.09948377 1.502892 -9.025201 -2.132694 0.0095 -0.0715 -0.5277 -0.09721484 0.008552114 -0.1809906 -6.31764 5.182623 -3.78666 1.0529 -0.1417 0.114 0.5450798

0.1986185 0.2391101 0.09948377 1.502892 -9.025201 -2.132694 0.0095 -0.0715 -0.5277 -0.09721484 0.008552114 -0.1809906 -6.31764 5.182623 -3.78666 1.0529 -0.1417 0.114 0.5343392

0.1577778 0.238412 0.1171116 1.507797 -9.040896 -1.961019 0.0095 -0.0715 -0.5277 -0.09721484 0.008552114 -0.1809906 -6.31764 5.182623 -3.78666 1.0529 -0.1417 0.114 0.5343392

0.1082104 0.1965241 0.01710423 1.54017 -9.233172 -1.871748 0.0707 -0.0982 -0.4996 -0.1017527 0.09512044 -0.04869469 -6.707098 4.948164 -3.837672 1.0754 -0.1099 0.1015 0.5343392

0.5222025 0.2857104 -0.2501057 1.505835 -9.252792 -1.911969 0.0707 -0.0982 -0.4996 -0.1017527 0.09512044 -0.04869469 -6.707098 4.948164 -3.837672 1.0754 -0.1099 0.1015 0.5343392

0.5222025 0.2857104 -0.2501057 1.505835 -9.252792 -1.911969 0.0707 -0.0982 -0.4996 -0.04747296 0.1054179 -0.006457718 -6.750261 4.921677 -3.759192 1.078 -0.0944 0.0969 0.5249413

0.7911578 0.5914921 -0.41853 1.434222 -9.300861 -2.2563 0.1183 -0.1146 -0.4734 -0.002617994 -0.04153884 0.01134464 -6.689439 5.028606 -3.730743 1.078 -0.0944 0.0969 0.5249413

0.6480408 0.7536331 -0.3267256 1.554885 -9.44703 -2.401488 0.1183 -0.1146 -0.4734 -0.002617994 -0.04153884 0.01134464 -6.689439 5.028606 -3.730743 1.078 -0.0944 0.0969 0.5249413

0.084823 0.3248058 -0.2001893 1.950228 -9.783514 -1.525455 0.1522 -0.1249 -0.4449 -0.06422812 -0.1577778 -0.005061455 -6.495202 5.07177 -3.810204 1.0837 -0.0788 0.0997 0.5249413

0.084823 0.3248058 -0.2001893 1.950228 -9.783514 -1.525455 0.1522 -0.1249 -0.4449 -0.1436406 -0.2378884 -0.002094395 -6.352956 5.0031 -3.970107 1.0837 -0.0788 0.0997 0.5249413

0.3405137 0.2481858 -0.1459095 1.751085 -9.778608 -1.297863 0.1864 -0.1402 -0.4289 -0.1436406 -0.2378884 -0.002094395 -6.352956 5.0031 -3.970107 1.0837 -0.0788 0.0997 0.5249413

0.2932153 0.4063126 -0.2356194 1.732446 -9.921834 -1.269414 0.1864 -0.1402 -0.4289 -0.08150688 -0.1494002 0.08395033 -6.35688 4.966803 -3.940677 1.0772 -0.0766 0.1008 0.5249413

0.2932153 0.4063126 -0.2356194 1.732446 -9.921834 -1.269414 0.1864 -0.1402 -0.4289 -0.03577925 -0.003490658 0.1169371 -6.607035 5.077656 -3.89457 1.0772 -0.0766 0.1008 0.5249413

0.2932153 0.4063126 -0.2356194 1.732446 -9.921834 -1.269414 0.1864 -0.1402 -0.4289 0.001745329 0.1302016 0.06579891 -6.747318 5.163984 -3.886722 1.0766 -0.0826 0.1037 0.5249413

0.2932153 0.4063126 -0.2356194 1.732446 -9.921834 -1.269414 0.1864 -0.1402 -0.4289 0.001745329 0.1302016 0.06579891 -6.747318 5.163984 -3.886722 1.0766 -0.0826 0.1037 0.5249413

0.1361357 -0.1691224 -0.2790782 1.783458 -9.990504 -0.354141 0.2625 -0.184 -0.4523 -0.003141593 0.1434661 0.06702064 -6.6708 5.226768 -3.88476 1.0766 -0.0826 0.1037 0.5249413

0.08325221 -0.3977605 -0.2672099 1.933551 -10.25439 -0.178542 0.2434 -0.1768 -0.4448 -0.003141593 0.1434661 0.06702064 -6.6708 5.226768 -3.88476 1.0766 -0.0826 0.1037 0.5249413

0.08325221 -0.3977605 -0.2672099 1.933551 -10.25439 -0.178542 0.2434 -0.1768 -0.4448 -0.003141593 0.1434661 0.06702064 -6.6708 5.226768 -3.88476 1.0766 -0.0826 0.1037 0.5249413

0.1261873 -0.5284857 -0.4024729 1.908045 -10.40449 -0.051012 0.2434 -0.1768 -0.4448 -0.003141593 0.1434661 0.06702064 -6.6708 5.226768 -3.88476 1.0766 -0.0826 0.1037 0.5249413

0.2214823 -0.5068436 -0.4883431 1.692225 -10.37309 0.047088 0.2082 -0.174 -0.4494 -0.1261873 -0.08656833 0.4340634 -6.148908 5.097276 -3.68856 1.1022 -0.0766 0.0827 0.5665607

0.2214823 -0.5068436 -0.4883431 1.692225 -10.37309 0.047088 0.2082 -0.174 -0.4494 -0.2288126 -0.12706 0.4441863 -6.208749 5.064903 -3.572802 1.1022 -0.0766 0.0827 0.5665607

0.315381 -0.4907866 -0.4647812 1.57941 -10.29167 0.181485 0.1949 -0.1713 -0.4613 -0.2288126 -0.12706 0.4441863 -6.208749 5.064903 -3.572802 1.1022 -0.0766 0.0827 0.5665607

0.3412119 -0.5916666 -0.3851942 1.699092 -10.17297 0.405153 0.1949 -0.1713 -0.4613 -0.3207915 -0.1190315 0.4609415 -6.324507 5.129649 -3.438405 1.0984 -0.0757 0.0796 0.5665607

0.3412119 -0.5916666 -0.3851942 1.699092 -10.17297 0.405153 0.1949 -0.1713 -0.4613 -0.3216642 -0.0296706 0.5092871 -6.459886 5.272875 -3.32559 1.0984 -0.0757 0.0796 0.5665607

0.5087635 -0.7538077 -0.1874484 1.808964 -9.885537 0.743598 0.1942 -0.1735 -0.4454 -0.3216642 -0.0296706 0.5092871 -6.459886 5.272875 -3.32559 1.0984 -0.0757 0.0796 0.5665607

0.5087635 -0.7538077 -0.1874484 1.808964 -9.885537 0.743598 0.1942 -0.1735 -0.4454 -0.3591888 -0.01047198 0.5340707 -6.584472 5.305248 -3.252015 1.0966 -0.0889 0.0736 0.5665607

0.6089454 -0.8969247 -0.1216494 1.877634 -9.822753 0.866223 0.1942 -0.1735 -0.4454 -0.4778711 0.02338741 0.4946263 -6.742414 5.328793 -3.161763 1.0966 -0.0889 0.0736 0.5665607

0.5454154 -0.970403 -0.2249729 1.899216 -9.949302 0.878976 0.1502 -0.1707 -0.4389 -0.5126032 0.0986111 0.4927064 -6.93469 5.478885 -3.063663 1.0886 -0.1163 0.0585 0.5665607

0.5454154 -0.970403 -0.2249729 1.899216 -9.949302 0.878976 0.1502 -0.1707 -0.4389 -0.5126032 0.0986111 0.4927064 -6.93469 5.478885 -3.063663 1.0886 -0.1163 0.0585 0.5665607

0.4220206 -0.9449213 -0.2312561 1.986525 -9.940473 1.083024 0.1502 -0.1707 -0.4389 -0.5440191 0.2415536 0.5555383 -7.103421 5.546574 -2.931228 1.0886 -0.1163 0.0585 0.5665607

0.4604178 -1.119454 -0.07522369 2.237661 -9.758008 1.301787 0.0757 -0.1578 -0.4542 -0.5440191 0.2415536 0.5555383 -7.103421 5.546574 -2.931228 1.0886 -0.1163 0.0585 0.5665607

0.4604178 -1.119454 -0.07522369 2.237661 -9.758008 1.301787 0.0757 -0.1578 -0.4542 -0.5440191 0.2415536 0.5555383 -7.103421 5.546574 -2.931228 1.0886 -0.1163 0.0585 0.8565539

0.3619813 -1.290846 -0.1082104 2.471139 -9.79038 1.31454 0.0757 -0.1578 -0.4542 -0.5440191 0.2415536 0.5555383 -7.103421 5.546574 -2.931228 1.0886 -0.1163 0.0585 0.8565539

0.448026 -1.438849 -0.2015855 2.646738 -9.631458 1.403811 0.0171 -0.1642 -0.4425 -0.8606219 0.5181882 0.2303835 -7.454619 5.779071 -2.686959 1.0842 -0.1782 0.0622 0.8565539

0.448026 -1.438849 -0.2015855 2.646738 -9.631458 1.403811 0.0171 -0.1642 -0.4425 -0.8606219 0.5181882 0.2303835 -7.454619 5.779071 -2.686959 1.0842 -0.1782 0.0622 0.8565539

0.6164503 -1.530828 -0.2158972 2.710503 -9.425448 1.50093 -0.0053 -0.1667 -0.4379 -0.8353146 0.5853834 0.1586504 -7.417341 5.823216 -2.595726 1.0878 -0.2027 0.0825 0.945163

0.7250098 -1.702743 -0.1926844 2.810565 -9.477441 1.43226 -0.0053 -0.1667 -0.4379 -0.7675958 0.7665486 0.1855285 -7.40655 6.004701 -2.534904 1.0878 -0.2027 0.0825 0.945163

0.7250098 -1.702743 -0.1926844 2.810565 -9.477441 1.43226 -0.0053 -0.1667 -0.4379 -0.7675958 0.7665486 0.1855285 -7.40655 6.004701 -2.534904 1.0878 -0.2027 0.0825 0.945163

0.7250098 -1.702743 -0.1926844 2.810565 -9.477441 1.43226 -0.0053 -0.1667 -0.4379 -0.8630653 0.8241445 0.1164135 -7.434018 6.079257 -2.479968 1.0782 -0.2244 0.1028 0.945163

0.7942993 -1.556485 -0.1010546 2.834109 -9.366589 1.261566 -0.0231 -0.2074 -0.421 -0.9840167 0.8098328 -0.03735005 -7.434999 6.019416 -2.387754 1.0587 -0.2269 0.1045 1.013633

0.5768313 -1.507441 -0.0541052 2.986164 -9.512757 1.172295 -0.0131 -0.2624 -0.3928 -0.9840167 0.8098328 -0.03735005 -7.434999 6.019416 -2.387754 1.0587 -0.2269 0.1045 1.013633

0.5768313 -1.507441 -0.0541052 2.986164 -9.512757 1.172295 -0.0131 -0.2624 -0.3928 -1.023985 0.8689994 -0.1228712 -7.326108 6.065524 -2.318103 1.0587 -0.2269 0.1045 1.013633

0.4194026 -1.508139 0.05201081 3.11958 -9.540226 1.048689 -0.0131 -0.2624 -0.3928 -1.04266 0.9260717 -0.1965241 -7.231933 6.168528 -2.252376 1.0474 -0.2447 0.1077 1.013633

0.4194026 -1.508139 0.05201081 3.11958 -9.540226 1.048689 -0.0131 -0.2624 -0.3928 -1.04266 0.9260717 -0.1965241 -7.231933 6.168528 -2.252376 1.0474 -0.2447 0.1077 1.013633

0.6438519 -1.466251 0.1984439 3.010689 -9.192951 1.033974 -0.0185 -0.3319 -0.3418 -1.081406 1.009149 -0.2830924 -7.205445 6.205806 -2.201364 1.0474 -0.2447 0.1077 1.013633

0.7314675 -1.495747 0.1813397 3.103884 -9.235134 0.93195 -0.0147 -0.3884 -0.2619 -1.086468 1.02573 -0.37926 -7.164243 6.286248 -2.171934 1.0475 -0.2469 0.1089 1.013633

0.7314675 -1.495747 0.1813397 3.103884 -9.235134 0.93195 -0.0147 -0.3884 -0.2619 -1.086468 1.02573 -0.37926 -7.164243 6.286248 -2.171934 1.0475 -0.2469 0.1089 1.013633

0.7227408 -1.592788 0.1162389 3.260844 -9.355798 0.8328691 -0.0147 -0.3884 -0.2619 -1.124865 1.009848 -0.4176573 -7.028865 6.491277 -2.059119 1.0475 -0.2469 0.1089 1.013633

0.8349655 -1.579697 0.09250245 3.147048 -9.364626 0.761256 -0.0149 -0.423 -0.1539 -1.124865 1.009848 -0.4176573 -7.028865 6.491277 -2.059119 1.0475 -0.2469 0.1089 1.013633

0.8349655 -1.579697 0.09250245 3.147048 -9.364626 0.761256 -0.0149 -0.423 -0.1539 -1.124865 1.009848 -0.4176573 -7.028865 6.491277 -2.059119 1.0475 -0.2469 0.1089 1.013633

0.7209955 -1.536588 0.0593412 3.128409 -9.598104 0.6268591 -0.0149 -0.423 -0.1539 -1.124865 1.009848 -0.4176573 -7.028865 6.491277 -2.059119 1.0475 -0.2469 0.1089 1.013633

0.6052802 -1.51163 0.04991641 3.150972 -9.617724 0.55917 -0.0752 -0.4081 -0.0385 -1.296954 0.9717993 -0.7274532 -6.760072 6.964119 -2.028708 1.0578 -0.2111 0.2089 1.115668

0.6689847 -1.564688 0.1350885 3.137238 -9.444087 0.543474 -0.0752 -0.4081 -0.0385 -1.296954 0.9717993 -0.7274532 -6.760072 6.964119 -2.028708 1.0578 -0.2111 0.2089 1.115668

0.6689847 -1.564688 0.1350885 3.137238 -9.444087 0.543474 -0.0752 -0.4081 -0.0385 -1.20899 1.027999 -0.717854 -6.829722 7.152471 -1.968867 1.0578 -0.2111 0.2089 1.115668

0.6686357 -1.759815 0.1293289 3.191193 -9.595161 0.375723 -0.1716 -0.3674 0.0315 -1.099383 1.081755 -0.7115707 -6.822855 7.261362 -1.992411 1.0459 -0.1945 0.2382 1.115668

0.4993387 -1.697507 0.03787364 2.998917 -9.732501 0.08829 -0.1716 -0.3674 0.0315 -1.099383 1.081755 -0.7115707 -6.822855 7.261362 -1.992411 1.0459 -0.1945 0.2382 1.115668

0.4993387 -1.697507 0.03787364 2.998917 -9.732501 0.08829 -0.1716 -0.3674 0.0315 -1.066571 1.129926 -0.7597418 -6.705135 7.301583 -2.006145 1.0459 -0.1945 0.2382 1.115668

0.524646 -1.503252 0.05323254 2.608479 -9.65206 -0.126549 -0.2799 -0.325 0.0588 -1.096765 1.151219 -0.7813839 -6.523651 7.313355 -1.97181 1.03 -0.1671 0.2764 1.09553

0.4941027 -1.346172 0.07138397 2.492721 -9.65206 -0.21582 -0.3923 -0.28 0.0726 -1.096765 1.151219 -0.7813839 -6.523651 7.313355 -1.97181 1.03 -0.1671 0.2764 1.09553

0.6248279 -1.417905 0.1769764 2.594745 -9.605952 -0.280566 -0.3923 -0.28 0.0726 -1.129053 1.111949 -0.7824311 -6.419664 7.317279 -1.901178 1.019 -0.1375 0.3159 1.09553

0.6248279 -1.417905 0.1769764 2.594745 -9.605952 -0.280566 -0.3923 -0.28 0.0726 -1.129053 1.111949 -0.7824311 -6.419664 7.317279 -1.901178 1.019 -0.1375 0.3159 1.09553

0.6698574 -1.494351 0.1418953 2.650662 -9.743293 -0.453222 -0.4927 -0.245 0.124 -1.129053 1.111949 -0.7824311 -6.419664 7.317279 -1.901178 1.019 -0.1375 0.3159 1.060623

0.5721189 -1.340587 0.0137881 2.545695 -9.826678 -0.628821 -0.4927 -0.245 0.124 -1.129053 1.111949 -0.7824311 -6.419664 7.317279 -1.901178 1.019 -0.1375 0.3159 1.060623

0.5834635 -1.267982 0.05026548 2.545695 -9.765856 -0.746541 -0.573 -0.2362 0.2184 -1.129053 1.111949 -0.7824311 -6.419664 7.317279 -1.901178 1.019 -0.1375 0.3159 1.060623

0.5834635 -1.267982 0.05026548 2.545695 -9.765856 -0.746541 -0.573 -0.2362 0.2184 -1.129053 1.111949 -0.7824311 -6.419664 7.317279 -1.901178 1.019 -0.1375 0.3159 1.033772

0.5855579 -1.169371 0.2134538 2.505474 -9.666775 -0.898596 -0.573 -0.2362 0.2184 -1.129053 1.111949 -0.7824311 -6.419664 7.317279 -1.901178 1.019 -0.1375 0.3159 1.033772

0.5855579 -1.169371 0.2134538 2.505474 -9.666775 -0.898596 -0.573 -0.2362 0.2184 -0.8873254 0.7326892 -0.8623672 -6.105744 7.294716 -1.929627 0.967 -0.1056 0.3908 1.033772

0.6756169 -1.083151 0.3070034 2.416203 -9.624592 -0.928026 -0.6014 -0.2273 0.3318 -0.8402015 0.7166322 -0.8496263 -6.210711 7.302565 -1.983582 0.9614 -0.0795 0.4256 0.9881249

0.5525712 -0.9813986 0.2686062 2.391678 -9.766836 -0.905463 -0.6014 -0.2273 0.3318 -0.8402015 0.7166322 -0.8496263 -6.210711 7.302565 -1.983582 0.9614 -0.0795 0.4256 0.9881249

0.5255187 -1.053306 0.2586578 2.4525 -9.758988 -0.877014 -0.6174 -0.1855 0.4548 -0.755204 0.7164577 -0.859051 -6.291153 7.292754 -2.012031 0.9614 -0.0795 0.4256 0.9881249

0.5255187 -1.053306 0.2586578 2.4525 -9.758988 -0.877014 -0.6174 -0.1855 0.4548 -0.6506587 0.77161 -0.8503245 -6.339222 7.329051 -2.03067 0.9279 -0.0456 0.4594 0.9881249

0.5293583 -1.076694 0.2158972 2.424051 -9.774684 -0.857394 -0.625 -0.1259 0.5503 -0.5810201 0.8101818 -0.8635889 -6.412797 7.334937 -2.064024 0.9279 -0.0456 0.4594 0.9344224

0.352731 -0.9456194 0.1764528 2.31516 -9.874746 -0.830907 -0.625 -0.1259 0.5503 -0.5810201 0.8101818 -0.8635889 -6.412797 7.334937 -2.064024 0.9279 -0.0456 0.4594 0.9344224

0.352731 -0.9456194 0.1764528 2.31516 -9.874746 -0.830907 -0.625 -0.1259 0.5503 -0.5522221 0.7661996 -0.9115855 -6.482448 7.263324 -2.106207 0.9027 -0.0107 0.4808 0.9344224

0.352731 -0.9456194 0.1764528 2.31516 -9.874746 -0.830907 -0.625 -0.1259 0.5503 -0.5522221 0.7661996 -0.9115855 -6.482448 7.263324 -2.106207 0.9027 -0.0107 0.4808 0.9344224

0.352731 -0.9456194 0.1764528 2.31516 -9.874746 -0.830907 -0.625 -0.1259 0.5503 -0.5522221 0.7661996 -0.9115855 -6.482448 7.263324 -2.106207 0.9027 -0.0107 0.4808 0.8726646

0.352731 -0.9456194 0.1764528 2.31516 -9.874746 -0.830907 -0.625 -0.1259 0.5503 -0.5778785 0.3090978 -0.9236282 -6.165585 6.561909 -1.90314 0.8761 0.0304 0.5395 0.8726646

0.267559 -0.760789 0.4117232 2.126808 -9.756045 -0.5925241 -0.637 0.0888 0.6845 -0.5778785 0.3090978 -0.9236282 -6.165585 6.561909 -1.90314 0.8761 0.0304 0.5395 0.8726646

-0.006108652 -0.5986479 0.4403466 1.721655 -9.893385 -0.547398 -0.695 0.2427 0.7286 -0.5272639 0.2162463 -0.8920378 -6.368652 6.519726 -1.984563 0.847 0.0476 0.556 0.8726646

-0.2035054 -0.4101524 0.4092797 1.339065 -10.04838 -0.482652 -0.695 0.2427 0.7286 -0.5436701 0.1919862 -0.8510225 -6.630579 6.442227 -2.032632 0.847 0.0476 0.556 0.8726646

-0.2035054 -0.4101524 0.4092797 1.339065 -10.04838 -0.482652 -0.695 0.2427 0.7286 -0.5356416 0.2961824 -0.8244936 -6.832665 6.338241 -2.164086 0.8171 0.0352 0.5663 0.8726646

-0.1443387 -0.3052581 0.2638938 1.266471 -9.933606 -0.394362 -0.762 0.3845 0.7114 -0.5356416 0.2961824 -0.8244936 -6.832665 6.338241 -2.164086 0.8171 0.0352 0.5663 0.8726646

0.1612684 -0.4722861 0.1619665 1.431279 -9.801171 -0.259965 -0.8257 0.4939 0.6614 -0.4569272 0.4089307 -0.8021533 -6.986682 6.318621 -2.195478 0.8171 0.0352 0.5663 0.8726646

0.1612684 -0.4722861 0.1619665 1.431279 -9.801171 -0.259965 -0.8257 0.4939 0.6614 -0.4569272 0.4089307 -0.8021533 -6.986682 6.318621 -2.195478 0.8171 0.0352 0.5663 0.8726646

0.09581857 -0.570199 0.12706 1.479348 -9.813924 -0.218763 -0.8257 0.4939 0.6614 -0.410676 0.4979424 -0.7574729 -7.126965 6.28723 -2.116998 0.7977 0.0231 0.5635 0.7142425

0.06981317 -0.5441937 0.11397 1.468557 -9.696204 -0.155979 -0.87 0.6016 0.5811 -0.3707079 0.535467 -0.6937684 -7.214274 6.168528 -2.07972 0.7977 0.0231 0.5635 0.7142425

0.06981317 -0.5441937 0.11397 1.468557 -9.696204 -0.155979 -0.87 0.6016 0.5811 -0.3707079 0.535467 -0.6937684 -7.214274 6.168528 -2.07972 0.7977 0.0231 0.5635 0.7142425

0.03717551 -0.5351179 0.1715659 1.338084 -9.681489 -0.209934 -0.87 0.6016 0.5811 -0.3707079 0.535467 -0.6937684 -7.214274 6.168528 -2.07972 0.7977 0.0231 0.5635 0.7142425

-0.03403392 -0.3073525 0.1687733 1.213497 -9.614781 -0.260946 -0.9007 0.682 0.4964 -0.3707079 0.535467 -0.6937684 -7.214274 6.168528 -2.07972 0.7977 0.0231 0.5635 0.6578549

-0.03403392 -0.3073525 0.1687733 1.213497 -9.614781 -0.260946 -0.9007 0.682 0.4964 -0.4235914 0.1911135 -0.6407104 -7.150509 5.54265 -2.035575 0.7699 0.0169 0.5837 0.6578549

0.004014257 -0.3078761 0.2488839 1.290015 -9.559845 -0.254079 -0.9007 0.682 0.4964 -0.3935717 0.2560398 -0.6028367 -7.312375 5.487714 -1.988487 0.7645 0.0155 0.5944 0.6578549

-0.04607669 -0.3008948 0.294088 1.287072 -9.608895 -0.30411 -0.9522 0.7276 0.4299 -0.3935717 0.2560398 -0.6028367 -7.312375 5.487714 -1.988487 0.7645 0.0155 0.5944 0.6578549

0.01396263 -0.2424262 0.2771583 1.204668 -9.484308 -0.244269 -0.9886 0.7626 0.3507 -0.3738495 0.2494075 -0.556411 -7.485031 5.406291 -2.015955 0.7645 0.0155 0.5944 0.5974396

0.01396263 -0.2424262 0.2771583 1.204668 -9.484308 -0.244269 -0.9886 0.7626 0.3507 -0.3837979 0.2611012 -0.5414011 -7.567434 5.269932 -2.080701 0.7555 0.0171 0.6013 0.5974396

-0.03281219 -0.3099705 0.2713987 1.160523 -9.609877 -0.246231 -0.9886 0.7626 0.3507 -0.3837979 0.2611012 -0.5414011 -7.567434 5.269932 -2.080701 0.7555 0.0171 0.6013 0.5974396

-0.1836087 -0.2670354 0.2345722 1.050651 -9.706015 -0.3924 -1.0258 0.7936 0.2702 -0.3148574 0.3230605 -0.4705407 -7.621389 5.141421 -2.080701 0.7555 0.0171 0.6013 0.5974396

-0.1836087 -0.2670354 0.2345722 1.050651 -9.706015 -0.3924 -1.0258 0.7936 0.2702 -0.3090978 0.2682571 -0.4049164 -7.655724 5.166927 -2.098359 0.7393 0.0221 0.5906 0.5450798

-0.1101303 -0.1734857 0.2307325 0.935874 -9.552979 -0.3924 -1.0258 0.7936 0.2702 -0.3090978 0.2682571 -0.4049164 -7.655724 5.166927 -2.098359 0.7393 0.0221 0.5906 0.5450798

-0.06352998 -0.07906342 0.2775073 0.792648 -9.598104 -0.406134 -1.0681 0.8105 0.2085 -0.3857178 0.1799435 -0.4031711 -7.578225 5.118858 -2.088549 0.7393 0.0221 0.5906 0.5450798

-0.06352998 -0.07906342 0.2775073 0.792648 -9.598104 -0.406134 -1.0681 0.8105 0.2085 -0.3857178 0.1799435 -0.4031711 -7.578225 5.118858 -2.088549 0.7393 0.0221 0.5906 0.5450798

-0.2150246 -0.07400195 0.2670354 0.8436601 -9.831582 -0.469899 -1.0681 0.8105 0.2085 -0.344528 0.1890192 -0.4045673 -7.551738 4.999176 -2.062062 0.7406 0.0337 0.595 0.5061455

-0.2150246 -0.07400195 0.2670354 0.8436601 -9.831582 -0.469899 -1.0681 0.8105 0.2085 -0.344528 0.1890192 -0.4045673 -7.551738 4.999176 -2.062062 0.7406 0.0337 0.595 0.5061455

-0.2150246 -0.07400195 0.2670354 0.8436601 -9.831582 -0.469899 -1.0681 0.8105 0.2085 -0.344528 0.1890192 -0.4045673 -7.551738 4.999176 -2.062062 0.7406 0.0337 0.595 0.5061455

-0.06614798 0.005235988 0.2049017 0.62784 -9.948321 -0.7229971 -1.0809 0.806 0.0561 -0.2506293 -0.01012291 -0.2164208 -7.314336 4.794147 -2.223927 0.7558 0.0092 0.6062 0.5061455

-0.06614798 0.005235988 0.2049017 0.62784 -9.948321 -0.7229971 -1.0809 0.806 0.0561 -0.2506293 -0.01012291 -0.2164208 -7.314336 4.794147 -2.271015 0.7558 0.0092 0.6062 0.5061455

-0.08866272 -0.06178465 0.214501 0.677871 -10.02876 -0.709263 -1.0809 0.806 0.0561 -0.2199115 -0.05811946 -0.2015855 -7.341804 4.81671 -2.271015 0.7473 0.0008 0.6062 0.5061455

-0.1410226 -0.06073746 0.2132792 0.613125 -9.997371 -0.807363 -1.1089 0.8029 0.0148 -0.1802925 -0.02879793 -0.1345649 -7.532118 4.857912 -2.273958 0.7473 0.0008 0.6062 0.4658687

-0.1581268 -0.01850049 0.2042035 0.51993 -9.926739 -0.792648 -1.1089 0.8029 0.0148 -0.1518436 0.02984513 -0.07504916 -7.677306 4.831425 -2.327913 0.7459 -0.0004 0.5991 0.4658687

-0.1581268 -0.01850049 0.2042035 0.51993 -9.926739 -0.792648 -1.1089 0.8029 0.0148 -0.1518436 0.02984513 -0.07504916 -7.677306 4.831425 -2.327913 0.7459 -0.0004 0.5991 0.4658687

-0.1410226 -0.05340707 0.2497566 0.562113 -9.973827 -0.771066 -1.1293 0.8014 -0.0215 -0.09983283 0.02478367 -0.07382743 -7.760692 4.808862 -2.31516 0.7459 -0.0004 0.5991 0.4658687

-0.1731367 -0.01099557 0.1794198 0.504234 -10.09547 -0.933912 -1.1293 0.8014 -0.0215 -0.03752458 0.1665044 -0.03857178 -7.890183 4.802976 -2.286711 0.752 -0.0123 0.5844 0.4658687

-0.1731367 -0.01099557 0.1794198 0.504234 -10.09547 -0.933912 -1.1293 0.8014 -0.0215 -0.03752458 0.1665044 -0.03857178 -7.890183 4.802976 -2.286711 0.752 -0.0123 0.5844 0.4658687

-0.188321 0.1471313 0.0842994 0.408096 -10.0111 -0.91233 -1.1396 0.7947 -0.0358 0.002443461 0.1616175 0.02775074 -7.834267 4.750983 -2.28573 0.752 -0.0123 0.5844 0.4658687

-0.08674286 0.1729621 0.1672025 0.498348 -9.921834 -0.724959 -1.1396 0.7947 -0.0358 -0.1258382 -0.10088 0.007330383 -7.682211 4.635225 -2.157219 0.7499 -0.031 0.5781 0.4658687

0.4619886 0.03420845 -0.02670354 0.526797 -10.23575 -0.650403 -1.1274 0.7855 -0.0336 -0.1258382 -0.10088 0.007330383 -7.682211 4.635225 -2.157219 0.7499 -0.031 0.5781 0.4658687

0.4619886 0.03420845 -0.02670354 0.526797 -10.23575 -0.650403 -1.1274 0.7855 -0.0336 -0.1110029 -0.1530654 0.01640609 -7.815628 4.64013 -2.16801 0.7499 -0.031 0.5781 0.4658687

-0.05166174 0.1865757 0.05393067 0.38259 -10.81062 -0.466956 -1.0988 0.7876 -0.0488 0.004537856 0.03071779 0.07086036 -8.028504 4.699971 -2.23668 0.747 -0.0406 0.5868 0.4457302

-0.1579523 0.1050688 0.01099557 0.469899 -10.68603 -0.181485 -1.0988 0.7876 -0.0488 0.004537856 0.03071779 0.07086036 -8.028504 4.699971 -2.23668 0.747 -0.0406 0.5868 0.4457302

-0.1579523 0.1050688 0.01099557 0.469899 -10.68603 -0.181485 -1.0988 0.7876 -0.0488 0.004537856 0.03071779 0.07086036 -8.028504 4.699971 -2.23668 0.747 -0.0406 0.5868 0.4457302

-0.3581416 -0.08953539 0.05445427 0.606258 -10.70271 -0.173637 -1.092 0.7962 -0.0685 0.004537856 0.03071779 0.07086036 -8.028504 4.699971 -2.23668 0.747 -0.0406 0.5868 0.4457302

-0.3581416 -0.08953539 0.05445427 0.606258 -10.70271 -0.173637 -1.092 0.7962 -0.0685 -0.01675516 0.1425934 -0.0403171 -8.400303 4.621491 -2.32497 0.7525 -0.0352 0.6091 0.4457302

-0.4431391 -0.1085595 -0.002443461 0.565056 -10.33287 -0.12753 -1.092 0.7962 -0.0685 0.01343904 0.1715659 0.008901179 -8.202141 4.442949 -2.282787 0.7525 -0.0352 0.6091 0.4457302

-0.3012438 -0.2234021 -0.02059488 0.642555 -9.960093 -0.09613801 -1.1015 0.7939 -0.0736 0.05009095 0.2762856 0.03525565 -8.229609 4.479246 -2.178801 0.7389 -0.0429 0.5909 0.4457302

-0.4199262 -0.1900664 -0.1062906 0.543474 -10.13275 -0.344331 -1.1015 0.7939 -0.0736 0.05009095 0.2762856 0.03525565 -8.229609 4.479246 -2.178801 0.7389 -0.0429 0.5909 0.4457302

-0.4199262 -0.1900664 -0.1062906 0.543474 -10.13275 -0.344331 -1.1015 0.7939 -0.0736 0.05009095 0.2762856 0.03525565 -8.229609 4.479246 -2.178801 0.7389 -0.0429 0.5909 0.4457302

-0.2000147 0.12706 -0.003839724 0.346293 -9.765856 -0.629802 -1.1006 0.7734 -0.049 -0.04310963 0.1399754 -0.06038839 -8.303185 4.458645 -2.163105 0.7389 -0.0429 0.5909 0.4457302

-0.07609636 0.09180433 0.08307768 0.619992 -9.676584 -0.483633 -1.1006 0.7734 -0.049 -0.05654867 0.01082104 -0.05689773 -8.101098 4.311495 -2.120922 0.722 -0.0485 0.5998 0.4457302

-0.07609636 0.09180433 0.08307768 0.619992 -9.676584 -0.483633 -1.1006 0.7734 -0.049 0.00837758 0.05602507 0.02024582 -8.019675 4.337982 -2.041461 0.722 -0.0485 0.5998 0.4457302

-0.1146681 0.05096361 0.07609636 0.624897 -10.04348 -0.656289 -1.1048 0.7612 -0.039 0.00837758 0.05602507 0.02024582 -8.019675 4.337982 -2.041461 0.722 -0.0485 0.5998 0.4457302

-0.3188716 0.01780236 -0.02600541 0.54936 -10.21515 -0.629802 -1.1132 0.7625 -0.0503 0.03176499 0.1406735 -0.009250244 -8.124642 4.426272 -2.125827 0.7149 -0.0509 0.6177 0.4457302

-0.3188716 0.01780236 -0.02600541 0.54936 -10.21515 -0.629802 -1.1132 0.7625 -0.0503 0.03420845 0.1394518 -0.02495821 -8.117775 4.427253 -2.279844 0.7149 -0.0509 0.6177 0.4457302

-0.3188716 0.01780236 -0.02600541 0.54936 -10.21515 -0.629802 -1.1132 0.7625 -0.0503 0.0567232 0.1062906 0.02600541 -7.974549 4.488075 -2.323008 0.7209 -0.0473 0.6158 0.4457302

-0.3188716 0.01780236 -0.02600541 0.54936 -10.21515 -0.629802 -1.1132 0.7625 -0.0503 0.0567232 0.1062906 0.02600541 -7.974549 4.488075 -2.323008 0.7209 -0.0473 0.6158 0.4457302

-0.4614651 -0.4092797 0.5981243 0.165789 -9.442125 -1.107549 -1.1179 0.768 -0.0198 0.06859144 0.05305801 0.05148721 -7.86664 4.577346 -2.301426 0.7209 -0.0473 0.6158 0.4457302

-0.4614651 -0.4092797 0.5981243 0.165789 -9.442125 -1.107549 -1.1179 0.768 -0.0198 0.08307768 -0.01954769 0.04747296 -7.775406 4.611681 -2.293578 0.7214 -0.0297 0.6079 0.4524431

-0.336325 -0.4433136 0.5035275 -0.04905 -9.471556 -1.310616 -1.1179 0.768 -0.0198 0.0858702 -0.06422812 0.09599311 -7.693984 4.685256 -2.304369 0.7214 -0.0297 0.6079 0.4524431

-0.336325 -0.4433136 0.5035275 -0.04905 -9.471556 -1.310616 -1.1179 0.768 -0.0198 0.0858702 -0.06422812 0.09599311 -7.693984 4.685256 -2.304369 0.7214 -0.0297 0.6079 0.4524431

-0.5080653 -0.1848304 0.2288126 -0.463032 -9.984618 -1.967886 -1.0908 0.7807 0.0134 0.1193805 -0.0884882 0.1692969 -7.648857 4.815729 -2.33478 0.7103 -0.0246 0.6116 0.4524431

-0.8712683 0.1302016 -0.1534144 -0.788724 -10.45059 -2.489778 -1.0908 0.7807 0.0134 0.1441642 -0.08621927 0.2340486 -7.587054 4.940316 -2.39364 0.71 -0.0356 0.6176 0.4658687

-0.8712683 0.1302016 -0.1534144 -0.788724 -10.45059 -2.489778 -1.0908 0.7807 0.0134 0.1441642 -0.08621927 0.2340486 -7.587054 4.940316 -2.39364 0.71 -0.0356 0.6176 0.4658687

-1.193456 0.264941 -0.3199188 -0.930969 -10.69192 -2.788002 -1.0704 0.7801 0.0514 0.1441642 -0.08621927 0.2340486 -7.587054 4.940316 -2.39364 0.71 -0.0356 0.6176 0.4658687

-1.256288 0.2316052 -0.4948008 -0.92214 -10.62914 -2.922399 -1.0619 0.7981 0.1068 0.3860669 0.04817109 0.5361651 -7.124022 5.580909 -2.748762 0.7004 -0.0307 0.625 0.4658687

-1.256288 0.2316052 -0.4948008 -0.92214 -10.62914 -2.922399 -1.0619 0.7981 0.1068 0.3860669 0.04817109 0.5361651 -7.124022 5.580909 -2.748762 0.7004 -0.0307 0.625 0.4967476

-1.231679 0.1432915 -0.5146976 -0.936855 -10.28088 -3.148029 -1.0619 0.7981 0.1068 0.4187045 0.004014257 0.6440265 -7.025922 5.720212 -2.770344 0.7039 -0.0136 0.6259 0.4967476

-1.231679 0.1432915 -0.5146976 -0.936855 -10.28088 -3.148029 -1.0619 0.7981 0.1068 0.4187045 0.004014257 0.6440265 -7.025922 5.720212 -2.770344 0.7039 -0.0136 0.6259 0.4967476

-1.292765 0.2548181 -0.4490732 -0.913311 -9.834526 -3.390336 -1.0742 0.8054 0.1867 0.4244641 -0.1298525 0.7728317 -6.957253 5.858532 -2.780154 0.7039 -0.0136 0.6259 0.4967476

-1.391726 0.1603958 -0.3612832 -0.66708 -9.510796 -3.52179 -1.0742 0.8054 0.1867 0.4708898 -0.1808161 0.8513716 -7.031808 6.000777 -2.810565 0.6895 -0.0041 0.6239 0.5611905

-1.391726 0.1603958 -0.3612832 -0.66708 -9.510796 -3.52179 -1.0742 0.8054 0.1867 0.5684537 -0.03735005 0.9070476 -7.221141 6.192072 -2.840976 0.6895 -0.0041 0.6239 0.5611905

-1.533446 0.055676 -0.2968805 -0.5925241 -9.350892 -3.832767 -1.0885 0.808 0.2971 0.5684537 -0.03735005 0.9070476 -7.221141 6.192072 -2.840976 0.6895 -0.0041 0.6239 0.5611905

-1.551772 0.2293363 -0.275762 -0.518949 -9.021276 -4.14963 -1.0885 0.808 0.2971 0.7470009 0.06492625 0.9728466 -7.280982 6.334317 -2.973411 0.6926 -0.0002 0.6326 0.5611905

-1.551772 0.2293363 -0.275762 -0.518949 -9.021276 -4.14963 -1.0885 0.808 0.2971 0.7944739 0.08395033 0.959582 -7.271172 6.244065 -2.876292 0.6926 -0.0002 0.6326 0.6283185

-1.551772 0.2293363 -0.275762 -0.518949 -9.021276 -4.14963 -1.0885 0.808 0.2971 0.7841764 0.07435103 0.9578367 -7.280001 6.246027 -2.660472 0.7029 -0.0032 0.6551 0.6283185

-0.8894197 0.3078761 -0.001919862 -0.324711 -8.142301 -5.017815 -0.9892 0.7043 0.778 0.7841764 0.07435103 0.9578367 -7.280001 6.246027 -2.660472 0.7029 -0.0032 0.6551 0.6283185

-0.8894197 0.3078761 -0.001919862 -0.324711 -8.142301 -5.017815 -0.9892 0.7043 0.778 0.9234537 0.1432915 1.074076 -7.268229 6.438303 -2.675187 0.7029 -0.0032 0.6551 0.6283185

-0.7894124 0.5471607 -0.03700098 -0.178542 -8.076573 -5.09139 -0.9892 0.7043 0.778 1.047198 0.1525418 1.184729 -7.083801 6.439284 -2.875311 0.7004 -0.0113 0.6669 0.6806784

-1.118058 0.3389429 -0.00715585 0.28449 -8.283565 -5.121801 -0.8952 0.6084 0.9672 1.047198 0.1525418 1.184729 -7.083801 6.439284 -2.875311 0.7004 -0.0113 0.6669 0.6806784

-1.484926 0.3797837 0.01029744 0.366894 -8.300241 -5.301324 -0.8952 0.6084 0.9672 1.047198 0.1525418 1.184729 -7.083801 6.439284 -2.875311 0.7004 -0.0113 0.6669 0.6806784

-1.484926 0.3797837 0.01029744 0.366894 -8.300241 -5.301324 -0.8952 0.6084 0.9672 1.047198 0.1525418 1.184729 -7.083801 6.439284 -2.875311 0.7004 -0.0113 0.6669 0.6806784

-1.298699 0.4989896 -0.0572468 0.489519 -7.964739 -5.389614 -0.7729 0.4783 1.1655 1.028173 -0.3509857 1.218589 -6.689439 6.173433 -3.052872 0.7153 0.0249 0.6446 0.6806784

-1.028173 0.5389577 -0.04817109 0.5856571 -7.703794 -5.567175 -0.7729 0.4783 1.1655 1.028173 -0.3509857 1.218589 -6.689439 6.173433 -3.052872 0.7153 0.0249 0.6446 0.6806784

-1.028173 0.5389577 -0.04817109 0.5856571 -7.703794 -5.567175 -0.7729 0.4783 1.1655 1.13045 -0.2131047 1.215447 -6.893487 6.195996 -3.071511 0.7153 0.0249 0.6446 0.6806784

-1.102524 0.6536258 0.1050688 0.489519 -7.7499 -5.881095 -0.6048 0.2896 1.3281 1.347394 -0.02443461 1.2425 -7.050447 6.35688 -3.203946 0.7417 0.0324 0.6436 0.6806784

-1.099906 0.6445501 0.1043707 0.590562 -7.8274 -6.10084 -0.6048 0.2896 1.3281 1.455256 0.07766715 1.271298 -7.038675 6.537385 -3.337362 0.7417 0.0324 0.6436 0.6806784

-1.099906 0.6445501 0.1043707 0.590562 -7.8274 -6.10084 -0.6048 0.2896 1.3281 1.455256 0.07766715 1.271298 -7.038675 6.537385 -3.337362 0.7417 0.0324 0.6436 0.6806784

-0.9414306 0.630762 0.1965241 0.609201 -7.767559 -6.330393 -0.4602 0.0622 1.3755 1.428203 -0.01169371 1.321563 -6.869943 6.604093 -3.241224 0.755 0.038 0.622 0.6806784

-0.6569419 0.8239699 0.3305654 0.308034 -7.630219 -6.643332 -0.3441 -0.1659 1.2868 1.378985 -0.2101376 1.388409 -6.457923 6.580548 -3.075435 0.755 0.038 0.622 0.6806784

-0.6569419 0.8239699 0.3305654 0.308034 -7.630219 -6.643332 -0.3441 -0.1659 1.2868 1.378985 -0.2101376 1.388409 -6.457923 6.580548 -3.075435 0.755 0.038 0.622 0.804194

-0.333707 1.186475 0.4518657 -0.028449 -7.618446 -6.839532 -0.3441 -0.1659 1.2868 1.293987 -0.4927064 1.437279 -6.009606 6.490296 -3.14901 0.765 0.0358 0.6036 0.804194

-0.3303908 1.402197 0.6085963 -0.051993 -7.819551 -6.751242 -0.3049 -0.3242 1.109 1.293987 -0.4927064 1.437279 -6.009606 6.490296 -3.14901 0.765 0.0358 0.6036 0.804194

-0.3303908 1.402197 0.6085963 -0.051993 -7.819551 -6.751242 -0.3049 -0.3242 1.109 1.226443 -0.6555457 1.449845 -5.500467 6.301945 -3.381507 0.765 0.0358 0.6036 0.8203048

-0.4989896 1.296256 0.5637413 0.08436601 -8.088346 -6.557004 -0.3049 -0.3242 1.109 1.226443 -0.6555457 1.449845 -5.500467 6.301945 -3.381507 0.765 0.0358 0.6036 0.8203048

-0.5970771 1.396438 0.381878 0.034335 -8.213913 -6.603111 -0.3513 -0.4283 0.899 1.217716 -0.7663741 1.487893 -5.23854 6.22935 -3.479607 0.7695 0.0348 0.6052 0.8203048

-0.5970771 1.396438 0.381878 0.034335 -8.213913 -6.603111 -0.3513 -0.4283 0.899 1.217716 -0.7663741 1.487893 -5.23854 6.22935 -3.479607 0.7695 0.0348 0.6052 0.8511837

-0.5970771 1.396438 0.381878 0.034335 -8.213913 -6.603111 -0.3513 -0.4283 0.899 1.217716 -0.7663741 1.487893 -5.23854 6.22935 -3.479607 0.7695 0.0348 0.6052 0.8511837

-0.5970771 1.396438 0.381878 0.034335 -8.213913 -6.603111 -0.3513 -0.4283 0.899 1.217716 -0.7663741 1.487893 -5.23854 6.22935 -3.479607 0.7695 0.0348 0.6052 0.8511837

-0.5970771 1.396438 0.381878 0.034335 -8.213913 -6.603111 -0.3513 -0.4283 0.899 1.374447 -0.8126253 1.64218 -5.555403 6.911146 -3.869064 0.8115 -0.0083 0.5961 0.8699795

-0.9587094 1.537111 0.9944886 0.5856571 -7.427151 -6.758109 -0.4639 -0.4419 0.5271 1.442864 -0.7822565 1.695064 -5.480847 6.838551 -4.125105 0.8352 -0.0222 0.5763 0.8699795

-1.210909 1.351583 1.096241 0.7269211 -7.475221 -6.805197 -0.4914 -0.436 0.4271 1.413368 -0.9150761 1.635548 -5.21892 6.796368 -4.142763 0.8352 -0.0222 0.5763 0.8699795

-1.210909 1.351583 1.096241 0.7269211 -7.475221 -6.805197 -0.4914 -0.436 0.4271 1.413368 -0.9150761 1.635548 -5.21892 6.796368 -4.142763 0.8352 -0.0222 0.5763 0.8887753

-1.473581 1.278454 1.227141 0.770085 -7.370253 -7.001397 -0.4914 -0.436 0.4271 1.446703 -1.003913 1.728923 -5.17968 6.879754 -4.207509 0.859 -0.0654 0.5533 0.8887753

-1.464331 1.437628 1.314407 0.660213 -7.016112 -7.227027 -0.4941 -0.432 0.3258 1.514248 -1.013338 1.832596 -5.214015 6.866019 -4.420386 0.8788 -0.1018 0.551 0.8887753

-1.464331 1.437628 1.314407 0.660213 -7.016112 -7.227027 -0.4941 -0.432 0.3258 1.495224 -1.067792 1.772207 -5.191453 6.774786 -4.530258 0.8788 -0.1018 0.551 0.8887753

-1.127308 1.458048 1.527338 0.665118 -6.548175 -7.281963 -0.4941 -0.432 0.3258 1.495224 -1.067792 1.772207 -5.191453 6.774786 -4.530258 0.8788 -0.1018 0.551 0.9075712

-1.620015 1.208466 1.62176 0.894672 -7.00336 -7.36731 -0.5125 -0.4252 0.2175 1.453336 -1.138304 1.673247 -5.247369 6.771843 -4.611681 0.8925 -0.1422 0.5309 0.9075712

-1.620015 1.208466 1.62176 0.894672 -7.00336 -7.36731 -0.5125 -0.4252 0.2175 1.601165 -1.078613 1.714088 -5.348412 6.846399 -4.67937 0.8925 -0.1422 0.5309 0.9075712

-2.26823 1.029744 1.560324 1.014354 -7.094593 -7.702812 -0.5125 -0.4252 0.2175 1.601165 -1.078613 1.714088 -5.348412 6.846399 -4.67937 0.8925 -0.1422 0.5309 0.9048861

-2.26823 1.029744 1.560324 1.014354 -7.094593 -7.702812 -0.5125 -0.4252 0.2175 1.711295 -1.072505 1.768019 -5.402367 6.73849 -4.631301 0.8955 -0.2075 0.5154 0.9048861

-1.963321 1.190664 1.705885 0.7298641 -6.576624 -7.964739 -0.5842 -0.3823 0.0787 1.56364 -1.240754 1.650558 -5.316039 6.463809 -4.599909 0.8955 -0.2075 0.5154 0.9048861

-1.560673 1.265713 1.99718 0.5356261 -6.179319 -8.106004 -0.5842 -0.3823 0.0787 1.56364 -1.240754 1.650558 -5.316039 6.463809 -4.599909 0.8955 -0.2075 0.5154 0.9048861

-1.719847 1.228188 2.13541 0.491481 -6.433398 -8.266888 -0.7141 -0.2634 -0.0535 1.461539 -1.396787 1.513724 -5.223825 6.320583 -4.713706 0.9006 -0.268 0.5184 0.9048861

-1.719847 1.228188 2.13541 0.491481 -6.433398 -8.266888 -0.7141 -0.2634 -0.0535 1.542522 -1.447576 1.458048 -5.348412 6.383367 -4.837311 0.9006 -0.268 0.5184 0.9048861

-2.175553 1.23866 2.20086 0.492462 -6.694344 -8.26002 -0.8349 -0.0987 -0.065 1.542522 -1.447576 1.458048 -5.348412 6.383367 -4.837311 0.9006 -0.268 0.5184 0.8632667

-2.422517 0.9524261 2.391101 0.6405931 -6.580548 -7.935309 -0.8349 -0.0987 -0.065 1.572367 -1.374272 1.347743 -5.684896 6.284286 -4.984461 0.8984 -0.3101 0.515 0.8632667

-2.422517 0.9524261 2.391101 0.6405931 -6.580548 -7.935309 -0.8349 -0.0987 -0.065 1.572367 -1.374272 1.347743 -5.684896 6.284286 -4.984461 0.8984 -0.3101 0.515 0.8632667

-2.422517 0.9524261 2.391101 0.6405931 -6.580548 -7.935309 -0.8349 -0.0987 -0.065 1.572367 -1.374272 1.347743 -5.684896 6.284286 -4.984461 0.8984 -0.3101 0.515 0.8632667

-2.34677 0.46897 2.551671 0.101043 -6.36669 -8.403246 -0.8793 0.1389 0.1709 1.572367 -1.374272 1.347743 -5.684896 6.284286 -4.984461 0.8984 -0.3101 0.515 0.8632667

-2.34677 0.46897 2.551671 0.101043 -6.36669 -8.403246 -0.8793 0.1389 0.1709 1.643053 -0.1387537 0.5986479 -6.920955 5.429835 -5.704515 0.8927 -0.3296 0.4686 0.8632667

-2.199464 0.2420772 2.59321 -0.060822 -6.42555 -8.591599 -0.8344 0.1936 0.3111 1.643053 -0.1387537 0.5986479 -6.920955 5.429835 -5.704515 0.8927 -0.3296 0.4686 0.8632667

-2.382025 0.07452556 2.525666 -0.277623 -6.667858 -8.794665 -0.8344 0.1936 0.3111 1.688082 0.1855285 0.614705 -6.838551 5.233635 -5.690781 0.9107 -0.3471 0.4682 0.8632667

-2.382025 0.07452556 2.525666 -0.277623 -6.667858 -8.794665 -0.8344 0.1936 0.3111 1.53746 0.3808308 0.5473353 -6.692382 5.074713 -5.773185 0.9107 -0.3471 0.4682 0.8632667

-2.467896 0.2190388 2.376789 -0.733788 -6.645294 -8.738749 -0.756 0.2189 0.4569 1.53746 0.3808308 0.5473353 -6.692382 5.074713 -5.773185 0.9107 -0.3471 0.4682 0.605495

-2.529331 -0.03543018 2.132967 -0.630783 -6.391215 -8.599446 -0.756 0.2189 0.4569 1.29678 0.747699 0.4562291 -6.413778 4.747059 -5.972328 0.9162 -0.3384 0.4846 0.605495

-2.529331 -0.03543018 2.132967 -0.630783 -6.391215 -8.599446 -0.756 0.2189 0.4569 1.227316 1.310568 0.7031932 -6.276438 4.498867 -6.097896 0.9162 -0.3384 0.4846 0.605495

-2.617121 -0.1385791 2.144311 -0.823059 -5.602491 -8.711281 -0.654 0.2167 0.6319 1.370432 1.733636 0.9206612 -6.603111 4.405671 -6.482448 0.9144 -0.3002 0.5091 0.605495

-2.415535 -0.02024582 2.420946 -1.18701 -4.435102 -8.674002 -0.5397 0.1628 0.8059 1.370432 1.733636 0.9206612 -6.603111 4.405671 -6.482448 0.9144 -0.3002 0.5091 0.5128583

-2.415535 -0.02024582 2.420946 -1.18701 -4.435102 -8.674002 -0.5397 0.1628 0.8059 1.410226 2.242574 0.7026695 -7.0632 4.024062 -6.349032 0.9144 -0.3002 0.5091 0.5128583

-2.265263 -0.4410447 2.445381 -1.02024 -3.896532 -8.540586 -0.5397 0.1628 0.8059 1.400103 2.325128 0.2720968 -6.714945 3.780774 -5.671162 0.8752 -0.2845 0.5467 0.5128583

-2.618168 -0.9379399 2.121971 -0.81423 -3.98286 -9.064441 -0.43 0.0849 0.9351 1.400103 2.325128 0.2720968 -6.714945 3.780774 -5.671162 0.8752 -0.2845 0.5467 0.5128583

-2.618168 -0.9379399 2.121971 -0.81423 -3.98286 -9.064441 -0.43 0.0849 0.9351 0.9943141 1.709376 -0.03909538 -5.401386 3.49236 -5.659389 0.8229 -0.2826 0.6098 0.4000832

-2.705784 -0.4417428 2.037847 -1.431279 -3.403089 -9.773704 -0.43 0.0849 0.9351 0.5216789 0.6400122 0.230558 -3.746439 2.789964 -6.082201 0.8229 -0.2826 0.6098 0.4000832

-2.705784 -0.4417428 2.037847 -1.431279 -3.403089 -9.773704 -0.43 0.0849 0.9351 0.5216789 0.6400122 0.230558 -3.746439 2.789964 -6.082201 0.8229 -0.2826 0.6098 0.4000832

-1.999449 -0.1956514 2.30174 -1.682415 -2.106207 -9.96598 -0.2852 -0.0047 1.0344 0.5681046 0.3054326 0.561996 -2.447595 2.323989 -6.247989 0.7613 -0.2547 0.6923 0.4000832

-1.999449 -0.1956514 2.30174 -1.682415 -2.106207 -9.96598 -0.2852 -0.0047 1.0344 0.6640978 0.3647738 0.6562437 -1.914912 2.56041 -6.63156 0.7613 -0.2547 0.6923 0.3114741

-1.999449 -0.1956514 2.30174 -1.682415 -2.106207 -9.96598 -0.2852 -0.0047 1.0344 0.6640978 0.3647738 0.6562437 -1.914912 2.56041 -6.63156 0.7613 -0.2547 0.6923 0.3114741

-0.06405359 -0.1286308 1.992642 -1.459728 -0.736731 -11.17555 -0.066 -0.1665 1.1649 0.5358161 -0.1555088 0.6562437 -1.485234 2.576106 -7.364367 0.7019 -0.2361 0.753 0.3114741

-0.06405359 -0.1286308 1.992642 -1.459728 -0.736731 -11.17555 -0.066 -0.1665 1.1649 0.5358161 -0.1555088 0.6562437 -1.485234 2.576106 -7.364367 0.7019 -0.2361 0.753 0.3114741

-0.05759586 0.06318092 1.812175 -1.30473 -0.8348311 -11.2766 -0.066 -0.1665 1.1649 0.5358161 -0.1555088 0.6562437 -1.485234 2.576106 -7.364367 0.7019 -0.2361 0.753 0.2738824

-0.05759586 0.06318092 1.812175 -1.30473 -0.8348311 -11.2766 -0.066 -0.1665 1.1649 0.5358161 -0.1555088 0.6562437 -1.485234 2.576106 -7.364367 0.7019 -0.2361 0.753 0.2738824

-0.1870993 0.03124139 1.576381 -1.006506 -1.144827 -11.29229 0.0231 -0.227 1.2025 0.7649778 0.6421067 -0.1040216 -2.398545 2.26611 -8.421885 0.6541 -0.221 0.7881 0.2738824

-0.1802925 0.1518436 1.298525 -0.819135 -1.169352 -11.32074 0.0944 -0.2635 1.2183 0.7649778 0.6421067 -0.1040216 -2.398545 2.26611 -8.421885 0.6541 -0.221 0.7881 0.2738824

0.03159046 0.2138028 1.147205 -0.602334 -0.956475 -11.1834 0.0944 -0.2635 1.2183 0.6593854 0.6963864 -0.4043928 -2.017917 2.035575 -8.527833 0.6344 -0.2082 0.8029 0.2282354

0.03159046 0.2138028 1.147205 -0.602334 -0.956475 -11.1834 0.0944 -0.2635 1.2183 0.6780604 0.7353072 -0.1178097 -1.468557 1.987506 -8.742672 0.6344 -0.2082 0.8029 0.2282354

0.2260201 0.0980875 1.006706 -0.325692 -0.778914 -11.04606 0.1435 -0.286 1.2462 0.6780604 0.7353072 -0.1178097 -1.468557 1.987506 -8.742672 0.6344 -0.2082 0.8029 0.2282354

0.5864306 0.2298599 0.8920378 -0.306072 -0.364932 -10.90382 0.1435 -0.286 1.2462 0.7019714 0.4124213 -0.003141593 -0.910368 1.924722 -8.751501 0.6105 -0.196 0.835 0.1960139

0.5864306 0.2298599 0.8920378 -0.306072 -0.364932 -10.90382 0.1435 -0.286 1.2462 0.6866125 0.2549926 -0.01850049 -0.567999 1.813869 -8.789761 0.5874 -0.1638 0.8578 0.1960139
