0.1855285 0.1206023 0.04153884 0.9260641 0.650403 -9.890443 0.0348 -0.241 1.2611 0.002443461 -0.04101523 0.00122173 -1.170333 0.136359 -8.852545 0.5896 -0.013 0.8501 0.02550866

0.07609636 0.0694641 -0.01099557 1.024164 0.359046 -9.738387 0.0348 -0.241 1.2611 0.02565634 -0.09197885 -0.01291544 -1.154637 0.110853 -8.824096 0.5896 -0.013 0.8501 0.02550866

0.07609636 0.0694641 -0.01099557 1.024164 0.359046 -9.738387 0.0348 -0.241 1.2611 0.02565634 -0.09197885 -0.01291544 -1.154637 0.110853 -8.824096 0.5896 -0.013 0.8501 0.02550866

0.07609636 0.0694641 -0.01099557 1.024164 0.359046 -9.738387 0.0348 -0.241 1.2611 0.02565634 -0.09197885 -0.01291544 -1.154637 0.110853 -8.824096 0.5896 -0.013 0.8501 0.02550866

0.07609636 0.0694641 -0.01099557 1.024164 0.359046 -9.738387 0.0348 -0.241 1.2611 0.02565634 -0.09197885 -0.01291544 -1.154637 0.110853 -8.824096 0.5896 -0.013 0.8501 0.02550866

-0.001919862 0.0132645 -0.02949606 1.032012 0.273699 -9.785476 0.0208 -0.2412 1.2507 0.0003490658 0.08534659 -0.03211406 -1.256661 0.134397 -8.852545 0.5881 -0.0302 0.8789 0.02550866

0.004014257 0.07819075 -0.02775074 0.958437 0.305091 -9.781551 0.0208 -0.2412 1.2507 0.0003490658 0.08534659 -0.03211406 -1.256661 0.134397 -8.852545 0.5881 -0.0302 0.8789 0.1248582

0.004014257 0.07819075 -0.02775074 0.958437 0.305091 -9.781551 0.0208 -0.2412 1.2507 0.0003490658 0.08534659 -0.03211406 -1.256661 0.134397 -8.852545 0.5881 -0.0302 0.8789 0.1248582

0.004014257 0.07819075 -0.02775074 0.958437 0.305091 -9.781551 0.0208 -0.2412 1.2507 0.03246313 -0.06894051 0.05846853 -2.61927 -0.436545 -8.499384 0.7151 0.0205 0.7898 0.1248582

-0.04921828 0.03124139 -0.01884956 0.816192 -0.682776 -9.726616 0.0441 -0.1517 1.222 0.01012291 0.06841691 0.01308997 -2.700693 -0.468918 -8.487612 0.7262 0.0374 0.7919 0.1248582

-0.140499 0.08028515 -0.04939282 0.783819 -0.7955911 -9.68247 0.0413 -0.1542 1.2133 0.02268928 -0.001745329 0.0122173 -2.842938 -0.499329 -8.480745 0.7262 0.0374 0.7919 0.1248582

-0.140499 0.08028515 -0.04939282 0.783819 -0.7955911 -9.68247 0.0413 -0.1542 1.2133 0.02268928 -0.001745329 0.0122173 -2.842938 -0.499329 -8.480745 0.7262 0.0374 0.7919 0.1248582

-0.07068584 0.08936086 -0.0593412 0.793629 -0.670023 -9.634401 0.0432 -0.1756 1.1991 0.01134464 0.004537856 0.01675516 -2.798793 -0.478728 -8.473878 0.7243 0.0558 0.7998 0.1248582

0.01361357 0.04939282 0.00837758 0.830907 -0.543474 -9.588294 0.0432 -0.1756 1.1991 -0.01675516 0.02670354 0.01605703 -2.822337 -0.511101 -8.453278 0.7213 0.048 0.7963 0.1248582

-0.01256637 0.03822271 0.003665191 0.8475841 -0.625878 -9.538263 0.0504 -0.1812 1.2063 -0.005061455 -0.07435103 0.0296706 -2.783097 -0.530721 -8.461125 0.7213 0.048 0.7963 0.1248582

-0.01256637 0.03822271 0.003665191 0.8475841 -0.625878 -9.538263 0.0504 -0.1812 1.2063 -0.005061455 -0.07435103 0.0296706 -2.783097 -0.530721 -8.461125 0.7213 0.048 0.7963 0.1248582

-0.01256637 0.03822271 0.003665191 0.8475841 -0.625878 -9.538263 0.0504 -0.1812 1.2063 -0.003316126 0.0008726646 0.02949606 -2.683035 -0.472842 -8.496442 0.7242 0.0397 0.7804 0.1248582

-0.002792527 0.0270526 -0.002094395 0.82404 -0.364932 -9.655984 0.0187 -0.1529 1.2042 -0.0153589 0.03560472 0.002094395 -2.787021 -0.499329 -8.457201 0.7242 0.0397 0.7804 0.1275433

-0.1239184 -0.03176499 -0.05183628 0.857394 -0.548379 -9.600066 0.0187 -0.1529 1.2042 -0.003665191 -0.03263766 0.04101523 -2.840976 -0.514044 -8.42581 0.7255 0.0454 0.7691 0.1275433

-0.005759587 -0.07173304 -0.07278023 0.898596 -0.7171111 -9.57358 0.0183 -0.1581 1.227 -0.02199115 -0.01762783 0.007853981 -2.781135 -0.466956 -8.430714 0.7255 0.0454 0.7691 0.1275433

-0.005759587 -0.07173304 -0.07278023 0.898596 -0.7171111 -9.57358 0.0183 -0.1581 1.227 -0.02199115 -0.01762783 0.007853981 -2.781135 -0.466956 -8.430714 0.7255 0.0454 0.7691 0.1275433

0.06143559 0.006108652 -0.06998771 0.915273 -0.636669 -9.637344 0.0183 -0.1581 1.227 -0.02129302 0.02164208 -0.005759587 -2.781135 -0.498348 -8.493499 0.7329 0.0501 0.7714 0.1275433

0.02216568 0.07173304 -0.01186824 0.845622 -0.511101 -9.804114 0.0188 -0.1552 1.2392 -0.01832596 -0.04276057 0.02897247 -2.765439 -0.450279 -8.542548 0.7329 0.0501 0.7714 0.1275433

0.00418879 0.07033677 -0.01815142 0.775971 -0.464994 -9.885537 0.0188 -0.1552 1.2392 -0.01117011 -0.02949606 0.03246313 -2.693826 -0.464994 -8.540586 0.7404 0.0474 0.7818 0.1262007

0.00418879 0.07033677 -0.01815142 0.775971 -0.464994 -9.885537 0.0188 -0.1552 1.2392 -0.01117011 -0.02949606 0.03246313 -2.693826 -0.464994 -8.540586 0.7404 0.0474 0.7818 0.1262007

-0.01640609 -0.00296706 -0.05340707 0.788724 -0.530721 -9.809019 0.0213 -0.1517 1.2417 -0.01064651 0.02199115 -0.01134464 -2.778192 -0.448317 -8.508213 0.7404 0.0474 0.7818 0.1262007

-0.04660029 -0.001570796 -0.07714356 0.8779951 -0.636669 -9.714844 0.0101 -0.1536 1.2296 -0.01343904 0.00296706 0.0003490658 -2.862558 -0.416925 -8.513119 0.7322 0.0349 0.7791 0.1262007

0.04101523 0.0439823 -0.05550147 0.8613181 -0.642555 -9.723672 0.0101 -0.1536 1.2296 -0.006283185 -0.0827286 0.02460914 -2.772306 -0.378666 -8.545491 0.7289 0.0434 0.778 0.1262007

0.04101523 0.0439823 -0.05550147 0.8613181 -0.642555 -9.723672 0.0101 -0.1536 1.2296 -0.006283185 -0.0827286 0.02460914 -2.772306 -0.378666 -8.545491 0.7289 0.0434 0.778 0.1262007

0.1024508 0.08901179 -0.0572468 0.806382 -0.541512 -9.74133 0.0172 -0.1544 1.2245 -0.01082104 0.005759587 0.01850049 -2.692845 -0.398286 -8.545491 0.7289 0.0434 0.778 0.1262007

0.029147 0.0837758 -0.05148721 0.785781 -0.532683 -9.693261 0.0172 -0.1544 1.2245 -0.02129302 0.03682645 -0.01064651 -2.801736 -0.413001 -8.551377 0.7388 0.0538 0.7751 0.1262007

-0.0003490658 0.05846853 -0.1099557 0.805401 -0.6356881 -9.581428 0.0162 -0.155 1.2355 -0.03176499 -0.05078908 0.01082104 -2.785059 -0.398286 -8.50429 0.7388 0.0538 0.7751 0.1262007

-0.0003490658 0.05846853 -0.1099557 0.805401 -0.6356881 -9.581428 0.0162 -0.155 1.2355 -0.03176499 -0.05078908 0.01082104 -2.785059 -0.398286 -8.50429 0.7388 0.0538 0.7751 0.131571

0.150971 0.005061455 -0.1219985 0.8564131 -0.732807 -9.410733 0.0162 -0.155 1.2355 -0.04729842 -0.03630285 0.01151917 -2.680092 -0.419868 -8.476821 0.7383 0.0445 0.7597 0.131571

0.2389356 0.03577925 -0.1466077 0.8652421 -0.7651801 -9.252792 -0.0054 -0.1522 1.2322 -0.0541052 -0.01448623 -0.01396263 -2.708541 -0.407115 -8.419923 0.7383 0.0445 0.7597 0.131571

0.2288126 0.02391101 -0.2401573 0.7965721 -0.896634 -9.135073 -0.0054 -0.1522 1.2322 -0.1041962 -0.106116 -0.01745329 -2.693826 -0.407115 -8.380684 0.7254 0.0451 0.7626 0.131571

0.2288126 0.02391101 -0.2401573 0.7965721 -0.896634 -9.135073 -0.0054 -0.1522 1.2322 -0.1041962 -0.106116 -0.01745329 -2.693826 -0.407115 -8.380684 0.7254 0.0451 0.7626 0.1409689

0.2949606 -0.02024582 -0.304909 0.759294 -1.172295 -9.012447 0.002 -0.1447 1.215 -0.1342158 -0.2104867 0.02687807 -2.519208 -0.445374 -8.336538 0.7254 0.0451 0.7626 0.1409689

0.344528 -0.04049164 -0.3843215 0.770085 -1.350837 -8.869222 0.002 -0.1447 1.215 -0.1848304 -0.2509784 0.03525565 -2.412279 -0.397305 -8.2404 0.7148 0.0499 0.7734 0.1409689

0.2897246 0.02460914 -0.514174 0.763218 -1.626498 -8.776026 0.0088 -0.1439 1.2103 -0.1998402 -0.3085742 -0.004886922 -2.404431 -0.337464 -8.172711 0.7148 0.0499 0.7734 0.1409689

0.2897246 0.02460914 -0.514174 0.763218 -1.626498 -8.776026 0.0088 -0.1439 1.2103 -0.1998402 -0.3085742 -0.004886922 -2.404431 -0.337464 -8.172711 0.7148 0.0499 0.7734 0.1691627

0.4455826 0.0280998 -0.691674 0.709263 -1.910007 -8.724033 0.0088 -0.1439 1.2103 -0.2776819 -0.4042183 -0.07557275 -2.375982 -0.327654 -8.082459 0.7217 0.0497 0.7898 0.1691627

0.5717698 0.008726646 -0.8751081 0.668061 -2.098359 -8.621028 -0.0008 -0.1494 1.211 -0.320966 -0.5522221 -0.04485496 -2.238642 -0.385533 -7.991226 0.7312 0.0427 0.78 0.1691627

0.5717698 0.008726646 -0.8751081 0.668061 -2.098359 -8.621028 -0.0008 -0.1494 1.211 -0.3745476 -0.6466445 0.09162979 -2.132694 -0.33354 -7.924518 0.7312 0.0427 0.78 0.1691627

0.5717698 0.008726646 -0.8751081 0.668061 -2.098359 -8.621028 -0.0008 -0.1494 1.211 -0.3745476 -0.6466445 0.09162979 -2.132694 -0.33354 -7.924518 0.7312 0.0427 0.78 0.2134672

0.6805039 -0.1137955 -0.9993755 0.474804 -1.90314 -8.533719 -0.0614 -0.1215 1.1763 -0.4380777 -0.7072074 0.2043781 -2.161143 -0.246231 -7.814646 0.7487 0.0444 0.7665 0.2134672

0.6778859 -0.1577778 -1.070236 0.512082 -2.098359 -8.627895 -0.0614 -0.1215 1.1763 -0.4721116 -0.8049458 0.3705334 -2.290635 -0.223668 -7.784235 0.7487 0.0444 0.7665 0.2134672

0.6914994 -0.1874484 -1.177225 0.481671 -2.27592 -8.776026 -0.0818 -0.085 1.1624 -0.4721116 -0.8049458 0.3705334 -2.290635 -0.223668 -7.784235 0.7487 0.0444 0.7665 0.2134672

0.6914994 -0.1874484 -1.177225 0.481671 -2.27592 -8.776026 -0.0818 -0.085 1.1624 -0.4721116 -0.8049458 0.3705334 -2.290635 -0.223668 -7.784235 0.7487 0.0444 0.7665 0.287308

0.7770206 -0.1321214 -1.220509 0.396324 -2.297502 -8.978112 -0.0818 -0.085 1.1624 -0.72117 -1.053306 0.3351032 -3.486474 0.310977 -7.492878 0.8074 -0.0147 0.7156 0.287308

0.8859291 -0.08098327 -1.190664 0.373761 -2.279844 -9.080136 -0.117 -0.0483 1.1617 -0.7705629 -1.000772 0.3131121 -3.84552 0.422811 -7.467372 0.8074 -0.0147 0.7156 0.287308

0.8859291 -0.08098327 -1.190664 0.373761 -2.279844 -9.080136 -0.117 -0.0483 1.1617 -0.7705629 -1.000772 0.3131121 -3.84552 0.422811 -7.467372 0.8074 -0.0147 0.7156 0.3275849

0.8824385 -0.07435103 -1.163087 0.423792 -2.369115 -9.069345 -0.117 -0.0483 1.1617 -0.7927285 -0.8672541 0.3361504 -4.27716 0.672966 -7.391835 0.8272 -0.046 0.6851 0.3275849

0.9471902 -0.2647665 -1.171465 0.607239 -2.484873 -9.073269 -0.1629 -0.0171 1.1431 -0.8525933 -0.7365289 0.3621558 -4.637187 0.809325 -7.353576 0.8622 -0.0727 0.644 0.3275849

1.036726 -0.3460988 -1.119978 0.6621751 -2.612403 -9.194914 -0.1629 -0.0171 1.1431 -0.8869763 -0.6340781 0.3286455 -4.966803 1.004544 -7.294716 0.8622 -0.0727 0.644 0.3275849

1.036726 -0.3460988 -1.119978 0.6621751 -2.612403 -9.194914 -0.1629 -0.0171 1.1431 -0.856084 -0.408407 0.2858849 -5.2974 1.26549 -7.311393 0.895 -0.1163 0.6123 0.3275849

1.133417 -0.2778564 -1.127134 0.630783 -2.793888 -9.282223 -0.2058 0.0147 1.0959 -0.856084 -0.408407 0.2858849 -5.2974 1.26549 -7.311393 0.895 -0.1163 0.6123 0.3275849

1.130973 -0.2605776 -1.151917 0.621954 -3.07053 -9.372475 -0.2058 0.0147 1.0959 -0.8363618 -0.2309071 0.2249729 -5.45436 1.413621 -7.293735 0.895 -0.1163 0.6123 0.3275849

1.130973 -0.2605776 -1.151917 0.621954 -3.07053 -9.372475 -0.2058 0.0147 1.0959 -0.882613 -0.1872738 0.166679 -5.502429 1.567638 -7.106364 0.9121 -0.1514 0.5768 0.3275849

1.090133 -0.2522001 -1.144063 0.606258 -3.343248 -9.469594 -0.2398 0.0378 1.0652 -0.8864527 -0.158825 0.1391027 -5.514201 1.818774 -6.982758 0.9121 -0.1514 0.5768 0.3275849

1.090133 -0.2522001 -1.144063 0.606258 -3.343248 -9.469594 -0.2398 0.0378 1.0652 -0.8864527 -0.158825 0.1391027 -5.514201 1.818774 -6.982758 0.9121 -0.1514 0.5768 0.1773523

1.090133 -0.2522001 -1.144063 0.606258 -3.343248 -9.469594 -0.2398 0.0378 1.0652 -0.837409 -0.04153884 0.150971 -5.502429 2.045385 -7.024941 0.9292 -0.1723 0.5604 0.1773523

1.090133 -0.2522001 -1.144063 0.606258 -3.343248 -9.469594 -0.2398 0.0378 1.0652 -0.8754572 -0.04834562 0.1441642 -5.435721 2.162124 -6.970986 0.9292 -0.1723 0.5604 0.1773523

1.256462 -0.5035275 -1.261 0.888786 -4.260483 -9.230229 -0.3194 0.1274 0.9851 -0.9447467 -0.1206023 0.1551598 -5.409235 2.317122 -6.853266 0.9357 -0.1937 0.5587 0.1773523

1.280548 -0.4153883 -1.251052 0.900558 -4.379184 -9.225325 -0.3553 0.1673 0.9442 -0.9447467 -0.1206023 0.1551598 -5.409235 2.317122 -6.853266 0.9357 -0.1937 0.5587 0.1773523

1.280548 -0.4153883 -1.251052 0.900558 -4.379184 -9.225325 -0.3553 0.1673 0.9442 -0.9313077 -0.1228712 0.1635374 -5.46417 2.572182 -6.865038 0.9315 -0.2198 0.5265 0.1773523

1.343205 -0.5309291 -1.193282 0.8691661 -4.45374 -9.207666 -0.3553 0.1673 0.9442 -0.9086185 -0.02094395 0.1487021 -5.576005 2.769363 -6.850323 0.9315 -0.2198 0.5265 0.6014673

1.510757 -0.7531096 -1.184031 1.10853 -4.526334 -9.009504 -0.388 0.2017 0.8763 -0.9155997 0.01850049 0.1445132 -5.64075 2.946924 -6.773806 0.9364 -0.2412 0.5116 0.6014673

1.510757 -0.7531096 -1.184031 1.10853 -4.526334 -9.009504 -0.388 0.2017 0.8763 -0.9155997 0.01850049 0.1445132 -5.64075 2.946924 -6.773806 0.9364 -0.2412 0.5116 0.6014673

1.996133 -0.9372418 -1.202357 1.308654 -4.638168 -8.759349 -0.388 0.2017 0.8763 -0.9531243 -0.01884956 0.1082104 -5.694705 3.094074 -6.74928 0.9364 -0.2412 0.5116 0.6014673

2.170841 -0.951728 -1.077392 1.39302 -4.73823 -8.620048 -0.4201 0.2378 0.8068 -0.9477138 0.04625123 0.04764749 -5.80752 3.212775 -6.809122 0.936 -0.2841 0.5076 0.6014673

2.170841 -0.951728 -1.077392 1.39302 -4.73823 -8.620048 -0.4201 0.2378 0.8068 -0.9477138 0.04625123 0.04764749 -5.80752 3.212775 -6.809122 0.936 -0.2841 0.5076 0.6014673

2.251824 -0.8524188 -0.9014626 1.376343 -4.845159 -8.641629 -0.4201 0.2378 0.8068 -0.9477138 0.04625123 0.04764749 -5.80752 3.212775 -6.809122 0.936 -0.2841 0.5076 0.6860487

2.311339 -0.8196066 -0.7871435 1.306692 -4.985442 -8.599446 -0.4589 0.2864 0.7284 -0.9477138 0.04625123 0.04764749 -5.80752 3.212775 -6.809122 0.936 -0.2841 0.5076 0.6860487

2.311339 -0.8196066 -0.7871435 1.306692 -4.985442 -8.599446 -0.4589 0.2864 0.7284 -0.9477138 0.04625123 0.04764749 -5.80752 3.212775 -6.809122 0.936 -0.2841 0.5076 0.6860487

2.175029 -0.771261 -0.6965609 1.24587 -5.32683 -8.403246 -0.4965 0.3358 0.6403 -0.9213593 0.132645 -0.3054326 -5.79771 3.848463 -6.237198 0.9224 -0.3174 0.4593 0.6860487

1.998227 -0.7698647 -0.6459463 1.152675 -5.851665 -8.153091 -0.4965 0.3358 0.6403 -0.9307841 0.06161012 -0.3387684 -5.60151 3.996594 -6.175395 0.9224 -0.3174 0.4593 0.7209553

1.998227 -0.7698647 -0.6459463 1.152675 -5.851665 -8.153091 -0.4965 0.3358 0.6403 -0.9307841 0.06161012 -0.3387684 -5.60151 3.996594 -6.175395 0.9224 -0.3174 0.4593 0.7209553

1.791929 -0.7274532 -0.5717698 1.188972 -6.352956 -7.910784 -0.5193 0.3786 0.5472 -0.9354964 0.03996804 -0.4085816 -5.46319 4.14963 -6.193053 0.9255 -0.3405 0.4522 0.7209553

1.791929 -0.7274532 -0.5717698 1.188972 -6.352956 -7.910784 -0.5193 0.3786 0.5472 -0.9745919 -0.004886922 -0.4562291 -5.437683 4.235958 -6.168528 0.9255 -0.3405 0.4522 0.7209553

1.791929 -0.7274532 -0.5717698 1.188972 -6.352956 -7.910784 -0.5193 0.3786 0.5472 -0.9541715 0.0270526 -0.4567527 -5.533822 4.358583 -6.036093 0.9132 -0.3671 0.4356 0.7384086

1.791929 -0.7274532 -0.5717698 1.188972 -6.352956 -7.910784 -0.5193 0.3786 0.5472 -0.9541715 0.0270526 -0.4567527 -5.533822 4.358583 -6.036093 0.9132 -0.3671 0.4356 0.7384086

1.676389 -0.5124287 -0.3316126 0.953532 -7.770502 -6.970006 -0.5617 0.4368 0.3124 -0.8494517 0.1649336 -0.4616396 -5.678029 4.546935 -5.980176 0.9212 -0.3696 0.4193 0.7384086

1.676389 -0.5124287 -0.3316126 0.953532 -7.770502 -6.970006 -0.5617 0.4368 0.3124 -0.7428122 0.3213151 -0.4909611 -5.818311 4.758831 -6.029226 0.9212 -0.3696 0.4193 0.7384086

1.665742 -0.2808235 -0.2825688 0.780876 -7.921576 -6.80814 -0.5695 0.4517 0.1969 -0.7853982 0.2752384 -0.5440191 -5.839893 4.878513 -5.989005 0.9423 -0.3661 0.3983 0.7451214

1.581617 -0.1841322 -0.2049017 0.768123 -8.142301 -6.488335 -0.5695 0.4517 0.1969 -0.8937831 0.01553343 -0.5131268 -5.669199 4.931487 -5.737869 0.9423 -0.3661 0.3983 0.7451214

1.581617 -0.1841322 -0.2049017 0.768123 -8.142301 -6.488335 -0.5695 0.4517 0.1969 -0.8937831 0.01553343 -0.5131268 -5.669199 4.931487 -5.737869 0.9423 -0.3661 0.3983 0.7451214

1.522451 -0.2443461 -0.1345649 0.956475 -8.391475 -6.185205 -0.5815 0.4572 0.0696 -0.8937831 0.01553343 -0.5131268 -5.669199 4.931487 -5.737869 0.9423 -0.3661 0.3983 0.7451214

1.522451 -0.2443461 -0.1345649 0.956475 -8.391475 -6.185205 -0.5815 0.4572 0.0696 -0.8937831 0.01553343 -0.5131268 -5.669199 4.931487 -5.737869 0.9423 -0.3661 0.3983 0.7478065

1.359088 -0.2670354 -0.1410226 1.025145 -8.698527 -5.999796 -0.594 0.4564 -0.0378 -0.8937831 0.01553343 -0.5131268 -5.669199 4.931487 -5.737869 0.9423 -0.3661 0.3983 0.7478065

0.8779006 -0.06318092 -0.08080874 0.916254 -9.09289 -6.05277 -0.594 0.4564 -0.0378 -0.8937831 0.01553343 -0.5131268 -5.669199 4.931487 -5.737869 0.9423 -0.3661 0.3983 0.7478065

0.8000589 0.1520182 -0.01553343 0.9113491 -9.056593 -6.072391 -0.5845 0.4369 -0.1452 -0.6344271 0.1600467 -0.5490806 -5.666256 5.359203 -5.652522 0.953 -0.3292 0.3164 0.7478065

0.8000589 0.1520182 -0.01553343 0.9113491 -9.056593 -6.072391 -0.5845 0.4369 -0.1452 -0.5513495 0.1532399 -0.5173156 -5.725116 5.411196 -5.616225 0.953 -0.3292 0.3164 0.7437788

1.108982 0.2178171 -0.001745329 1.097739 -8.764255 -5.852646 -0.5845 0.4369 -0.1452 -0.5595526 0.1232202 -0.5152212 -5.755527 5.345469 -5.555403 0.9784 -0.3037 0.3123 0.7437788

1.167451 0.2663372 0.09058259 1.158561 -8.791722 -5.566194 -0.5563 0.4006 -0.235 -0.5595526 0.1232202 -0.5152212 -5.755527 5.345469 -5.555403 0.9784 -0.3037 0.3123 0.7437788

0.7515388 0.3188716 0.121824 1.201725 -9.159597 -5.303286 -0.5563 0.4006 -0.235 -0.5848598 0.01064651 -0.5675811 -5.693724 5.374899 -5.498506 0.9784 -0.3037 0.3123 0.7437788

0.7515388 0.3188716 0.121824 1.201725 -9.159597 -5.303286 -0.5563 0.4006 -0.235 -0.5414011 -0.0720821 -0.5969026 -5.672142 5.478885 -5.511258 0.9945 -0.2969 0.3202 0.727668

0.4485496 0.4291764 0.09320059 1.193877 -9.396999 -5.126706 -0.5294 0.3515 -0.2953 -0.5414011 -0.0720821 -0.5969026 -5.672142 5.478885 -5.511258 0.9945 -0.2969 0.3202 0.727668

0.4190536 0.498466 0.004712389 1.188972 -9.369532 -4.970727 -0.5294 0.3515 -0.2953 -0.4576253 -0.02007129 -0.6541494 -5.763375 5.505373 -5.535783 0.9945 -0.2969 0.3202 0.727668

0.3104941 0.6689847 0.05113815 1.089891 -9.362664 -4.873608 -0.4943 0.3034 -0.3637 -0.3940953 0.05585054 -0.6901032 -5.909544 5.497524 -5.455341 0.9917 -0.2988 0.3139 0.727668

0.3104941 0.6689847 0.05113815 1.089891 -9.362664 -4.873608 -0.4943 0.3034 -0.3637 -0.3358013 0.08726646 -0.6728244 -6.006663 5.528916 -5.374899 0.9907 -0.2728 0.3066 0.6847061

0.3495895 0.6653195 0.1380555 1.174257 -9.237097 -4.633263 -0.4552 0.2635 -0.4233 -0.3358013 0.08726646 -0.6728244 -6.006663 5.528916 -5.374899 0.9907 -0.2728 0.3066 0.6847061

0.3220133 0.8363618 0.2068215 1.038879 -9.189027 -4.493961 -0.4552 0.2635 -0.4233 -0.3358013 0.08726646 -0.6728244 -6.006663 5.528916 -5.374899 0.9907 -0.2728 0.3066 0.6847061

0.3752458 0.941256 0.2104867 1.047708 -9.173331 -4.300704 -0.39 0.2079 -0.4432 -0.3358013 0.08726646 -0.6728244 -6.006663 5.528916 -5.374899 0.9907 -0.2728 0.3066 0.6847061

0.3752458 0.941256 0.2104867 1.047708 -9.173331 -4.300704 -0.39 0.2079 -0.4432 -0.3358013 0.08726646 -0.6728244 -6.006663 5.528916 -5.374899 0.9907 -0.2728 0.3066 0.6511421

0.2834415 0.8480555 0.1802925 1.151694 -9.332253 -4.032891 -0.39 0.2079 -0.4432 -0.2082178 0.003665191 -0.6300638 -5.878152 5.245407 -5.223825 1.0079 -0.2041 0.2885 0.6511421

-0.09372418 1.233599 0.2633702 0.936855 -9.365607 -4.171212 -0.2921 0.1538 -0.4407 -0.1415462 0.02635447 -0.6246533 -5.904639 5.266008 -5.213035 1.0079 -0.2041 0.2885 0.6511421

-0.09372418 1.233599 0.2633702 0.936855 -9.365607 -4.171212 -0.2921 0.1538 -0.4407 -0.1415462 0.02635447 -0.6246533 -5.904639 5.266008 -5.213035 1.0079 -0.2041 0.2885 0.6511421

0.1874484 0.8850564 0.349764 1.173276 -8.981055 -3.918114 -0.2921 0.1538 -0.4407 -0.1267109 0.02775074 -0.612087 -5.917392 5.245407 -5.197338 1.0246 -0.1914 0.2817 0.6068376

0.3666937 0.8625417 0.3447025 1.099701 -8.902575 -3.853368 -0.1961 0.1126 -0.4396 -0.105767 -0.0153589 -0.5494297 -5.916411 5.155155 -5.118858 1.0246 -0.1914 0.2817 0.6068376

0.2286381 1.063778 0.2989749 0.763218 -9.173331 -3.84552 -0.1961 0.1126 -0.4396 -0.1347394 -0.04869469 -0.4747296 -5.886981 5.084523 -5.030568 1.0439 -0.1736 0.2515 0.6068376

0.2286381 1.063778 0.2989749 0.763218 -9.173331 -3.84552 -0.1961 0.1126 -0.4396 -0.1347394 -0.04869469 -0.4747296 -5.886981 5.084523 -5.030568 1.0439 -0.1736 0.2515 0.6068376

0.2551671 1.10043 0.2979277 0.7318261 -9.184123 -3.524733 -0.1134 0.0823 -0.4392 -0.1392773 -0.1146681 -0.4543092 -5.823216 5.01291 -4.998196 1.0439 -0.1736 0.2515 0.5585054

0.3384193 0.8192575 0.3108431 0.949608 -9.24102 -3.047967 -0.0205 0.0567 -0.4257 -0.1150172 -0.1895428 -0.4127704 -5.715306 4.932468 -5.02272 1.0579 -0.1466 0.2239 0.5585054

0.3166027 0.6480408 0.2405064 0.9810001 -9.321463 -2.760534 -0.0205 0.0567 -0.4257 -0.1150172 -0.1895428 -0.4127704 -5.715306 4.932468 -5.02272 1.0579 -0.1466 0.2239 0.5585054

0.3166027 0.6480408 0.2405064 0.9810001 -9.321463 -2.760534 -0.0205 0.0567 -0.4257 -0.1473058 -0.2586578 -0.3427826 -5.698629 4.834368 -5.020758 1.0579 -0.1466 0.2239 0.5585054

0.4099778 0.4317944 0.2171189 1.061442 -9.333234 -2.486835 0.0573 0.0254 -0.396 -0.1520182 -0.2644174 -0.3050835 -5.784957 4.726458 -5.009967 1.0507 -0.1261 0.2355 0.5303116

0.3961897 0.225322 0.2321288 1.073214 -9.399942 -2.255319 0.0573 0.0254 -0.396 -0.1520182 -0.2644174 -0.3050835 -5.784957 4.726458 -5.009967 1.0507 -0.1261 0.2355 0.5303116

0.6963864 0.03560472 0.2171189 0.8907481 -9.253774 -2.198421 0.1427 -0.0207 -0.3624 -0.1520182 -0.2644174 -0.3050835 -5.784957 4.726458 -5.009967 1.0507 -0.1261 0.2355 0.5303116

0.6963864 0.03560472 0.2171189 0.8907481 -9.253774 -2.198421 0.1427 -0.0207 -0.3624 -0.1520182 -0.2644174 -0.3050835 -5.784957 4.726458 -5.009967 1.0507 -0.1261 0.2355 0.5182285

0.919614 0.6433284 0.2176426 0.409077 -9.159597 -2.902779 0.1427 -0.0207 -0.3624 0.04328417 0.1233948 -0.190939 -6.315679 4.719591 -4.817691 1.0325 -0.0839 0.2065 0.5182285

0.4441863 0.2897246 0.2132792 0.9515701 -9.649117 -2.431899 0.221 -0.0619 -0.327 0.04328417 0.1233948 -0.190939 -6.315679 4.719591 -4.817691 1.0325 -0.0839 0.2065 0.5182285

0.4441863 0.2897246 0.2132792 0.9515701 -9.649117 -2.431899 0.221 -0.0619 -0.327 -0.03473205 0.0148353 -0.1528908 -6.23916 4.559688 -4.818672 1.029 -0.0609 0.1931 0.4940625

0.2752384 0.2539454 0.07557275 0.772047 -9.764874 -2.321046 0.221 -0.0619 -0.327 -0.07033677 -0.03193953 -0.1776745 -6.136156 4.474341 -4.89519 1.0429 -0.0533 0.1897 0.4940625

0.2752384 0.2539454 0.07557275 0.772047 -9.764874 -2.321046 0.221 -0.0619 -0.327 -0.07033677 -0.03193953 -0.1776745 -6.136156 4.474341 -4.89519 1.0429 -0.0533 0.1897 0.4940625

0.2752384 0.2539454 0.07557275 0.772047 -9.764874 -2.321046 0.221 -0.0619 -0.327 -0.15132 -0.1103048 -0.1717404 -6.067485 4.426272 -4.762755 1.0429 -0.0533 0.1897 0.483322

0.2752384 0.2539454 0.07557275 0.772047 -9.764874 -2.321046 0.221 -0.0619 -0.327 -0.1480039 -0.158825 -0.1048943 -6.090048 4.559688 -4.705857 1.0446 -0.041 0.1835 0.483322

0.2752384 0.2539454 0.07557275 0.772047 -9.764874 -2.321046 0.221 -0.0619 -0.327 -0.1480039 -0.158825 -0.1048943 -6.090048 4.559688 -4.705857 1.0446 -0.041 0.1835 0.483322

0.2752384 0.2539454 0.07557275 0.772047 -9.764874 -2.321046 0.221 -0.0619 -0.327 -0.05829399 -0.1066396 -0.07487462 -6.147927 4.668579 -4.756869 1.0446 -0.041 0.1835 0.4685538

0.2752384 0.2539454 0.07557275 0.772047 -9.764874 -2.321046 0.221 -0.0619 -0.327 -0.04886922 -0.130027 -0.06283185 -6.171472 4.592062 -4.793166 1.0388 -0.0108 0.188 0.4685538

0.2752384 0.2539454 0.07557275 0.772047 -9.764874 -2.321046 0.221 -0.0619 -0.327 -0.04886922 -0.130027 -0.06283185 -6.171472 4.592062 -4.793166 1.0388 -0.0108 0.188 0.4685538

0.2752384 0.2539454 0.07557275 0.772047 -9.764874 -2.321046 0.221 -0.0619 -0.327 -0.09267698 -0.1843068 -0.01797689 -6.178339 4.587156 -4.807881 1.0388 -0.0108 0.188 0.4685538

0.2752384 0.2539454 0.07557275 0.772047 -9.764874 -2.321046 0.221 -0.0619 -0.327 -0.09267698 -0.1843068 -0.01797689 -6.178339 4.587156 -4.807881 1.0388 -0.0108 0.188 0.4685538

0.2752384 0.2539454 0.07557275 0.772047 -9.764874 -2.321046 0.221 -0.0619 -0.327 -0.105767 -0.2033308 -0.006457718 -6.165585 4.608738 -4.860855 1.0273 -0.007 0.1851 0.4685538

0.2752384 0.2539454 0.07557275 0.772047 -9.764874 -2.321046 0.221 -0.0619 -0.327 -0.105767 -0.2033308 -0.006457718 -6.165585 4.608738 -4.860855 1.0273 -0.007 0.1851 0.4685538

0.3429572 0.6323328 -0.03944444 0.458127 -9.736425 -2.130732 0.2604 -0.0836 -0.3231 -0.105767 -0.2033308 -0.006457718 -6.165585 4.608738 -4.860855 1.0273 -0.007 0.1851 0.4685538

0.2167699 0.505971 0.006283185 0.458127 -9.736425 -2.130732 0.2604 -0.0836 -0.3231 -0.1679007 0.08412487 -0.05044002 -6.208749 4.55184 -4.668579 1.0312 -0.0125 0.17 0.4685538

0.2167699 0.505971 0.006283185 0.458127 -9.736425 -2.130732 0.2604 -0.0836 -0.3231 -0.1679007 0.08412487 -0.05044002 -6.208749 4.55184 -4.668579 1.0312 -0.0125 0.17 0.4685538

0.2167699 0.505971 0.006283185 0.458127 -9.736425 -2.130732 0.2604 -0.0836 -0.3231 -0.2392846 0.05323254 0.06510078 -6.048846 4.511619 -4.57146 1.0312 -0.0125 0.17 0.4752666

0.04066617 -0.2178171 -0.3073525 0.368856 -10.01601 -0.6965101 0.3758 -0.1497 -0.2628 -0.34191 -0.1050688 0.1485275 -5.93505 4.455702 -4.46355 1.0376 0.0013 0.1776 0.4752666

0.02897247 -0.4845034 -0.3738495 0.395343 -10.14943 -0.45126 0.3758 -0.1497 -0.2628 -0.4925319 -0.2450442 0.2022837 -5.843818 4.332096 -4.3164 1.0376 0.0013 0.1776 0.4752666

-0.1462586 -0.6276204 -0.4757768 0.322749 -10.39958 -0.329616 0.3876 -0.1529 -0.2389 -0.4925319 -0.2450442 0.2022837 -5.843818 4.332096 -4.3164 1.0376 0.0013 0.1776 0.4752666

-0.1462586 -0.6276204 -0.4757768 0.322749 -10.39958 -0.329616 0.3876 -0.1529 -0.2389 -0.535467 -0.214501 0.2480113 -5.947803 4.260483 -4.172193 1.0514 -0.0042 0.1784 0.5303116

-0.07138397 -0.7276278 -0.6300638 0.292338 -10.37898 -0.1962 0.3876 -0.1529 -0.2389 -0.535467 -0.214501 0.2480113 -5.947803 4.260483 -4.172193 1.0514 -0.0042 0.1784 0.5303116

0.08831366 -0.8073893 -0.6021386 0.272718 -10.24949 -0.121644 0.3803 -0.1622 -0.2142 -0.4890413 -0.006457718 0.2761111 -6.26859 4.376241 -4.111371 1.0514 -0.0042 0.1784 0.5303116

0.08831366 -0.8073893 -0.6021386 0.272718 -10.24949 -0.121644 0.3803 -0.1622 -0.2142 -0.4822344 0.116588 0.2631956 -6.675705 4.530258 -4.057416 1.0459 -0.0179 0.1623 0.5303116

0.08831366 -0.8073893 -0.6021386 0.272718 -10.24949 -0.121644 0.3803 -0.1622 -0.2142 -0.4822344 0.116588 0.2631956 -6.675705 4.530258 -4.057416 1.0459 -0.0179 0.1623 0.6108652

0.5499532 -0.9908234 -0.3207915 0.7651801 -10.24458 -0.061803 0.3432 -0.1285 -0.2034 -0.4822344 0.116588 0.2631956 -6.675705 4.530258 -4.057416 1.0459 -0.0179 0.1623 0.6108652

0.4827581 -1.129403 -0.3033382 1.037898 -10.28284 0.045126 0.3223 -0.1218 -0.1914 -0.4822344 0.116588 0.2631956 -6.675705 4.530258 -4.057416 1.0459 -0.0179 0.1623 0.6108652

0.4827581 -1.129403 -0.3033382 1.037898 -10.28284 0.045126 0.3223 -0.1218 -0.1914 -0.7154105 0.1052434 0.1492257 -7.241743 4.710762 -3.623814 1.0762 -0.0495 0.1586 0.6108652

0.4197517 -1.224872 -0.2843142 1.218402 -10.24851 0.08338501 0.3223 -0.1218 -0.1914 -0.7318165 0.1455605 0.1181588 -7.356519 4.764717 -3.522771 1.0786 -0.0598 0.1586 0.6927615

0.5351179 -1.325054 -0.3269002 1.333179 -10.11705 0.054936 0.2861 -0.1166 -0.1891 -0.7318165 0.1455605 0.1181588 -7.356519 4.764717 -3.522771 1.0786 -0.0598 0.1586 0.6927615

0.5351179 -1.325054 -0.3269002 1.333179 -10.11705 0.054936 0.2861 -0.1166 -0.1891 -0.7478735 0.2232276 0.09512044 -7.432056 4.853007 -3.407013 1.0786 -0.0598 0.1586 0.6927615

0.4495968 -1.245118 -0.3778638 1.246851 -10.11803 -0.023544 0.2861 -0.1166 -0.1891 -0.8244936 0.2293363 0.07801621 -7.452657 4.925601 -3.314799 1.0662 -0.0596 0.1492 0.6927615

0.4776966 -1.150347 -0.2865831 1.23606 -9.919872 0.053955 0.2819 -0.1095 -0.1982 -0.8244936 0.2293363 0.07801621 -7.452657 4.925601 -3.314799 1.0662 -0.0596 0.1492 0.7746577

0.4776966 -1.150347 -0.2865831 1.23606 -9.919872 0.053955 0.2819 -0.1095 -0.1982 -0.9239773 0.2392846 0.01413717 -7.485031 4.952088 -3.341286 1.0662 -0.0596 0.1492 0.7746577

0.6332054 -1.279675 -0.1069887 1.476405 -9.736425 0.126549 0.2819 -0.1095 -0.1982 -0.9115855 0.3532546 -0.05986479 -7.576263 5.064903 -3.415842 1.0676 -0.0709 0.1617 0.7746577

0.4871214 -1.397834 -0.07784168 1.69713 -9.854146 0.030411 0.2835 -0.1092 -0.1946 -0.8454375 0.5356416 -0.06143559 -7.686135 5.232654 -3.399165 1.0676 -0.0709 0.1617 0.7746577

0.4871214 -1.397834 -0.07784168 1.69713 -9.854146 0.030411 0.2835 -0.1092 -0.1946 -0.8454375 0.5356416 -0.06143559 -7.686135 5.232654 -3.399165 1.0676 -0.0709 0.1617 0.7746577

0.5244714 -1.420523 -0.09372418 1.712826 -9.746235 -0.020601 0.2642 -0.1229 -0.1769 -0.8426449 0.6183702 -0.06806784 -7.650819 5.31702 -3.320685 1.0703 -0.0871 0.1693 0.7746577

0.5314528 -1.398881 -0.0996583 1.686339 -9.709938 -0.064746 0.2642 -0.1229 -0.1769 -0.8426449 0.6183702 -0.06806784 -7.650819 5.31702 -3.320685 1.0703 -0.0871 0.1693 0.8780349

0.5314528 -1.398881 -0.0996583 1.686339 -9.709938 -0.064746 0.2642 -0.1229 -0.1769 -0.8426449 0.6183702 -0.06806784 -7.650819 5.31702 -3.320685 1.0703 -0.0871 0.1693 0.8780349

0.4548328 -1.378112 -0.1153663 1.721655 -9.731521 -0.126549 0.2633 -0.1485 -0.1548 -0.8426449 0.6183702 -0.06806784 -7.650819 5.31702 -3.320685 1.0703 -0.0871 0.1693 0.8780349

0.4548328 -1.378112 -0.1153663 1.721655 -9.731521 -0.126549 0.2633 -0.1485 -0.1548 -1.045103 0.6105161 -0.3633775 -7.27902 5.566194 -3.022461 1.0572 -0.0874 0.1997 0.8780349

0.4548328 -1.378112 -0.1153663 1.721655 -9.731521 -0.126549 0.2633 -0.1485 -0.1548 -1.045103 0.6105161 -0.3633775 -7.27902 5.566194 -3.022461 1.0572 -0.0874 0.1997 0.8780349

0.4340634 -1.431694 0.002792527 1.902159 -9.603009 -0.07455601 0.228 -0.1965 -0.0546 -1.097463 0.5862561 -0.4368559 -7.251552 5.60053 -2.958696 1.0572 -0.0874 0.1997 0.8780349

0.3801327 -1.457001 -0.02530728 1.946304 -9.695224 -0.08829 0.228 -0.1965 -0.0546 -1.097463 0.5862561 -0.4368559 -7.251552 5.60053 -2.958696 1.0572 -0.0874 0.1997 0.8780349

0.3801327 -1.457001 -0.02530728 1.946304 -9.695224 -0.08829 0.228 -0.1965 -0.0546 -1.090307 0.6309366 -0.4904375 -7.228008 5.680971 -2.939076 1.0505 -0.0828 0.2253 0.8780349

0.3537782 -1.49278 -0.08168141 2.006145 -9.694242 -0.086328 0.1774 -0.1917 -0.0343 -1.067443 0.6735225 -0.5370378 -7.214274 5.77711 -2.954772 1.0505 -0.0828 0.2253 0.9532183

0.4255112 -1.576905 -0.07400195 2.094435 -9.641269 -0.110853 0.1306 -0.1694 -0.0222 -1.052084 0.726406 -0.5763077 -7.24959 5.84676 -2.939076 1.0432 -0.0808 0.2361 0.9532183

0.4255112 -1.576905 -0.07400195 2.094435 -9.641269 -0.110853 0.1306 -0.1694 -0.0222 -1.052084 0.726406 -0.5763077 -7.24959 5.84676 -2.939076 1.0432 -0.0808 0.2361 0.9532183

0.4239405 -1.554216 -0.1027999 2.105226 -9.644212 -0.175599 0.1306 -0.1694 -0.0222 -1.052084 0.726406 -0.5763077 -7.24959 5.84676 -2.939076 1.0432 -0.0808 0.2361 0.9585885

0.4279547 -1.487544 -0.1253146 2.092473 -9.608895 -0.270756 0.0342 -0.1355 -0.0064 -1.052084 0.726406 -0.5763077 -7.24959 5.84676 -2.939076 1.0432 -0.0808 0.2361 0.9585885

0.4279547 -1.487544 -0.1253146 2.092473 -9.608895 -0.270756 0.0342 -0.1355 -0.0064 -1.052084 0.726406 -0.5763077 -7.24959 5.84676 -2.939076 1.0432 -0.0808 0.2361 0.9585885

0.4176573 -1.449147 -0.06492625 2.141523 -9.61282 -0.399267 0.0342 -0.1355 -0.0064 -1.082453 0.6644468 -0.6972591 -7.216236 5.933088 -2.61927 1.0242 -0.0379 0.2657 0.9518757

0.4283038 -1.364673 -0.008028515 2.117979 -9.538263 -0.494424 -0.0703 -0.1142 -0.0181 -1.082453 0.6644468 -0.6972591 -7.216236 5.933088 -2.61927 1.0242 -0.0379 0.2657 0.9518757

0.4283038 -1.364673 -0.008028515 2.117979 -9.538263 -0.494424 -0.0703 -0.1142 -0.0181 -1.086817 0.641234 -0.7265806 -7.201521 5.957613 -2.567277 1.0125 -0.005 0.2837 0.9518757

0.4792674 -1.298874 0.06492625 2.095416 -9.492156 -0.509139 -0.0703 -0.1142 -0.0181 -1.086817 0.641234 -0.7265806 -7.201521 5.957613 -2.567277 1.0125 -0.005 0.2837 0.9518757

0.5056219 -1.358215 0.07574729 2.232756 -9.624592 -0.5248351 -0.1593 -0.1178 -0.0209 -1.079137 0.575086 -0.7892379 -7.140699 5.966443 -2.558448 1.0125 -0.005 0.2837 0.9518757

0.4530874 -1.397834 0.02565634 2.2563 -9.746235 -0.552303 -0.1593 -0.1178 -0.0209 -1.038645 0.5684537 -0.8068657 -7.106364 5.93505 -2.592783 0.9964 0.0065 0.3125 0.9518757

0.4530874 -1.397834 0.02565634 2.2563 -9.746235 -0.552303 -0.1593 -0.1178 -0.0209 -1.038645 0.5684537 -0.8068657 -7.106364 5.93505 -2.592783 0.9964 0.0065 0.3125 0.9102563

0.4494223 -1.402197 -0.01186824 2.219022 -9.777627 -0.558189 -0.2577 -0.1448 0.0076 -1.038645 0.5684537 -0.8068657 -7.106364 5.93505 -2.592783 0.9964 0.0065 0.3125 0.9102563

0.3911283 -1.367291 -0.02775074 2.142504 -9.866899 -0.6052771 -0.356 -0.1663 0.044 -0.9433504 0.5064946 -0.7913323 -7.230951 5.95467 -2.535885 0.9879 0.038 0.3747 0.9102563

0.3911283 -1.367291 -0.02775074 2.142504 -9.866899 -0.6052771 -0.356 -0.1663 0.044 -0.9433504 0.5064946 -0.7913323 -7.230951 5.95467 -2.535885 0.9879 0.038 0.3747 0.8847477

0.3183481 -1.293114 0.02635447 2.04048 -9.864936 -0.702396 -0.356 -0.1663 0.044 -0.8969247 0.5195845 -0.7705629 -7.355538 5.9635 -2.489778 0.9879 0.038 0.3747 0.8847477

0.3183481 -1.293114 0.02635447 2.04048 -9.864936 -0.702396 -0.356 -0.1663 0.044 -0.8969247 0.5195845 -0.7705629 -7.355538 5.9635 -2.489778 0.9879 0.038 0.3747 0.8847477

0.3029892 -1.217018 0.08569566 1.995354 -9.81883 -0.7602751 -0.423 -0.1805 0.1098 -0.8583529 0.5384341 -0.7237881 -7.437942 5.9841 -2.427975 0.9731 0.0703 0.4075 0.8525262

0.3029892 -1.217018 0.08569566 1.995354 -9.81883 -0.7602751 -0.423 -0.1805 0.1098 -0.8501499 0.5304055 -0.6997025 -7.452657 5.965461 -2.42307 0.9731 0.0703 0.4075 0.8525262

0.3029892 -1.217018 0.08569566 1.995354 -9.81883 -0.7602751 -0.423 -0.1805 0.1098 -0.8501499 0.5304055 -0.6997025 -7.452657 5.965461 -2.42307 0.9731 0.0703 0.4075 0.8525262

0.3029892 -1.217018 0.08569566 1.995354 -9.81883 -0.7602751 -0.423 -0.1805 0.1098 -0.8595747 0.4515167 -0.739496 -7.390854 5.907582 -2.455443 0.9488 0.0793 0.4213 0.8525262

0.1932079 -0.9690068 0.1741838 1.566657 -10.02582 -0.7171111 -0.4925 -0.1652 0.2729 -0.858702 0.4537856 -0.7436848 -7.340824 5.885019 -2.421108 0.9488 0.0793 0.4213 0.8176196

0.1932079 -0.9690068 0.1741838 1.566657 -10.02582 -0.7171111 -0.4925 -0.1652 0.2729 -0.858702 0.4537856 -0.7436848 -7.340824 5.885019 -2.421108 0.9488 0.0793 0.4213 0.8176196

0.1834341 -0.94911 0.1692969 1.524474 -10.00914 -0.6572701 -0.4925 -0.1652 0.2729 -0.7773697 0.508938 -0.7283259 -7.394778 5.886981 -2.394621 0.9298 0.1013 0.4365 0.8176196

0.1401499 -0.9391617 0.1001819 1.484253 -10.02876 -0.6867 -0.5137 -0.1274 0.3652 -0.7773697 0.508938 -0.7283259 -7.394778 5.886981 -2.394621 0.9298 0.1013 0.4365 0.8176196

0.06562438 -0.9007644 0.0270526 1.379286 -10.12294 -0.743598 -0.5209 -0.078 0.4592 -0.7773697 0.508938 -0.7283259 -7.394778 5.886981 -2.394621 0.9298 0.1013 0.4365 0.7692875

0.06562438 -0.9007644 0.0270526 1.379286 -10.12294 -0.743598 -0.5209 -0.078 0.4592 -0.7773697 0.508938 -0.7283259 -7.394778 5.886981 -2.394621 0.9298 0.1013 0.4365 0.7692875

0.05969026 -0.7255334 0.06579891 1.135998 -10.02484 -0.783819 -0.5209 -0.078 0.4592 -0.6557202 0.5143485 -0.7321656 -7.374177 5.758471 -2.319084 0.8699 0.1367 0.4808 0.7692875

-0.01640609 -0.6375688 0.1303761 1.015335 -10.03367 -0.8260021 -0.5514 -0.0048 0.5549 -0.6557202 0.5143485 -0.7321656 -7.374177 5.758471 -2.319084 0.8699 0.1367 0.4808 0.7692875

-0.01640609 -0.6375688 0.1303761 1.015335 -10.03367 -0.8260021 -0.5514 -0.0048 0.5549 -0.6993534 0.4769985 -0.7541568 -7.342785 5.620149 -2.299464 0.8563 0.1299 0.4898 0.7692875

-0.3106686 -0.5571091 0.1391027 1.055556 -10.17101 -0.945684 -0.5514 -0.0048 0.5549 -0.707731 0.4443608 -0.7513642 -7.323165 5.572081 -2.268072 0.8563 0.1299 0.4898 0.7692875

-0.3926991 -0.5576327 0.1122247 1.249794 -10.0631 -0.940779 -0.6062 0.0816 0.6157 -0.707731 0.4443608 -0.7513642 -7.323165 5.572081 -2.268072 0.8563 0.1299 0.4898 0.7692875

-0.3926991 -0.5576327 0.1122247 1.249794 -10.0631 -0.940779 -0.6062 0.0816 0.6157 -0.6798058 0.3494149 -0.7157595 -7.323165 5.527935 -2.278863 0.8417 0.1271 0.4983 0.7692875

-0.1103048 -0.6806784 0.06126106 1.369476 -9.844336 -0.887805 -0.6062 0.0816 0.6157 -0.6798058 0.3494149 -0.7157595 -7.323165 5.527935 -2.278863 0.8417 0.1271 0.4983 0.7692875

-0.1103048 -0.6806784 0.06126106 1.369476 -9.844336 -0.887805 -0.6062 0.0816 0.6157 -0.6798058 0.3494149 -0.7157595 -7.323165 5.527935 -2.278863 0.8417 0.1271 0.4983 0.7692875

-0.09005898 -0.5607743 0.02583087 1.246851 -9.805095 -1.08891 -0.6642 0.1658 0.6344 -0.6798058 0.3494149 -0.7157595 -7.323165 5.527935 -2.278863 0.8417 0.1271 0.4983 0.7692875

-0.03054326 -0.514523 0.06579891 1.179162 -9.694242 -1.149732 -0.6642 0.1658 0.6344 -0.5412266 0.3600614 -0.6538003 -7.581169 5.26797 -2.311236 0.8049 0.1265 0.5243 0.6618826

-0.03054326 -0.514523 0.06579891 1.179162 -9.694242 -1.149732 -0.6642 0.1658 0.6344 -0.4742059 0.3563962 -0.5906194 -7.586073 5.261103 -2.327913 0.8049 0.1265 0.5243 0.6618826

-0.09197885 -0.6220353 0.0837758 1.254699 -9.734463 -1.155618 -0.7315 0.2622 0.6377 -0.4742059 0.3563962 -0.5906194 -7.586073 5.261103 -2.327913 0.8049 0.1265 0.5243 0.6618826

0.0418879 -0.8716174 0.08290314 1.379286 -9.622629 -1.073214 -0.7315 0.2622 0.6377 -0.5148721 0.2651155 -0.5508259 -7.545853 5.18949 -2.397564 0.7976 0.1164 0.5459 0.6148929

0.0418879 -0.8716174 0.08290314 1.379286 -9.622629 -1.073214 -0.7315 0.2622 0.6377 -0.6035349 0.1317724 -0.5496042 -7.469334 5.01193 -2.418165 0.7976 0.1164 0.5459 0.6148929

0.0418879 -0.8716174 0.08290314 1.379286 -9.622629 -1.073214 -0.7315 0.2622 0.6377 -0.6035349 0.1317724 -0.5496042 -7.469334 5.01193 -2.418165 0.7976 0.1164 0.5459 0.6148929

0.0980875 -0.7962192 0.04939282 1.056537 -9.55494 -1.184067 -0.8463 0.5149 0.5455 -0.5799729 0.134914 -0.5286602 -7.453639 4.861836 -2.394621 0.7899 0.0892 0.5644 0.6148929

0.01884956 -0.6895795 0.0541052 1.016316 -9.592218 -1.2753 -0.8463 0.5149 0.5455 -0.5799729 0.134914 -0.5286602 -7.453639 4.861836 -2.394621 0.7899 0.0892 0.5644 0.6148929

0.01884956 -0.6895795 0.0541052 1.016316 -9.592218 -1.2753 -0.8463 0.5149 0.5455 -0.5066691 0.2455678 -0.4986406 -7.629237 4.848102 -2.388735 0.7899 0.0892 0.5644 0.6148929

0.06841691 -0.6443755 0.07295476 0.9819811 -9.560826 -1.327293 -0.8787 0.5488 0.5042 -0.5017822 0.2832669 -0.5054473 -7.873507 4.849083 -2.353419 0.78 0.0893 0.584 0.5558202

0.08028515 -0.6394886 0.1328196 1.006506 -9.551997 -1.368495 -0.8787 0.5488 0.5042 -0.5017822 0.2832669 -0.5054473 -7.873507 4.849083 -2.353419 0.78 0.0893 0.584 0.5558202

0.08028515 -0.6394886 0.1328196 1.006506 -9.551997 -1.368495 -0.8787 0.5488 0.5042 -0.5017822 0.2832669 -0.5054473 -7.873507 4.849083 -2.353419 0.78 0.0893 0.584 0.5558202

0.1886701 -0.6466445 0.1822124 0.994734 -9.517662 -1.345932 -0.8976 0.5847 0.4577 -0.5017822 0.2832669 -0.5054473 -7.873507 4.849083 -2.353419 0.78 0.0893 0.584 0.5558202

0.1689479 -0.5279621 0.2127556 0.819135 -9.659907 -1.440108 -0.8976 0.5847 0.4577 -0.471588 0.05009095 -0.4848525 -7.728319 4.52241 -2.307312 0.7474 0.0778 0.6047 0.5142009

0.1024508 -0.4911356 0.2509784 0.780876 -9.715824 -1.409697 -0.9181 0.6191 0.3845 -0.471588 0.05009095 -0.4848525 -7.728319 4.52241 -2.307312 0.7474 0.0778 0.6047 0.5142009

0.1024508 -0.4911356 0.2509784 0.780876 -9.715824 -1.409697 -0.9181 0.6191 0.3845 -0.471588 0.05009095 -0.4848525 -7.728319 4.52241 -2.307312 0.7474 0.0778 0.6047 0.5142009

0.1204277 -0.4283038 0.2108358 0.70632 -9.777627 -1.438146 -0.9301 0.6438 0.3183 -0.445408 -0.00296706 -0.4234169 -7.732243 4.465512 -2.336742 0.7262 0.0799 0.6056 0.5142009

0.1204277 -0.4283038 0.2108358 0.70632 -9.777627 -1.438146 -0.9301 0.6438 0.3183 -0.445408 -0.00296706 -0.4234169 -7.732243 4.465512 -2.336742 0.7262 0.0799 0.6056 0.4819794

0.1371829 -0.3830998 0.1623156 0.628821 -9.776647 -1.400868 -0.9301 0.6438 0.3183 -0.4441863 -0.00418879 -0.3576179 -7.82838 4.400766 -2.317122 0.7262 0.0799 0.6056 0.4819794

0.03211406 -0.3410374 0.1155408 0.55917 -9.852183 -1.348875 -0.9411 0.6749 0.2599 -0.4213225 0.02146755 -0.2872812 -7.962777 4.354659 -2.339685 0.7353 0.0808 0.6201 0.4819794

-0.007679448 -0.3761185 0.1321214 0.590562 -9.831582 -1.290015 -0.9411 0.6749 0.2599 -0.3794346 0.08360127 -0.2542945 -8.0442 4.319343 -2.419146 0.7353 0.0808 0.6201 0.4819794

-0.007679448 -0.3761185 0.1321214 0.590562 -9.831582 -1.290015 -0.9411 0.6749 0.2599 -0.3794346 0.08360127 -0.2542945 -8.0442 4.319343 -2.419146 0.7353 0.0808 0.6201 0.4658687

-0.1104793 -0.3892084 0.1626647 0.610182 -9.815886 -1.286091 -0.9697 0.6876 0.2009 -0.3794346 0.08360127 -0.2542945 -8.0442 4.319343 -2.419146 0.7353 0.0808 0.6201 0.4658687

-0.1843068 -0.3544764 0.1446878 0.57879 -9.800191 -1.28511 -0.9697 0.6876 0.2009 -0.2686062 0.1556834 -0.1331686 -8.068726 4.161402 -2.272977 0.7519 0.0567 0.6031 0.4658687

-0.1843068 -0.3544764 0.1446878 0.57879 -9.800191 -1.28511 -0.9697 0.6876 0.2009 -0.2686062 0.1556834 -0.1331686 -8.068726 4.161402 -2.272977 0.7519 0.0567 0.6031 0.4591559

-0.2268928 -0.3139847 0.1719149 0.485595 -9.842373 -1.403811 -0.96 0.6778 0.1704 -0.2235767 0.1317724 -0.09267698 -8.067744 4.192794 -2.260224 0.7548 0.039 0.5955 0.4591559

-0.2633702 -0.2012365 0.1148427 0.415944 -9.859051 -1.54017 -0.96 0.6778 0.1704 -0.3061308 -0.05009095 -0.08325221 -7.983378 4.167288 -2.260224 0.7548 0.039 0.5955 0.4591559

-0.2633702 -0.2012365 0.1148427 0.415944 -9.859051 -1.54017 -0.96 0.6778 0.1704 -0.3061308 -0.05009095 -0.08325221 -7.983378 4.167288 -2.260224 0.7548 0.039 0.5955 0.4591559

-0.1752311 -0.1096067 0.1082104 0.425754 -9.691299 -1.499949 -0.9554 0.6741 0.1508 -0.2560398 -0.03089233 -0.03700098 -7.890183 4.027005 -2.220984 0.7537 0.0247 0.5994 0.4591559

-0.103498 -0.1572542 0.1754056 0.507177 -9.687375 -1.544094 -0.974 0.6756 0.1356 -0.1708677 0.04223697 0.04450589 -7.975531 4.059378 -2.235699 0.7537 0.0247 0.5994 0.4417026

-0.103498 -0.1572542 0.1754056 0.507177 -9.687375 -1.544094 -0.974 0.6756 0.1356 -0.1708677 0.04223697 0.04450589 -7.975531 4.059378 -2.235699 0.7537 0.0247 0.5994 0.4417026

-0.03036873 -0.1392773 0.1302016 0.525816 -9.635383 -1.587258 -0.974 0.6756 0.1356 -0.2150246 -0.08063421 0.02391101 -8.075592 4.105485 -2.298483 0.7443 0.0233 0.5963 0.4417026

0.05096361 -0.1225221 0.1584759 0.548379 -9.599086 -1.519569 -0.9674 0.6715 0.1122 -0.2008874 -0.07400195 0.0143117 -8.052049 4.007385 -2.257281 0.7443 0.0233 0.5963 0.4417026

0.05096361 -0.1225221 0.1584759 0.548379 -9.599086 -1.519569 -0.9674 0.6715 0.1122 -0.1001819 0.08656833 0.06056292 -8.188407 4.08096 -2.175858 0.7357 0.0136 0.595 0.4417026

-0.01675516 -0.1223476 0.2183407 0.520911 -9.816868 -1.584315 -0.9674 0.6715 0.1122 -0.1001819 0.08656833 0.06056292 -8.188407 4.08096 -2.175858 0.7357 0.0136 0.595 0.4417026

-0.01675516 -0.1223476 0.2183407 0.520911 -9.816868 -1.584315 -0.9674 0.6715 0.1122 -0.1071632 0.006806784 0.02426008 -8.379703 4.203585 -2.212155 0.7357 0.0136 0.595 0.4417026

-0.01675516 -0.1223476 0.2183407 0.520911 -9.816868 -1.584315 -0.9674 0.6715 0.1122 -0.1071632 0.006806784 0.02426008 -8.379703 4.203585 -2.212155 0.7357 0.0136 0.595 0.4417026

-0.1193805 0.04502949 -0.02007129 0.364932 -10.35249 -1.342008 -0.9306 0.6705 0.0688 -0.1071632 0.006806784 0.02426008 -8.379703 4.203585 -2.212155 0.7357 0.0136 0.595 0.4417026

-0.1193805 0.04502949 -0.02007129 0.364932 -10.35249 -1.342008 -0.9306 0.6705 0.0688 -0.1071632 0.006806784 0.02426008 -8.379703 4.203585 -2.212155 0.7357 0.0136 0.595 0.4417026

-0.159174 -0.029147 -0.02460914 0.414963 -10.37898 -1.344951 -0.9288 0.6743 0.066 -0.1171116 -0.0593412 0.002268928 -8.384607 4.086846 -2.194497 0.7417 -0.0156 0.5874 0.4349898

-0.2206096 -0.01466077 -0.1343904 0.396324 -10.36132 -1.377324 -0.9267 0.6712 0.0702 -0.006806784 0.10088 0.02722714 -8.602389 4.252635 -2.245509 0.7417 -0.0156 0.5874 0.4349898

-0.2206096 -0.01466077 -0.1343904 0.396324 -10.36132 -1.377324 -0.9267 0.6712 0.0702 0.0720821 0.2768092 0.04677482 -8.677926 4.260483 -2.313198 0.7504 -0.005 0.5842 0.4349898

-0.2403318 -0.01815142 -0.2108358 0.483633 -10.20534 -1.332198 -0.9267 0.6712 0.0702 0.0720821 0.2768092 0.04677482 -8.677926 4.260483 -2.313198 0.7504 -0.005 0.5842 0.4349898

-0.2403318 -0.01815142 -0.2108358 0.483633 -10.20534 -1.332198 -0.9267 0.6712 0.0702 -0.005410521 0.1171116 0.01780236 -8.457201 4.111371 -2.17782 0.7504 -0.005 0.5842 0.4349898

-0.09250245 -0.05864306 -0.06841691 0.565056 -9.936549 -1.372419 -0.9149 0.6668 0.0591 -0.02879793 -0.0132645 0.009948377 -8.391475 4.125105 -2.065986 0.754 -0.0051 0.5922 0.4349898

-0.01361357 0.01902409 -0.004014257 0.540531 -9.776647 -1.46169 -0.9149 0.6668 0.0591 -0.02879793 -0.0132645 0.009948377 -8.391475 4.125105 -2.065986 0.754 -0.0051 0.5922 0.4349898

0.02687807 0.06178465 0.04869469 0.646479 -9.699147 -1.407735 -0.9298 0.6624 0.0566 0.05235988 0.08360127 0.0593412 -8.494479 4.141782 -2.116998 0.754 -0.0051 0.5922 0.4349898

0.02687807 0.06178465 0.04869469 0.646479 -9.699147 -1.407735 -0.9298 0.6624 0.0566 0.01745329 -0.001396263 0.04694936 -8.428752 3.984822 -2.088549 0.7509 -0.0189 0.5956 0.4349898

0.03752458 0.0122173 0.1179843 0.771066 -9.819811 -1.436184 -0.9298 0.6624 0.0566 0.01745329 -0.001396263 0.04694936 -8.428752 3.984822 -2.088549 0.7509 -0.0189 0.5956 0.4349898

-0.06405359 0.05916666 0.0143117 0.677871 -10.00914 -1.494063 -0.9444 0.6574 0.0636 -0.03193953 -0.07016224 0.009424779 -8.428752 3.929886 -1.992411 0.7509 -0.0189 0.5956 0.4349898

-0.06405359 0.05916666 0.0143117 0.677871 -10.00914 -1.494063 -0.9444 0.6574 0.0636 0.08988446 0.08552113 0.03996804 -8.583751 4.013271 -2.058138 0.7518 -0.0315 0.5994 0.4349898

-0.1052434 0.1837832 -0.01692969 0.550341 -9.961075 -1.356723 -0.9444 0.6574 0.0636 0.08988446 0.08552113 0.03996804 -8.583751 4.013271 -2.058138 0.7518 -0.0315 0.5994 0.4349898

0.01937315 0.1237438 0.05201081 0.546417 -9.861012 -1.240965 -0.9386 0.6563 0.0613 0.08988446 0.08552113 0.03996804 -8.583751 4.013271 -2.058138 0.7518 -0.0315 0.5994 0.4349898

-0.04660029 0.1127483 -0.02775074 0.501291 -9.851202 -1.199763 -0.9357 0.6566 0.0548 0.08988446 0.08552113 0.03996804 -8.583751 4.013271 -2.058138 0.7518 -0.0315 0.5994 0.4349898

-0.04660029 0.1127483 -0.02775074 0.501291 -9.851202 -1.199763 -0.9357 0.6566 0.0548 -0.007853981 0.0132645 0.04485496 -8.490555 3.965202 -2.120922 0.7382 -0.0098 0.6129 0.4349898

-0.06614798 0.08028515 -0.004712389 0.504234 -9.699147 -1.05948 -0.9357 0.6566 0.0548 0.03717551 0.06719518 0.04537856 -8.42679 3.893589 -2.064024 0.7382 -0.0098 0.6129 0.4349898

-0.08796459 -0.001396263 0.02984513 0.573885 -9.639306 -1.005525 -0.9418 0.6622 0.0414 0.03717551 0.06719518 0.04537856 -8.42679 3.893589 -2.064024 0.7382 -0.0098 0.6129 0.4349898

-0.08796459 -0.001396263 0.02984513 0.573885 -9.639306 -1.005525 -0.9418 0.6622 0.0414 0.06318092 0.1277581 0.07766715 -8.468973 3.940677 -2.120922 0.7354 -0.0117 0.5996 0.4349898

-0.0980875 -0.0593412 0.02565634 0.5925241 -9.592218 -1.032012 -0.9418 0.6622 0.0414 -0.002094395 0.01954769 0.09424778 -8.491536 3.928905 -2.087568 0.7354 -0.0117 0.5996 0.4349898

0.1258382 -0.03595378 -0.1361357 0.516006 -9.579465 -1.029069 -0.9443 0.6636 0.0412 -0.002094395 0.01954769 0.09424778 -8.491536 3.928905 -2.087568 0.7354 -0.0117 0.5996 0.4349898

0.1176352 0.029147 -0.0567232 0.447336 -9.972847 -1.052613 -0.9443 0.6636 0.0412 -0.04729842 -0.1120501 0.06230825 -8.323786 3.888684 -1.97181 0.7499 -0.0148 0.6105 0.4349898

0.1176352 0.029147 -0.0567232 0.447336 -9.972847 -1.052613 -0.9443 0.6636 0.0412 -0.01343904 -0.1000074 0.02530728 -8.198217 3.866121 -1.923741 0.7499 -0.0148 0.6105 0.4349898

0.06073746 0.09005898 -0.07365289 0.420849 -10.20731 -1.057518 -0.9444 0.672 0.0627 -0.0148353 -0.06510078 0.029147 -8.281603 3.873969 -1.997316 0.7628 -0.0047 0.608 0.4349898

-0.007504916 0.10088 -0.05305801 0.435564 -10.20142 -1.032993 -0.9444 0.672 0.0627 -0.0148353 -0.06510078 0.029147 -8.281603 3.873969 -1.997316 0.7628 -0.0047 0.608 0.4349898

-0.04904375 0.09878563 -0.05707227 0.448317 -10.11019 -1.043784 -0.9407 0.6732 0.0742 -0.03769911 -0.0280998 0.02984513 -8.422867 3.882798 -2.046366 0.7628 -0.0047 0.608 0.4349898

-0.04904375 0.09878563 -0.05707227 0.448317 -10.11019 -1.043784 -0.9407 0.6732 0.0742 -0.01972222 0.03665191 0.009599311 -8.512137 3.941658 -2.062062 0.7615 0.0018 0.6093 0.4349898

-0.1563815 0.1453859 -0.03857178 0.495405 -10.07978 -1.023183 -0.9586 0.6706 0.0533 -0.01972222 0.03665191 0.009599311 -8.512137 3.941658 -2.062062 0.7615 0.0018 0.6093 0.4349898

-0.3499385 0.1254892 -0.03351032 0.687681 -10.05427 -1.048689 -0.9586 0.6706 0.0533 -0.03089233 0.07539823 -0.02844887 -8.567074 3.988746 -2.116998 0.7615 0.0018 0.6093 0.4349898

-0.3499385 0.1254892 -0.03351032 0.687681 -10.05427 -1.048689 -0.9586 0.6706 0.0533 -0.02391101 0.09756391 -0.04747296 -8.595523 3.925962 -2.181744 0.7407 -0.0023 0.6123 0.4349898

-0.4834562 0.01134464 0.03176499 0.85347 -9.975789 -1.129131 -0.9812 0.683 0.0407 -0.02391101 0.09756391 -0.04747296 -8.595523 3.925962 -2.181744 0.7407 -0.0023 0.6123 0.4349898

-0.1024508 0.026529 -0.09581857 0.775971 -9.802153 -1.349856 -0.9812 0.683 0.0407 -0.02391101 0.09756391 -0.04747296 -8.595523 3.925962 -2.181744 0.7407 -0.0023 0.6123 0.4349898

-0.4557055 0.06475171 0.07260569 0.764199 -9.942435 -1.369476 -0.9708 0.6758 0.0664 -0.02391101 0.09756391 -0.04747296 -8.595523 3.925962 -2.181744 0.7407 -0.0023 0.6123 0.4376749

-0.4340634 -0.1108284 0.06405359 0.805401 -10.00816 -1.361628 -0.9708 0.6758 0.0664 -0.02076942 -0.0301942 -0.06143559 -8.334577 3.978936 -2.222946 0.7285 -0.0311 0.6325 0.4376749

-0.4340634 -0.1108284 0.06405359 0.805401 -10.00816 -1.361628 -0.9708 0.6758 0.0664 0.02565634 0.06300639 -0.04607669 -8.444448 4.068207 -2.287692 0.7335 -0.023 0.6291 0.4376749

-0.3642502 -0.2319543 0.1645845 0.772047 -9.981676 -1.469538 -0.9541 0.6707 0.0892 0.02565634 0.06300639 -0.04607669 -8.444448 4.068207 -2.287692 0.7335 -0.023 0.6291 0.4376749

-0.2330015 -0.2672099 0.2422517 0.659232 -9.738387 -1.567638 -0.9541 0.6707 0.0892 0.07278023 0.1137955 -0.03752458 -8.461125 4.118238 -2.338704 0.7335 -0.023 0.6291 0.4376749

-0.2330015 -0.2672099 0.2422517 0.659232 -9.738387 -1.567638 -0.9541 0.6707 0.0892 0.03036873 0.03333579 -0.04590216 -8.406189 4.124124 -2.308293 0.7311 -0.0241 0.6182 0.4376749

-0.2345722 -0.5434955 0.4488987 0.723978 -9.539245 -1.521531 -0.9503 0.6761 0.0986 0.03036873 0.03333579 -0.04590216 -8.406189 4.124124 -2.308293 0.7311 -0.0241 0.6182 0.4376749

-0.2345722 -0.5434955 0.4488987 0.723978 -9.539245 -1.521531 -0.9503 0.6761 0.0986 0.09267698 0.07853982 -0.002268928 -8.434638 4.251654 -2.337723 0.7311 -0.0241 0.6182 0.4376749

-0.4523893 -0.7253588 0.4045673 0.57879 -9.639306 -1.72656 -0.9538 0.683 0.1048 0.180467 0.1699951 0.04764749 -8.418942 4.338963 -2.39364 0.719 -0.0132 0.6207 0.4376749

-0.1855285 -0.5003859 0.1787217 -0.005886001 -9.576522 -2.362248 -0.9538 0.683 0.1048 0.1647591 0.1926844 0.09197885 -8.2404 4.391937 -2.405412 0.719 -0.0132 0.6207 0.4376749

-0.1855285 -0.5003859 0.1787217 -0.005886001 -9.576522 -2.362248 -0.9538 0.683 0.1048 0.1647591 0.1926844 0.09197885 -8.2404 4.391937 -2.405412 0.719 -0.0132 0.6207 0.4376749

-0.30456 0.05654867 -0.06527531 -0.625878 -9.980695 -3.292236 -0.9423 0.6941 0.1293 0.1848304 0.1944297 0.1158899 -7.915689 4.521429 -2.441709 0.7275 0.0005 0.6312 0.4376749

-0.30456 0.05654867 -0.06527531 -0.625878 -9.980695 -3.292236 -0.9423 0.6941 0.1293 0.2654646 0.2076942 0.1391027 -7.621389 4.713706 -2.596707 0.7275 0.0005 0.6312 0.4417026

-0.30456 0.05654867 -0.06527531 -0.625878 -9.980695 -3.292236 -0.9423 0.6941 0.1293 0.2654646 0.2076942 0.1391027 -7.621389 4.713706 -2.596707 0.7275 0.0005 0.6312 0.4417026

-0.8894197 -0.06649704 -0.2897246 -0.474804 -10.05917 -3.452139 -0.896 0.6712 0.2221 0.3289946 0.1001819 0.1659808 -7.366329 4.807881 -2.807622 0.7377 -0.0005 0.6238 0.4417026

-1.059938 -0.1092576 -0.2993239 -0.50031 -9.792342 -3.614985 -0.896 0.6712 0.2221 0.3289946 0.1001819 0.1659808 -7.366329 4.807881 -2.807622 0.7377 -0.0005 0.6238 0.4417026

-1.059938 -0.1092576 -0.2993239 -0.50031 -9.792342 -3.614985 -0.896 0.6712 0.2221 0.3289946 0.1001819 0.1659808 -7.366329 4.807881 -2.807622 0.7377 -0.0005 0.6238 0.4631836

-1.134813 -0.09669124 -0.3248058 -0.464994 -9.489213 -3.854349 -0.8978 0.68 0.2582 0.3289946 0.1001819 0.1659808 -7.366329 4.807881 -2.807622 0.7377 -0.0005 0.6238 0.4631836

-1.578301 -0.03525565 -0.2291617 -0.5444551 -9.394056 -4.195737 -0.9063 0.6679 0.3358 0.6031858 0.4166101 0.7508407 -7.672401 5.128668 -3.263787 0.7128 0.0019 0.6483 0.4631836

-1.578301 -0.03525565 -0.2291617 -0.5444551 -9.394056 -4.195737 -0.9063 0.6679 0.3358 0.6031858 0.4166101 0.7508407 -7.672401 5.128668 -3.263787 0.7128 0.0019 0.6483 0.4631836

-1.784774 -0.003141593 -0.1790708 -0.436545 -9.128205 -4.427253 -0.9063 0.6679 0.3358 0.7831292 0.5454154 0.7932522 -7.8274 5.350374 -3.228471 0.7128 0.0019 0.6483 0.5115157

-1.784774 -0.003141593 -0.1790708 -0.436545 -9.128205 -4.427253 -0.9063 0.6679 0.3358 0.7831292 0.5454154 0.7932522 -7.8274 5.350374 -3.228471 0.7128 0.0019 0.6483 0.5115157

-1.751612 0.004363323 -0.2633702 -0.273699 -8.880994 -4.622472 -0.9128 0.6448 0.4451 0.8745845 0.6401868 0.7737045 -7.914709 5.524011 -3.3354 0.707 0.0113 0.6617 0.5115157

-1.899616 0.1064651 -0.2769837 -0.206991 -8.674983 -4.950126 -0.9128 0.6448 0.4451 0.8630653 0.6283185 0.7841764 -7.919613 5.459265 -3.356001 0.707 0.0113 0.6617 0.5115157

-1.937315 0.2426008 -0.1966986 -0.144207 -8.428752 -5.332716 -0.9015 0.6057 0.6038 0.925199 0.5658357 0.869523 -7.826418 5.377842 -3.249072 0.6888 0.0268 0.6602 0.5558202

-1.937315 0.2426008 -0.1966986 -0.144207 -8.428752 -5.332716 -0.9015 0.6057 0.6038 0.925199 0.5658357 0.869523 -7.826418 5.377842 -3.249072 0.6888 0.0268 0.6602 0.5558202

-2.090555 0.3534292 -0.1548107 -0.060822 -8.305146 -5.641731 -0.9015 0.6057 0.6038 0.9974557 0.5941101 0.9515535 -7.659648 5.334678 -3.294198 0.6888 0.0268 0.6602 0.5558202

-2.090555 0.3534292 -0.1548107 -0.060822 -8.305146 -5.641731 -0.9015 0.6057 0.6038 0.9957103 0.4764749 1.002168 -7.50465 5.308191 -3.299103 0.6836 0.0447 0.6619 0.5558202

-2.203478 0.5101597 -0.1310742 0.106929 -8.079516 -5.896791 -0.8529 0.5256 0.7824 0.9758136 0.2349213 1.015956 -7.320222 5.309172 -3.252996 0.6836 0.0447 0.6619 0.5960971

-2.070135 0.5040511 -0.02879793 0.46107 -7.662591 -6.039036 -0.8529 0.5256 0.7824 0.9508554 0.15132 1.004088 -7.159338 5.200281 -3.333438 0.686 0.0614 0.6721 0.5960971

-2.070135 0.5040511 -0.02879793 0.46107 -7.662591 -6.039036 -0.8529 0.5256 0.7824 0.9508554 0.15132 1.004088 -7.159338 5.200281 -3.333438 0.686 0.0614 0.6721 0.5960971

-2.070135 0.5040511 -0.02879793 0.46107 -7.662591 -6.039036 -0.8529 0.5256 0.7824 1.005135 0.2368412 1.052957 -7.163262 5.067846 -3.420747 0.686 0.0614 0.6721 0.5960971

-2.070135 0.5040511 -0.02879793 0.46107 -7.662591 -6.039036 -0.8529 0.5256 0.7824 1.093972 0.2591814 1.131148 -7.230951 5.104143 -3.530619 0.6692 0.0867 0.6669 0.6310037

-1.026952 0.3488913 0.5909685 0.533664 -6.371595 -7.074972 -0.6075 0.1206 1.2521 1.106713 0.2143264 1.089784 -7.174053 5.133573 -3.791565 0.6692 0.0867 0.6669 0.6310037

-1.026952 0.3488913 0.5909685 0.533664 -6.371595 -7.074972 -0.6075 0.1206 1.2521 1.106713 0.2143264 1.089784 -7.174053 5.133573 -3.791565 0.6692 0.0867 0.6669 0.6310037

-0.6443755 0.5614724 0.8279842 0.318825 -6.009606 -7.360443 -0.6075 0.1206 1.2521 1.108459 0.1556834 1.025905 -6.976872 4.988385 -4.030929 0.6622 0.1065 0.6553 0.6310037

-0.601615 0.5565855 0.8679522 0.256041 -6.149889 -7.610598 -0.4933 -0.0401 1.3063 1.108459 0.1556834 1.025905 -6.976872 4.988385 -4.030929 0.6622 0.1065 0.6553 0.6484569

-0.601615 0.5565855 0.8679522 0.256041 -6.149889 -7.610598 -0.4933 -0.0401 1.3063 1.108459 0.1556834 1.025905 -6.976872 4.988385 -4.030929 0.6622 0.1065 0.6553 0.6484569

-0.7438593 0.6387905 0.8602728 -0.043164 -6.279381 -7.956892 -0.4933 -0.0401 1.3063 1.217018 0.1719149 1.254717 -6.167547 5.123763 -4.633263 0.6622 0.1139 0.6714 0.6484569

-0.6246533 0.8049458 0.8892453 -0.168732 -6.073371 -8.069706 -0.3871 -0.1767 1.2816 1.261698 0.1022763 1.392424 -5.878152 5.235597 -4.74804 0.666 0.1201 0.6737 0.6484569

-0.6246533 0.8049458 0.8892453 -0.168732 -6.073371 -8.069706 -0.3871 -0.1767 1.2816 1.229061 -0.06405359 1.428203 -5.594643 5.18949 -4.843197 0.6609 0.116 0.6539 0.672623

-0.6543239 0.8000589 0.951728 -0.223668 -5.975271 -8.066764 -0.3871 -0.1767 1.2816 1.229061 -0.06405359 1.428203 -5.594643 5.18949 -4.843197 0.6609 0.116 0.6539 0.672623

-0.7988372 0.8028514 1.025206 -0.471861 -5.861475 -8.141319 -0.3054 -0.2961 1.1871 1.194503 -0.1511455 1.487893 -5.440626 5.27778 -4.886361 0.6609 0.116 0.6539 0.672623

-0.7988372 0.8028514 1.025206 -0.471861 -5.861475 -8.141319 -0.3054 -0.2961 1.1871 1.225047 -0.2110103 1.62368 -5.350374 5.391576 -5.04234 0.6698 0.121 0.6523 0.672623

-0.6574655 0.9440486 1.125563 -0.645498 -5.577966 -8.124642 -0.3054 -0.2961 1.1871 1.225047 -0.2110103 1.62368 -5.350374 5.391576 -5.04234 0.6698 0.121 0.6523 0.6927615

-0.6976081 0.8756316 1.182112 -0.51993 -5.603472 -8.045181 -0.2707 -0.3835 1.0351 1.245816 -0.3344051 1.715135 -5.194395 5.249331 -5.390595 0.6698 0.121 0.6523 0.6927615

-0.6976081 0.8756316 1.182112 -0.51993 -5.603472 -8.045181 -0.2707 -0.3835 1.0351 1.194852 -0.4113741 1.720371 -5.122782 5.215977 -5.460246 0.7018 0.1374 0.6466 0.6927615

-1.012116 0.7470009 1.209862 -0.527778 -5.758471 -8.121699 -0.2626 -0.4292 0.8624 1.194852 -0.4113741 1.720371 -5.122782 5.215977 -5.460246 0.7018 0.1374 0.6466 0.6927615

-1.012116 0.7470009 1.209862 -0.527778 -5.758471 -8.121699 -0.2626 -0.4292 0.8624 1.232901 -0.3797837 1.797689 -5.213035 5.587776 -5.349393 0.7018 0.1374 0.6466 0.7249829

-1.068491 0.8014551 1.317549 -0.855432 -5.539707 -8.404227 -0.2626 -0.4292 0.8624 1.365197 -0.2495821 1.932429 -5.313096 5.877171 -5.365089 0.7225 0.1213 0.6445 0.7249829

-0.8548623 0.9826204 1.448798 -1.083024 -5.221863 -8.568054 -0.29 -0.4181 0.6812 1.365197 -0.2495821 1.932429 -5.313096 5.877171 -5.365089 0.7225 0.1213 0.6445 0.7249829

-0.8548623 0.9826204 1.448798 -1.083024 -5.221863 -8.568054 -0.29 -0.4181 0.6812 1.411099 -0.2462659 2.022138 -5.206168 5.769261 -5.491639 0.7225 0.1213 0.6445 0.7249829

-0.8206538 0.9133308 1.490162 -1.012392 -5.255218 -8.572959 -0.29 -0.4181 0.6812 1.411099 -0.2462659 2.022138 -5.206168 5.769261 -5.491639 0.7225 0.1213 0.6445 0.7531767

-0.8206538 0.9133308 1.490162 -1.012392 -5.255218 -8.572959 -0.29 -0.4181 0.6812 1.38998 -0.2794272 2.082876 -5.095314 5.65056 -5.585814 0.7476 0.0931 0.6603 0.7531767

-1.488242 1.015607 1.666266 -1.138941 -5.256198 -9.029124 -0.3383 -0.3154 0.4208 1.395216 -0.3302163 2.120051 -4.994271 5.69961 -5.682933 0.7476 0.0931 0.6603 0.7652597

-1.611986 1.099732 1.808161 -1.120302 -5.118858 -9.187065 -0.3038 -0.276 0.3497 1.395216 -0.3302163 2.120051 -4.994271 5.69961 -5.682933 0.7476 0.0931 0.6603 0.7652597

-1.611986 1.099732 1.808161 -1.120302 -5.118858 -9.187065 -0.3038 -0.276 0.3497 1.395216 -0.3302163 2.120051 -4.994271 5.69961 -5.682933 0.7476 0.0931 0.6603 0.7652597

-1.611288 1.01072 1.937315 -1.038879 -4.946202 -9.248868 -0.2478 -0.258 0.2735 1.395216 -0.3302163 2.120051 -4.994271 5.69961 -5.682933 0.7476 0.0931 0.6603 0.7652597

-1.611288 1.01072 1.937315 -1.038879 -4.946202 -9.248868 -0.2478 -0.258 0.2735 1.395216 -0.3302163 2.120051 -4.994271 5.69961 -5.682933 0.7476 0.0931 0.6603 0.7719725

-1.740268 0.9419542 1.980774 -0.93195 -4.984461 -9.440164 -0.2478 -0.258 0.2735 1.442689 -0.5602506 1.966288 -5.013891 5.536765 -5.937994 0.7778 0.0281 0.6494 0.7719725

-1.86663 1.015956 2.038719 -0.9260641 -4.977594 -9.648135 -0.2393 -0.2281 0.1721 1.3172 -0.7023205 1.687908 -5.049207 5.409235 -5.948784 0.7778 0.0281 0.6494 0.7719725

-1.86663 1.015956 2.038719 -0.9260641 -4.977594 -9.648135 -0.2393 -0.2281 0.1721 1.3172 -0.7023205 1.687908 -5.049207 5.409235 -5.948784 0.7778 0.0281 0.6494 0.7719725

-1.64026 1.067618 2.189516 -1.089891 -4.747059 -9.55396 -0.2393 -0.2281 0.1721 1.287006 -0.7161086 1.504997 -4.930506 5.224806 -5.917392 0.7857 -0.0216 0.6599 0.7424362

-1.52088 0.8925614 2.201733 -1.154637 -4.83633 -9.415639 -0.3156 -0.1623 0.1198 1.287006 -0.7161086 1.504997 -4.930506 5.224806 -5.917392 0.7857 -0.0216 0.6599 0.7424362

-1.52088 0.8925614 2.201733 -1.154637 -4.83633 -9.415639 -0.3156 -0.1623 0.1198 1.452288 -0.410676 1.525941 -5.059998 5.158098 -5.958594 0.7857 -0.0216 0.6599 0.7424362

-1.759292 0.6227335 2.106612 -1.068309 -5.182623 -9.349912 -0.3156 -0.1623 0.1198 1.452288 -0.410676 1.525941 -5.059998 5.158098 -5.958594 0.7857 -0.0216 0.6599 0.7424362

-2.038195 0.3347541 1.963321 -0.9172351 -5.167908 -9.143902 -0.4335 -0.0727 0.159 1.499936 -0.1851794 1.548456 -5.293477 5.107087 -6.123402 0.7886 -0.0629 0.673 0.6793358

-2.038195 0.3347541 1.963321 -0.9172351 -5.167908 -9.143902 -0.4335 -0.0727 0.159 1.379159 -0.2869321 1.451416 -5.269932 4.78728 -6.334317 0.7886 -0.0629 0.673 0.6793358

-2.084272 0.06283185 2.180091 -0.9044821 -4.607757 -9.120358 -0.4335 -0.0727 0.159 1.254717 -0.3001966 1.335351 -5.039397 4.369374 -6.505992 0.7989 -0.0963 0.6696 0.6793358

-1.952325 0.06335545 2.476971 -1.066347 -3.957354 -9.38719 -0.5225 0.0092 0.2548 1.254717 -0.3001966 1.335351 -5.039397 4.369374 -6.505992 0.7989 -0.0963 0.6696 0.6793358

-1.952325 0.06335545 2.476971 -1.066347 -3.957354 -9.38719 -0.5225 0.0092 0.2548 1.212655 -0.2956588 1.246689 -4.908924 4.105485 -6.604093 0.7989 -0.0963 0.6696 0.6242909

-1.635548 0.02897247 2.494425 -1.08891 -3.491379 -9.57358 -0.5225 0.0092 0.2548 1.113869 -0.3820526 1.219462 -4.786299 3.864159 -6.80814 0.81 -0.1077 0.6706 0.6242909

-1.635548 0.02897247 2.494425 -1.08891 -3.491379 -9.57358 -0.5225 0.0092 0.2548 1.027475 -0.4111996 1.290147 -4.706838 3.533562 -6.959214 0.8015 -0.1122 0.6755 0.6242909

-1.635548 0.02897247 2.494425 -1.08891 -3.491379 -9.57358 -0.5225 0.0092 0.2548 1.027475 -0.4111996 1.290147 -4.706838 3.533562 -6.959214 0.8015 -0.1122 0.6755 0.6242909

-1.635548 0.02897247 2.494425 -1.08891 -3.491379 -9.57358 -0.5225 0.0092 0.2548 1.023112 -0.2890265 1.329243 -4.711743 3.343248 -6.993549 0.8015 -0.1122 0.6755 0.5558202

-0.9194394 -1.009324 2.088112 -1.129131 -2.489778 -9.461745 -0.4264 0.0574 0.6883 1.030093 -0.1490511 1.267284 -4.712724 3.275559 -7.178958 0.8019 -0.1282 0.6826 0.5558202

-0.6468191 -0.8559095 2.532996 -1.616688 -1.769724 -9.846297 -0.4264 0.0574 0.6883 1.030093 -0.1490511 1.267284 -4.712724 3.275559 -7.178958 0.8019 -0.1282 0.6826 0.5558202

-0.6468191 -0.8559095 2.532996 -1.616688 -1.769724 -9.846297 -0.4264 0.0574 0.6883 1.020669 -0.1275836 1.168498 -4.734306 3.127428 -7.38693 0.8019 -0.1282 0.6826 0.5558202

0.04660029 -0.5752605 2.718874 -2.02086 -1.357704 -9.934587 -0.3565 0.043 0.8139 1.020669 -0.1275836 1.168498 -4.734306 3.127428 -7.38693 0.8019 -0.1282 0.6826 0.5558202

0.1144936 -0.678584 2.512401 -2.218041 -2.012031 -9.986581 -0.3565 0.043 0.8139 1.020669 -0.1275836 1.168498 -4.734306 3.127428 -7.38693 0.8019 -0.1282 0.6826 0.5558202

0.1144936 -0.678584 2.512401 -2.218041 -2.012031 -9.986581 -0.3565 0.043 0.8139 1.020669 -0.1275836 1.168498 -4.734306 3.127428 -7.38693 0.8019 -0.1282 0.6826 0.4578133

-0.2998476 -0.9882054 2.027549 -2.164086 -2.83509 -10.13863 -0.2696 0.0147 0.9137 1.020669 -0.1275836 1.168498 -4.734306 3.127428 -7.38693 0.8019 -0.1282 0.6826 0.4578133

0.01169371 -1.164484 1.612335 -2.229813 -2.569239 -10.10234 -0.2696 0.0147 0.9137 1.020669 -0.1275836 1.168498 -4.734306 3.127428 -7.38693 0.8019 -0.1282 0.6826 0.4578133

0.01169371 -1.164484 1.612335 -2.229813 -2.569239 -10.10234 -0.2696 0.0147 0.9137 1.020669 -0.1275836 1.168498 -4.734306 3.127428 -7.38693 0.8019 -0.1282 0.6826 0.4578133

0.5003859 -0.9395108 1.872738 -2.703636 -2.029689 -10.05133 -0.141 -0.0279 0.9877 1.020669 -0.1275836 1.168498 -4.734306 3.127428 -7.38693 0.8019 -0.1282 0.6826 0.3906852

0.1900664 -0.6297148 2.154609 -3.159801 -2.408355 -10.28186 -0.141 -0.0279 0.9877 1.140398 0.882962 0.8477064 -4.152573 2.583954 -8.05401 0.7548 -0.1621 0.7344 0.3906852

0.1900664 -0.6297148 2.154609 -3.159801 -2.408355 -10.28186 -0.141 -0.0279 0.9877 0.9400343 0.6988298 0.7271042 -3.690522 2.185668 -7.927461 0.7548 -0.1621 0.7344 0.3584638

-0.3569199 -0.3061308 1.952674 -3.377583 -2.959677 -10.52809 -0.0246 -0.0517 1.0427 0.9400343 0.6988298 0.7271042 -3.690522 2.185668 -7.927461 0.7548 -0.1621 0.7344 0.3584638

-0.381878 0.06649704 1.724385 -3.408975 -2.941038 -10.51534 -0.0246 -0.0517 1.0427 0.7401941 0.5403539 0.5621705 -3.226509 1.980639 -7.933348 0.7306 -0.1559 0.7521 0.3584638

-0.381878 0.06649704 1.724385 -3.408975 -2.941038 -10.51534 -0.0246 -0.0517 1.0427 0.7960446 0.630762 0.5503023 -2.936133 1.980639 -8.121699 0.7306 -0.1559 0.7521 0.3584638

-0.1555088 0.1253146 1.56015 -3.246129 -2.664396 -10.30639 0.0819 -0.0703 1.0812 0.7960446 0.630762 0.5503023 -2.936133 1.980639 -8.121699 0.7306 -0.1559 0.7521 0.3584638

-0.1555088 0.1253146 1.56015 -3.246129 -2.664396 -10.30639 0.0819 -0.0703 1.0812 0.7538077 0.5656612 0.56985 -2.720313 1.869786 -8.121699 0.7026 -0.135 0.7785 0.3584638

0.1998402 0.140499 1.196772 -2.758572 -2.159181 -9.736425 0.2338 -0.1172 1.1552 0.672999 0.5503023 0.559378 -2.605536 1.664757 -8.040277 0.7026 -0.135 0.7785 0.2846229

0.1998402 0.140499 1.196772 -2.758572 -2.159181 -9.736425 0.2338 -0.1172 1.1552 0.672999 0.5503023 0.559378 -2.605536 1.664757 -8.040277 0.7026 -0.135 0.7785 0.2846229

0.04066617 0.1356121 1.009848 -2.626137 -2.37402 -9.647154 0.2859 -0.1566 1.1666 0.6986552 0.6230826 0.3602359 -2.478006 1.626498 -8.15211 0.6864 -0.1308 0.799 0.2846229
