-0.02513274 0.1361357 -0.0731293 1.407735 -0.059841 -9.687375 -0.0522 -0.2117 1.2338 -0.01989675 -0.1329941 0.004886922 -1.653966 -1.317483 -8.61318 0.6677 0.1234 0.8346 0.1664776

0.1043707 0.03787364 0.01134464 1.480329 0.09123301 -9.548073 -0.0522 -0.2117 1.2338 0.01884956 -0.00837758 -0.003316126 -1.876653 -1.217421 -8.640649 0.662 0.1352 0.8436 0.1691627

0.1043707 0.03787364 0.01134464 1.480329 0.09123301 -9.548073 -0.0522 -0.2117 1.2338 0.01884956 -0.00837758 -0.003316126 -1.876653 -1.217421 -8.640649 0.662 0.1352 0.8436 0.1691627

0.1043707 0.03787364 0.01134464 1.480329 0.09123301 -9.548073 -0.0522 -0.2117 1.2338 0.01884956 -0.00837758 -0.003316126 -1.876653 -1.217421 -8.640649 0.662 0.1352 0.8436 0.1691627

0.1043707 0.03787364 0.01134464 1.480329 0.09123301 -9.548073 -0.0522 -0.2117 1.2338 0.01884956 -0.00837758 -0.003316126 -1.876653 -1.217421 -8.640649 0.662 0.1352 0.8436 0.1691627

0.02391101 -0.02391101 -0.08883726 1.479348 -0.140283 -9.603009 -0.0708 -0.2067 1.2653 0.007330383 -0.02740167 0.04555309 -1.860957 -1.239003 -8.688717 0.6416 0.1227 0.8641 0.1691627

0.2113594 0.0275762 -0.0006981317 1.467576 0.102024 -9.697186 -0.0708 -0.2067 1.2653 -0.02792527 -0.1427679 0.04886922 -1.860957 -1.239003 -8.688717 0.6416 0.1227 0.8641 0.1691627

0.2113594 0.0275762 -0.0006981317 1.467576 0.102024 -9.697186 -0.0708 -0.2067 1.2653 -0.02792527 -0.1427679 0.04886922 -1.860957 -1.239003 -8.688717 0.6416 0.1227 0.8641 0.1691627

0.2113594 0.0275762 -0.0006981317 1.467576 0.102024 -9.697186 -0.0708 -0.2067 1.2653 0.01064651 -0.03071779 0.05462881 -2.421108 -1.190934 -8.637706 0.693 0.1363 0.8008 0.1691627

0.2113594 0.0275762 -0.0006981317 1.467576 0.102024 -9.697186 -0.0708 -0.2067 1.2653 0.0270526 0.02897247 0.01570796 -2.426013 -1.176219 -8.670078 0.693 0.1363 0.8008 0.1691627

0.2113594 0.0275762 -0.0006981317 1.467576 0.102024 -9.697186 -0.0708 -0.2067 1.2653 0.008901179 -0.06056292 0.06335545 -2.310255 -1.175238 -8.589636 0.6905 0.1362 0.8012 0.1691627

0.01623156 -0.02268928 -0.08290314 1.684377 0.22563 -9.69228 -0.1278 -0.2347 1.2456 0.02146755 0.008901179 0.03839725 -2.351457 -1.188972 -8.639668 0.6905 0.1362 0.8012 0.1275433

0.1640609 -0.05986479 -0.03560472 1.732446 0.213858 -9.57456 -0.121 -0.2392 1.2261 0.01396263 -0.001396263 0.02617994 -2.316141 -1.203687 -8.663211 0.6895 0.1498 0.7967 0.1275433

0.03682645 -0.03455752 0.03822271 1.68732 0.398286 -9.512757 -0.121 -0.2392 1.2261 0.01396263 -0.001396263 0.02617994 -2.316141 -1.203687 -8.663211 0.6895 0.1498 0.7967 0.1275433

0.03682645 -0.03455752 0.03822271 1.68732 0.398286 -9.512757 -0.121 -0.2392 1.2261 0.006981317 -0.1047198 0.0705113 -2.268072 -1.215459 -8.588655 0.6895 0.1498 0.7967 0.1275433

-0.127409 0.01692969 -0.03996804 1.672605 0.324711 -9.493137 -0.1139 -0.2274 1.2146 0.008901179 -0.0577704 0.03822271 -2.415222 -1.187991 -8.497422 0.6912 0.1344 0.8021 0.1275433

-0.02792527 0.1525418 -0.1040216 1.655928 0.08829 -9.55396 -0.1139 -0.2274 1.2146 -0.007853981 0.07993608 -0.01518436 -2.474082 -1.242927 -8.529796 0.6912 0.1344 0.8021 0.1288859

0.06579891 0.1055924 -0.06440265 1.578429 0.160884 -9.607914 -0.1126 -0.2193 1.2102 -0.007853981 0.07993608 -0.01518436 -2.474082 -1.242927 -8.529796 0.6912 0.1344 0.8021 0.1288859

0.06579891 0.1055924 -0.06440265 1.578429 0.160884 -9.607914 -0.1126 -0.2193 1.2102 -0.01448623 -0.04904375 0.06108652 -2.333799 -1.21644 -8.519985 0.6785 0.1241 0.8088 0.1288859

0.08063421 0.01413717 -0.09232792 1.621593 0.249174 -9.508833 -0.1126 -0.2193 1.2102 -0.01762783 -0.02740167 0.06771877 -2.43288 -1.213497 -8.477802 0.6931 0.131 0.8046 0.1288859

-0.03316126 -0.1200787 -0.03211406 1.719693 0.22563 -9.341083 -0.1233 -0.2262 1.2162 -0.04764749 0.0418879 -0.01989675 -2.449557 -1.225269 -8.539606 0.6931 0.131 0.8046 0.1288859

-0.1476549 -0.0434587 0.02251475 1.830546 0.236421 -9.371493 -0.1276 -0.2412 1.2371 -0.04764749 0.0418879 -0.01989675 -2.449557 -1.225269 -8.539606 0.6931 0.131 0.8046 0.1288859

-0.1476549 -0.0434587 0.02251475 1.830546 0.236421 -9.371493 -0.1276 -0.2412 1.2371 -0.003141593 -0.1076868 0.05881759 -2.323989 -1.194858 -8.549416 0.7083 0.134 0.8075 0.1288859

-0.04153884 0.1308997 -0.03996804 1.743237 0.217782 -9.586332 -0.1276 -0.2412 1.2371 -0.005759587 -0.01239184 0.07504916 -2.505474 -1.230174 -8.501347 0.7083 0.134 0.8075 0.1288859

0.1288053 0.05218535 -0.03351032 1.64808 0.248193 -9.663831 -0.0989 -0.2521 1.2512 -0.03333579 0.0884882 -0.02286381 -2.577087 -1.26549 -8.502327 0.7016 0.1443 0.8134 0.1288859

0.005235988 -0.02897247 -0.06876598 1.71675 0.210915 -9.461745 -0.0989 -0.2521 1.2512 -0.03333579 0.0884882 -0.02286381 -2.577087 -1.26549 -8.502327 0.7016 0.1443 0.8134 0.1288859

0.005235988 -0.02897247 -0.06876598 1.71675 0.210915 -9.461745 -0.0989 -0.2521 1.2512 -0.03700098 -0.03839725 0.01832596 -2.340666 -1.233117 -8.457201 0.7016 0.1443 0.8134 0.1288859

0.05602507 -0.0280998 -0.1525418 1.770705 -0.082404 -9.315577 -0.0914 -0.2492 1.2442 -0.04747296 -0.1153663 0.03124139 -2.245509 -1.181124 -8.463087 0.7008 0.1464 0.8089 0.1288859

0.2885029 0.05253441 -0.2471386 1.763838 -0.258984 -9.192951 -0.0914 -0.2492 1.2442 -0.07836528 -0.100531 0.00837758 -2.223927 -1.204668 -8.408152 0.7008 0.1464 0.8089 0.1288859

0.5455899 0.1193805 -0.2441716 1.68732 -0.251136 -9.089946 -0.1141 -0.2441 1.2411 -0.07836528 -0.100531 0.00837758 -2.223927 -1.204668 -8.408152 0.7008 0.1464 0.8089 0.1288859

0.5455899 0.1193805 -0.2441716 1.68732 -0.251136 -9.089946 -0.1141 -0.2441 1.2411 -0.1384046 -0.1979203 0.03054326 -2.093454 -1.251756 -8.339481 0.6982 0.1315 0.8094 0.1288859

0.7379252 0.1216494 -0.2979277 1.598049 -0.185409 -8.90748 -0.1141 -0.2441 1.2411 -0.1914626 -0.2752384 0.09110618 -2.075796 -1.211535 -8.175654 0.6982 0.1315 0.8094 0.1288859

0.7379252 0.1216494 -0.2979277 1.598049 -0.185409 -8.90748 -0.1141 -0.2441 1.2411 -0.2460914 -0.3070034 0.0731293 -2.078739 -1.180143 -8.033409 0.6925 0.116 0.8095 0.1288859

0.8288569 -0.3525565 -1.409353 1.396944 -2.480949 -7.914709 -0.1522 -0.206 1.2095 -0.2460914 -0.3070034 0.0731293 -2.078739 -1.180143 -8.033409 0.6925 0.116 0.8095 0.1288859

0.8288569 -0.3525565 -1.409353 1.396944 -2.480949 -7.914709 -0.1522 -0.206 1.2095 -0.2878048 -0.4221952 0.001396263 -1.860957 -1.192896 -7.919613 0.6925 0.116 0.8095 0.1288859

0.5602506 -0.00122173 -1.668011 1.051632 -2.506455 -8.056953 -0.1522 -0.206 1.2095 -0.413294 -0.5935864 0.08517207 -1.531341 -1.239984 -7.95591 0.7013 0.1072 0.8166 0.1288859

0.8395033 -0.1183333 -1.629265 1.047708 -1.872729 -8.05303 -0.1855 -0.1666 1.187 -0.413294 -0.5935864 0.08517207 -1.531341 -1.239984 -7.95591 0.7013 0.1072 0.8166 0.2376333

0.8395033 -0.1183333 -1.629265 1.047708 -1.872729 -8.05303 -0.1855 -0.1666 1.187 -0.413294 -0.5935864 0.08517207 -1.531341 -1.239984 -7.95591 0.7013 0.1072 0.8166 0.2376333

1.178097 -0.3440044 -1.44618 1.062423 -1.524474 -8.135433 -0.211 -0.1336 1.167 -0.705462 -0.1701696 0.1741838 -3.146067 -0.809325 -7.695945 0.7352 0.079 0.7765 0.2376333

1.205324 -0.2230531 -1.369211 0.958437 -1.610802 -8.312994 -0.211 -0.1336 1.167 -0.6925467 -0.09826204 0.07452556 -3.565935 -0.649422 -7.597846 0.7414 0.0688 0.7604 0.2376333

1.28369 -0.241379 -1.338144 1.03005 -1.754028 -8.431695 -0.2263 -0.1084 1.1585 -0.7609635 -0.2713987 0.026529 -3.592422 -0.471861 -7.680249 0.7414 0.0688 0.7604 0.296706

1.28369 -0.241379 -1.338144 1.03005 -1.754028 -8.431695 -0.2263 -0.1084 1.1585 -0.7609635 -0.2713987 0.026529 -3.592422 -0.471861 -7.680249 0.7414 0.0688 0.7604 0.296706

1.413542 -0.3895575 -1.264142 1.032993 -1.88352 -8.487612 -0.2263 -0.1084 1.1585 -0.8676031 -0.4796165 0.05654867 -3.353058 -0.423792 -7.618446 0.7505 0.0396 0.756 0.296706

1.445482 -0.3223623 -1.216145 0.930969 -2.03067 -8.562168 -0.2556 -0.0789 1.1285 -0.9072222 -0.6436774 0.1848304 -3.177459 -0.307053 -7.476201 0.7505 0.0396 0.756 0.296706

1.607274 -0.3506367 -1.226792 0.9849241 -2.173896 -8.503308 -0.2556 -0.0789 1.1285 -0.9669124 -0.7611381 0.3768166 -3.167649 -0.01962 -7.533099 0.7653 0.0021 0.7424 0.3584638

1.607274 -0.3506367 -1.226792 0.9849241 -2.173896 -8.503308 -0.2556 -0.0789 1.1285 -0.9669124 -0.7611381 0.3768166 -3.167649 -0.01962 -7.533099 0.7653 0.0021 0.7424 0.3584638

1.669931 -0.5478588 -1.111775 1.115397 -2.379906 -8.520967 -0.3042 -0.0438 1.0895 -1.09851 -0.8576548 0.2403318 -3.29616 0.133416 -7.588036 0.7653 0.0021 0.7424 0.3584638

1.669931 -0.5478588 -1.111775 1.115397 -2.379906 -8.520967 -0.3042 -0.0438 1.0895 -1.154012 -0.6356489 0.2268928 -3.613023 0.238383 -7.545853 0.7825 -0.0294 0.7061 0.3584638

1.994562 -0.5846853 -0.686787 1.054575 -3.490398 -8.707356 -0.3461 0.076 0.9934 -1.16588 -0.5223771 0.1598722 -4.098618 0.457146 -7.556643 0.7825 -0.0294 0.7061 0.3584638

1.994562 -0.5846853 -0.686787 1.054575 -3.490398 -8.707356 -0.3461 0.076 0.9934 -1.16588 -0.5223771 0.1598722 -4.098618 0.457146 -7.556643 0.7825 -0.0294 0.7061 0.3584638

1.937315 -0.6183702 -0.7026695 0.939798 -3.879855 -8.773084 -0.3461 0.076 0.9934 -1.137955 -0.3829252 0.07801621 -4.466493 0.803439 -7.564491 0.8041 -0.0627 0.6949 0.3584638

1.792628 -0.6862634 -0.7297222 1.026126 -4.605795 -8.808399 -0.3647 0.1329 0.9499 -1.105666 -0.1775 0.01902409 -4.769622 1.054575 -7.546833 0.8041 -0.0627 0.6949 0.3584638

1.792628 -0.6862634 -0.7297222 1.026126 -4.605795 -8.808399 -0.3647 0.1329 0.9499 -1.089435 -0.1021018 -0.06894051 -5.02272 1.360647 -7.390854 0.8141 -0.1046 0.6743 0.3584638

2.037672 -0.4742059 -0.7120943 1.06929 -5.310153 -8.949663 -0.3893 0.1924 0.8944 -1.089435 -0.1021018 -0.06894051 -5.02272 1.360647 -7.390854 0.8141 -0.1046 0.6743 0.3584638

2.272418 -0.3595378 -0.6558948 0.764199 -5.514201 -9.072289 -0.3893 0.1924 0.8944 -1.089435 -0.1021018 -0.06894051 -5.02272 1.360647 -7.390854 0.8141 -0.1046 0.6743 0.3584638

2.272418 -0.3595378 -0.6558948 0.764199 -5.514201 -9.072289 -0.3893 0.1924 0.8944 -1.234995 -0.7489208 -0.08307768 -4.342887 2.371077 -7.11225 0.852 -0.2159 0.5891 0.3584638

2.306802 -0.5347689 -0.5311037 0.800496 -5.697648 -8.890803 -0.436 0.2568 0.7988 -1.234995 -0.7489208 -0.08307768 -4.342887 2.371077 -7.11225 0.852 -0.2159 0.5891 0.3584638

2.453235 -0.6073745 -0.5818928 1.01043 -6.237198 -8.586693 -0.436 0.2568 0.7988 -1.260477 -0.8784242 -0.07365289 -4.521429 2.559429 -7.125003 0.852 -0.2159 0.5891 0.3584638

2.453235 -0.6073745 -0.5818928 1.01043 -6.237198 -8.586693 -0.436 0.2568 0.7988 -1.218065 -0.7014478 -0.06859144 -4.906962 2.799774 -7.125003 0.8727 -0.2364 0.5695 0.3584638

2.564238 -0.4710644 -0.6803293 0.970209 -6.769881 -8.412076 -0.4637 0.3234 0.7132 -1.191885 -0.5988225 -0.1075123 -5.164965 3.126447 -6.989625 0.8727 -0.2364 0.5695 0.3584638

2.562841 -0.352382 -0.6483898 0.842679 -7.289811 -8.310052 -0.4637 0.3234 0.7132 -1.191885 -0.5988225 -0.1075123 -5.164965 3.126447 -6.989625 0.8727 -0.2364 0.5695 0.5222562

2.562841 -0.352382 -0.6483898 0.842679 -7.289811 -8.310052 -0.4637 0.3234 0.7132 -1.210909 -0.6236061 -0.1968731 -5.334678 3.330495 -6.891525 0.9013 -0.2607 0.5307 0.5222562

2.550799 -0.4269075 -0.5213299 0.925083 -7.680249 -8.047143 -0.4803 0.386 0.6058 -1.243547 -0.5962045 -0.251851 -5.64958 3.562992 -6.730641 0.912 -0.2787 0.4976 0.5222562

2.458645 -0.5110324 -0.4724606 1.014354 -7.991226 -7.625313 -0.4803 0.386 0.6058 -1.243547 -0.5962045 -0.251851 -5.64958 3.562992 -6.730641 0.912 -0.2787 0.4976 0.5222562

2.458645 -0.5110324 -0.4724606 1.014354 -7.991226 -7.625313 -0.4803 0.386 0.6058 -1.134639 -0.3958407 -0.2399828 -6.032169 3.970107 -6.617826 0.912 -0.2787 0.4976 0.562533

2.458645 -0.5110324 -0.4724606 1.014354 -7.991226 -7.625313 -0.4803 0.386 0.6058 -1.020145 -0.1816888 -0.3281219 -6.181282 4.17906 -6.550137 0.9145 -0.3035 0.4556 0.562533

2.458645 -0.5110324 -0.4724606 1.014354 -7.991226 -7.625313 -0.4803 0.386 0.6058 -1.020145 -0.1816888 -0.3281219 -6.181282 4.17906 -6.550137 0.9145 -0.3035 0.4556 0.562533

2.458645 -0.5110324 -0.4724606 1.014354 -7.991226 -7.625313 -0.4803 0.386 0.6058 -1.092402 -0.1966986 -0.4600688 -6.153813 4.170231 -6.301945 0.9145 -0.3035 0.4556 0.562533

1.662077 -0.593761 -0.3735004 1.259604 -9.732501 -5.286609 -0.5426 0.4899 0.1867 -1.138478 -0.3359759 -0.4858997 -6.169509 4.366431 -6.087106 0.9308 -0.3018 0.4188 0.562533

1.368862 -0.6763151 -0.3590142 1.33416 -9.901234 -4.957974 -0.5584 0.5083 0.0565 -1.138478 -0.3359759 -0.4858997 -6.169509 4.366431 -6.087106 0.9308 -0.3018 0.4188 0.562533

1.368862 -0.6763151 -0.3590142 1.33416 -9.901234 -4.957974 -0.5584 0.5083 0.0565 -1.035155 -0.2326524 -0.4799655 -6.361785 4.633263 -6.076314 0.9308 -0.3018 0.4188 0.562533

1.227664 -0.5907939 -0.452913 1.234098 -10.07193 -4.889304 -0.5584 0.5083 0.0565 -1.035155 -0.2326524 -0.4799655 -6.361785 4.633263 -6.076314 0.9308 -0.3018 0.4188 0.562533

1.070585 -0.3878121 -0.4895648 1.123245 -10.08762 -4.860855 -0.5811 0.5076 -0.0631 -1.035155 -0.2326524 -0.4799655 -6.361785 4.633263 -6.076314 0.9308 -0.3018 0.4188 0.6095227

1.070585 -0.3878121 -0.4895648 1.123245 -10.08762 -4.860855 -0.5811 0.5076 -0.0631 -1.035155 -0.2326524 -0.4799655 -6.361785 4.633263 -6.076314 0.9308 -0.3018 0.4188 0.6095227

1.137082 -0.3242822 -0.4026474 1.215459 -9.910063 -4.733325 -0.5811 0.5076 -0.0631 -1.035155 -0.2326524 -0.4799655 -6.361785 4.633263 -6.076314 0.9308 -0.3018 0.4188 0.6095227

1.148776 -0.1616175 -0.3279474 1.200744 -9.783514 -4.63032 -0.5703 0.4787 -0.1446 -0.7920305 0.09634218 -0.7300712 -6.62175 4.974651 -5.476923 1.0043 -0.2879 0.3133 0.6095227

1.148776 -0.1616175 -0.3279474 1.200744 -9.783514 -4.63032 -0.5703 0.4787 -0.1446 -0.8267624 -0.03857178 -0.7346091 -6.518745 4.971708 -5.347431 1.0043 -0.2879 0.3133 0.6122078

1.08001 0.04852015 -0.2188643 1.193877 -9.666775 -4.458645 -0.551 0.4395 -0.2218 -0.8267624 -0.03857178 -0.7346091 -6.518745 4.971708 -5.347431 1.0043 -0.2879 0.3133 0.6122078

1.073377 0.1150172 -0.09215339 1.309635 -9.534339 -4.146687 -0.551 0.4395 -0.2218 -0.8496263 -0.1534144 -0.7326892 -6.392196 4.968765 -5.270913 1.0095 -0.2764 0.2914 0.6122078

1.001819 0.1302016 0.03193953 1.354761 -9.598104 -3.958335 -0.5212 0.3978 -0.3227 -0.8061675 -0.1446878 -0.7056366 -6.384348 4.948164 -5.217939 1.0095 -0.2764 0.2914 0.6122078

1.001819 0.1302016 0.03193953 1.354761 -9.598104 -3.958335 -0.5212 0.3978 -0.3227 -0.7253588 -0.07068584 -0.7470009 -6.497163 4.995252 -5.172813 1.0116 -0.2585 0.2737 0.6068376

0.6024877 0.3813545 0.124791 1.208592 -9.761931 -3.913209 -0.5212 0.3978 -0.3227 -0.7253588 -0.07068584 -0.7470009 -6.497163 4.995252 -5.172813 1.0116 -0.2585 0.2737 0.6068376

0.6024877 0.3813545 0.124791 1.208592 -9.761931 -3.913209 -0.5212 0.3978 -0.3227 -0.6668903 0.02443461 -0.779464 -6.578586 5.108067 -5.109048 1.0116 -0.2585 0.2737 0.6068376

0.448026 0.5230752 0.2117084 1.190934 -9.704052 -3.780774 -0.4938 0.3451 -0.4103 -0.6668903 0.02443461 -0.779464 -6.578586 5.108067 -5.109048 1.0116 -0.2585 0.2737 0.6068376

0.2724459 0.7859218 0.5288348 0.9476461 -9.542188 -3.715047 -0.4938 0.3451 -0.4103 -0.598997 0.1207768 -0.7974409 -6.689439 5.133573 -5.067846 1.0104 -0.2351 0.25 0.6111338

0.7911578 1.018749 0.7511897 0.800496 -8.961435 -3.539448 -0.4551 0.2891 -0.4676 -0.598997 0.1207768 -0.7974409 -6.689439 5.133573 -5.067846 1.0104 -0.2351 0.25 0.6111338

0.7911578 1.018749 0.7511897 0.800496 -8.961435 -3.539448 -0.4551 0.2891 -0.4676 -0.598997 0.1207768 -0.7974409 -6.689439 5.133573 -5.067846 1.0104 -0.2351 0.25 0.6111338

1.485624 0.9548696 0.7396706 0.8603371 -8.653401 -3.211794 -0.4551 0.2891 -0.4676 -0.598997 0.1207768 -0.7974409 -6.689439 5.133573 -5.067846 1.0104 -0.2351 0.25 0.6111338

1.318771 0.702495 0.7597418 0.903501 -9.049726 -2.837052 -0.3629 0.2363 -0.5047 -0.3455752 0.2082178 -0.5864306 -6.313716 5.257179 -4.926582 1.0525 -0.1734 0.2166 0.6111338

0.2600541 0.7380998 0.6215118 0.709263 -10.00031 -2.900817 -0.2579 0.1726 -0.5341 -0.3378958 0.1272345 -0.5846853 -6.12144 5.221863 -4.939335 1.0636 -0.1534 0.2021 0.6111338

0.2600541 0.7380998 0.6215118 0.709263 -10.00031 -2.900817 -0.2579 0.1726 -0.5341 -0.3378958 0.1272345 -0.5846853 -6.12144 5.221863 -4.939335 1.0636 -0.1534 0.2021 0.6111338

-0.3104941 1.101303 0.0970403 0.486576 -10.31031 -3.121542 -0.2579 0.1726 -0.5341 -0.4263839 0.03054326 -0.5742133 -6.129289 5.026644 -4.920696 1.0636 -0.1534 0.2021 0.6111338

-0.3197443 1.256986 -0.1054179 0.341388 -10.12196 -3.262806 -0.1682 0.0977 -0.5265 -0.3857178 0.06684611 -0.5000368 -6.163623 5.026644 -4.943259 1.0598 -0.1176 0.1912 0.6111338

-0.3619813 1.243547 -0.06928957 0.516987 -9.75997 -2.996955 -0.1682 0.0977 -0.5265 -0.3857178 0.06684611 -0.5000368 -6.163623 5.026644 -4.943259 1.0598 -0.1176 0.1912 0.6025413

-0.3619813 1.243547 -0.06928957 0.516987 -9.75997 -2.996955 -0.1682 0.0977 -0.5265 -0.3857178 0.06684611 -0.5000368 -6.163623 5.026644 -4.943259 1.0598 -0.1176 0.1912 0.6025413

-0.2511529 0.9211848 0.04869469 0.8897671 -9.480385 -2.532942 -0.0905 0.0507 -0.5108 -0.3857178 0.06684611 -0.5000368 -6.163623 5.026644 -4.943259 1.0598 -0.1176 0.1912 0.6025413

-0.185354 0.694641 0.05078908 1.016316 -9.396999 -2.206269 -0.0905 0.0507 -0.5108 -0.3857178 0.06684611 -0.5000368 -6.163623 5.026644 -4.943259 1.0598 -0.1176 0.1912 0.6025413

-0.185354 0.694641 0.05078908 1.016316 -9.396999 -2.206269 -0.0905 0.0507 -0.5108 -0.169646 -0.04450589 -0.2581342 -6.096915 4.74804 -4.933449 1.0633 -0.086 0.1973 0.5738106

0.05585054 0.5977753 -0.02373648 1.032012 -9.406809 -2.131713 -0.0104 0.024 -0.498 -0.09128072 -0.003490658 -0.1975713 -6.123402 4.704876 -4.879494 1.0633 -0.086 0.1973 0.5738106

0.06143559 0.6379178 0.05899213 0.9476461 -9.558865 -2.287692 -0.0104 0.024 -0.498 -0.09128072 -0.003490658 -0.1975713 -6.123402 4.704876 -4.879494 1.0633 -0.086 0.1973 0.5738106

0.108734 0.7190757 0.05585054 1.02024 -9.704052 -2.405412 0.0509 0.0018 -0.4928 -0.06405359 -0.05009095 -0.1684243 -6.226407 4.749022 -4.814748 1.0598 -0.0753 0.2032 0.5738106

0.108734 0.7190757 0.05585054 1.02024 -9.704052 -2.405412 0.0509 0.0018 -0.4928 -0.111352 -0.1260128 -0.1733112 -6.29704 4.660731 -4.78728 1.0598 -0.0753 0.2032 0.5219877

0.02635447 0.6956882 0.008726646 1.13796 -9.840412 -2.196459 0.0888 -0.0262 -0.468 -0.111352 -0.1260128 -0.1733112 -6.29704 4.660731 -4.78728 1.0598 -0.0753 0.2032 0.5219877

0.02635447 0.6956882 0.008726646 1.13796 -9.840412 -2.196459 0.0888 -0.0262 -0.468 -0.07138397 -0.1155408 -0.1724385 -6.407892 4.476303 -4.789242 1.0517 -0.0548 0.1892 0.5219877

-0.04468043 0.5286602 0.05689773 1.256661 -9.745255 -1.764819 0.0888 -0.0262 -0.468 0.00593412 0.0577704 -0.1350885 -6.656085 4.432158 -4.818672 1.0517 -0.0548 0.1892 0.5219877

-0.1099557 0.3024656 0.16441 1.31454 -9.732501 -1.496025 0.1239 -0.0606 -0.4185 0.00593412 0.0577704 -0.1350885 -6.656085 4.432158 -4.818672 1.0517 -0.0548 0.1892 0.4962105

-0.1099557 0.3024656 0.16441 1.31454 -9.732501 -1.496025 0.1239 -0.0606 -0.4185 0.03420845 0.150971 -0.1188569 -6.937632 4.478265 -4.769622 1.0685 -0.0346 0.1668 0.4962105

-0.1099557 0.3024656 0.16441 1.31454 -9.732501 -1.496025 0.1239 -0.0606 -0.4185 0.03420845 0.150971 -0.1188569 -6.937632 4.478265 -4.769622 1.0685 -0.0346 0.1668 0.4962105

-0.1099557 0.3024656 0.16441 1.31454 -9.732501 -1.496025 0.1239 -0.0606 -0.4185 0.03420845 0.150971 -0.1188569 -6.937632 4.478265 -4.769622 1.0685 -0.0346 0.1668 0.4962105

-0.3218387 0.004363323 -0.3237586 0.770085 -10.11411 -1.8639 0.1749 -0.0671 -0.4016 0.08779006 -0.02076942 -0.08499753 -6.339222 4.560669 -4.637187 1.0772 0.0094 0.1638 0.4809054

-0.166679 0.4040437 -0.2502802 0.396324 -10.56929 -1.033974 0.1749 -0.0671 -0.4016 0.08779006 -0.02076942 -0.08499753 -6.339222 4.560669 -4.637187 1.0772 0.0094 0.1638 0.4809054

-0.166679 0.4040437 -0.2502802 0.396324 -10.56929 -1.033974 0.1749 -0.0671 -0.4016 -0.09948377 -0.1837832 -0.06667157 -5.917392 4.416462 -4.597947 1.0705 0.0106 0.1797 0.4809054

0.2047271 0.04572763 -0.3618068 -0.30411 -10.03465 -1.099701 0.2018 -0.0748 -0.4074 -0.1652827 -0.2324778 0.01623156 -5.708439 4.33602 -4.47336 1.0705 0.0106 0.1797 0.4809054

0.2055998 -0.08866272 -0.6253515 -0.328635 -9.786457 -0.732807 0.2092 -0.0723 -0.3995 -0.1652827 -0.2324778 0.01623156 -5.708439 4.33602 -4.47336 1.0705 0.0106 0.1797 0.4680167

0.2055998 -0.08866272 -0.6253515 -0.328635 -9.786457 -0.732807 0.2092 -0.0723 -0.3995 -0.1984439 -0.2286381 0.07679449 -5.697648 4.37526 -4.398804 1.0564 0.0042 0.1934 0.4680167

0.1029744 -0.2858849 -0.8288569 -0.462051 -10.18376 -0.438507 0.2092 -0.0723 -0.3995 -0.2476622 -0.1151917 0.04468043 -5.712363 4.270293 -4.465512 1.0564 0.0042 0.1934 0.4680167

0.2047271 -0.6820747 -0.8428195 -0.466956 -10.42705 -0.05886 0.2102 -0.0743 -0.3877 -0.2476622 -0.1151917 0.04468043 -5.712363 4.270293 -4.465512 1.0564 0.0042 0.1934 0.4680167

0.2047271 -0.6820747 -0.8428195 -0.466956 -10.42705 -0.05886 0.2102 -0.0743 -0.3877 -0.304909 -0.0567232 0.1230457 -5.763375 4.184946 -4.467474 1.0438 0.0129 0.1921 0.4529801

0.2635447 -1.086118 -0.7651523 -0.272718 -10.4349 0.446355 0.2102 -0.0743 -0.3877 -0.304909 -0.0567232 0.1230457 -5.763375 4.184946 -4.467474 1.0438 0.0129 0.1921 0.4529801

0.365821 -1.392249 -0.7656759 -0.001962 -10.58401 0.741636 0.1928 -0.0734 -0.3936 -0.405789 -0.1230457 0.2598795 -5.926221 4.125105 -4.386051 1.0438 0.0129 0.1921 0.4529801

0.365821 -1.392249 -0.7656759 -0.001962 -10.58401 0.741636 0.1928 -0.0734 -0.3936 -0.4365068 0.004537856 0.4159119 -6.285267 4.182984 -4.221243 1.0541 0.0098 0.1703 0.4529801

0.3675663 -1.44618 -0.7920305 0.08927101 -10.6517 0.8515081 0.1928 -0.0734 -0.3936 -0.4365068 0.004537856 0.4159119 -6.285267 4.182984 -4.221243 1.0541 0.0098 0.1703 0.451369

0.3675663 -1.44618 -0.7920305 0.08927101 -10.6517 0.8515081 0.1928 -0.0734 -0.3936 -0.4365068 0.004537856 0.4159119 -6.285267 4.182984 -4.221243 1.0541 0.0098 0.1703 0.451369

0.4581489 -1.523672 -0.7470009 -0.015696 -10.73214 0.9201781 0.1708 -0.0733 -0.3831 -0.4365068 0.004537856 0.4159119 -6.285267 4.182984 -4.221243 1.0541 0.0098 0.1703 0.451369

0.69691 -1.697856 -0.5548402 0.057879 -10.65268 1.003563 0.1708 -0.0733 -0.3831 -0.8651597 0.07068584 0.3021165 -7.236837 4.272255 -3.369735 1.0662 -0.007 0.1621 0.451369

0.69691 -1.697856 -0.5548402 0.057879 -10.65268 1.003563 0.1708 -0.0733 -0.3831 -0.9192649 0.1286308 0.2080432 -7.496802 4.362507 -3.259863 1.0654 -0.0421 0.1743 0.4975531

0.8463102 -1.746027 -0.3145083 0.266832 -10.38192 1.152675 0.1599 -0.0776 -0.3513 -0.9192649 0.1286308 0.2080432 -7.496802 4.362507 -3.259863 1.0654 -0.0421 0.1743 0.4975531

0.8463102 -1.746027 -0.3145083 0.266832 -10.38192 1.152675 0.1599 -0.0776 -0.3513 -0.9941395 0.2008874 0.1392773 -7.745976 4.478265 -3.114675 1.0654 -0.0421 0.1743 0.4975531

0.8463102 -1.746027 -0.3145083 0.266832 -10.38192 1.152675 0.1599 -0.0776 -0.3513 -1.081755 0.2792527 0.06300639 -8.00398 4.60089 -2.954772 1.065 -0.066 0.1747 0.593412

0.8463102 -1.746027 -0.3145083 0.266832 -10.38192 1.152675 0.1599 -0.0776 -0.3513 -1.204277 0.3773402 -0.0863938 -8.20116 4.644054 -2.890026 1.065 -0.066 0.1747 0.593412

0.8070403 -1.93557 -0.4194026 1.228212 -10.50749 1.259604 0.1637 -0.1269 -0.2895 -1.204277 0.3773402 -0.0863938 -8.20116 4.644054 -2.890026 1.065 -0.066 0.1747 0.593412

0.8536406 -2.085668 -0.3623303 1.551942 -10.38977 1.224288 0.1637 -0.1269 -0.2895 -1.247387 0.5031784 -0.2104867 -8.345367 4.683294 -2.792907 1.0625 -0.0781 0.1583 0.593412

0.8536406 -2.085668 -0.3623303 1.551942 -10.38977 1.224288 0.1637 -0.1269 -0.2895 -1.214051 0.6558948 -0.2548181 -8.488593 4.825539 -2.69775 1.0625 -0.0781 0.1583 0.593412

0.8117526 -2.119004 -0.3810054 1.675548 -10.30737 1.131093 0.1678 -0.1486 -0.2479 -1.214051 0.6558948 -0.2548181 -8.488593 4.825539 -2.69775 1.0625 -0.0781 0.1583 0.593412

0.8117526 -2.119004 -0.3810054 1.675548 -10.30737 1.131093 0.1678 -0.1486 -0.2479 -1.216145 0.7949975 -0.3316126 -8.588655 4.978575 -2.68794 1.0572 -0.0651 0.1609 0.5355476

0.7431612 -2.076593 -0.3745476 1.704978 -10.223 1.009449 0.1678 -0.1486 -0.2479 -1.262571 0.8061675 -0.4733333 -8.61318 5.088447 -2.677149 1.0572 -0.0651 0.1609 0.5355476

0.6908013 -2.083923 -0.3178245 1.829565 -10.15139 0.848565 0.1338 -0.1712 -0.1744 -1.262571 0.8061675 -0.4733333 -8.61318 5.088447 -2.677149 1.0572 -0.0651 0.1609 0.5355476

0.6908013 -2.083923 -0.3178245 1.829565 -10.15139 0.848565 0.1338 -0.1712 -0.1744 -1.262571 0.8061675 -0.4733333 -8.61318 5.088447 -2.677149 1.0572 -0.0651 0.1609 0.9330799

0.7222173 -2.12232 -0.2796018 1.924722 -10.00228 0.704358 0.1338 -0.1712 -0.1744 -1.262571 0.8061675 -0.4733333 -8.61318 5.088447 -2.677149 1.0572 -0.0651 0.1609 0.9330799

0.7222173 -2.12232 -0.2796018 1.924722 -10.00228 0.704358 0.1338 -0.1712 -0.1744 -1.329243 0.9679596 -0.7848746 -8.077555 5.568156 -2.564334 1.0665 -0.0371 0.223 0.9330799

0.7358308 -2.164208 -0.2244493 2.017917 -9.930663 0.560151 0.0726 -0.1736 -0.0823 -1.329243 0.9679596 -0.7848746 -8.077555 5.568156 -2.564334 1.0665 -0.0371 0.223 0.9330799

0.7227408 -2.199289 -0.1558579 2.081682 -9.89829 0.378666 -0.0153 -0.1334 -0.0493 -1.375494 0.9564404 -0.8511971 -7.949043 5.634864 -2.524113 1.0665 -0.0371 0.223 0.9599311

0.7138397 -2.149024 -0.07557275 1.945323 -9.810982 0.194238 -0.0153 -0.1334 -0.0493 -1.375494 0.9564404 -0.8511971 -7.949043 5.634864 -2.524113 1.0665 -0.0371 0.223 0.9599311

0.7138397 -2.149024 -0.07557275 1.945323 -9.810982 0.194238 -0.0153 -0.1334 -0.0493 -1.379857 0.9562659 -0.9025097 -7.831324 5.733945 -2.551581 1.0659 -0.0273 0.2566 0.9599311

0.7096509 -2.111499 -0.04991641 1.944342 -9.764874 -0.031392 -0.1473 -0.0889 -0.0418 -1.317375 1.017178 -0.9635963 -7.737147 5.853627 -2.567277 1.0659 -0.0273 0.2566 0.9599311

0.7096509 -2.111499 -0.04991641 1.944342 -9.764874 -0.031392 -0.1473 -0.0889 -0.0418 -1.317375 1.017178 -0.9635963 -7.737147 5.853627 -2.567277 1.0659 -0.0273 0.2566 0.9626162

0.7096509 -2.111499 -0.04991641 1.944342 -9.764874 -0.031392 -0.1473 -0.0889 -0.0418 -1.294162 1.052433 -1.003564 -7.676326 5.893848 -2.529999 1.0434 0.0042 0.2848 0.9626162

0.7096509 -2.111499 -0.04991641 1.944342 -9.764874 -0.031392 -0.1473 -0.0889 -0.0418 -1.294162 1.052433 -1.003564 -7.676326 5.893848 -2.529999 1.0434 0.0042 0.2848 0.9626162

0.4352851 -1.809557 -0.02251475 1.948266 -9.448992 -0.645498 -0.3395 -0.0814 -0.0019 -1.339191 1.039169 -0.9882054 -7.545853 5.899734 -2.454462 1.0434 0.0042 0.2848 0.9626162

0.4352851 -1.809557 -0.02251475 1.948266 -9.448992 -0.645498 -0.3395 -0.0814 -0.0019 -1.339191 1.039169 -0.9882054 -7.545853 5.899734 -2.454462 1.0434 0.0042 0.2848 0.9505332

0.2844886 -1.64061 0.02303835 1.787382 -9.503928 -0.878976 -0.3395 -0.0814 -0.0019 -1.339191 1.039169 -0.9882054 -7.545853 5.899734 -2.454462 1.0434 0.0042 0.2848 0.9505332

0.3865904 -1.713913 0.116588 1.75599 -9.45586 -0.9692281 -0.4472 -0.0819 0.0906 -1.276534 0.824319 -1.09118 -7.273134 5.988024 -2.531961 0.9951 0.0561 0.3569 0.9505332

0.3865904 -1.713913 0.116588 1.75599 -9.45586 -0.9692281 -0.4472 -0.0819 0.0906 -1.218938 0.8435177 -1.116836 -7.183863 5.9635 -2.537847 0.9561 0.0896 0.3931 0.9505332

0.336325 -1.683196 0.06684611 1.894311 -9.294975 -1.031031 -0.5384 -0.0611 0.1957 -1.218938 0.8435177 -1.116836 -7.183863 5.9635 -2.537847 0.9561 0.0896 0.3931 0.9142841

0.1668535 -1.489464 0.004363323 1.829565 -9.356779 -1.251756 -0.5384 -0.0611 0.1957 -1.143365 0.8679522 -1.105317 -7.164243 6.041979 -2.61927 0.9561 0.0896 0.3931 0.9142841

0.1668535 -1.489464 0.004363323 1.829565 -9.356779 -1.251756 -0.5384 -0.0611 0.1957 -1.166229 0.7506661 -1.12853 -7.11225 6.127326 -2.672244 0.9396 0.1126 0.4367 0.9142841

0.2164208 -1.484752 0.1689479 1.662795 -9.385227 -1.434222 -0.5945 -0.0208 0.2906 -1.166229 0.7506661 -1.12853 -7.11225 6.127326 -2.672244 0.9396 0.1126 0.4367 0.8793774

0.3548254 -1.530654 0.302291 1.678491 -9.192951 -1.539189 -0.5945 -0.0208 0.2906 -1.119454 0.6958628 -1.10776 -7.001397 6.056694 -2.654586 0.9396 0.1126 0.4367 0.8793774

0.3548254 -1.530654 0.302291 1.678491 -9.192951 -1.539189 -0.5945 -0.0208 0.2906 -0.9766862 0.774228 -0.970403 -6.98472 6.016473 -2.681073 0.9103 0.1221 0.4738 0.8793774

0.3492404 -1.35071 0.2293363 1.689282 -9.120358 -1.808964 -0.6453 0.0377 0.4022 -0.9384636 0.7017969 -0.8840093 -6.988645 6.020397 -2.720313 0.9103 0.1221 0.4738 0.8229899

0.2897246 -1.196074 0.1455605 1.506816 -9.249849 -1.987506 -0.6453 0.0377 0.4022 -0.9384636 0.7017969 -0.8840093 -6.988645 6.020397 -2.720313 0.9103 0.1221 0.4738 0.8229899

0.2897246 -1.196074 0.1455605 1.506816 -9.249849 -1.987506 -0.6453 0.0377 0.4022 -1.054703 0.4717625 -0.8916887 -6.82776 5.869323 -2.725218 0.8598 0.1284 0.4916 0.8229899

0.3565708 -1.168672 0.2485349 1.38321 -9.403866 -2.083644 -0.6756 0.1072 0.4864 -1.054703 0.4717625 -0.8916887 -6.82776 5.869323 -2.725218 0.8598 0.1284 0.4916 0.8229899

0.4098033 -1.063953 0.3389429 1.357704 -9.403866 -2.144466 -0.6756 0.1072 0.4864 -1.054703 0.4717625 -0.8916887 -6.82776 5.869323 -2.725218 0.8598 0.1284 0.4916 0.77063

0.4098033 -1.063953 0.3389429 1.357704 -9.403866 -2.144466 -0.6756 0.1072 0.4864 -1.054703 0.4717625 -0.8916887 -6.82776 5.869323 -2.725218 0.8598 0.1284 0.4916 0.77063

0.4178318 -0.8340929 0.3242822 1.212516 -9.390132 -2.221965 -0.6987 0.1915 0.5312 -0.9220574 0.2281145 -0.7079056 -6.732603 5.734926 -2.832147 0.8016 0.1079 0.5553 0.77063

0.4178318 -0.8340929 0.3242822 1.212516 -9.390132 -2.221965 -0.6987 0.1915 0.5312 -0.9220574 0.2281145 -0.7079056 -6.732603 5.734926 -2.832147 0.8016 0.1079 0.5553 0.77063

0.2310816 -0.7260569 0.2680826 0.949608 -9.400924 -2.248452 -0.731 0.2768 0.5468 -0.8710938 0.1298525 -0.6843436 -6.795388 5.740812 -2.862558 0.7918 0.1086 0.5825 0.7169276

0.3440044 -0.8735372 0.3686135 1.012392 -9.583389 -2.185668 -0.731 0.2768 0.5468 -0.7703883 0.1766273 -0.6607817 -7.016112 5.698629 -2.904741 0.7918 0.1086 0.5825 0.7169276

0.3440044 -0.8735372 0.3686135 1.012392 -9.583389 -2.185668 -0.731 0.2768 0.5468 -0.7703883 0.1766273 -0.6607817 -7.016112 5.698629 -2.904741 0.7918 0.1086 0.5825 0.7169276

0.3440044 -0.8735372 0.3686135 1.012392 -9.583389 -2.185668 -0.731 0.2768 0.5468 -0.6511824 0.2958333 -0.5925393 -7.196617 5.64958 -2.969487 0.7809 0.1065 0.5916 0.6887338

0.3440044 -0.8735372 0.3686135 1.012392 -9.583389 -2.185668 -0.731 0.2768 0.5468 -0.6206391 0.2537709 -0.5468116 -7.217217 5.521068 -2.906703 0.7809 0.1065 0.5916 0.6887338

0.2124066 -0.4248132 0.3253294 0.995715 -9.815886 -2.023803 -0.8232 0.518 0.4085 -0.6558948 0.1303761 -0.5523967 -7.228989 5.37588 -2.761515 0.7628 0.0965 0.5954 0.6887338

0.07766715 -0.2724459 0.3260275 0.944703 -9.942435 -1.871748 -0.8232 0.518 0.4085 -0.6558948 0.1303761 -0.5523967 -7.228989 5.37588 -2.761515 0.7628 0.0965 0.5954 0.6887338

0.07766715 -0.2724459 0.3260275 0.944703 -9.942435 -1.871748 -0.8232 0.518 0.4085 -0.604233 0.148353 -0.5129523 -7.364367 5.345469 -2.72718 0.7628 0.0965 0.5954 0.6887338

0.05044002 -0.3275983 0.3204425 1.071252 -9.987561 -1.629441 -0.8461 0.5725 0.3562 -0.604233 0.148353 -0.5129523 -7.364367 5.345469 -2.72718 0.7628 0.0965 0.5954 0.6887338

0.05044002 -0.3275983 0.3204425 1.071252 -9.987561 -1.629441 -0.8461 0.5725 0.3562 -0.604233 0.148353 -0.5129523 -7.364367 5.345469 -2.72718 0.7628 0.0965 0.5954 0.6887338

-0.0429351 -0.40544 0.2565634 1.096758 -10.07585 -1.64808 -0.8739 0.6205 0.2917 -0.604233 0.148353 -0.5129523 -7.364367 5.345469 -2.72718 0.7628 0.0965 0.5954 0.6108652

-0.2038545 -0.2724459 0.1410226 1.022202 -9.955188 -1.581372 -0.8739 0.6205 0.2917 -0.4288274 -0.01937315 -0.3333579 -7.5537 4.992309 -2.557467 0.7632 0.0729 0.5858 0.6108652

0.03124139 -0.2474877 0.2249729 0.955494 -9.585352 -1.399887 -0.8974 0.6577 0.2283 -0.4288274 -0.01937315 -0.3333579 -7.5537 4.992309 -2.557467 0.7632 0.0729 0.5858 0.6108652

0.03124139 -0.2474877 0.2249729 0.955494 -9.585352 -1.399887 -0.8974 0.6577 0.2283 -0.4288274 -0.01937315 -0.3333579 -7.5537 4.992309 -2.557467 0.7632 0.0729 0.5858 0.6108652

0.03508112 -0.2061234 0.3302163 0.782838 -9.570637 -1.458747 -0.8974 0.6577 0.2283 -0.4717625 -0.07504916 -0.3422591 -7.467372 4.796109 -2.520189 0.7618 0.0528 0.5717 0.5692459

0.03508112 -0.2061234 0.3302163 0.782838 -9.570637 -1.458747 -0.8974 0.6577 0.2283 -0.3433063 0.0991347 -0.2462659 -7.56351 4.710762 -2.502531 0.7618 0.0528 0.5717 0.5692459

-0.026529 -0.1371829 0.3228859 0.775971 -9.506871 -1.421469 -0.906 0.6774 0.196 -0.3433063 0.0991347 -0.2462659 -7.56351 4.710762 -2.502531 0.7618 0.0528 0.5717 0.5692459

-0.03263766 -0.159174 0.3207915 0.867204 -9.480385 -1.214478 -0.906 0.6774 0.196 -0.2707006 0.06998771 -0.1713913 -7.772463 4.82652 -2.572182 0.7433 0.0488 0.5799 0.5692459

-0.09721484 -0.2298599 0.3186971 0.862299 -9.638326 -1.229193 -0.923 0.6829 0.1861 -0.3904302 -0.04817109 -0.1715659 -7.765596 4.743135 -2.572182 0.7433 0.0488 0.5799 0.5491074

-0.09721484 -0.2298599 0.3186971 0.862299 -9.638326 -1.229193 -0.923 0.6829 0.1861 -0.3223623 0.01291544 -0.1605703 -7.781292 4.525353 -2.457405 0.7423 0.0449 0.5951 0.5491074

-0.137532 -0.1675516 0.2991494 0.709263 -9.663831 -1.306692 -0.923 0.6829 0.1861 -0.3223623 0.01291544 -0.1605703 -7.781292 4.525353 -2.457405 0.7423 0.0449 0.5951 0.5491074

-0.0858702 -0.06562438 0.2663372 0.5964481 -9.753102 -1.234098 -0.9361 0.6915 0.1436 -0.1797689 0.188321 -0.07260569 -7.941195 4.559688 -2.42307 0.7423 0.0449 0.5951 0.5491074

-0.1167625 -0.03211406 0.2574361 0.5356261 -9.922815 -1.276281 -0.9201 0.7042 0.1155 -0.1797689 0.188321 -0.07260569 -7.941195 4.559688 -2.42307 0.7423 0.0449 0.5951 0.5262839

-0.1167625 -0.03211406 0.2574361 0.5356261 -9.922815 -1.276281 -0.9201 0.7042 0.1155 -0.1797689 0.188321 -0.07260569 -7.941195 4.559688 -2.42307 0.7423 0.0449 0.5951 0.5262839

-0.07033677 -0.03892084 0.161443 0.51993 -9.94636 -1.32435 -0.9201 0.7042 0.1155 -0.1679007 0.0005235987 0.0418879 -7.811703 4.455702 -2.37402 0.7529 0.0111 0.6082 0.5262839

-0.03351032 -0.02600541 0.1514946 0.540531 -9.914968 -1.223307 -0.9176 0.7089 0.1174 -0.1864012 -0.07120943 0.01884956 -7.842114 4.436082 -2.353419 0.7529 0.0111 0.6082 0.5262839

-0.03351032 -0.02600541 0.1514946 0.540531 -9.914968 -1.223307 -0.9176 0.7089 0.1174 -0.1864012 -0.07120943 0.01884956 -7.842114 4.436082 -2.353419 0.7529 0.0111 0.6082 0.5262839

0.01815142 -0.1253146 0.212232 0.5964481 -9.962055 -1.23606 -0.9176 0.7089 0.1174 -0.05654867 0.0541052 0.03857178 -7.984359 4.53222 -2.382849 0.7551 0.0062 0.6071 0.5262839

0.03979351 -0.07661995 0.1958259 0.462051 -10.0219 -1.349856 -0.9424 0.7131 0.0939 -0.01954769 0.05759586 0.08691739 -7.971607 4.548897 -2.349495 0.7551 0.0062 0.6071 0.5262839

0.05462881 0.04014257 0.1719149 0.363951 -10.06702 -1.23606 -0.9424 0.7131 0.0939 -0.01954769 0.05759586 0.08691739 -7.971607 4.548897 -2.349495 0.7551 0.0062 0.6071 0.5262839

0.05462881 0.04014257 0.1719149 0.363951 -10.06702 -1.23606 -0.9424 0.7131 0.0939 -0.1129228 -0.1115265 0.03246313 -7.830342 4.419405 -2.309274 0.7448 0.0064 0.6042 0.5262839

-0.02059488 0.07330383 0.1933825 0.339426 -10.23085 -1.179162 -0.9574 0.7164 0.0747 -0.08552113 -0.1219985 0.04869469 -7.928442 4.457664 -2.294559 0.7448 0.0064 0.6042 0.5262839

-0.0884882 0.0858702 0.1226966 0.332559 -10.25734 -1.146789 -0.9574 0.7164 0.0747 0.002094395 -0.01099557 0.1104793 -8.133471 4.539087 -2.301426 0.7359 -0.0026 0.603 0.5262839

-0.05113815 0.09826204 0.1155408 0.331578 -10.17984 -0.9966961 -0.9734 0.7263 0.0602 0.002094395 -0.01099557 0.1104793 -8.133471 4.539087 -2.301426 0.7359 -0.0026 0.603 0.5262839

-0.05113815 0.09826204 0.1155408 0.331578 -10.17984 -0.9966961 -0.9734 0.7263 0.0602 -0.02478367 -0.01570796 0.08709192 -8.172711 4.480227 -2.239623 0.7359 -0.0026 0.603 0.5262839

-0.06562438 0.06126106 0.1719149 0.267813 -10.20044 -0.907425 -0.9706 0.7396 0.0436 -0.03543018 -0.04799655 0.05445427 -8.198217 4.477284 -2.222946 0.7434 -0.0086 0.5955 0.5262839

0.3625049 -0.04014257 -0.3256784 0.211896 -10.40252 -0.6994531 -0.9706 0.7396 0.0436 -0.03543018 -0.04799655 0.05445427 -8.198217 4.477284 -2.222946 0.7434 -0.0086 0.5955 0.4994327

-0.2230531 0.187972 -0.1199041 -0.050031 -10.8734 -0.712206 -0.9796 0.7538 0.0473 -0.03543018 -0.04799655 0.05445427 -8.198217 4.477284 -2.222946 0.7434 -0.0086 0.5955 0.4994327

-0.2230531 0.187972 -0.1199041 -0.050031 -10.8734 -0.712206 -0.9796 0.7538 0.0473 -0.03543018 -0.04799655 0.05445427 -8.198217 4.477284 -2.222946 0.7434 -0.0086 0.5955 0.4994327

-0.3173009 0.01500983 -0.09669124 0.164808 -10.66249 -0.395343 -0.9796 0.7538 0.0473 0.08918633 0.2202605 0.03071779 -8.186445 4.517505 -2.297502 0.7402 -0.0129 0.6171 0.4994327

-0.3042109 -0.1155408 -0.03124139 0.203067 -10.49866 -0.456165 -1.0025 0.757 0.0355 0.1193805 0.4152139 0.02251475 -8.568054 4.650921 -2.335761 0.7402 -0.0129 0.6171 0.4994327

-0.3042109 -0.1155408 -0.03124139 0.203067 -10.49866 -0.456165 -1.0025 0.757 0.0355 0.1193805 0.4152139 0.02251475 -8.568054 4.650921 -2.335761 0.7402 -0.0129 0.6171 0.4994327

-0.5160939 -0.04485496 -0.1249656 0.169713 -10.35053 -0.545436 -1.0025 0.757 0.0355 0.009250244 0.3433063 -0.0270526 -8.609257 4.555764 -2.325951 0.734 -0.0108 0.6226 0.5007752

-0.5160939 -0.04485496 -0.1249656 0.169713 -10.35053 -0.545436 -1.0025 0.757 0.0355 -0.003665191 0.2417281 -0.0003490658 -8.362044 4.433139 -2.214117 0.734 -0.0108 0.6226 0.5007752

-0.5160939 -0.04485496 -0.1249656 0.169713 -10.35053 -0.545436 -1.0025 0.757 0.0355 -0.003665191 0.2417281 -0.0003490658 -8.362044 4.433139 -2.214117 0.734 -0.0108 0.6226 0.5007752

-0.5160939 -0.04485496 -0.1249656 0.169713 -10.35053 -0.545436 -1.0025 0.757 0.0355 0.01256637 0.1761037 0.029147 -8.153091 4.430196 -2.161143 0.7313 -0.0281 0.6296 0.4994327

0.0132645 -0.05846853 0.2455678 0.457146 -9.550035 -1.040841 -1.0062 0.7445 0.0673 -0.001047197 0.140499 0.02356195 -8.080498 4.382127 -2.142504 0.7313 -0.0281 0.6296 0.4994327

0.001919862 -0.2005383 0.1603958 0.50031 -9.555922 -1.26549 -1.0062 0.7445 0.0673 -0.005235988 -0.01064651 0.03438299 -8.00496 4.332096 -2.133675 0.7391 -0.0263 0.6278 0.4994327

0.001919862 -0.2005383 0.1603958 0.50031 -9.555922 -1.26549 -1.0062 0.7445 0.0673 -0.005235988 -0.01064651 0.03438299 -8.00496 4.332096 -2.133675 0.7391 -0.0263 0.6278 0.4994327

-0.04171337 -0.1956514 0.190939 0.606258 -9.756045 -1.10853 -1.0129 0.7416 0.0923 -0.04782202 -0.1951278 0.04607669 -7.835247 4.327191 -2.116017 0.7391 -0.0263 0.6278 0.4994327

-0.09529497 -0.3663446 0.7033677 0.51012 -9.923797 -1.148751 -1.0129 0.7416 0.0923 -0.0986111 -0.2476622 0.04328417 -7.801893 4.285989 -2.121903 0.7381 -0.0164 0.6271 0.4994327

-0.09529497 -0.3663446 0.7033677 0.51012 -9.923797 -1.148751 -1.0129 0.7416 0.0923 -0.0986111 -0.2476622 0.04328417 -7.801893 4.285989 -2.121903 0.7381 -0.0164 0.6271 0.4994327

0.416261 -0.6529276 0.6185446 0.456165 -9.365607 -1.081062 -0.985 0.7297 0.1107 -0.02181662 -0.03979351 0.03839725 -7.997112 4.327191 -2.179782 0.7381 -0.0164 0.6271 0.5074881

0.416261 -0.6529276 0.6185446 0.456165 -9.365607 -1.081062 -0.985 0.7297 0.1107 -0.02181662 -0.03979351 0.03839725 -7.997112 4.327191 -2.179782 0.7381 -0.0164 0.6271 0.5074881

-0.4096287 -0.5323254 0.6640978 0.376704 -9.233172 -0.9849241 -0.985 0.7297 0.1107 -0.02181662 -0.03979351 0.03839725 -7.997112 4.327191 -2.179782 0.7381 -0.0164 0.6271 0.5074881

-0.2242748 -0.4783947 0.3726278 -0.048069 -9.677566 -1.269414 -0.9761 0.7388 0.1101 0.1202532 0.02600541 0.1488766 -7.73028 4.913829 -2.422089 0.723 -0.0135 0.6428 0.5074881

-0.2242748 -0.4783947 0.3726278 -0.048069 -9.677566 -1.269414 -0.9761 0.7388 0.1101 0.1202532 0.02600541 0.1488766 -7.73028 4.913829 -2.422089 0.723 -0.0135 0.6428 0.5101732

-0.2911209 0.03892084 0.009948377 -0.494424 -9.872785 -1.681434 -0.9761 0.7388 0.1101 0.1476549 0.04363323 0.2015855 -7.50367 5.020758 -2.493702 0.723 -0.0135 0.6428 0.5101732

-0.4944518 0.4022984 -0.2019346 -1.239003 -10.32306 -2.401488 -0.9847 0.767 0.1126 0.1450369 0.03351032 0.2434734 -7.208388 5.116896 -2.547657 0.7178 -0.0064 0.624 0.5101732

-0.4944518 0.4022984 -0.2019346 -1.239003 -10.32306 -2.401488 -0.9847 0.767 0.1126 0.1450369 0.03351032 0.2434734 -7.208388 5.116896 -2.547657 0.7178 -0.0064 0.624 0.5101732

-0.7311184 0.4588471 -0.3633775 -1.636308 -10.64581 -2.759553 -0.9648 0.7945 0.1313 0.183085 0.0122173 0.3195698 -6.991587 5.286609 -2.610441 0.7178 -0.0064 0.624 0.5101732

-0.8110545 0.4276057 -0.431969 -1.707921 -10.81258 -2.855691 -0.9648 0.7945 0.1313 0.2761111 0.01518436 0.4708898 -6.865038 5.524992 -2.770344 0.7157 0.001 0.6302 0.5101732

-0.8110545 0.4276057 -0.431969 -1.707921 -10.81258 -2.855691 -0.9648 0.7945 0.1313 0.2761111 0.01518436 0.4708898 -6.865038 5.524992 -2.770344 0.7157 0.001 0.6302 0.5101732

-0.7002261 0.2185152 -0.3584906 -1.62846 -10.60657 -2.866482 -0.9432 0.8083 0.1699 0.3424336 -0.04974188 0.6035349 -6.786558 5.628979 -2.891988 0.7157 0.001 0.6302 0.5101732

-0.7002261 0.2185152 -0.3584906 -1.62846 -10.60657 -2.866482 -0.9432 0.8083 0.1699 0.3317871 -0.1158899 0.6874852 -6.774786 5.644674 -2.940057 0.7086 0.0061 0.6437 0.5101732

-0.6213372 -0.2075197 -0.2553417 -1.32435 -10.22594 -2.794869 -0.9432 0.8083 0.1699 0.4265585 -0.08866272 0.7737045 -6.835608 5.854609 -2.98224 0.7086 0.0061 0.6437 0.5101732

-0.8644615 -0.3703589 -0.1691224 -1.089891 -9.952246 -2.824299 -0.9306 0.8172 0.218 0.4265585 -0.08866272 0.7737045 -6.835608 5.854609 -2.98224 0.7086 0.0061 0.6437 0.6242909

-1.010197 -0.3040363 -0.1286308 -1.130112 -9.856107 -3.038157 -0.9306 0.8172 0.218 0.5766568 -0.02234021 0.9018116 -6.900354 6.155775 -3.034233 0.7118 0.0063 0.6432 0.6242909

-1.010197 -0.3040363 -0.1286308 -1.130112 -9.856107 -3.038157 -0.9306 0.8172 0.218 0.5766568 -0.02234021 0.9018116 -6.900354 6.155775 -3.034233 0.7118 0.0063 0.6432 0.6242909

-1.010197 -0.3040363 -0.1286308 -1.130112 -9.856107 -3.038157 -0.9306 0.8172 0.218 0.5766568 -0.02234021 0.9018116 -6.900354 6.155775 -3.034233 0.7118 0.0063 0.6432 0.6242909

-1.010197 -0.3040363 -0.1286308 -1.130112 -9.856107 -3.038157 -0.9306 0.8172 0.218 0.5766568 -0.02234021 0.9018116 -6.900354 6.155775 -3.034233 0.7118 0.0063 0.6432 0.7035019

-1.010197 -0.3040363 -0.1286308 -1.130112 -9.856107 -3.038157 -0.9306 0.8172 0.218 1.025381 0.1263618 1.261 -7.105383 6.570738 -2.978316 0.6962 0.0068 0.6386 0.7035019

-1.311964 0.2853613 -0.2347468 -0.8044201 -8.770141 -4.396842 -0.8548 0.7913 0.5317 0.999201 0.06492625 1.219811 -6.839532 6.433398 -3.117618 0.6962 0.0068 0.6386 0.7035019

-1.338668 0.2434734 -0.1649336 -0.7053391 -8.483688 -4.714686 -0.7926 0.7276 0.6984 0.999201 0.06492625 1.219811 -6.839532 6.433398 -3.117618 0.6962 0.0068 0.6386 0.7035019

-1.338668 0.2434734 -0.1649336 -0.7053391 -8.483688 -4.714686 -0.7926 0.7276 0.6984 1.037947 0.029147 1.325927 -6.63156 6.390234 -3.051891 0.6978 0.0249 0.6411 0.7961386

-1.431694 0.570199 -0.004363323 -0.9594181 -8.18154 -5.153193 -0.7926 0.7276 0.6984 1.146332 -0.07557275 1.485275 -6.585453 6.605073 -2.938095 0.6978 0.0249 0.6411 0.7961386

-1.596802 0.7655014 0.04974188 -0.698472 -8.141319 -5.285628 -0.685 0.6166 0.8889 1.146332 -0.07557275 1.485275 -6.585453 6.605073 -2.938095 0.6978 0.0249 0.6411 0.7961386

-1.596802 0.7655014 0.04974188 -0.698472 -8.141319 -5.285628 -0.685 0.6166 0.8889 1.230457 -0.1240929 1.56399 -6.448113 6.719851 -3.076416 0.6962 0.0256 0.6303 0.7961386

-1.841322 0.6773623 0.07731808 -0.308034 -8.119738 -5.432778 -0.685 0.6166 0.8889 1.218065 -0.1839577 1.509186 -6.299001 6.691401 -3.15882 0.6962 0.0256 0.6303 0.7961386

-1.598547 0.6696828 0.2567379 -0.388476 -7.678288 -5.706478 -0.5452 0.4569 1.0639 1.218065 -0.1839577 1.509186 -6.299001 6.691401 -3.15882 0.6962 0.0256 0.6303 0.7961386

-1.598547 0.6696828 0.2567379 -0.388476 -7.678288 -5.706478 -0.5452 0.4569 1.0639 1.286831 -0.2059489 1.535017 -6.255837 6.801273 -2.997936 0.6977 0.0237 0.6188 0.7961386

-1.192409 1.023985 0.4462807 -0.56898 -7.309432 -6.064542 -0.4159 0.2556 1.1617 1.419651 -0.2755875 1.625251 -6.251914 7.007283 -2.998917 0.6977 0.0237 0.6188 0.7961386

-1.129403 1.156979 0.5986479 -0.386514 -7.333957 -6.275457 -0.4159 0.2556 1.1617 1.419651 -0.2755875 1.625251 -6.251914 7.007283 -2.998917 0.6977 0.0237 0.6188 0.7961386

-1.129403 1.156979 0.5986479 -0.386514 -7.333957 -6.275457 -0.4159 0.2556 1.1617 1.419651 -0.2755875 1.625251 -6.251914 7.007283 -2.998917 0.6977 0.0237 0.6188 0.7961386

-1.349838 1.206197 0.7429867 -0.455184 -7.486992 -6.456943 -0.3136 0.0144 1.1858 1.419651 -0.2755875 1.625251 -6.251914 7.007283 -2.998917 0.6977 0.0237 0.6188 0.9559034

-1.160469 1.280548 0.892736 -0.573885 -7.350633 -6.537385 -0.3136 0.0144 1.1858 1.423665 -0.7223918 1.799085 -5.465151 6.920955 -3.489417 0.7511 0.0284 0.6418 0.9559034

-1.160469 1.280548 0.892736 -0.573885 -7.350633 -6.537385 -0.3136 0.0144 1.1858 1.423665 -0.7223918 1.799085 -5.465151 6.920955 -3.489417 0.7511 0.0284 0.6418 0.9559034

-0.877377 1.291544 1.051386 -0.438507 -7.281963 -6.49422 -0.2877 -0.1774 1.1106 1.352107 -0.8785987 1.683545 -5.299362 6.813046 -3.564954 0.7511 0.0284 0.6418 0.9961802

-0.877377 1.291544 1.051386 -0.438507 -7.281963 -6.49422 -0.2877 -0.1774 1.1106 1.352107 -0.8785987 1.683545 -5.299362 6.813046 -3.564954 0.7511 0.0284 0.6418 0.9961802

-0.877377 1.291544 1.051386 -0.438507 -7.281963 -6.49422 -0.2877 -0.1774 1.1106 1.355772 -0.9082693 1.702743 -5.345469 6.844438 -3.660111 0.7803 0.0103 0.6326 0.9961802

-0.877377 1.291544 1.051386 -0.438507 -7.281963 -6.49422 -0.2877 -0.1774 1.1106 1.419476 -0.9283406 1.82893 -5.393538 6.883677 -3.839634 0.8062 -0.0163 0.6223 1.009606

-1.00147 1.343554 1.482134 -0.758313 -7.60275 -6.618807 -0.419 -0.3448 0.7547 1.389457 -0.9620255 1.813048 -5.393538 6.830704 -3.954411 0.8062 -0.0163 0.6223 1.009606

-0.9819222 1.302714 1.603085 -0.761256 -7.607656 -6.645294 -0.4894 -0.3586 0.6121 1.389457 -0.9620255 1.813048 -5.393538 6.830704 -3.954411 0.8062 -0.0163 0.6223 1.009606

-0.9819222 1.302714 1.603085 -0.761256 -7.607656 -6.645294 -0.4894 -0.3586 0.6121 1.38614 -0.9711012 1.728225 -5.42493 6.962157 -3.975012 0.8301 -0.0542 0.5859 1.009606

-0.8763298 1.417382 1.718975 -0.934893 -7.484049 -6.790483 -0.4894 -0.3586 0.6121 1.497667 -0.9307841 1.782854 -5.422968 7.172091 -4.018176 0.8301 -0.0542 0.5859 1.009606

-0.8763298 1.417382 1.718975 -0.934893 -7.484049 -6.790483 -0.4894 -0.3586 0.6121 1.497667 -0.9307841 1.782854 -5.422968 7.172091 -4.018176 0.8301 -0.0542 0.5859 1.009606

-0.6337291 1.434661 1.825091 -1.093815 -7.347691 -6.888582 -0.5268 -0.338 0.4697 1.549154 -0.9190904 1.840101 -5.294457 7.074972 -4.153554 0.8478 -0.0975 0.557 1.009606

-0.02356195 1.411971 1.98601 -1.187991 -7.042599 -7.031808 -0.5268 -0.338 0.4697 1.549154 -0.9190904 1.840101 -5.294457 7.074972 -4.153554 0.8478 -0.0975 0.557 1.031087

-0.02356195 1.411971 1.98601 -1.187991 -7.042599 -7.031808 -0.5268 -0.338 0.4697 1.454557 -0.9800024 1.800482 -5.158098 6.884658 -4.181022 0.8478 -0.0975 0.557 1.031087

-0.04101523 1.62176 1.956863 -1.371438 -6.832665 -7.250571 -0.5122 -0.3304 0.347 1.454557 -0.9800024 1.800482 -5.158098 6.884658 -4.181022 0.8478 -0.0975 0.557 1.031087

-0.421497 1.700823 1.867502 -1.548018 -7.24861 -7.472277 -0.5122 -0.3304 0.347 1.454557 -0.9800024 1.800482 -5.158098 6.884658 -4.181022 0.8478 -0.0975 0.557 1.031087

-1.402372 1.691049 1.749693 -1.689282 -8.115813 -7.458543 -0.5234 -0.3407 0.2282 1.454557 -0.9800024 1.800482 -5.158098 6.884658 -4.181022 0.8478 -0.0975 0.557 1.027059

-1.402372 1.691049 1.749693 -1.689282 -8.115813 -7.458543 -0.5234 -0.3407 0.2282 1.450718 -1.384221 1.53746 -4.783356 6.743394 -4.560669 0.8761 -0.2233 0.5131 1.027059

-1.166229 1.712168 1.653525 -1.741275 -8.914348 -7.43598 -0.5234 -0.3407 0.2282 1.450718 -1.384221 1.53746 -4.783356 6.743394 -4.560669 0.8761 -0.2233 0.5131 1.027059

-1.166229 1.712168 1.653525 -1.741275 -8.914348 -7.43598 -0.5234 -0.3407 0.2282 1.365371 -1.430123 1.495049 -4.722534 6.785577 -4.672503 0.8761 -0.2233 0.5131 1.027059

-0.6951647 1.768542 1.803972 -1.781496 -8.432676 -7.418323 -0.6163 -0.3011 0.081 1.328021 -1.381952 1.448449 -4.852026 6.64137 -4.662694 0.8836 -0.2578 0.5174 1.027059

-0.6920231 1.682148 1.826138 -1.743237 -7.901955 -7.334937 -0.6163 -0.3011 0.081 1.328021 -1.381952 1.448449 -4.852026 6.64137 -4.662694 0.8836 -0.2578 0.5174 1.027059

-0.6920231 1.682148 1.826138 -1.743237 -7.901955 -7.334937 -0.6163 -0.3011 0.081 1.464506 -1.240057 1.381777 -5.16987 6.567795 -4.776489 0.8836 -0.2578 0.5174 1.027059

-0.8785987 1.540079 1.846209 -1.602954 -7.930404 -7.28883 -0.729 -0.1718 -0.0201 1.607274 -1.048768 1.264317 -5.431797 6.673743 -5.001138 0.88 -0.2995 0.5025 1.027059

-0.8785987 1.540079 1.846209 -1.602954 -7.930404 -7.28883 -0.729 -0.1718 -0.0201 1.607274 -1.048768 1.264317 -5.431797 6.673743 -5.001138 0.88 -0.2995 0.5025 1.027059

-0.8785987 1.540079 1.846209 -1.602954 -7.930404 -7.28883 -0.729 -0.1718 -0.0201 1.574985 -1.035678 1.11736 -5.555403 6.639409 -5.08158 0.88 -0.2995 0.5025 0.9827546

-0.8785987 1.540079 1.846209 -1.602954 -7.930404 -7.28883 -0.729 -0.1718 -0.0201 1.435533 -1.112124 0.9238028 -5.606415 6.321564 -5.055093 0.8828 -0.3284 0.4789 0.9827546

-1.205848 1.721767 1.869422 -1.082043 -7.360443 -7.907842 -0.7351 0.2162 0.1354 1.435533 -1.112124 0.9238028 -5.606415 6.321564 -5.055093 0.8828 -0.3284 0.4789 0.9827546

-1.205848 1.721767 1.869422 -1.082043 -7.360443 -7.907842 -0.7351 0.2162 0.1354 1.433439 -1.068491 0.7887142 -5.604454 6.015492 -5.137497 0.8828 -0.3284 0.4789 0.9169691

-1.545838 1.671502 1.842544 -0.879957 -7.394778 -7.86762 -0.7351 0.2162 0.1354 1.49278 -0.9217084 0.7012733 -5.636826 5.886981 -5.347431 0.8841 -0.3375 0.4677 0.9169691

-1.678832 1.369211 1.926494 -0.671985 -7.290792 -7.758729 -0.6655 0.273 0.2454 1.49278 -0.9217084 0.7012733 -5.636826 5.886981 -5.347431 0.8841 -0.3375 0.4677 0.9169691

-1.678832 1.369211 1.926494 -0.671985 -7.290792 -7.758729 -0.6655 0.273 0.2454 1.49278 -0.9217084 0.7012733 -5.636826 5.886981 -5.347431 0.8841 -0.3375 0.4677 0.9169691

-1.590693 1.101477 1.878323 -0.6749281 -7.201521 -7.894107 -0.6655 0.273 0.2454 1.47393 -0.8148942 0.5679302 -5.790843 5.731983 -5.576985 0.889 -0.355 0.4678 0.8176196

-1.623331 1.061335 1.778141 -0.749484 -7.217217 -8.202141 -0.5963 0.3023 0.386 1.460666 -0.6602581 0.4036946 -5.97429 5.434741 -5.780053 0.889 -0.355 0.4678 0.8176196

-1.623331 1.061335 1.778141 -0.749484 -7.217217 -8.202141 -0.5963 0.3023 0.386 1.460666 -0.6602581 0.4036946 -5.97429 5.434741 -5.780053 0.889 -0.355 0.4678 0.8176196

-1.927716 1.036376 1.656667 -0.675909 -7.311393 -8.41698 -0.53 0.3017 0.5102 1.536064 -0.3729769 0.3626794 -6.066504 5.161041 -5.987043 0.8978 -0.3785 0.4702 0.8176196

-2.212205 0.9463176 1.583537 -0.6798331 -7.177978 -8.568054 -0.53 0.3017 0.5102 1.565211 -0.1815142 0.3387684 -6.066504 5.08158 -6.089067 0.8978 -0.3785 0.4702 0.8176196

-2.212205 0.9463176 1.583537 -0.6798331 -7.177978 -8.568054 -0.53 0.3017 0.5102 1.487195 -0.0715585 0.2605776 -6.00372 4.869684 -6.151851 0.9106 -0.3698 0.476 0.8176196

-2.23472 0.9208357 1.507964 -0.7318261 -6.800292 -8.693623 -0.4723 0.2761 0.6389 1.487195 -0.0715585 0.2605776 -6.00372 4.869684 -6.151851 0.9106 -0.3698 0.476 0.6685954

-2.262819 0.8777261 1.388235 -0.625878 -6.42457 -8.694604 -0.4723 0.2761 0.6389 1.487195 -0.0715585 0.2605776 -6.00372 4.869684 -6.151851 0.9106 -0.3698 0.476 0.6685954

-2.262819 0.8777261 1.388235 -0.625878 -6.42457 -8.694604 -0.4723 0.2761 0.6389 1.212655 0.2239257 -0.03351032 -5.129649 3.436443 -6.447132 0.8895 -0.3356 0.4983 0.6685954

-2.332982 0.6918485 1.30987 -0.501291 -6.054732 -8.618085 -0.4069 0.221 0.7618 1.212655 0.2239257 -0.03351032 -5.129649 3.436443 -6.447132 0.8895 -0.3356 0.4983 0.6685954

-2.332982 0.6918485 1.30987 -0.501291 -6.054732 -8.618085 -0.4069 0.221 0.7618 1.127832 0.2151991 -0.01500983 -4.849083 3.167649 -6.523651 0.869 -0.3314 0.528 0.6685954

-2.332982 0.6918485 1.30987 -0.501291 -6.054732 -8.618085 -0.4069 0.221 0.7618 0.99955 0.238412 0.08796459 -4.823577 2.898855 -6.624693 0.8611 -0.2842 0.5732 0.6685954

-2.332982 0.6918485 1.30987 -0.501291 -6.054732 -8.618085 -0.4069 0.221 0.7618 0.9808751 0.3197443 0.1108284 -4.904019 2.688921 -6.774786 0.8611 -0.2842 0.5732 0.6685954

-1.237264 0.1729621 1.201659 -0.123606 -3.323628 -8.977131 -0.2985 0.0823 0.974 0.9808751 0.3197443 0.1108284 -4.904019 2.688921 -6.774786 0.8611 -0.2842 0.5732 0.6685954

-1.237264 0.1729621 1.201659 -0.123606 -3.323628 -8.977131 -0.2985 0.0823 0.974 0.9498081 0.5391322 0.01640609 -4.918734 2.479968 -6.961176 0.8512 -0.2392 0.6134 0.6685954

-1.309172 0.1101303 1.028522 -0.014715 -3.285369 -9.019314 -0.2985 0.0823 0.974 0.890816 0.7726573 -0.03385939 -4.858893 2.339685 -7.214274 0.8512 -0.2392 0.6134 0.6685954

-1.096067 -0.2979277 0.9538224 0.182466 -2.990088 -8.941815 -0.2442 0.0135 1.0404 0.890816 0.7726573 -0.03385939 -4.858893 2.339685 -7.214274 0.8512 -0.2392 0.6134 0.6685954

-1.096067 -0.2979277 0.9538224 0.182466 -2.990088 -8.941815 -0.2442 0.0135 1.0404 0.8925614 0.7913323 -0.00296706 -4.882437 2.18763 -7.224084 0.8426 -0.2157 0.621 0.6685954

-0.9028588 -0.7068583 1.021018 0.449298 -2.479968 -8.711281 -0.2442 0.0135 1.0404 0.8683013 0.9320058 -0.03490658 -4.798071 1.97181 -7.132852 0.8426 -0.2157 0.621 0.6685954

-0.8215265 -0.6766642 1.030617 0.486576 -2.032632 -8.725015 -0.1944 -0.0388 1.0836 0.8683013 0.9320058 -0.03490658 -4.798071 1.97181 -7.132852 0.8426 -0.2157 0.621 0.6685954

-0.3693117 -0.6771877 0.8503245 0.276642 -1.768743 -8.924157 -0.1517 -0.0882 1.1464 0.8319984 0.9110619 -0.1926844 -4.289913 1.780515 -7.262343 0.8258 -0.183 0.6383 0.6685954

-0.3693117 -0.6771877 0.8503245 0.276642 -1.768743 -8.924157 -0.1517 -0.0882 1.1464 0.7340855 0.6778859 -0.2717478 -3.677769 1.568619 -7.402626 0.8258 -0.183 0.6383 0.6685954

0.2340486 -0.9578367 0.8686504 0.220725 -1.384191 -9.025201 -0.1517 -0.0882 1.1464 0.7340855 0.6778859 -0.2717478 -3.677769 1.568619 -7.402626 0.8258 -0.183 0.6383 0.6685954

0.6518804 -1.0184 0.834442 0.201105 -1.013373 -8.983998 -0.1068 -0.1288 1.1917 0.606851 0.3513348 -0.1940806 -3.251034 1.280205 -7.41636 0.8033 -0.1533 0.6667 0.3504084

0.6518804 -1.0184 0.834442 0.201105 -1.013373 -8.983998 -0.1068 -0.1288 1.1917 0.5419247 0.2844886 0.005759587 -3.101922 1.154637 -7.54389 0.8033 -0.1533 0.6667 0.3504084

0.6302384 -0.9119346 0.6682866 -0.115758 -0.9290071 -8.881974 -0.1068 -0.1288 1.1917 0.5419247 0.2844886 0.005759587 -3.101922 1.154637 -7.54389 0.8033 -0.1533 0.6667 0.3504084

0.3420845 -0.9389871 0.5119051 -0.289395 -1.399887 -8.882956 -0.0567 -0.148 1.2005 0.5419247 0.2844886 0.005759587 -3.101922 1.154637 -7.54389 0.8033 -0.1533 0.6667 0.3007337

0.3420845 -0.9389871 0.5119051 -0.289395 -1.399887 -8.882956 -0.0567 -0.148 1.2005 0.5419247 0.2844886 0.005759587 -3.101922 1.154637 -7.54389 0.8033 -0.1533 0.6667 0.3007337

-0.09093165 -0.2661627 0.5352925 -0.388476 -1.921779 -9.029124 -0.0567 -0.148 1.2005 0.5419247 0.2844886 0.005759587 -3.101922 1.154637 -7.54389 0.8033 -0.1533 0.6667 0.3007337

-0.09093165 -0.2661627 0.5352925 -0.388476 -1.921779 -9.029124 -0.0567 -0.148 1.2005 0.347495 0.3406883 -0.03543018 -2.86452 0.724959 -7.859772 0.7451 -0.1014 0.7285 0.2846229

-0.09093165 -0.2661627 0.5352925 -0.388476 -1.921779 -9.029124 -0.0567 -0.148 1.2005 0.347495 0.3406883 -0.03543018 -2.86452 0.724959 -7.859772 0.7451 -0.1014 0.7285 0.2846229

-0.09093165 -0.2661627 0.5352925 -0.388476 -1.921779 -9.029124 -0.0567 -0.148 1.2005 0.3721042 0.4649557 -0.299673 -3.196098 0.607239 -7.865658 0.7451 -0.1014 0.7285 0.2846229

-0.1619665 0.2377138 0.6672394 -0.408096 -0.105948 -9.24102 0.0779 -0.1762 1.2058 0.2778564 0.4394739 -0.7272786 -3.437424 0.383571 -7.91667 0.745 -0.0666 0.7307 0.2617994

-0.1619665 0.2377138 0.6672394 -0.408096 -0.105948 -9.24102 0.0779 -0.1762 1.2058 0.3078761 0.4763004 -0.8410741 -3.350115 0.409077 -8.028504 0.745 -0.0666 0.7307 0.2617994

0.01343904 -0.04520402 0.6647959 -0.109872 -0.114777 -9.098776 0.0779 -0.1762 1.2058 0.3078761 0.4763004 -0.8410741 -3.350115 0.409077 -8.028504 0.745 -0.0666 0.7307 0.2617994

0.1829105 -0.09389871 0.5768313 -0.080442 -0.174618 -9.224343 0.0795 -0.2042 1.2144 0.3031637 0.4635594 -0.4045673 -2.956734 0.537588 -8.304165 0.7496 -0.0428 0.741 0.2617994

0.4202753 0.09128072 0.4628613 -0.209934 -0.326673 -9.32833 0.0795 -0.2042 1.2144 0.1432915 0.08203047 -0.230558 -2.493702 0.379647 -8.302203 0.7496 -0.0428 0.741 0.2617994

0.4202753 0.09128072 0.4628613 -0.209934 -0.326673 -9.32833 0.0795 -0.2042 1.2144 0.1633628 -0.07941248 -0.180467 -1.927665 0.173637 -8.182522 0.7382 -0.0327 0.7689 0.2617994

-0.2600541 0.1237438 0.2551671 -0.02943 -1.116378 -9.46567 0.0809 -0.2123 1.2265 0.1633628 -0.07941248 -0.180467 -1.927665 0.173637 -8.182522 0.7382 -0.0327 0.7689 0.198699

-0.7131416 0.2246239 0.06667157 0.056898 -1.04967 -9.560826 0.0987 -0.2171 1.2415 0.2036799 0.06073746 -0.1036726 -1.708902 0.191295 -8.400303 0.7382 -0.0327 0.7689 0.198699

-0.7131416 0.2246239 0.06667157 0.056898 -1.04967 -9.560826 0.0987 -0.2171 1.2415 0.1413717 0.1630138 -0.1111775 -1.988487 0.113796 -8.470936 0.7223 -0.0126 0.783 0.198699

-0.2748893 0.1862266 0.121824 0.122625 -0.09123301 -9.550035 0.0987 -0.2171 1.2415 0.1413717 0.1630138 -0.1111775 -1.988487 0.113796 -8.470936 0.7223 -0.0126 0.783 0.198699

0.1500983 -0.0439823 0.2638938 0.218763 0.385533 -9.650097 0.107 -0.2278 1.2453 0.2267183 0.2015855 -0.1775 -2.301426 0.077499 -8.464068 0.7223 -0.0126 0.783 0.1799032

0.001396263 0.1581268 0.1481784 0.139302 0.177561 -9.873766 0.107 -0.2278 1.2453 0.1745329 0.2129302 -0.1949533 -2.327913 0.0981 -8.517042 0.7157 0.0095 0.7796 0.1799032

0.001396263 0.1581268 0.1481784 0.139302 0.177561 -9.873766 0.107 -0.2278 1.2453 0.1745329 0.2129302 -0.1949533 -2.327913 0.0981 -8.517042 0.7157 0.0095 0.7796 0.1799032

0.04468043 0.2453933 0.01727876 0.15696 0.032373 -9.918892 0.0916 -0.2425 1.2417 0.1420698 0.1960005 -0.1956514 -2.27592 0.010791 -8.57394 0.7157 0.0095 0.7796 0.1799032

0.0541052 0.2577851 -0.04066617 0.234459 0.149112 -9.837468 0.0916 -0.2425 1.2417 0.1623156 -0.03141592 -0.1303761 -2.096397 -0.018639 -8.643591 0.7104 0.0218 0.7806 0.1664776

0.1123992 0.1532399 0.0003490658 0.340407 0.24525 -9.693261 0.0896 -0.2442 1.2349 0.1542871 -0.06981317 -0.05323254 -1.861938 -0.099081 -8.716186 0.7104 0.0218 0.7806 0.1664776

0.1123992 0.1532399 0.0003490658 0.340407 0.24525 -9.693261 0.0896 -0.2442 1.2349 0.1542871 -0.06981317 -0.05323254 -1.861938 -0.099081 -8.716186 0.7104 0.0218 0.7806 0.1664776

0.09948377 0.1459095 -0.08674286 0.376704 0.311958 -9.647154 0.0896 -0.2442 1.2349 0.1551598 -0.07976155 -0.06771877 -1.907064 -0.11772 -8.610237 0.713 0.0309 0.8091 0.1664776

0.1328196 0.0996583 -0.004014257 0.42183 0.469899 -9.736425 0.093 -0.2422 1.2372 0.1654572 -0.2354449 -0.004886922 -1.976715 -0.129492 -8.686755 0.7032 0.046 0.8327 0.1691627

0.1328196 0.0996583 -0.004014257 0.42183 0.469899 -9.736425 0.093 -0.2422 1.2372 0.1654572 -0.2354449 -0.004886922 -1.976715 -0.129492 -8.686755 0.7032 0.046 0.8327 0.1691627

-0.02094395 0.2326524 -0.03874631 0.381609 0.311958 -9.789399 0.093 -0.2422 1.2372 0.1654572 -0.2354449 -0.004886922 -1.976715 -0.129492 -8.686755 0.7032 0.046 0.8327 0.1691627

-0.05951573 0.2445206 -0.09459685 0.452241 0.316863 -9.693261 0.0842 -0.245 1.2382 0.1654572 -0.2354449 -0.004886922 -1.976715 -0.129492 -8.686755 0.7032 0.046 0.8327 0.1691627

0.0132645 0.1884956 -0.087441 0.543474 0.42183 -9.537282 0.0842 -0.245 1.2382 0.1593486 0.08080874 -0.03124139 -2.520189 -0.430659 -8.497422 0.7126 0.0595 0.7975 0.1691627

0.0132645 0.1884956 -0.087441 0.543474 0.42183 -9.537282 0.0842 -0.245 1.2382 0.1003564 0.03804818 -0.03036873 -2.330856 -0.447336 -8.444448 0.7142 0.0787 0.7928 0.1691627

0.2302089 0.1914626 -0.03682645 0.595467 0.763218 -9.417601 0.0802 -0.2478 1.2492 0.1010546 -0.4668756 -0.01500983 -1.838394 -0.320787 -8.470936 0.7142 0.0787 0.7928 0.1624499

0.8955284 0.1188569 0.06178465 0.552303 1.202706 -9.295957 0.0802 -0.2478 1.2492 0.1010546 -0.4668756 -0.01500983 -1.838394 -0.320787 -8.470936 0.7142 0.0787 0.7928 0.1624499

0.86132 0.07871436 0.1225221 0.557208 0.8260021 -9.311652 0.0723 -0.2482 1.2485 0.07696902 -0.458498 0.06108652 -2.049309 -0.389457 -8.486631 0.7172 0.1073 0.7885 0.1624499

0.86132 0.07871436 0.1225221 0.557208 0.8260021 -9.311652 0.0723 -0.2482 1.2485 0.06876598 0.03054326 0.06195919 -2.775249 -0.512082 -8.596503 0.7172 0.1073 0.7885 0.1624499

0.04747296 0.06894051 0.02426008 0.6268591 -0.202086 -9.382284 0.0466 -0.2304 1.2274 0.06876598 0.03054326 0.06195919 -2.775249 -0.512082 -8.596503 0.7172 0.1073 0.7885 0.1758755

-0.6679375 0.1874484 -0.1698205 0.691605 -0.51012 -9.467631 0.0466 -0.2304 1.2274 0.07714356 0.2911209 -0.0863938 -3.180402 -0.536607 -8.580808 0.7205 0.0945 0.7796 0.1758755

-0.2724459 0.1338668 -0.008552114 0.671985 0.367875 -9.408772 0.0318 -0.2214 1.2209 0.06771877 0.4244641 -0.1082104 -3.037176 -0.464013 -8.492517 0.7205 0.0945 0.7796 0.1758755

-0.2724459 0.1338668 -0.008552114 0.671985 0.367875 -9.408772 0.0318 -0.2214 1.2209 0.06771877 0.4244641 -0.1082104 -3.037176 -0.464013 -8.492517 0.7205 0.0945 0.7796 0.1758755

-0.01047198 0.1041962 0.03647738 0.715149 0.604296 -9.355798 0.0318 -0.2214 1.2209 0.07574729 0.124791 -0.1232202 -2.454462 -0.5552461 -8.506251 0.7197 0.0822 0.7875 0.1570796
