0.06754424 -0.0132645 0.01570796 0.928026 -0.419868 -9.88848 0.0213 -0.1773 1.212 -0.01692969 -0.2726204 0.01815142 -1.385172 -0.51012 -8.827039 0.6135 0.0631 0.8641 0.08055366

-0.1228712 0.03263766 -0.1075123 0.949608 -0.6572701 -9.95715 0.0213 -0.1773 1.212 0.002268928 -0.1775 0.04153884 -1.521531 -0.415944 -8.932005 0.6135 0.0631 0.8641 0.08726646

-0.1228712 0.03263766 -0.1075123 0.949608 -0.6572701 -9.95715 0.0213 -0.1773 1.212 0.002268928 -0.1775 0.04153884 -1.521531 -0.415944 -8.932005 0.6135 0.0631 0.8641 0.08726646

-0.1228712 0.03263766 -0.1075123 0.949608 -0.6572701 -9.95715 0.0213 -0.1773 1.212 0.002268928 -0.1775 0.04153884 -1.521531 -0.415944 -8.932005 0.6135 0.0631 0.8641 0.08726646

0.1663299 0.1062906 -0.05131268 0.946665 -0.403191 -10.04544 0.0279 -0.1783 1.2118 0.002268928 -0.1775 0.04153884 -1.521531 -0.415944 -8.932005 0.6135 0.0631 0.8641 0.08726646

0.01169371 0.0980875 -0.05899213 0.898596 -0.414963 -10.04936 0.0482 -0.1804 1.2222 0.03647738 -0.07819075 0.03769911 -1.605897 -0.416925 -8.859411 0.6164 0.0733 0.8702 0.08726646

0.01169371 0.0980875 -0.05899213 0.898596 -0.414963 -10.04936 0.0482 -0.1804 1.2222 0.01029744 0.04171337 -0.05166174 -1.605897 -0.416925 -8.859411 0.6164 0.0733 0.8702 0.08726646

0.01169371 0.0980875 -0.05899213 0.898596 -0.414963 -10.04936 0.0482 -0.1804 1.2222 0.01029744 0.04171337 -0.05166174 -1.605897 -0.416925 -8.859411 0.6164 0.0733 0.8702 0.08726646

0.02844887 0.008552114 -0.04433136 0.51012 -0.724959 -9.826678 0.0461 -0.1486 1.1871 0.0132645 -0.03193953 -0.005235988 -0.9388171 -0.707301 -8.896689 0.5576 0.0854 0.8718 0.08726646

-0.05532694 0.0720821 -0.0434587 0.439488 -0.768123 -9.862974 0.0485 -0.1356 1.1827 0.01605703 -0.003141593 0.01832596 -0.962361 -0.6239161 -8.880013 0.5549 0.0895 0.8758 0.08726646

-0.05532694 0.0720821 -0.0434587 0.439488 -0.768123 -9.862974 0.0485 -0.1356 1.1827 0.009250244 -0.05445427 -0.01658063 -0.982962 -0.581733 -8.900614 0.5549 0.0895 0.8758 0.08726646

0.05951573 0.05183628 -0.07487462 0.522873 -0.673947 -9.724653 0.0485 -0.1356 1.1827 0.009250244 -0.05445427 -0.01658063 -0.982962 -0.581733 -8.900614 0.5549 0.0895 0.8758 0.01476817

0.08150688 -0.003839724 -0.06370452 0.580752 -0.648441 -9.663831 0.0455 -0.1304 1.1941 0.004712389 -0.06195919 -0.0008726646 -0.914292 -0.6886621 -8.885899 0.5537 0.0868 0.8822 0.01476817

0.06806784 -0.0005235987 -0.00593412 0.546417 -0.597429 -9.700129 0.0455 -0.1304 1.1941 0.02042035 -0.06649704 0.05323254 -0.927045 -0.678852 -8.854506 0.5537 0.0868 0.8822 0.01476817

0.06806784 -0.0005235987 -0.00593412 0.546417 -0.597429 -9.700129 0.0455 -0.1304 1.1941 0.004537856 0.0137881 0.02286381 -0.979038 -0.601353 -8.809381 0.5579 0.0903 0.8851 0.01476817

-0.009075711 0.02076942 -0.0153589 0.545436 -0.687681 -9.677566 0.0341 -0.1302 1.1883 0.004537856 0.0137881 0.02286381 -0.979038 -0.601353 -8.809381 0.5579 0.0903 0.8851 0.01476817

0.02670354 0.02321288 -0.04660029 0.5856571 -0.634707 -9.606934 0.0341 -0.1302 1.1883 -0.01640609 0.02076942 -0.02181662 -1.032012 -0.663156 -8.817228 0.5579 0.0903 0.8851 0.01476817

0.1408481 -0.03106686 -0.0006981317 0.6033151 -0.521892 -9.558865 0.0527 -0.1326 1.1673 -0.006806784 -0.04694936 0.03926991 -1.021221 -0.7298641 -8.849602 0.5706 0.0939 0.8745 0.01745329

0.1408481 -0.03106686 -0.0006981317 0.6033151 -0.521892 -9.558865 0.0527 -0.1326 1.1673 -0.006806784 -0.04694936 0.03926991 -1.021221 -0.7298641 -8.849602 0.5706 0.0939 0.8745 0.01745329

0.02722714 -0.03996804 0.003665191 0.586638 -0.660213 -9.577503 0.0682 -0.1348 1.177 0.004014257 -0.1083849 0.07190756 -0.9241021 -0.6572701 -8.849602 0.5706 0.0939 0.8745 0.01745329

-0.01675516 -0.0127409 -0.01186824 0.5856571 -0.698472 -9.621648 0.0682 -0.1348 1.177 -0.01727876 -0.0827286 0.00837758 -0.879957 -0.6533461 -8.886879 0.5827 0.0977 0.8677 0.01745329

0.106116 -0.05061455 0.01762783 0.61803 -0.597429 -9.72171 0.0684 -0.1383 1.197 0.0008726646 -0.07801621 0.01605703 -0.927045 -0.709263 -8.85745 0.5827 0.0977 0.8677 0.01745329

0.106116 -0.05061455 0.01762783 0.61803 -0.597429 -9.72171 0.0684 -0.1383 1.197 0.0008726646 -0.07801621 0.01605703 -0.927045 -0.709263 -8.85745 0.5827 0.0977 0.8677 0.01745329

0.05113815 0.0008726646 0.02356195 0.5660371 -0.72594 -9.827658 0.0684 -0.1383 1.197 0.005585053 -0.06667157 0.08063421 -0.944703 -0.709263 -8.86726 0.5878 0.0994 0.8694 0.02550866

-0.05689773 0.06475171 -0.03700098 0.557208 -0.8603371 -9.796267 0.0805 -0.1389 1.2001 -0.0122173 0.04520402 0.03473205 -1.012392 -0.678852 -8.86726 0.5878 0.0994 0.8694 0.02550866

0.05253441 0.02373648 -0.07784168 0.606258 -0.844641 -9.676584 0.0805 -0.1389 1.2001 -0.02024582 0.0434587 -0.003665191 -1.083024 -0.712206 -8.84862 0.5766 0.091 0.8795 0.02550866

0.05253441 0.02373648 -0.07784168 0.606258 -0.844641 -9.676584 0.0805 -0.1389 1.2001 -0.02024582 0.0434587 -0.003665191 -1.083024 -0.712206 -8.84862 0.5766 0.091 0.8795 0.02550866

0.1305506 0.01675516 -0.09128072 0.600372 -0.8515081 -9.608895 0.0703 -0.1262 1.1863 -0.01343904 -0.1679007 0.04415683 -0.919197 -0.71613 -8.829 0.5766 0.091 0.8795 0.03893427

0.1839577 0.05811946 -0.1199041 0.5660371 -0.936855 -9.474499 0.0703 -0.1262 1.1863 -0.02775074 -0.2356194 0.07487462 -0.66708 -0.691605 -8.783875 0.5741 0.0896 0.8955 0.03893427

0.2722714 0.007504916 -0.1766273 0.5944861 -1.204668 -9.189027 0.0655 -0.1193 1.1744 -0.05986479 -0.2616248 0.04171337 -0.591543 -0.6867 -8.710299 0.5753 0.1004 0.8906 0.03893427

0.2722714 0.007504916 -0.1766273 0.5944861 -1.204668 -9.189027 0.0655 -0.1193 1.1744 -0.05986479 -0.2616248 0.04171337 -0.591543 -0.6867 -8.710299 0.5753 0.1004 0.8906 0.03893427

0.3370231 -0.09110618 -0.4157374 0.609201 -1.840356 -8.860392 0.0655 -0.1193 1.1744 -0.0863938 -0.3017674 0.02740167 -0.460089 -0.690624 -8.589636 0.5753 0.1004 0.8906 0.08458135

0.5244714 -0.07661995 -0.792554 0.517968 -2.323008 -8.616123 0.0759 -0.127 1.1774 -0.1548107 -0.5878269 0.05689773 -0.184428 -0.63765 -8.478784 0.5781 0.1027 0.8815 0.08458135

0.8716174 -0.03246313 -0.9871582 0.442431 -2.143485 -8.450335 0.0694 -0.1233 1.1707 -0.2010619 -1.149299 0.3598869 0.272718 -0.668061 -8.415018 0.5781 0.1027 0.8815 0.08458135

0.8716174 -0.03246313 -0.9871582 0.442431 -2.143485 -8.450335 0.0694 -0.1233 1.1707 -0.2010619 -1.149299 0.3598869 0.272718 -0.668061 -8.415018 0.5781 0.1027 0.8815 0.08458135

1.11736 -0.08203047 -0.9112364 0.388476 -1.781496 -8.306128 0.0694 -0.1233 1.1707 -0.1377065 -1.406735 0.7965683 0.584676 -0.670023 -8.364987 0.5991 0.0879 0.8659 0.2013841

1.11736 -0.08203047 -0.9112364 0.388476 -1.781496 -8.306128 0.0694 -0.1233 1.1707 -0.1377065 -1.406735 0.7965683 0.584676 -0.670023 -8.364987 0.5991 0.0879 0.8659 0.2013841

1.275661 -0.1122247 -1.100081 0.135378 -2.637909 -8.400303 -0.0022 -0.0663 1.1523 -0.4799655 -1.439024 0.604582 -2.0601 -0.484614 -7.487973 0.6442 0.0763 0.8431 0.2013841

1.275661 -0.1122247 -1.100081 0.135378 -2.637909 -8.400303 -0.0022 -0.0663 1.1523 -0.4799655 -1.439024 0.604582 -2.0601 -0.484614 -7.487973 0.6442 0.0763 0.8431 0.275225

1.710248 -0.04886922 -1.082977 -0.020601 -2.3544 -8.542548 -0.0128 -0.0411 1.1283 -0.5684537 -1.25175 0.6138322 -2.592783 -0.365913 -7.383007 0.6808 0.0538 0.8166 0.275225

1.744631 -0.1446878 -0.9981537 0.016677 -2.301426 -8.478784 -0.0128 -0.0411 1.1283 -0.6490879 -1.354201 0.5951573 -2.872368 -0.31392 -7.363386 0.6808 0.0538 0.8166 0.275225

1.616349 -0.2743658 -0.8510225 0.122625 -2.551581 -8.381664 -0.0445 0.0004 1.0864 -0.7442084 -1.48545 0.6440265 -3.166668 -0.173637 -7.216236 0.7365 0.0261 0.777 0.3839724

1.616349 -0.2743658 -0.8510225 0.122625 -2.551581 -8.381664 -0.0445 0.0004 1.0864 -0.7442084 -1.48545 0.6440265 -3.166668 -0.173637 -7.216236 0.7365 0.0261 0.777 0.3839724

1.779712 -0.3448771 -0.8395033 0.110853 -2.872368 -8.247267 -0.0445 0.0004 1.0864 -0.8007571 -1.476723 0.7098254 -3.539448 0.061803 -7.026904 0.7819 -0.0082 0.7275 0.3839724

1.983916 -0.2837905 -0.9524261 0.159903 -3.087207 -8.086383 -0.0848 0.0654 1.0263 -0.8976228 -1.442165 0.7480481 -3.81609 0.387495 -7.024941 0.7819 -0.0082 0.7275 0.3839724

1.621411 -0.3185226 -1.04807 0.208953 -3.549258 -7.899993 -0.0848 0.0654 1.0263 -1.02573 -1.58825 0.7286749 -3.987765 0.50031 -7.019055 0.8186 -0.0546 0.6688 0.5007752

1.621411 -0.3185226 -1.04807 0.208953 -3.549258 -7.899993 -0.0848 0.0654 1.0263 -1.02573 -1.58825 0.7286749 -3.987765 0.50031 -7.019055 0.8186 -0.0546 0.6688 0.5007752

1.15471 -0.2766347 -1.077566 0.262908 -4.36545 -7.783254 -0.1267 0.1278 0.9904 -1.190489 -1.558579 0.7822565 -4.474341 0.611163 -6.838551 0.8186 -0.0546 0.6688 0.5007752

1.101477 -0.2830924 -1.036726 0.244269 -4.936392 -7.786197 -0.1769 0.1815 0.9382 -1.202706 -1.233599 0.8463102 -5.16987 0.965304 -6.678648 0.87 -0.1111 0.625 0.1557371

1.414589 -0.3556981 -1.021541 0.33354 -5.043321 -7.660629 -0.1769 0.1815 0.9382 -1.178621 -0.8290314 0.7962192 -5.803596 1.348875 -6.630579 0.87 -0.1111 0.625 0.1557371

1.414589 -0.3556981 -1.021541 0.33354 -5.043321 -7.660629 -0.1769 0.1815 0.9382 -1.178621 -0.8290314 0.7962192 -5.803596 1.348875 -6.630579 0.87 -0.1111 0.625 0.1557371

1.663997 -0.4878195 -0.9000663 0.43164 -4.96386 -7.475221 -0.2065 0.2368 0.8786 -1.178621 -0.8290314 0.7962192 -5.803596 1.348875 -6.630579 0.87 -0.1111 0.625 0.1557371

1.663997 -0.4878195 -0.9000663 0.43164 -4.96386 -7.475221 -0.2065 0.2368 0.8786 -1.167974 0.0439823 0.4075344 -6.487353 2.545695 -6.463809 0.9207 -0.2573 0.5024 0.1557371

1.357342 -0.8124508 -0.625526 1.067328 -6.380424 -7.295698 -0.2803 0.3189 0.7488 -1.17705 0.004712389 0.3429572 -6.351975 2.803698 -6.395139 0.9207 -0.2573 0.5024 0.1557371

1.357342 -0.8124508 -0.625526 1.067328 -6.380424 -7.295698 -0.2803 0.3189 0.7488 -1.17705 0.004712389 0.3429572 -6.351975 2.803698 -6.395139 0.9207 -0.2573 0.5024 0.1557371

1.587551 -0.8730137 -0.5016076 1.133055 -6.526593 -7.325127 -0.3305 0.3557 0.693 -1.240231 -0.06859144 0.2584833 -6.209731 3.027366 -6.308812 0.9247 -0.2954 0.4665 0.1557371

1.879719 -0.7278023 -0.437554 0.934893 -6.760072 -7.307469 -0.3514 0.3981 0.6164 -1.31336 -0.1343904 0.2171189 -6.126345 3.238281 -6.165585 0.9247 -0.2954 0.4665 0.1557371

1.879719 -0.7278023 -0.437554 0.934893 -6.760072 -7.307469 -0.3514 0.3981 0.6164 -1.31336 -0.1343904 0.2171189 -6.126345 3.238281 -6.165585 0.9247 -0.2954 0.4665 0.7008168

1.94674 -0.7332128 -0.4487241 1.024164 -7.323165 -7.188768 -0.3514 0.3981 0.6164 -1.248783 -0.04520402 0.1467822 -6.169509 3.55122 -6.10182 0.9174 -0.3343 0.4418 0.7008168

1.685639 -0.9175196 -0.3867649 1.190934 -7.981416 -6.990606 -0.3544 0.4525 0.5175 -1.248783 -0.04520402 0.1467822 -6.169509 3.55122 -6.10182 0.9174 -0.3343 0.4418 0.7008168

1.685639 -0.9175196 -0.3867649 1.190934 -7.981416 -6.990606 -0.3544 0.4525 0.5175 -1.248783 -0.04520402 0.1467822 -6.169509 3.55122 -6.10182 0.9174 -0.3343 0.4418 0.7008168

1.722989 -0.9239773 -0.3110177 1.139922 -8.284545 -6.823836 -0.3544 0.4525 0.5175 -1.248783 -0.04520402 0.1467822 -6.169509 3.55122 -6.10182 0.9174 -0.3343 0.4418 0.7008168

1.831897 -0.8712683 -0.3274238 1.011411 -8.605332 -6.675705 -0.383 0.4989 0.4115 -1.248783 -0.04520402 0.1467822 -6.169509 3.55122 -6.10182 0.9174 -0.3343 0.4418 0.7008168

1.831897 -0.8712683 -0.3274238 1.011411 -8.605332 -6.675705 -0.383 0.4989 0.4115 -1.102001 0.2211332 -0.07679449 -6.485391 4.40469 -6.080238 0.9162 -0.3802 0.4149 0.7410936

1.826662 -0.8874999 -0.291819 0.949608 -8.96536 -6.473619 -0.383 0.4989 0.4115 -1.102001 0.2211332 -0.07679449 -6.485391 4.40469 -6.080238 0.9162 -0.3802 0.4149 0.7410936

1.826662 -0.8874999 -0.291819 0.949608 -8.96536 -6.473619 -0.383 0.4989 0.4115 -1.132893 0.2087414 -0.1703441 -6.463809 4.625415 -5.979195 0.9199 -0.4342 0.3733 0.7410936

1.59366 -1.024857 -0.2099631 1.029069 -9.364626 -6.15087 -0.3964 0.5207 0.3034 -1.082453 0.1996657 -0.1843068 -6.478524 4.905 -5.939955 0.9199 -0.4342 0.3733 0.7410936

1.461713 -1.051212 -0.1303761 0.957456 -9.696204 -5.989005 -0.3964 0.5207 0.3034 -1.011418 0.2682571 -0.1677261 -6.519726 5.102181 -5.893848 0.9301 -0.459 0.353 0.7518342

1.461713 -1.051212 -0.1303761 0.957456 -9.696204 -5.989005 -0.3964 0.5207 0.3034 -1.011418 0.2682571 -0.1677261 -6.519726 5.102181 -5.893848 0.9301 -0.459 0.353 0.7518342

1.461713 -1.051212 -0.1303761 0.957456 -9.696204 -5.989005 -0.3964 0.5207 0.3034 -1.011418 0.2682571 -0.1677261 -6.519726 5.102181 -5.893848 0.9301 -0.459 0.353 0.7518342

1.461713 -1.051212 -0.1303761 0.957456 -9.696204 -5.989005 -0.3964 0.5207 0.3034 -1.074948 -0.00593412 -0.6253515 -5.682933 5.613282 -5.318001 0.9325 -0.4838 0.3193 0.749149

1.223127 -0.5426229 -0.4419174 0.126549 -10.45746 -5.323887 -0.4041 0.5688 -0.0076 -1.074948 -0.00593412 -0.6253515 -5.682933 5.613282 -5.318001 0.9325 -0.4838 0.3193 0.749149

1.223127 -0.5426229 -0.4419174 0.126549 -10.45746 -5.323887 -0.4041 0.5688 -0.0076 -0.9758136 0.05899213 -0.6414085 -5.841855 5.865399 -5.3955 0.931 -0.4801 0.2961 0.749149

1.218065 -0.5850344 -0.4525639 0.162846 -10.33582 -4.969747 -0.4041 0.5688 -0.0076 -0.9758136 0.05899213 -0.6414085 -5.841855 5.865399 -5.3955 0.931 -0.4801 0.2961 0.749149

1.218065 -0.5850344 -0.4525639 0.162846 -10.33582 -4.969747 -0.4041 0.5688 -0.0076 -0.8248426 0.259705 -0.6887069 -6.012549 5.991949 -5.426892 0.931 -0.4801 0.2961 0.749149

0.9864601 -0.5424483 -0.5075417 0.238383 -10.34955 -4.694085 -0.4275 0.5749 -0.1082 -0.7915068 0.299673 -0.7604399 -6.035112 6.035112 -5.275818 0.946 -0.4629 0.2757 0.749149

0.6656685 -0.3778638 -0.5848598 0.190314 -10.52711 -4.539087 -0.4275 0.5749 -0.1082 -0.7801622 0.2960078 -0.7897615 -6.010587 6.081219 -5.188509 0.946 -0.4629 0.2757 0.7437788

0.6656685 -0.3778638 -0.5848598 0.190314 -10.52711 -4.539087 -0.4275 0.5749 -0.1082 -0.7801622 0.2960078 -0.7897615 -6.010587 6.081219 -5.188509 0.946 -0.4629 0.2757 0.7437788

0.657291 -0.3028146 -0.6213372 0.056898 -10.59676 -4.437063 -0.4524 0.5681 -0.2087 -0.7801622 0.2960078 -0.7897615 -6.010587 6.081219 -5.188509 0.946 -0.4629 0.2757 0.7437788

0.657291 -0.3028146 -0.6213372 0.056898 -10.59676 -4.437063 -0.4524 0.5681 -0.2087 -0.686787 0.3817035 -0.8157669 -6.012549 6.126345 -5.172813 0.9637 -0.4305 0.2506 0.7343808

0.847881 -0.3916519 -0.4680973 0.082404 -10.27892 -4.231053 -0.4524 0.5681 -0.2087 -0.6602581 0.4180064 -0.8468338 -6.008626 6.149889 -5.129649 0.9637 -0.4305 0.2506 0.7343808

0.6049311 -0.662527 -0.2549926 0.210915 -9.859051 -3.888684 -0.4752 0.5391 -0.3039 -0.6080727 0.4420919 -0.8653343 -6.04296 6.178339 -5.180661 0.9802 -0.4077 0.2305 0.7343808

0.4075344 -0.7504916 -0.1951278 0.426735 -9.850221 -3.656187 -0.477 0.4891 -0.3884 -0.6080727 0.4420919 -0.8653343 -6.04296 6.178339 -5.180661 0.9802 -0.4077 0.2305 0.7343808

0.4075344 -0.7504916 -0.1951278 0.426735 -9.850221 -3.656187 -0.477 0.4891 -0.3884 -0.4043928 0.5759587 -0.8679522 -6.077295 6.266629 -5.249331 0.9802 -0.4077 0.2305 0.7102147

0.3750713 -0.5223771 -0.3361504 0.422811 -9.864936 -3.74742 -0.477 0.4891 -0.3884 -0.2747148 0.6691592 -0.8506735 -6.007644 6.224445 -5.159079 0.9874 -0.3799 0.222 0.7102147

0.3876376 -0.2686062 -0.4307473 0.261927 -9.855127 -4.043682 -0.4718 0.4243 -0.4638 -0.2747148 0.6691592 -0.8506735 -6.007644 6.224445 -5.159079 0.9874 -0.3799 0.222 0.7102147

0.3876376 -0.2686062 -0.4307473 0.261927 -9.855127 -4.043682 -0.4718 0.4243 -0.4638 -0.3680899 0.2890265 -0.8304277 -5.470057 5.853627 -4.754907 1.0235 -0.3162 0.2091 0.7102147

0.4743805 -0.1846558 -0.3906047 0.18639 -9.791361 -4.229091 -0.4718 0.4243 -0.4638 -0.3680899 0.2890265 -0.8304277 -5.470057 5.853627 -4.754907 1.0235 -0.3162 0.2091 0.6793358

0.3682645 0.008726646 -0.3740241 0.237402 -9.57456 -4.182984 -0.4579 0.3481 -0.5289 -0.352731 0.2115339 -0.8183849 -5.418063 5.802615 -4.731363 1.0379 -0.2994 0.2081 0.6793358

0.3682645 0.008726646 -0.3740241 0.237402 -9.57456 -4.182984 -0.4579 0.3481 -0.5289 -0.352731 0.2115339 -0.8183849 -5.418063 5.802615 -4.731363 1.0379 -0.2994 0.2081 0.6793358

0.3682645 0.008726646 -0.3740241 0.237402 -9.57456 -4.182984 -0.4579 0.3481 -0.5289 -0.3916519 0.0593412 -0.8389798 -5.413158 5.64958 -4.699971 1.0379 -0.2994 0.2081 0.6793358

0.3682645 0.008726646 -0.3740241 0.237402 -9.57456 -4.182984 -0.4579 0.3481 -0.5289 -0.4115486 -0.04380776 -0.8185595 -5.466132 5.58189 -4.64994 1.0348 -0.2707 0.1985 0.6350313

0.3682645 0.008726646 -0.3740241 0.237402 -9.57456 -4.182984 -0.4579 0.3481 -0.5289 -0.4115486 -0.04380776 -0.8185595 -5.466132 5.58189 -4.64994 1.0348 -0.2707 0.1985 0.6350313

0.3003711 0.2827434 -0.01780236 0.383571 -8.900614 -3.399165 -0.2757 0.0975 -0.5827 -0.3864159 -0.08534659 -0.7834783 -5.60151 5.526954 -4.638168 1.0348 -0.2707 0.1985 0.6350313

0.3120649 0.4351106 0.05602507 0.179523 -8.860392 -3.28635 -0.2757 0.0975 -0.5827 -0.3956662 -0.1108284 -0.7771951 -5.770242 5.505373 -4.626396 1.0314 -0.2291 0.1874 0.6350313

0.3120649 0.4351106 0.05602507 0.179523 -8.860392 -3.28635 -0.2757 0.0975 -0.5827 -0.3956662 -0.1108284 -0.7771951 -5.770242 5.505373 -4.626396 1.0314 -0.2291 0.1874 0.5826715

0.4239405 0.4867723 0.1188569 0.18639 -8.825077 -3.019518 -0.1777 0.023 -0.5653 -0.3028146 0.04869469 -0.6431538 -6.008626 5.537745 -4.655826 1.0314 -0.2291 0.1874 0.5826715

0.4239405 0.4867723 0.1188569 0.18639 -8.825077 -3.019518 -0.1777 0.023 -0.5653 -0.3028146 0.04869469 -0.6431538 -6.008626 5.537745 -4.655826 1.0314 -0.2291 0.1874 0.5826715

0.3918264 0.39235 0.1605703 0.273699 -9.028144 -2.791926 -0.1777 0.023 -0.5653 -0.2078687 0.1991421 -0.5565855 -6.074352 5.50341 -4.737249 1.0394 -0.1959 0.2019 0.562533

0.2916445 0.4152139 0.09494592 0.229554 -9.354816 -2.798793 -0.1027 -0.0395 -0.5356 -0.1572542 0.2947861 -0.5297074 -6.036093 5.367051 -4.765698 1.0394 -0.1959 0.2019 0.562533

0.2146755 0.5344198 -0.001745329 0.232497 -9.527472 -2.77623 -0.1027 -0.0395 -0.5356 -0.1572542 0.2947861 -0.5297074 -6.036093 5.367051 -4.765698 1.0394 -0.1959 0.2019 0.562533

0.2146755 0.5344198 -0.001745329 0.232497 -9.527472 -2.77623 -0.1027 -0.0395 -0.5356 -0.1572542 0.2947861 -0.5297074 -6.036093 5.367051 -4.765698 1.0394 -0.1959 0.2019 0.5303116

0.09738937 0.5546656 0.1108284 0.287433 -9.491175 -2.633004 -0.0141 -0.1023 -0.5352 -0.1572542 0.2947861 -0.5297074 -6.036093 5.367051 -4.765698 1.0394 -0.1959 0.2019 0.5303116

0.1151917 0.5427974 0.2694788 0.379647 -9.344026 -2.361267 -0.0141 -0.1023 -0.5352 -0.1876229 -0.1691224 -0.1345649 -5.540689 4.744116 -4.774527 1.0432 -0.1048 0.205 0.5303116

0.1371829 0.3104941 0.2256711 0.678852 -9.366589 -2.016936 0.0684 -0.1437 -0.5431 -0.1876229 -0.1691224 -0.1345649 -5.540689 4.744116 -4.774527 1.0432 -0.1048 0.205 0.5303116

0.1371829 0.3104941 0.2256711 0.678852 -9.366589 -2.016936 0.0684 -0.1437 -0.5431 -0.2324778 -0.2548181 -0.1216494 -5.712363 4.67839 -4.695066 1.0432 -0.1048 0.205 0.5303116

0.1637119 0.2827434 0.1169371 0.66708 -9.484308 -1.928646 0.1387 -0.182 -0.5284 -0.2150246 -0.1199041 -0.07853982 -6.112611 4.760793 -4.666617 1.0443 -0.1082 0.181 0.5303116

-0.2508038 0.723439 0.03752458 0.314901 -9.861012 -2.243547 0.1387 -0.182 -0.5284 -0.2150246 -0.1199041 -0.07853982 -6.112611 4.760793 -4.666617 1.0443 -0.1082 0.181 0.5182285

-0.1647591 0.6901032 -0.09337511 0.561132 -9.955188 -2.287692 0.1761 -0.228 -0.5107 -0.0863938 0.08412487 -0.05253441 -6.506973 4.909905 -4.676427 1.0443 -0.1082 0.181 0.5182285

-0.1647591 0.6901032 -0.09337511 0.561132 -9.955188 -2.287692 0.1761 -0.228 -0.5107 -0.006632251 0.1843068 -0.03839725 -6.652161 4.979556 -4.682313 1.047 -0.1029 0.1637 0.5182285

0.1907645 0.4651302 -0.06754424 0.850527 -9.70209 -2.09934 0.1761 -0.228 -0.5107 -0.006632251 0.1843068 -0.03839725 -6.652161 4.979556 -4.682313 1.047 -0.1029 0.1637 0.5182285

0.2209587 0.3389429 -0.100531 0.7661611 -10.0013 -1.995354 0.2163 -0.2559 -0.5061 0.0403171 0.1937315 -0.0006981317 -6.470676 5.068828 -4.697028 1.047 -0.1029 0.1637 0.5182285

-0.0418879 0.4733333 -0.2316052 0.6317641 -10.44961 -1.837413 0.2163 -0.2559 -0.5061 -0.009075711 -0.02076942 -0.02042035 -6.065524 4.98348 -4.731363 1.0482 -0.0917 0.1654 0.5182285

-0.0418879 0.4733333 -0.2316052 0.6317641 -10.44961 -1.837413 0.2163 -0.2559 -0.5061 -0.009075711 -0.02076942 -0.02042035 -6.065524 4.98348 -4.731363 1.0482 -0.0917 0.1654 0.5061455

-0.06091199 0.3246312 -0.2186898 0.550341 -10.36132 -1.54017 0.2684 -0.2771 -0.484 -0.09512044 -0.1584759 0.01553343 -5.871285 4.940316 -4.723515 1.0536 -0.0772 0.1808 0.5061455

-0.07033677 0.3335324 -0.2495821 0.332559 -10.27303 -1.512702 0.2684 -0.2771 -0.484 -0.05986479 -0.09058259 0.06213372 -5.911506 5.038416 -4.69899 1.0536 -0.0772 0.1808 0.5061455

-0.02600541 0.1813397 -0.3677409 0.37278 -10.05231 -1.267452 0.2803 -0.2905 -0.487 -0.05986479 -0.09058259 0.06213372 -5.911506 5.038416 -4.69899 1.0536 -0.0772 0.1808 0.5074881

-0.02600541 0.1813397 -0.3677409 0.37278 -10.05231 -1.267452 0.2803 -0.2905 -0.487 -0.06667157 -0.03508112 0.07470009 -5.912487 4.984461 -4.638168 1.0492 -0.056 0.1982 0.5074881

-0.08360127 0.02129302 -0.4206243 0.31392 -10.20534 -1.082043 0.2803 -0.2905 -0.487 -0.08761553 0.0731293 0.1254892 -5.894829 4.952088 -4.626396 1.0492 -0.056 0.1982 0.5074881

-0.1762783 -0.08011062 -0.4167846 0.171675 -10.27401 -0.8652421 0.2675 -0.2793 -0.4991 -0.084823 0.1769764 0.2340486 -5.76828 4.980537 -4.655826 1.0581 -0.0625 0.1989 0.5074881

-0.1762783 -0.08011062 -0.4167846 0.171675 -10.27401 -0.8652421 0.2675 -0.2793 -0.4991 -0.084823 0.1769764 0.2340486 -5.76828 4.980537 -4.655826 1.0581 -0.0625 0.1989 0.5074881

-0.02827433 -0.3525565 -0.4464552 0.303129 -10.12392 -0.51993 0.252 -0.2693 -0.4733 -0.1003564 0.1593486 0.3052581 -5.606415 4.971708 -4.633263 1.0581 -0.0625 0.1989 0.5074881

0.1017527 -0.7222173 -0.3982841 0.563094 -10.11019 -0.249174 0.252 -0.2693 -0.4733 -0.2089159 0.01117011 0.3714061 -5.510277 4.861836 -4.496904 1.0737 -0.0772 0.1918 0.5074881

0.1017527 -0.7222173 -0.3982841 0.563094 -10.11019 -0.249174 0.252 -0.2693 -0.4733 -0.2089159 0.01117011 0.3714061 -5.510277 4.861836 -4.496904 1.0737 -0.0772 0.1918 0.5074881

0.3668682 -1.005135 -0.241379 0.551322 -9.913005 -0.135378 0.2325 -0.2513 -0.4504 -0.2778564 -0.05393067 0.4204498 -5.568156 4.882437 -4.398804 1.0737 -0.0772 0.1918 0.5074881

0.3668682 -1.005135 -0.241379 0.551322 -9.913005 -0.135378 0.2325 -0.2513 -0.4504 -0.2778564 -0.05393067 0.4204498 -5.568156 4.882437 -4.398804 1.0737 -0.0772 0.1918 0.5074881

0.3668682 -1.005135 -0.241379 0.551322 -9.913005 -0.135378 0.2325 -0.2513 -0.4504 -0.2778564 -0.05393067 0.4204498 -5.568156 4.882437 -4.398804 1.0737 -0.0772 0.1918 0.5074881

0.3668682 -1.005135 -0.241379 0.551322 -9.913005 -0.135378 0.2325 -0.2513 -0.4504 -0.5202826 -0.02617994 0.3412119 -6.453019 5.133573 -4.265388 1.0419 -0.1089 0.1765 0.5074881

0.4232423 -1.276883 -0.5005604 0.541512 -10.57616 0.082404 0.1613 -0.2295 -0.4281 -0.3581416 0.4078835 0.41853 -6.998455 5.407272 -4.222224 1.0419 -0.1089 0.1765 0.5074881

0.4232423 -1.276883 -0.5005604 0.541512 -10.57616 0.082404 0.1613 -0.2295 -0.4281 -0.3581416 0.4078835 0.41853 -6.998455 5.407272 -4.222224 1.0419 -0.1089 0.1765 0.5074881

0.3616322 -1.277232 -0.5602506 0.6994531 -10.69781 0.14715 0.1613 -0.2295 -0.4281 -0.3368485 0.5461136 0.3850196 -7.140699 5.390595 -4.046625 1.0369 -0.1258 0.1802 0.7128999

0.3570943 -1.215447 -0.4537856 0.842679 -10.67524 0.241326 0.1283 -0.226 -0.3941 -0.4979424 0.5330235 0.2975786 -7.051428 5.246388 -3.808242 1.0369 -0.1258 0.1802 0.7128999

0.3570943 -1.215447 -0.4537856 0.842679 -10.67524 0.241326 0.1283 -0.226 -0.3941 -0.4979424 0.5330235 0.2975786 -7.051428 5.246388 -3.808242 1.0369 -0.1258 0.1802 0.7128999

0.3914773 -1.283166 -0.2883284 0.9044821 -10.50651 0.368856 0.1014 -0.2191 -0.3909 -0.6398377 0.4197517 0.2396337 -6.91507 5.220882 -3.677769 1.0299 -0.1524 0.1967 0.7128999

0.4276057 -1.31336 -0.3082252 1.211535 -10.38879 0.499329 0.1014 -0.2191 -0.3909 -0.7283259 0.3726278 0.161443 -6.840513 5.248351 -3.5316 1.0299 -0.1524 0.1967 0.7128999

0.4276057 -1.31336 -0.3082252 1.211535 -10.38879 0.499329 0.1014 -0.2191 -0.3909 -0.7283259 0.3726278 0.161443 -6.840513 5.248351 -3.5316 1.0299 -0.1524 0.1967 0.7128999

0.5108579 -1.304634 -0.3162537 1.376343 -10.22987 0.5944861 0.0943 -0.2194 -0.415 -0.7983136 0.3647738 0.09058259 -6.855228 5.224806 -3.455082 1.0493 -0.1714 0.1982 0.7128999

0.5180137 -1.426283 -0.3324852 1.45188 -10.08762 0.682776 0.0943 -0.2194 -0.415 -0.9562659 0.2647665 -0.02338741 -6.902316 5.23854 -3.331476 1.0493 -0.1714 0.1982 0.8941456

0.5180137 -1.426283 -0.3324852 1.45188 -10.08762 0.682776 0.0943 -0.2194 -0.415 -1.037424 0.2928663 -0.1178097 -6.975891 5.328793 -3.280464 1.0554 -0.1818 0.2058 0.8941456

0.6059783 -1.607972 -0.3057817 1.759914 -10.0425 0.7357501 0.0969 -0.2345 -0.4264 -1.037424 0.2928663 -0.1178097 -6.975891 5.328793 -3.280464 1.0554 -0.1818 0.2058 0.8941456

0.6440265 -1.613382 -0.251851 1.988487 -9.843354 0.816192 0.0969 -0.2345 -0.4264 -1.032013 0.4082325 -0.1916371 -7.142661 5.427874 -3.270654 1.0554 -0.1818 0.2058 0.8941456

0.6440265 -1.613382 -0.251851 1.988487 -9.843354 0.816192 0.0969 -0.2345 -0.4264 -1.032013 0.4082325 -0.1916371 -7.142661 5.427874 -3.270654 1.0554 -0.1818 0.2058 0.9612737

0.492881 -1.629963 -0.2560398 1.962 -9.784494 0.823059 0.1121 -0.2751 -0.4027 -1.037075 0.4885176 -0.2741912 -7.289811 5.522049 -3.235338 1.025 -0.1885 0.216 0.9612737

0.4991642 -1.5413 -0.1710423 2.045385 -9.964017 0.6994531 0.1121 -0.2751 -0.4027 -1.037075 0.4885176 -0.2741912 -7.289811 5.522049 -3.235338 1.025 -0.1885 0.216 0.9612737

0.4991642 -1.5413 -0.1710423 2.045385 -9.964017 0.6994531 0.1121 -0.2751 -0.4027 -1.037075 0.4885176 -0.2741912 -7.289811 5.522049 -3.235338 1.025 -0.1885 0.216 0.9612737

0.7304202 -1.499238 0.04276057 2.000259 -9.775665 0.655308 0.0963 -0.3278 -0.3566 -1.037075 0.4885176 -0.2741912 -7.289811 5.522049 -3.235338 1.025 -0.1885 0.216 1.005578

0.7304202 -1.499238 0.04276057 2.000259 -9.775665 0.655308 0.0963 -0.3278 -0.3566 -1.257859 0.8498008 -0.6312855 -7.423227 5.943879 -2.639871 1.0092 -0.2113 0.2395 1.005578

0.7304202 -1.499238 0.04276057 2.000259 -9.775665 0.655308 0.0963 -0.3278 -0.3566 -1.359786 0.7494444 -0.7644542 -7.282944 5.885019 -2.597688 1.0249 -0.1858 0.2375 1.005578

0.7304202 -1.499238 0.04276057 2.000259 -9.775665 0.655308 0.0963 -0.3278 -0.3566 -1.359786 0.7494444 -0.7644542 -7.282944 5.885019 -2.597688 1.0249 -0.1858 0.2375 1.005578

0.9430014 -1.836959 0.06963864 2.322027 -9.847279 0.6925861 -0.0225 -0.3716 -0.0999 -1.410226 0.7169813 -0.9061749 -7.216236 6.000777 -2.615346 1.0249 -0.1858 0.2375 1.005578

0.9430014 -1.836959 0.06963864 2.322027 -9.847279 0.6925861 -0.0225 -0.3716 -0.0999 -1.366593 0.802677 -0.9576621 -7.311393 6.217578 -2.655567 1.0346 -0.162 0.2292 1.005578

0.7213446 -1.78041 -0.01867502 2.168991 -10.09351 0.532683 -0.0225 -0.3716 -0.0999 -1.366593 0.802677 -0.9576621 -7.311393 6.217578 -2.655567 1.0346 -0.162 0.2292 1.016319

0.559378 -1.689479 -0.02513274 1.965924 -10.12883 0.381609 -0.1127 -0.3033 -0.0355 -1.359961 0.8660324 -0.9677851 -7.409493 6.269571 -2.698731 1.0346 -0.162 0.2292 1.016319

0.559378 -1.689479 -0.02513274 1.965924 -10.12883 0.381609 -0.1127 -0.3033 -0.0355 -1.359961 0.8660324 -0.9677851 -7.409493 6.269571 -2.698731 1.0346 -0.162 0.2292 1.016319

0.3834488 -1.688432 -0.06370452 1.975734 -10.24066 0.182466 -0.1127 -0.3033 -0.0355 -1.387886 0.919963 -1.067967 -7.428133 6.426531 -2.646738 1.023 -0.1327 0.2471 1.008263

0.1103048 -1.659983 -0.1734857 1.959057 -10.25734 -0.060822 -0.2192 -0.2537 0.0126 -1.387886 0.919963 -1.067967 -7.428133 6.426531 -2.646738 1.023 -0.1327 0.2471 1.008263

0.1103048 -1.659983 -0.1734857 1.959057 -10.25734 -0.060822 -0.2192 -0.2537 0.0126 -1.268854 0.9988519 -1.083151 -7.413417 6.600168 -2.643795 1.023 -0.1327 0.2471 1.008263

0.1708677 -1.616524 -0.1190315 1.859976 -9.871803 -0.131454 -0.3446 -0.217 0.0536 -1.268854 0.9988519 -1.083151 -7.413417 6.600168 -2.643795 1.023 -0.1327 0.2471 0.9814121

0.2752384 -1.57865 0.01658063 1.715769 -9.626554 -0.222687 -0.3446 -0.217 0.0536 -1.167974 1.003041 -1.131671 -7.187787 6.666876 -2.441709 1.014 -0.0556 0.2965 0.9814121

0.2752384 -1.57865 0.01658063 1.715769 -9.626554 -0.222687 -0.3446 -0.217 0.0536 -1.167974 1.003041 -1.131671 -7.187787 6.666876 -2.441709 1.014 -0.0556 0.2965 0.9814121

0.283616 -1.540777 0.06038839 1.64808 -9.544149 -0.384552 -0.445 -0.1884 0.1029 -1.101128 1.020843 -1.10811 -7.070067 6.692382 -2.438766 0.9928 -0.0107 0.3364 0.9814121

0.4146902 -1.528559 0.07295476 1.634346 -9.375417 -0.479709 -0.445 -0.1884 0.1029 -1.101128 1.020843 -1.10811 -7.070067 6.692382 -2.438766 0.9928 -0.0107 0.3364 0.9371076

0.4146902 -1.528559 0.07295476 1.634346 -9.375417 -0.479709 -0.445 -0.1884 0.1029 -1.101128 1.020843 -1.10811 -7.070067 6.692382 -2.438766 0.9928 -0.0107 0.3364 0.9371076

0.4490732 -1.443038 0.1214749 1.50093 -9.364626 -0.587619 -0.5108 -0.1661 0.1992 -1.057844 0.9801769 -1.121723 -6.94548 6.61194 -2.398545 0.9928 -0.0107 0.3364 0.9371076

0.4281293 -1.327323 0.2321288 1.259604 -9.460764 -0.736731 -0.5108 -0.1661 0.1992 -1.104793 0.8796459 -1.167451 -6.822855 6.473619 -2.323008 0.9706 0.0129 0.3768 0.9371076

0.4736823 -1.162389 0.3476696 1.006506 -9.503928 -0.8691661 -0.5254 -0.1491 0.3051 -1.113171 0.8234463 -1.175654 -6.74928 6.426531 -2.286711 0.9706 0.0129 0.3768 0.868637

0.4736823 -1.162389 0.3476696 1.006506 -9.503928 -0.8691661 -0.5254 -0.1491 0.3051 -1.113171 0.8234463 -1.175654 -6.74928 6.426531 -2.286711 0.9706 0.0129 0.3768 0.868637

0.6780604 -1.108633 0.3932227 0.915273 -9.507853 -0.74556 -0.5254 -0.1491 0.3051 -1.033409 0.8450884 -1.133068 -6.722793 6.50403 -2.328894 0.9456 0.0389 0.4152 0.868637

0.5543166 -1.114567 0.3234095 0.9388171 -9.78057 -0.713187 -0.5297 -0.1087 0.4222 -0.9899508 0.8288569 -1.133242 -6.675705 6.508935 -2.353419 0.9456 0.0389 0.4152 0.868637

0.5543166 -1.114567 0.3234095 0.9388171 -9.78057 -0.713187 -0.5297 -0.1087 0.4222 -0.9899508 0.8288569 -1.133242 -6.675705 6.508935 -2.353419 0.9456 0.0389 0.4152 0.7961386

0.4696681 -1.15087 0.2691298 0.9260641 -9.854146 -0.6994531 -0.5276 -0.026 0.5131 -0.9899508 0.8288569 -1.133242 -6.675705 6.508935 -2.353419 0.9456 0.0389 0.4152 0.7961386

0.6106907 -1.14511 0.3143338 0.822078 -9.801171 -0.60822 -0.5276 -0.026 0.5131 -0.938289 0.5445427 -1.07233 -6.87583 6.217578 -2.482911 0.8696 0.094 0.4839 0.7961386

0.6106907 -1.14511 0.3143338 0.822078 -9.801171 -0.60822 -0.5276 -0.026 0.5131 -0.938289 0.5445427 -1.07233 -6.87583 6.217578 -2.482911 0.8696 0.094 0.4839 0.7961386

0.6106907 -1.14511 0.3143338 0.822078 -9.801171 -0.60822 -0.5276 -0.026 0.5131 -0.8951794 0.5230752 -1.058717 -6.954309 6.197958 -2.444652 0.8312 0.096 0.4935 0.7142425

0.6106907 -1.14511 0.3143338 0.822078 -9.801171 -0.60822 -0.5276 -0.026 0.5131 -0.9229301 0.4129449 -1.058368 -7.071048 6.130269 -2.389716 0.8312 0.096 0.4935 0.7142425

0.6106907 -1.14511 0.3143338 0.822078 -9.801171 -0.60822 -0.5276 -0.026 0.5131 -0.9229301 0.4129449 -1.058368 -7.071048 6.130269 -2.389716 0.8312 0.096 0.4935 0.7142425

0.1490511 -0.8972738 0.2588323 0.469899 -9.910063 -0.527778 -0.5798 0.2157 0.6448 -0.869523 0.5005604 -1.035329 -7.253515 6.120459 -2.454462 0.8129 0.0899 0.5189 0.6766508

0.09512044 -0.8408996 0.135263 0.355122 -10.02288 -0.629802 -0.642 0.3425 0.6473 -0.7244861 0.6611307 -0.9878563 -7.345728 6.114573 -2.507436 0.8129 0.0899 0.5189 0.6766508

-0.04363323 -0.8152432 0.122173 0.334521 -10.10234 -0.56898 -0.642 0.3425 0.6473 -0.7244861 0.6611307 -0.9878563 -7.345728 6.114573 -2.507436 0.8129 0.0899 0.5189 0.6766508

-0.04363323 -0.8152432 0.122173 0.334521 -10.10234 -0.56898 -0.642 0.3425 0.6473 -0.7068583 0.5845108 -0.9519026 -7.260382 5.96448 -2.447595 0.7964 0.0919 0.5484 0.6766508

-0.180118 -0.702495 0.1000074 0.271737 -10.31718 -0.659232 -0.7094 0.4881 0.5916 -0.7380998 0.4234169 -0.9471902 -7.136775 5.708439 -2.39364 0.7964 0.0919 0.5484 0.6766508

-0.1092576 -0.5906194 0.06056292 0.259965 -10.36525 -0.807363 -0.749 0.6095 0.4939 -0.7380998 0.4234169 -0.9471902 -7.136775 5.708439 -2.39364 0.7964 0.0919 0.5484 0.6766508

-0.1570796 -0.4040437 0.09320059 0.249174 -10.14158 -0.8083441 -0.749 0.6095 0.4939 -0.6883578 0.2223549 -0.7372271 -7.068105 5.202243 -2.422089 0.7455 0.0763 0.5835 0.6766508

-0.1570796 -0.4040437 0.09320059 0.249174 -10.14158 -0.8083441 -0.749 0.6095 0.4939 -0.6883578 0.2223549 -0.7372271 -7.068105 5.202243 -2.422089 0.7455 0.0763 0.5835 0.538367

-0.1556834 -0.3813545 0.16441 0.151074 -10.01307 -0.862299 -0.8095 0.6986 0.4017 -0.6874852 0.1361357 -0.7216936 -7.107345 5.093352 -2.486835 0.7455 0.0763 0.5835 0.538367

-0.1556834 -0.3813545 0.16441 0.151074 -10.01307 -0.862299 -0.8095 0.6986 0.4017 -0.5820673 0.1464331 -0.6059783 -7.290792 5.060979 -2.544714 0.7433 0.0655 0.6062 0.538367

0.003839724 -0.4354596 0.2370157 0.291357 -9.826678 -0.900558 -0.8095 0.6986 0.4017 -0.5820673 0.1464331 -0.6059783 -7.290792 5.060979 -2.544714 0.7433 0.0655 0.6062 0.538367

0.03996804 -0.4070108 0.2909464 0.438507 -9.587314 -0.910368 -0.8644 0.7393 0.3381 -0.5539675 0.1694715 -0.5309291 -7.483068 4.938354 -2.529018 0.7433 0.0655 0.6062 0.4940625

0.03996804 -0.4070108 0.2909464 0.438507 -9.587314 -0.910368 -0.8644 0.7393 0.3381 -0.5539675 0.1694715 -0.5309291 -7.483068 4.938354 -2.529018 0.7433 0.0655 0.6062 0.4940625

-0.06806784 -0.3169518 0.3312635 0.464013 -9.583389 -0.978057 -0.8644 0.7393 0.3381 -0.4998623 0.2221804 -0.5064946 -7.578225 4.842216 -2.57022 0.7468 0.061 0.6015 0.473924

0.04904375 -0.2766347 0.4073598 0.44145 -9.587314 -1.062423 -0.9035 0.762 0.2733 -0.4377286 0.2195624 -0.46897 -7.580187 4.790223 -2.588859 0.7468 0.061 0.6015 0.473924

-0.05201081 -0.1200787 0.3722787 0.367875 -9.516682 -1.11834 -0.9278 0.7863 0.2178 -0.4377286 0.2195624 -0.46897 -7.580187 4.790223 -2.588859 0.7468 0.061 0.6015 0.473924

-0.05201081 -0.1200787 0.3722787 0.367875 -9.516682 -1.11834 -0.9278 0.7863 0.2178 -0.4108505 0.1347394 -0.4515167 -7.582149 4.721553 -2.553543 0.7391 0.0454 0.5853 0.4390174

-0.127409 -0.0005235987 0.3083997 0.202086 -9.672661 -1.241946 -0.9278 0.7863 0.2178 -0.4108505 0.1347394 -0.4515167 -7.582149 4.721553 -2.553543 0.7391 0.0454 0.5853 0.4390174

-0.1380555 0.00296706 0.331438 0.119682 -9.732501 -1.239003 -0.9336 0.7943 0.1429 -0.3675663 0.2036799 -0.408407 -7.646895 4.662694 -2.565315 0.7391 0.0454 0.5853 0.4390174

-0.1380555 0.00296706 0.331438 0.119682 -9.732501 -1.239003 -0.9336 0.7943 0.1429 -0.3675663 0.2036799 -0.408407 -7.646895 4.662694 -2.565315 0.7391 0.0454 0.5853 0.4242493

-0.1118756 -0.001570796 0.3125885 0.121644 -9.762912 -1.176219 -0.9336 0.7943 0.1429 -0.2403318 -0.0715585 -0.08761553 -7.383007 4.429215 -2.587878 0.7259 0.0208 0.5982 0.4242493

-0.1118756 -0.001570796 0.3125885 0.121644 -9.762912 -1.176219 -0.9336 0.7943 0.1429 -0.2403318 -0.0715585 -0.08761553 -7.383007 4.429215 -2.587878 0.7259 0.0208 0.5982 0.4242493

-0.1877974 0.06021386 0.2291617 0.061803 -9.774684 -1.18701 -0.9425 0.7799 0.0935 -0.2213078 -0.05550147 -0.01134464 -7.516422 4.494942 -2.591802 0.73 0.0152 0.5937 0.4242493

-0.1877974 0.06021386 0.2291617 0.061803 -9.774684 -1.18701 -0.9425 0.7799 0.0935 -0.148353 -0.02234021 0.05078908 -7.693002 4.53222 -2.644776 0.73 0.0152 0.5937 0.4242493

-0.1886701 0.08203047 0.2460914 -0.054936 -9.808039 -1.102644 -0.9425 0.7799 0.0935 -0.148353 -0.02234021 0.05078908 -7.693002 4.53222 -2.644776 0.73 0.0152 0.5937 0.4242493

-0.2515019 0.06056292 0.2485349 -0.194238 -9.729559 -1.022202 -0.9389 0.7699 0.0795 -0.1478294 0.03717551 0.0593412 -7.899993 4.484151 -2.533923 0.732 0.0078 0.5963 0.4041108

-0.2790782 -0.07627089 0.3192207 -0.133416 -9.667755 -0.858375 -0.9389 0.7699 0.0795 -0.1478294 0.03717551 0.0593412 -7.899993 4.484151 -2.533923 0.732 0.0078 0.5963 0.4041108

-0.2790782 -0.07627089 0.3192207 -0.133416 -9.667755 -0.858375 -0.9389 0.7699 0.0795 -0.0858702 0.1415462 0.1277581 -8.063821 4.516524 -2.526075 0.732 0.0078 0.5963 0.4041108

-0.4118977 -0.01291544 0.2508038 -0.040221 -9.667755 -0.830907 -0.9444 0.7716 0.0568 -0.08395033 0.07993608 0.1120501 -7.971607 4.447854 -2.544714 0.7282 -0.0043 0.5973 0.4041108

-0.4576253 0.01256637 0.1356121 -0.193257 -9.810982 -0.8721091 -0.9536 0.7759 0.015 -0.1007055 -0.02426008 0.07522369 -7.93629 4.392918 -2.415222 0.7282 -0.0043 0.5973 0.4041108

-0.4576253 0.01256637 0.1356121 -0.193257 -9.810982 -0.8721091 -0.9536 0.7759 0.015 -0.1007055 -0.02426008 0.07522369 -7.93629 4.392918 -2.415222 0.7282 -0.0043 0.5973 0.4041108

-0.5516986 -0.01553343 0.1425934 -0.146169 -9.920853 -0.7563511 -0.9536 0.7759 0.015 -0.01954769 0.1284562 0.1169371 -8.108947 4.464531 -2.360286 0.7312 -0.014 0.6072 0.4041108

-0.6569419 0.02216568 0.002792527 -0.145188 -10.22398 -0.8348311 -0.9482 0.7755 -0.0019 0.02548181 0.1843068 0.1687733 -8.099136 4.426272 -2.43288 0.7312 -0.014 0.6072 0.4041108

-0.5241224 0.1467822 -0.07696902 -0.2943 -10.47512 -0.945684 -0.9482 0.7755 -0.0019 0.02548181 0.1843068 0.1687733 -8.099136 4.426272 -2.43288 0.7312 -0.014 0.6072 0.4041108

-0.5241224 0.1467822 -0.07696902 -0.2943 -10.47512 -0.945684 -0.9482 0.7755 -0.0019 -0.1150172 -0.1185079 0.1169371 -7.837209 4.278141 -2.391678 0.7189 -0.0181 0.6161 0.4000832

-0.4113741 0.03159046 0.0561996 -0.348255 -10.23379 -0.783819 -0.9607 0.7666 0.0349 -0.1150172 -0.1185079 0.1169371 -7.837209 4.278141 -2.391678 0.7189 -0.0181 0.6161 0.4000832

-0.2813471 -0.1471313 0.07243116 -0.134397 -10.16807 -0.681795 -0.9607 0.7666 0.0349 -0.1150172 -0.1185079 0.1169371 -7.837209 4.278141 -2.391678 0.7189 -0.0181 0.6161 0.4000832

-0.1553343 -0.09232792 -0.02059488 0.002943 -10.16512 -0.8083441 -0.9776 0.7553 0.0737 0.05427974 0.2350959 0.1279326 -8.263945 4.360545 -2.416203 0.719 -0.0319 0.6056 0.4000832

-0.1553343 -0.09232792 -0.02059488 0.002943 -10.16512 -0.8083441 -0.9776 0.7553 0.0737 -0.05183628 -0.07435103 0.08883726 -7.943158 4.349754 -2.2563 0.719 -0.0319 0.6056 0.3973981

-0.1363102 0.02199115 0.04572763 -0.067689 -10.10136 -0.928026 -0.9776 0.7553 0.0737 0.02827433 0.008901179 0.10088 -8.106004 4.353678 -2.271015 0.7227 -0.0394 0.6201 0.3973981

0.2076942 0.02600541 0.1530654 -0.134397 -10.12883 -1.002582 -0.9772 0.7593 0.0706 0.02827433 0.008901179 0.10088 -8.106004 4.353678 -2.271015 0.7227 -0.0394 0.6201 0.3973981

0.2392846 0.1225221 0.01117011 -0.16677 -10.40645 -0.988848 -0.9988 0.7815 0.0618 0.06719518 0.0541052 0.06894051 -8.104041 4.328172 -2.318103 0.7227 -0.0394 0.6201 0.3973981

0.2392846 0.1225221 0.01117011 -0.16677 -10.40645 -0.988848 -0.9988 0.7815 0.0618 -0.03735005 -0.1624902 -0.0003490658 -7.953948 4.317381 -2.251395 0.7115 -0.0336 0.6214 0.3973981

0.05427974 0.0991347 -0.0403171 -0.206991 -10.4761 -0.914292 -0.9988 0.7815 0.0618 -0.03787364 -0.1487021 0.05183628 -8.150148 4.437063 -2.216079 0.7115 -0.0336 0.6214 0.3973981

-0.02042035 0.07941248 -0.03141592 -0.152055 -10.49572 -0.802458 -1.0091 0.7911 0.0631 -0.03787364 -0.1487021 0.05183628 -8.150148 4.437063 -2.216079 0.7115 -0.0336 0.6214 0.3973981

-0.05864306 0.0561996 -0.05951573 -0.190314 -10.36132 -0.733788 -1.0091 0.7911 0.0631 0.02687807 0.1312488 0.06510078 -8.415999 4.405671 -2.386773 0.7106 -0.0355 0.6221 0.3973981

-0.05864306 0.0561996 -0.05951573 -0.190314 -10.36132 -0.733788 -1.0091 0.7911 0.0631 0.008901179 0.1647591 -0.01902409 -8.355178 4.347792 -2.422089 0.7106 -0.0355 0.6221 0.3973981

-0.3282964 -0.02408554 -0.1136209 -0.184428 -10.11215 -0.584676 -1.0073 0.7823 0.0534 0.008901179 0.1647591 -0.01902409 -8.355178 4.347792 -2.422089 0.7106 -0.0355 0.6221 0.3973981

-0.5867797 -0.1427679 -0.1589995 -0.109872 -10.20534 -0.5944861 -1.0073 0.7823 0.0534 0 0.1768019 -0.02740167 -8.295337 4.428234 -2.358324 0.7079 -0.0431 0.6341 0.3973981

-0.243648 -0.1797689 -0.08691739 -0.065727 -10.2799 -0.621954 -1.0253 0.7721 0.0515 0.03979351 0.225322 0.007679448 -8.293374 4.501809 -2.368134 0.7079 -0.0431 0.6341 0.4014257

-0.243648 -0.1797689 -0.08691739 -0.065727 -10.2799 -0.621954 -1.0253 0.7721 0.0515 0.03979351 0.225322 0.007679448 -8.293374 4.501809 -2.368134 0.7079 -0.0431 0.6341 0.4014257

-0.1054179 -0.1122247 0.4380777 -0.143226 -9.886518 -0.805401 -1.0253 0.7721 0.0515 0.03979351 0.225322 0.007679448 -8.293374 4.501809 -2.368134 0.7079 -0.0431 0.6341 0.4014257

-0.2502802 -0.3174754 0.8159414 -0.219744 -9.371493 -1.161504 -1.0386 0.7696 0.0751 0.03979351 0.225322 0.007679448 -8.293374 4.501809 -2.368134 0.7079 -0.0431 0.6341 0.4014257

-0.2502802 -0.3174754 0.8159414 -0.219744 -9.371493 -1.161504 -1.0386 0.7696 0.0751 0.08709192 -0.1186824 0.1829105 -7.633162 5.005063 -2.435823 0.7074 -0.0311 0.6478 0.4014257

-0.2502802 -0.3174754 0.8159414 -0.219744 -9.371493 -1.161504 -1.0386 0.7696 0.0751 0.1907645 0.03839725 0.2022837 -7.497783 5.202243 -2.597688 0.6999 -0.039 0.6473 0.406796

-0.2502802 -0.3174754 0.8159414 -0.219744 -9.371493 -1.161504 -1.0386 0.7696 0.0751 0.1907645 0.03839725 0.2022837 -7.497783 5.202243 -2.597688 0.6999 -0.039 0.6473 0.406796

-0.3825762 0.3696607 -0.183085 -1.858014 -10.38683 -2.804679 -1.061 0.8142 0.1442 0.2843142 0.0970403 0.2242748 -7.212312 5.322906 -2.798793 0.6999 -0.039 0.6473 0.406796

-0.3825762 0.3696607 -0.183085 -1.858014 -10.38683 -2.804679 -1.061 0.8142 0.1442 0.2761111 0.008552114 0.3031637 -6.926841 5.398443 -2.819394 0.69 -0.0308 0.6352 0.406796

-0.5578072 0.2197369 -0.2895501 -1.807002 -10.49278 -2.790945 -1.061 0.8142 0.1442 0.2761111 0.008552114 0.3031637 -6.926841 5.398443 -2.819394 0.69 -0.0308 0.6352 0.406796

-0.5578072 0.2197369 -0.2895501 -1.807002 -10.49278 -2.790945 -1.061 0.8142 0.1442 0.3436553 0.001396263 0.4721116 -6.763995 5.627997 -2.861577 0.69 -0.0308 0.6352 0.406796

-0.7675958 -0.0863938 -0.3626794 -1.6677 -10.44373 -2.83509 -1.0679 0.8404 0.1779 0.4572763 0.001396263 0.6403612 -6.663933 5.867362 -2.990088 0.6792 -0.016 0.6373 0.4457302

-0.964818 -0.1132719 -0.3159046 -1.713807 -10.15531 -2.942019 -1.0679 0.8404 0.1779 0.4572763 0.001396263 0.6403612 -6.663933 5.867362 -2.990088 0.6792 -0.016 0.6373 0.4457302

-1.139002 -0.2935644 -0.08621927 -1.664757 -9.815886 -3.005784 -1.0703 0.8678 0.251 0.4761258 -0.1200787 0.7319911 -6.541308 5.891886 -3.073473 0.6792 -0.016 0.6373 0.4457302

-1.139002 -0.2935644 -0.08621927 -1.664757 -9.815886 -3.005784 -1.0703 0.8678 0.251 0.5031784 -0.1254892 0.8354891 -6.571719 5.901696 -3.038157 0.6813 -0.0123 0.6403 0.4457302

-1.207768 -0.4466298 0.0403171 -1.739313 -9.538263 -3.298122 -1.0772 0.8901 0.3606 0.6621779 -0.05183628 1.024857 -6.672762 6.134193 -3.054834 0.6813 -0.0123 0.6403 0.4457302

-1.192583 -0.257087 -0.0996583 -1.842318 -9.337158 -3.735648 -1.0772 0.8901 0.3606 0.6621779 -0.05183628 1.024857 -6.672762 6.134193 -3.054834 0.6813 -0.0123 0.6403 0.4457302

-1.192583 -0.257087 -0.0996583 -1.842318 -9.337158 -3.735648 -1.0772 0.8901 0.3606 0.7648033 -0.01448623 1.212306 -6.743394 6.286248 -3.008727 0.6802 -0.0082 0.6536 0.5692459

-1.251576 -0.1382301 -0.1816888 -1.925703 -9.187065 -4.056435 -1.0439 0.889 0.5309 0.7648033 -0.01448623 1.212306 -6.743394 6.286248 -3.008727 0.6802 -0.0082 0.6536 0.5692459

-1.522451 -0.1019272 -0.2179916 -2.016936 -9.096813 -4.317381 -1.0439 0.889 0.5309 0.9915215 0.0593412 1.479516 -6.60213 6.638427 -2.940057 0.6594 0.0088 0.6463 0.5692459

-1.522451 -0.1019272 -0.2179916 -2.016936 -9.096813 -4.317381 -1.0439 0.889 0.5309 0.9915215 0.0593412 1.479516 -6.60213 6.638427 -2.940057 0.6594 0.0088 0.6463 0.6283185

-1.856681 0.1106539 -0.2593559 -1.881558 -8.954569 -4.590099 -0.9506 0.865 0.7324 1.045801 -0.1083849 1.542173 -6.452037 6.667858 -2.896893 0.6594 0.0088 0.6463 0.6283185

-1.856681 0.1106539 -0.2593559 -1.881558 -8.954569 -4.590099 -0.9506 0.865 0.7324 0.9309586 -0.280998 1.516517 -6.43536 6.519726 -2.79585 0.6644 0.0212 0.6396 0.6283185

-2.298075 0.2994985 -0.169646 -1.633365 -8.903556 -4.822596 -0.9506 0.865 0.7324 0.9309586 -0.280998 1.516517 -6.43536 6.519726 -2.79585 0.6644 0.0212 0.6396 0.737066

-2.298075 0.2994985 -0.169646 -1.633365 -8.903556 -4.822596 -0.9506 0.865 0.7324 0.9709267 -0.2937389 1.577603 -6.51384 6.614883 -2.83509 0.6644 0.0212 0.6396 0.737066

-2.298075 0.2994985 -0.169646 -1.633365 -8.903556 -4.822596 -0.9506 0.865 0.7324 0.9709267 -0.2937389 1.577603 -6.51384 6.614883 -2.83509 0.6644 0.0212 0.6396 0.737066

-2.298075 0.2994985 -0.169646 -1.633365 -8.903556 -4.822596 -0.9506 0.865 0.7324 1.119105 -0.2385865 1.795769 -6.503049 6.853266 -2.96262 0.6642 0.0332 0.6391 0.737066

-2.487094 1.068665 0.2082178 -0.670023 -7.611579 -5.832045 -0.3179 0.3101 1.3726 1.272345 -0.3630285 1.877625 -6.387291 6.927822 -2.948886 0.6642 0.0332 0.6391 0.8283601

-2.334029 1.31528 0.2258456 -0.6886621 -7.729299 -6.207768 -0.3179 0.3101 1.3726 1.272345 -0.3630285 1.877625 -6.387291 6.927822 -2.948886 0.6642 0.0332 0.6391 0.8283601

-2.334029 1.31528 0.2258456 -0.6886621 -7.729299 -6.207768 -0.3179 0.3101 1.3726 1.272345 -0.3630285 1.877625 -6.387291 6.927822 -2.948886 0.6642 0.0332 0.6391 0.8283601

-2.187421 1.194503 0.4199262 -0.424773 -7.441866 -6.397101 -0.1465 0.0202 1.3797 1.272345 -0.3630285 1.877625 -6.387291 6.927822 -2.948886 0.6642 0.0332 0.6391 0.8283601

-1.634501 1.178795 0.7169813 0.101043 -7.216236 -6.462828 -0.1465 0.0202 1.3797 1.238311 -0.4497713 1.668884 -6.467733 6.871905 -2.984202 0.7061 0.0326 0.6348 0.9129415

-1.634501 1.178795 0.7169813 0.101043 -7.216236 -6.462828 -0.1465 0.0202 1.3797 1.238311 -0.4497713 1.668884 -6.467733 6.871905 -2.984202 0.7061 0.0326 0.6348 0.9129415

-0.4927064 1.264491 0.9204867 0.108891 -6.666876 -6.871905 -0.0962 -0.2658 1.2613 1.327148 -0.4146902 1.700998 -6.363747 6.981778 -3.122523 0.7285 0.0267 0.6161 0.9129415

-0.4927064 1.264491 0.9204867 0.108891 -6.666876 -6.871905 -0.0962 -0.2658 1.2613 1.435184 -0.498117 1.772905 -6.030208 7.017094 -3.244167 0.7285 0.0267 0.6161 0.9129415

-0.3630285 1.23325 0.9622 -0.001962 -6.303906 -7.299621 -0.0962 -0.2658 1.2613 1.356645 -0.7572984 1.766797 -5.582871 6.802255 -3.246129 0.7556 -0.0029 0.6081 0.9733567

-0.7349582 1.15279 0.9377654 0.239364 -7.008264 -7.487973 -0.1721 -0.4402 1.0625 1.356645 -0.7572984 1.766797 -5.582871 6.802255 -3.246129 0.7556 -0.0029 0.6081 0.9733567

-0.7349582 1.15279 0.9377654 0.239364 -7.008264 -7.487973 -0.1721 -0.4402 1.0625 1.179319 -0.9754645 1.742711 -5.274837 6.705135 -3.289293 0.7556 -0.0029 0.6081 0.9733567

-1.037424 1.288227 0.8787733 0.283509 -7.750881 -7.625313 -0.1721 -0.4402 1.0625 1.144412 -1.14162 1.703441 -4.994271 6.929784 -3.399165 0.772 -0.0441 0.5997 0.9733567

-1.288751 1.42 0.9089675 0.07161301 -7.694964 -7.742053 -0.2883 -0.5053 0.8581 1.144412 -1.14162 1.703441 -4.994271 6.929784 -3.399165 0.772 -0.0441 0.5997 0.9733567

-1.387886 1.435882 0.970054 -0.013734 -7.341804 -7.803855 -0.4091 -0.5102 0.6846 1.189616 -1.263793 1.749344 -4.92462 7.114213 -3.59046 0.7931 -0.0662 0.5943 0.9733567

-1.387886 1.435882 0.970054 -0.013734 -7.341804 -7.803855 -0.4091 -0.5102 0.6846 1.189616 -1.263793 1.749344 -4.92462 7.114213 -3.59046 0.7931 -0.0662 0.5943 0.9733567

-1.296082 1.388758 1.074599 0.067689 -6.820893 -7.800912 -0.4091 -0.5102 0.6846 1.226617 -1.175654 1.893333 -5.132592 7.24959 -3.778812 0.7931 -0.0662 0.5943 0.9733567

-1.173385 1.39382 1.274788 0.028449 -6.156756 -7.91667 -0.4862 -0.4906 0.583 1.344427 -1.087864 1.940108 -5.185566 7.51348 -3.985803 0.8143 -0.0928 0.5702 0.9733567

-1.206023 1.213876 1.449845 -0.063765 -5.61132 -8.025561 -0.4862 -0.4906 0.583 1.344427 -1.087864 1.940108 -5.185566 7.51348 -3.985803 0.8143 -0.0928 0.5702 0.9733567

-1.206023 1.213876 1.449845 -0.063765 -5.61132 -8.025561 -0.4862 -0.4906 0.583 1.344427 -1.087864 1.940108 -5.185566 7.51348 -3.985803 0.8143 -0.0928 0.5702 1.107613

-1.233773 1.217018 1.633279 0.152055 -5.32585 -8.176636 -0.5193 -0.4642 0.4927 1.603434 -1.122072 1.883036 -4.746078 7.86762 -4.588137 0.8596 -0.214 0.5187 1.107613

-1.233773 1.217018 1.633279 0.152055 -5.32585 -8.176636 -0.5193 -0.4642 0.4927 1.585981 -1.223825 1.836086 -4.674465 7.82838 -4.624434 0.8596 -0.214 0.5187 1.107613

-1.233773 1.217018 1.633279 0.152055 -5.32585 -8.176636 -0.5193 -0.4642 0.4927 1.585981 -1.223825 1.836086 -4.674465 7.82838 -4.624434 0.8596 -0.214 0.5187 1.117011

-1.233773 1.217018 1.633279 0.152055 -5.32585 -8.176636 -0.5193 -0.4642 0.4927 1.616698 -1.282992 1.746027 -4.707819 7.756768 -4.662694 0.859 -0.2649 0.5247 1.117011

-1.36188 1.034282 2.402271 0.339426 -5.14927 -9.32833 -0.7039 -0.3264 0.1466 1.67412 -1.255764 1.672025 -4.901076 7.643952 -4.60089 0.859 -0.2649 0.5247 1.117011

-1.36188 1.034282 2.402271 0.339426 -5.14927 -9.32833 -0.7039 -0.3264 0.1466 1.67412 -1.255764 1.672025 -4.901076 7.643952 -4.60089 0.859 -0.2649 0.5247 1.117011

-0.9431759 1.001644 2.465103 0.206991 -5.373918 -9.439182 -0.7039 -0.3264 0.1466 1.684243 -1.217367 1.479167 -4.928544 7.39674 -4.66956 0.8494 -0.309 0.5272 1.117011

-0.800408 1.111426 2.363176 0.015696 -5.937012 -9.61282 -0.7928 -0.178 0.098 1.692097 -1.211084 1.335526 -4.798071 7.124022 -4.713706 0.8604 -0.3458 0.5169 1.117011

-0.800408 1.111426 2.363176 0.015696 -5.937012 -9.61282 -0.7928 -0.178 0.098 1.692097 -1.211084 1.335526 -4.798071 7.124022 -4.713706 0.8604 -0.3458 0.5169 1.117011

-0.8162905 1.393296 2.208714 -0.131454 -6.363747 -9.539245 -0.7928 -0.178 0.098 1.611462 -1.263444 1.269378 -4.667598 6.823836 -4.657788 0.8604 -0.3458 0.5169 1.063308

-0.946143 1.449321 2.036276 -0.016677 -6.609978 -9.096813 -0.8188 -0.0401 0.1237 1.611462 -1.263444 1.269378 -4.667598 6.823836 -4.657788 0.8604 -0.3458 0.5169 1.063308

-0.946143 1.449321 2.036276 -0.016677 -6.609978 -9.096813 -0.8188 -0.0401 0.1237 1.427505 -1.425236 1.065 -4.653864 6.402987 -4.709781 0.8588 -0.3794 0.5239 1.063308

-1.398707 1.206372 1.942726 0.295281 -6.800292 -8.7309 -0.8188 -0.0401 0.1237 1.338144 -1.413542 0.840027 -4.929525 6.165585 -4.902057 0.8588 -0.3794 0.5239 1.063308

-1.506045 0.9618509 2.048493 0.387495 -6.624693 -8.668117 -0.8023 0.0552 0.1919 1.495747 -1.183159 0.6914994 -5.32683 6.039036 -5.089428 0.8603 -0.391 0.515 1.063308

-1.506045 0.9618509 2.048493 0.387495 -6.624693 -8.668117 -0.8023 0.0552 0.1919 1.495747 -1.183159 0.6914994 -5.32683 6.039036 -5.089428 0.8603 -0.391 0.515 1.063308

-0.8436922 0.9615019 2.096489 0.208953 -6.06258 -8.614161 -0.8023 0.0552 0.1919 1.495747 -1.183159 0.6914994 -5.32683 6.039036 -5.089428 0.8603 -0.391 0.515 1.063308

-0.2241003 1.002692 2.045177 0.115758 -5.834988 -8.499384 -0.7866 0.1144 0.3062 1.577952 -0.8583529 0.6747443 -5.504391 5.746698 -5.289552 0.8603 -0.391 0.515 1.063308

-0.2241003 1.002692 2.045177 0.115758 -5.834988 -8.499384 -0.7866 0.1144 0.3062 1.577952 -0.8583529 0.6747443 -5.504391 5.746698 -5.289552 0.8603 -0.391 0.515 0.9102563

-0.3759439 0.8796459 1.82352 0.273699 -6.209731 -8.445429 -0.7866 0.1144 0.3062 1.577952 -0.8583529 0.6747443 -5.504391 5.746698 -5.289552 0.8603 -0.391 0.515 0.9102563

-1.015956 0.7834783 1.592613 0.45126 -6.542289 -8.507233 -0.7489 0.1494 0.4286 1.229235 -0.6401868 0.381529 -5.440626 4.642092 -6.022359 0.8611 -0.3907 0.5015 0.9102563

-1.015956 0.7834783 1.592613 0.45126 -6.542289 -8.507233 -0.7489 0.1494 0.4286 1.229235 -0.6401868 0.381529 -5.440626 4.642092 -6.022359 0.8611 -0.3907 0.5015 0.9102563

-1.015956 0.7834783 1.592613 0.45126 -6.542289 -8.507233 -0.7489 0.1494 0.4286 1.236566 -0.4963717 0.1939061 -5.592681 4.491999 -6.289191 0.8611 -0.3907 0.5015 0.9102563

-1.015956 0.7834783 1.592613 0.45126 -6.542289 -8.507233 -0.7489 0.1494 0.4286 1.236566 -0.4963717 0.1939061 -5.592681 4.491999 -6.289191 0.8611 -0.3907 0.5015 0.9102563

-1.089609 0.2935644 1.490686 1.050651 -5.093352 -8.432676 -0.6402 0.1647 0.6186 1.298001 -0.2560398 0.1282817 -5.641731 4.260483 -6.372577 0.8639 -0.3609 0.5081 0.9102563

-1.089609 0.2935644 1.490686 1.050651 -5.093352 -8.432676 -0.6402 0.1647 0.6186 1.232726 -0.1780236 0.1452114 -5.558346 3.991689 -6.402006 0.8639 -0.3609 0.5081 0.9102563

-1.139874 0.09773844 1.446878 1.109511 -4.720572 -8.449353 -0.591 0.1553 0.7104 1.232726 -0.1780236 0.1452114 -5.558346 3.991689 -6.402006 0.8639 -0.3609 0.5081 0.9102563

-1.413019 0.01099557 1.399056 1.20663 -4.605795 -8.557263 -0.591 0.1553 0.7104 1.128704 -0.1870993 0.1612684 -5.53284 3.797451 -6.467733 0.8628 -0.3471 0.5038 0.9102563

-1.413019 0.01099557 1.399056 1.20663 -4.605795 -8.557263 -0.591 0.1553 0.7104 1.174956 0.03577925 0.1790708 -5.716288 3.695427 -6.60213 0.8628 -0.3471 0.5038 0.6793358

-1.600118 0.05532694 1.316502 1.16739 -4.595985 -8.875107 -0.5439 0.1423 0.7941 1.280722 0.3993313 0.1534144 -5.902678 3.515904 -6.744375 0.8671 -0.3174 0.5162 0.6793358

-1.723687 0.04625123 1.195725 1.025145 -4.486113 -9.050706 -0.5439 0.1423 0.7941 1.280722 0.3993313 0.1534144 -5.902678 3.515904 -6.744375 0.8671 -0.3174 0.5162 0.6793358

-1.723687 0.04625123 1.195725 1.025145 -4.486113 -9.050706 -0.5439 0.1423 0.7941 1.217891 0.6164503 0.01815142 -5.792805 3.31578 -6.789501 0.8671 -0.3174 0.5162 0.6417441

-1.848478 0.0694641 1.114218 0.8907481 -4.281084 -9.09387 -0.4892 0.1039 0.8505 1.136209 0.6653195 -0.05899213 -5.512239 3.135276 -6.821874 0.8691 -0.2867 0.5357 0.6417441

-1.90014 -0.2251475 1.189791 0.916254 -3.956373 -9.108585 -0.4892 0.1039 0.8505 1.136209 0.6653195 -0.05899213 -5.512239 3.135276 -6.821874 0.8691 -0.2867 0.5357 0.6417441

-1.90014 -0.2251475 1.189791 0.916254 -3.956373 -9.108585 -0.4892 0.1039 0.8505 1.112822 0.7860963 0.002268928 -5.299362 2.88414 -6.993549 0.8592 -0.2727 0.5634 0.6417441

-1.60291 -0.09442231 1.326974 1.066347 -3.390336 -9.209628 -0.4536 0.0503 0.9352 1.13045 0.8213519 0.06457718 -5.14044 2.478006 -6.9651 0.8592 -0.2727 0.5634 0.6417441

-1.428203 -0.05166174 1.282817 0.740655 -2.765439 -9.343044 -0.4536 0.0503 0.9352 0.9135053 0.7380998 -0.04625123 -4.737249 2.116998 -6.795388 0.839 -0.2409 0.6027 0.5115157

-1.428203 -0.05166174 1.282817 0.740655 -2.765439 -9.343044 -0.4536 0.0503 0.9352 0.9135053 0.7380998 -0.04625123 -4.737249 2.116998 -6.795388 0.839 -0.2409 0.6027 0.5115157

-1.138478 -0.1511455 1.262222 0.651384 -2.466234 -9.459784 -0.4127 0.0003 1.0029 0.84823 0.5094616 -0.134914 -4.078017 2.026746 -6.952347 0.839 -0.2409 0.6027 0.5115157

-0.6967354 -0.2087414 1.233424 0.675909 -2.146428 -9.495099 -0.3466 -0.0492 1.0389 0.7593927 0.2551671 -0.08080874 -3.665016 1.813869 -7.116174 0.8106 -0.1886 0.6499 0.5115157

-0.6967354 -0.2087414 1.233424 0.675909 -2.146428 -9.495099 -0.3466 -0.0492 1.0389 0.6227335 0.1094321 0.02844887 -3.504132 1.556847 -7.255476 0.8106 -0.1886 0.6499 0.4336472

-0.6967354 -0.2087414 1.233424 0.675909 -2.146428 -9.495099 -0.3466 -0.0492 1.0389 0.6227335 0.1094321 0.02844887 -3.504132 1.556847 -7.255476 0.8106 -0.1886 0.6499 0.4336472

-0.6967354 -0.2087414 1.233424 0.675909 -2.146428 -9.495099 -0.3466 -0.0492 1.0389 0.5864306 0.04101523 0.09197885 -3.565935 1.409697 -7.408513 0.7945 -0.1485 0.6742 0.4336472

-0.1658063 0.04450589 1.247736 0.243288 -1.729503 -9.543169 -0.2586 -0.1315 1.1383 0.6122615 0.1329941 0.09983283 -3.632643 1.333179 -7.500726 0.7945 -0.1485 0.6742 0.4336472

-0.1658063 0.04450589 1.247736 0.243288 -1.729503 -9.543169 -0.2586 -0.1315 1.1383 0.5356416 0.08185595 0.06318092 -3.572802 1.238022 -7.595883 0.8014 -0.1271 0.6844 0.3692043

-0.2045526 -0.1026254 1.010022 0.45126 -1.908045 -9.400924 -0.227 -0.1241 1.1357 0.5356416 0.08185595 0.06318092 -3.572802 1.238022 -7.595883 0.8014 -0.1271 0.6844 0.3692043

-0.1649336 -0.2078687 0.8707448 0.584676 -1.77561 -9.266526 -0.227 -0.1241 1.1357 0.5028294 0.1488766 0.06510078 -3.628719 1.132074 -7.795026 0.8014 -0.1271 0.6844 0.3692043

-0.1649336 -0.2078687 0.8707448 0.584676 -1.77561 -9.266526 -0.227 -0.1241 1.1357 0.5487315 0.376642 0.05288348 -3.761154 1.112454 -7.964739 0.7977 -0.1166 0.7131 0.3692043

-0.1314233 -0.4949754 1.008451 0.715149 -1.703997 -9.214534 -0.1872 -0.1292 1.1399 0.5719444 0.4621632 -0.05515241 -3.742515 1.013373 -8.109927 0.7893 -0.1093 0.729 0.3316126

-0.1314233 -0.4949754 1.008451 0.715149 -1.703997 -9.214534 -0.1872 -0.1292 1.1399 0.5719444 0.4621632 -0.05515241 -3.742515 1.013373 -8.109927 0.7893 -0.1093 0.729 0.3316126

-0.3645993 -0.4670501 0.9002408 0.611163 -1.910988 -9.500005 -0.1872 -0.1292 1.1399 0.5604252 0.5448918 -0.1942551 -3.683655 0.875052 -8.122681 0.7893 -0.1093 0.729 0.3316126

-0.4270821 -0.1298525 0.7387979 0.395343 -1.758933 -9.861012 -0.1386 -0.143 1.1682 0.5461136 0.5939355 -0.302291 -3.437424 0.7779331 -8.11189 0.7814 -0.0833 0.731 0.3316126

-0.4270821 -0.1298525 0.7387979 0.395343 -1.758933 -9.861012 -0.1386 -0.143 1.1682 0.5461136 0.5939355 -0.302291 -3.437424 0.7779331 -8.11189 0.7814 -0.0833 0.731 0.287308

-0.1570796 0.2207841 0.6700319 0.221706 -1.310616 -10.00031 -0.0918 -0.1579 1.1906 0.4457571 0.4970697 -0.2438225 -3.123504 0.607239 -8.099136 0.7814 -0.0833 0.731 0.287308

-0.05270894 0.2120575 0.715934 0.411039 -1.110492 -9.952246 -0.0918 -0.1579 1.1906 0.4494223 0.3537782 -0.2146755 -2.902779 0.4905 -8.079516 0.7648 -0.0587 0.7507 0.287308

-0.01099557 0.2288126 0.6469935 0.414963 -1.187991 -9.824716 -0.0565 -0.1656 1.1975 0.4494223 0.3537782 -0.2146755 -2.902779 0.4905 -8.079516 0.7648 -0.0587 0.7507 0.287308

-0.01099557 0.2288126 0.6469935 0.414963 -1.187991 -9.824716 -0.0565 -0.1656 1.1975 0.3944444 0.3494149 -0.27838 -2.713446 0.297243 -8.133471 0.7648 -0.0587 0.7507 0.2510589

-0.2785546 0.3755949 0.4560545 0.538569 -1.26549 -9.752121 -0.0565 -0.1656 1.1975 0.3666937 0.1403245 -0.2277655 -2.493702 0.300186 -8.283565 0.7624 -0.0438 0.7637 0.2510589

-0.3139847 0.1450369 0.4633849 0.8299261 -1.181124 -9.550035 -0.0508 -0.1779 1.2109 0.3666937 0.1403245 -0.2277655 -2.493702 0.300186 -8.283565 0.7624 -0.0438 0.7637 0.2510589

-0.3139847 0.1450369 0.4633849 0.8299261 -1.181124 -9.550035 -0.0508 -0.1779 1.2109 0.3117158 0.1694715 -0.1727876 -2.587878 -0.014715 -8.362044 0.751 -0.0004 0.7795 0.2510589

-0.188321 0.1298525 0.4782202 0.846603 -0.956475 -9.530416 -0.0508 -0.1779 1.2109 0.3117158 0.1694715 -0.1727876 -2.587878 -0.014715 -8.362044 0.751 -0.0004 0.7795 0.2349482

0.01640609 0.06667157 0.4942772 0.956475 -0.7602751 -9.294975 -0.0576 -0.1921 1.2272 0.3275983 0.1891937 -0.1176352 -2.52117 -0.069651 -8.408152 0.7503 0.0268 0.7871 0.2349482

0.01640609 0.06667157 0.4942772 0.956475 -0.7602751 -9.294975 -0.0576 -0.1921 1.2272 0.3275983 0.1891937 -0.1176352 -2.52117 -0.069651 -8.408152 0.7503 0.0268 0.7871 0.2349482

0.01640609 0.06667157 0.4942772 0.956475 -0.7602751 -9.294975 -0.0576 -0.1921 1.2272 0.3136356 0.1811652 -0.1080359 -2.486835 -0.188352 -8.371854 0.7503 0.0268 0.7871 0.2349482

0.01640609 0.06667157 0.4942772 0.956475 -0.7602751 -9.294975 -0.0576 -0.1921 1.2272 0.3136356 0.1811652 -0.1080359 -2.486835 -0.188352 -8.371854 0.7503 0.0268 0.7871 0.2242077

-0.3260275 -0.1068141 0.1560324 0.988848 -0.5552461 -9.364626 -0.0529 -0.2005 1.2177 0.2426008 0.1776745 -0.1295034 -2.451519 -0.329616 -8.364006 0.7523 0.0469 0.7931 0.2242077

-0.3260275 -0.1068141 0.1560324 0.988848 -0.5552461 -9.364626 -0.0529 -0.2005 1.2177 0.2214823 0.1069887 -0.05078908 -2.439747 -0.34335 -8.444448 0.7523 0.0469 0.7931 0.2242077

-0.2787291 -0.1635374 0.2504548 1.164447 -0.28449 -9.403866 -0.0529 -0.2005 1.2177 0.2808235 0.22794 -0.0158825 -2.710503 -0.325692 -8.473878 0.7351 0.0553 0.7815 0.2242077

-0.08988446 -0.05829399 0.3145083 1.181124 0.04905 -9.511777 -0.0577 -0.2104 1.2274 0.2808235 0.22794 -0.0158825 -2.710503 -0.325692 -8.473878 0.7351 0.0553 0.7815 0.2107821

-0.08988446 -0.05829399 0.3145083 1.181124 0.04905 -9.511777 -0.0577 -0.2104 1.2274 0.3166027 0.3862413 -0.1675516 -2.833128 -0.442431 -8.478784 0.7351 0.0553 0.7815 0.2107821

-0.06771877 -0.01518436 0.1577778 1.03005 0.11772 -9.582409 -0.0584 -0.2191 1.2367 0.2242748 0.3082252 -0.3883358 -2.58003 -0.607239 -8.517042 0.7146 0.0679 0.7955 0.2107821

0.05846853 -0.01972222 0.008552114 1.006506 -0.075537 -9.5932 -0.0584 -0.2191 1.2367 0.2317797 0.2464405 -0.2237512 -2.330856 -0.548379 -8.548434 0.7146 0.0679 0.7955 0.1839309

0.05846853 -0.01972222 0.008552114 1.006506 -0.075537 -9.5932 -0.0584 -0.2191 1.2367 0.2317797 0.2464405 -0.2237512 -2.330856 -0.548379 -8.548434 0.7146 0.0679 0.7955 0.1839309

0.08761553 0.0001745329 0.1569051 1.041822 0.038259 -9.603991 -0.0437 -0.2146 1.2354 0.2638938 0.1480039 -0.1473058 -2.133675 -0.586638 -8.542548 0.697 0.0824 0.8061 0.1839309

-0.01308997 0.1027999 0.2516765 1.012392 0.336483 -9.636363 -0.0437 -0.2146 1.2354 0.2338741 -0.01204277 -0.1219985 -2.01105 -0.75537 -8.498404 0.697 0.0824 0.8061 0.1839309

-0.08098327 0.01902409 0.1425934 0.848565 0.31392 -9.548073 -0.0283 -0.2028 1.219 0.1850049 0.04258604 -0.06824237 -2.16801 -0.763218 -8.52391 0.6875 0.1046 0.794 0.1839309

-0.08098327 0.01902409 0.1425934 0.848565 0.31392 -9.548073 -0.0283 -0.2028 1.219 0.1850049 0.04258604 -0.06824237 -2.16801 -0.763218 -8.52391 0.6875 0.1046 0.794 0.1839309

0.1422443 -0.03316126 0.2462659 0.9810001 0.278604 -9.31852 -0.0283 -0.2028 1.219 0.214501 0.1623156 -0.08674286 -2.340666 -0.6660991 -8.616123 0.6875 0.1046 0.794 0.1839309

0.1556834 -0.03944444 0.2506293 1.037898 0.546417 -9.167445 -0.0175 -0.2088 1.212 0.2261947 0.2640683 -0.180118 -2.411298 -0.891729 -8.540586 0.6859 0.1298 0.8007 0.1839309
