0.02038763 -5.722046E-08 -0.5094328 270.3902 203.1978 156.1224

0.03308171 0.01490559 -0.5085624 270.491 149.4435 209.1891

0.03308171 0.01490559 -0.5085624 270.491 149.4435 209.1891

0.03308171 0.01490559 -0.5085624 270.491 149.4435 209.1891

0.02012623 0.0001318359 -0.5094578 270.3077 138.4805 219.3865

0.02877382 0.01027336 -0.5089389 271.5409 287.2733 69.86753

0.01395875 0.002939587 -0.5100068 271.5057 248.7345 107.677

0.01395875 0.002939587 -0.5100068 271.5057 248.7345 107.677

0.0159952 0.003666172 -0.5099424 271.4416 248.3919 107.0986

0.01846732 0.004122162 -0.5098336 271.1285 140.4533 214.7888

0.01846732 0.004122162 -0.5098336 271.1285 140.4533 214.7888

0.02030417 0.004745178 -0.5097584 272.933 114.1255 240.8355

0.02248736 0.005220108 -0.509662 274.9134 107.0281 247.654

0.0243742 0.004879532 -0.5095786 277.0391 101.8398 252.6141

0.0243742 0.004879532 -0.5095786 277.0391 101.8398 252.6141

0.0255771 0.004134006 -0.5095264 279.0884 94.58881 259.7337

0.02603704 0.003121948 -0.5095102 280.9547 88.10742 266.1135

0.02690811 0.002263298 -0.5094696 282.6753 81.30092 272.9373

0.02690811 0.002263298 -0.5094696 282.6753 81.30092 272.9373

0.02986484 0.00254488 -0.5093034 284.1663 74.08569 280.2294

0.03176143 0.00108284 -0.5091938 285.0647 66.72983 287.5435

0.03747493 0.00334013 -0.5087954 284.3531 74.50005 279.399

0.03747493 0.00334013 -0.5087954 284.3531 74.50005 279.399

0.03779525 -0.003017349 -0.5087738 284.5012 66.4944 287.1771

0.04733599 0.003857746 -0.5079693 283.9224 74.45743 278.8455

0.03667889 -0.01059236 -0.5087542 284.1974 68.18666 284.7196

0.03667889 -0.01059236 -0.5087542 284.1974 68.18666 284.7196

0.05011277 0.003496571 -0.5077055 283.8212 74.82433 277.6067

0.03851736 -0.0117049 -0.5085939 284.2168 67.14143 284.9992

0.05387683 0.001484127 -0.5073059 283.9074 74.86176 276.8668

0.05387683 0.001484127 -0.5073059 283.9074 74.86176 276.8668

0.04155499 -0.01435638 -0.508263 284.0101 66.66201 284.7767

0.05597968 -0.002169571 -0.5070757 284.0375 73.48928 277.4598

0.04287186 -0.01799452 -0.5080378 284.2405 64.95347 285.756

0.04287186 -0.01799452 -0.5080378 284.2405 64.95347 285.756

0.05719134 -0.004178924 -0.5069279 284.3355 73.23337 277.2767

0.04410251 -0.01974632 -0.5078674 284.4885 67.22434 282.9537

0.04410251 -0.01974632 -0.5078674 284.4885 67.22434 282.9537

0.05780416 -0.00462244 -0.5068546 283.9063 75.08784 274.8073

0.04527603 -0.02009954 -0.5077503 283.4994 73.29662 276.0651

0.04527603 -0.02009954 -0.5077503 283.4994 73.29662 276.0651

0.05815266 -0.006017818 -0.5068001 283.2842 72.44049 276.3378

0.05815266 -0.006017818 -0.5068001 283.2842 72.44049 276.3378

0.04545533 -0.02045111 -0.5077202 282.5073 72.68994 275.3898

0.05923497 -0.006259804 -0.5066718 283.7082 74.09855 273.4464

0.04755978 -0.02157251 -0.5074809 284.109 66.73273 280.4664

0.04755978 -0.02157251 -0.5074809 284.109 66.73273 280.4664

0.06065003 -0.007797603 -0.506483 283.4162 73.88683 272.8579

0.04760773 -0.02319838 -0.5074047 283.9832 67.06273 279.3572

0.05811045 -0.006503105 -0.5067989 283.8185 73.24149 272.6506

0.05811045 -0.006503105 -0.5067989 283.8185 73.24149 272.6506

0.04467168 -0.01906197 -0.5078438 284.8268 68.4535 277.0138

0.04545193 -0.01522722 -0.507904 284.8155 71.19087 273.4945

0.04182649 -0.01940637 -0.508073 285.813 68.97485 275.2556

0.04270231 -0.01977482 -0.5079601 285.813 68.97485 275.2556

0.05548495 -0.004670276 -0.5070873 286.2069 72.20927 271.5703

0.04232402 -0.02000238 -0.5079828 285.2202 64.87004 278.8679

0.057353 -0.007697296 -0.5068425 284.4676 72.28812 271.072

0.057353 -0.007697296 -0.5068425 284.4676 72.28812 271.072

0.04294292 -0.0222555 -0.5078371 283.8708 63.70694 279.2706

0.05119221 -0.009454422 -0.507472 284.0287 71.39863 271.1687

0.03902888 -0.02577822 -0.5079864 284.4787 62.54805 279.7314

0.03902888 -0.02577822 -0.5079864 284.4787 62.54805 279.7314

0.05114375 -0.01301062 -0.5073982 282.8459 67.57301 274.1373

0.04248992 -0.02373013 -0.5078084 281.421 66.66844 274.1091

0.0551076 -0.009198818 -0.5070665 281.4432 74.27527 265.5321

0.05769572 -0.0103739 -0.5066657 281.4432 74.27525 265.5321

0.04543505 -0.02162773 -0.5075573 280.4183 75.43666 263.1158

0.05296313 -0.0129566 -0.5071228 279.7119 80.95348 256.3478

0.04881451 -0.02106136 -0.5072672 279.4353 84.79506 251.071

0.05344664 -0.02306294 -0.5065067 279.4352 84.79507 251.071

0.05896071 -0.01908646 -0.5060601 280.1876 93.39999 240.6171

0.04825572 -0.03432729 -0.5063897 281.4267 98.34658 233.9171

0.0641726 -0.02076616 -0.5053594 282.6479 102.6924 228.0701

0.09243514 -0.03474615 -0.4974526 282.6479 102.6924 228.0701

0.08905111 -0.04794582 -0.4969726 284.1211 105.7688 223.7822

0.0929563 -0.05562744 -0.4954547 284.1211 105.7689 223.7822

0.0929563 -0.05562744 -0.4954547 285.3019 105.1387 223.2026

0.1386134 -0.1051069 -0.4614827 286.644 103.7029 223.1819

0.1404446 -0.1012946 -0.4617815 288.0303 100.9218 224.6422

0.1326825 -0.1004999 -0.4642441 288.0303 100.9218 224.6422

0.176176 -0.1326836 -0.4064664 288.6179 96.52962 228.1593

0.176176 -0.1326836 -0.4064664 288.5856 92.48532 231.504

0.1630897 -0.1246526 -0.4143927 288.5856 92.48533 231.504

0.1492802 -0.1123925 -0.4230145 287.8715 88.30824 234.7624

0.1754242 -0.1255766 -0.3778958 286.7504 83.22414 238.5839

0.167878 -0.1119421 -0.3855312 286.7504 83.22415 238.5839

0.1518879 -0.1100453 -0.3926429 284.2425 78.00182 242.2891

0.1402545 -0.1126936 -0.3962035 284.2425 78.00182 242.2891

-0.008422935 -0.0757398 -0.4985978 284.5561 73.31773 245.4124

-0.02478556 -0.09263317 -0.4951889 284.5561 73.31771 245.4124

-0.03532866 -0.1061224 -0.4918305 281.4076 71.97847 244.7747

-0.04681048 -0.1213194 -0.4873373 278.3069 72.0065 243.063

0.1560622 -0.1234547 -0.3231557 278.3069 72.00649 243.0631

0.1489474 -0.1307529 -0.3236424 275.3184 74.05982 239.2863

0.1468934 -0.1353994 -0.3226692 275.3184 74.05997 239.2862

0.1468934 -0.1353994 -0.3226692 272.5177 75.57896 235.9523

0.1490908 -0.1384346 -0.2973051 270.4622 225.7666 84.02792

0.1409673 -0.155025 -0.2930495 270.4622 225.7663 84.0279

0.1364949 -0.1693132 -0.2872016 273.2358 252.1649 55.72396

0.1364949 -0.1693132 -0.2872016 276.1394 252.2114 53.73585

0.1381563 -0.174196 -0.2634529 277.1659 257.195 46.95184

0.1337992 -0.1889424 -0.2554161 277.1659 257.195 46.95189

0.1302469 -0.2044885 -0.2450695 279.6452 256.9296 46.46177

0.1302469 -0.2044885 -0.2450695 279.6452 256.9296 46.46177

0.1277134 -0.2136828 -0.2261961 279.3501 251.1051 51.46899

0.1341555 -0.2164695 -0.2197247 279.3501 251.1051 51.46902

0.1306747 -0.2303714 -0.2073375 279.5155 250.2114 51.76287

0.1306747 -0.2303714 -0.2073375 279.5155 250.2114 51.76287

0.1285488 -0.2418096 -0.1948505 282.9766 247.0662 55.13937

0.1285488 -0.2418096 -0.1948505 286.0843 246.1136 56.77687

0.1285488 -0.2418096 -0.1948505 286.0843 246.1136 56.77687

0.1392311 -0.2410216 -0.1883791 289.1609 246.2874 57.63662

0.1387688 -0.2426127 -0.1898754 292.3021 246.7689 58.12117

0.1387688 -0.2426127 -0.1898754 292.3021 246.7689 58.12117

0.1387688 -0.2426127 -0.1898754 295.4909 246.7788 59.22972

0.1429563 -0.2464265 -0.1816806 295.4909 246.7788 59.22971

0.1420219 -0.2603623 -0.1727457 298.8728 247.0397 60.5166

0.1420219 -0.2603623 -0.1727457 301.4426 249.9886 60.38381

0.1407507 -0.270059 -0.1582948 303.7638 250.5085 62.74155

0.1455568 -0.2713468 -0.1516046 303.7638 250.5085 62.74157

0.1413869 -0.2823544 -0.1468055 306.5313 250.786 64.98258

0.1413869 -0.2823544 -0.1468055 309.2168 251.4023 66.84084

0.1385372 -0.2875729 -0.1391957 311.626 252.3089 68.40585

0.1357916 -0.2923938 -0.1316534 311.626 252.3089 68.40586

0.1340058 -0.2977859 -0.134556 314.1404 252.7123 70.29426

0.131121 -0.3024465 -0.1267783 316.6129 253.0802 72.22585

0.1268109 -0.3078804 -0.1177623 319.0025 253.4648 74.06786

0.1368539 -0.303941 -0.1167483 319.0025 253.4648 74.06785

0.1342409 -0.3114436 -0.1200702 319.9262 254.8315 75.40659

0.1349473 -0.3137998 -0.1129314 319.7323 257.1955 75.9852

0.1437711 -0.3094976 -0.113911 319.7323 257.1956 75.98518

0.1436301 -0.3119514 -0.1071976 320.5495 259.0898 76.92965

0.1461541 -0.3095264 -0.1091743 321.6965 260.6064 78.53194

0.1461541 -0.3095264 -0.1091743 322.2641 262.3162 79.86051

0.1453701 -0.3118458 -0.1034716 322.2641 262.3162 79.86053

0.1445101 -0.3141667 -0.09748235 322.4861 264.4294 80.3412

0.1437552 -0.3164993 -0.09818925 322.6855 266.4582 80.4809

0.1467469 -0.31798 -0.08850111 322.6855 266.4582 80.4809

0.1467469 -0.31798 -0.08850111 323.0349 268.9935 80.19653

0.1522424 -0.3145399 -0.09146208 323.7231 270.418 80.90794

0.1627365 -0.3091884 -0.0971683 323.7232 270.418 80.90794

0.1595978 -0.3119989 -0.09331449 324.1959 272.0005 81.67912

0.1595978 -0.3119989 -0.09331449 323.9474 273.1151 82.69689

0.1565043 -0.3146717 -0.08950132 323.9475 273.1151 82.69689

0.1600357 -0.3133908 -0.09065921 323.9474 273.1151 82.69689

0.1580904 -0.3154587 -0.0868188 323.5743 274.2582 83.57562

0.1580904 -0.3154587 -0.0868188 324.0066 275.9672 84.21185

0.1703839 -0.3085581 -0.08834876 324.0065 275.9672 84.21185

0.1606247 -0.3175111 -0.08467712 324.6474 277.5309 84.80623

0.1606247 -0.3175111 -0.08467712 325.8365 279.2672 85.24721

0.1651321 -0.3148909 -0.08578442 325.8365 279.2672 85.24719

0.1680078 -0.3150791 -0.07926132 327.0055 281.0729 85.69022

0.168087 -0.3147768 -0.07919729 328.7508 282.9418 86.06242

0.1718187 -0.3122615 -0.08112358 328.7508 282.9418 86.06239

0.1787681 -0.3093979 -0.07697293 330.8188 284.6593 86.30595

0.1787681 -0.3093979 -0.07697293 330.8188 284.6593 86.30595

0.1776845 -0.3084502 -0.08408657 332.9465 285.9045 87.21779

0.1776845 -0.3084502 -0.08408657 335.3708 285.9048 89.1878

0.1757676 -0.3100423 -0.08223947 338.3871 287.1011 88.90454

0.1851478 -0.3038566 -0.08470693 338.3871 287.1011 88.90453

0.1740812 -0.3068968 -0.08281559 340.7178 288.6267 88.93381

0.1740812 -0.3068968 -0.08281559 340.859 287.0791 89.59184

0.1706599 -0.3104237 -0.07655524 343.0871 288.3696 89.16271

0.1704103 -0.3101701 -0.07812312 343.0871 288.3696 89.1627

0.1711774 -0.3068138 -0.07744797 344.8802 289.0312 90.18335

0.1799074 -0.3027751 -0.07345181 345.4877 290.8019 90.42581

0.1751316 -0.3063877 -0.06992932 345.4877 290.8019 90.42582

0.1751316 -0.3063877 -0.06992932 344.8181 290.3372 90.82924

0.1793851 -0.2903528 -0.0703981 344.8181 290.3372 90.82922

0.1793851 -0.2903528 -0.0703981 346.8329 291.8107 90.05283

0.1749707 -0.2933327 -0.06914357 346.8329 291.8107 90.05283

0.1747423 -0.2916903 -0.07629885 348.2872 291.3945 87.61812

0.1766082 -0.2759413 -0.0726961 348.2872 291.3945 87.61811

0.1712446 -0.2800535 -0.06974344 349.8312 291.0338 84.99251

0.1749566 -0.2784449 -0.06691363 351.4973 292.075 82.51922

0.1737998 -0.2802863 -0.06206466 350.8032 293.0004 79.81226

0.1747207 -0.2640124 -0.05901943 350.8032 293.0004 79.81226

0.1818549 -0.2591252 -0.05912789 352.7483 293.3073 78.63634

0.189417 -0.2542527 -0.05647921 352.7483 293.3074 78.63634

0.1933766 -0.2506373 -0.0591576 353.8618 292.8199 75.74502

0.1920523 -0.235085 -0.05590213 354.4845 291.486 73.09579

0.1909125 -0.2361413 -0.05535131 354.4845 291.486 73.09579

0.1932809 -0.2336567 -0.05762896 355.7103 290.8966 71.71986

0.1932809 -0.2336567 -0.05762896 356.1381 288.3586 71.05413

0.1884389 -0.2264138 -0.05785711 356.1382 288.3585 71.05413

0.1944049 -0.2202594 -0.06174456 357.3134 287.5361 69.8023

0.1963623 -0.2187649 -0.06085755 358.3554 286.5817 68.44521

0.1963623 -0.2187649 -0.06085755 358.3554 286.5817 68.44521

0.1988024 -0.2093059 -0.05916143 358.3554 286.5817 68.44521

0.2025461 -0.2057755 -0.05884666 358.3766 286.0941 69.42156

0.2025461 -0.2057755 -0.05884666 358.3766 286.0941 69.42156

0.2025461 -0.2057755 -0.05884666 356.8025 284.0212 66.81171

0.2023119 -0.2048719 -0.05863623 356.233 281.3773 63.98861

0.2027228 -0.204993 -0.05676417 356.233 281.3773 63.98861

0.2027228 -0.204993 -0.05676417 355.3383 278.8865 64.53025

0.2082879 -0.2002237 -0.05354914 355.6619 278.109 65.49355

0.2087181 -0.2017183 -0.05390134 355.6619 278.109 65.49356

0.2108793 -0.200602 -0.04947345 353.989 276.1294 65.11105

0.2206282 -0.1918513 -0.04092843 352.686 274.0113 65.03899

0.2283338 -0.1847788 -0.02965404 352.686 274.0113 65.03899

0.2326277 -0.1829456 -0.01516716 351.9759 272.9765 65.47498

0.2326277 -0.1829456 -0.01516716 351.9759 272.9765 65.47498

0.2353415 -0.1800673 -0.002210984 350.8376 271.2157 64.40287

0.2371064 -0.1773438 0.01202036 350.8376 271.2157 64.40287

0.2369772 -0.1770525 0.01203594 352.4988 271.8219 62.5666

0.2363865 -0.1757822 0.02954126 351.48 270.1622 62.1143

0.2360591 -0.1728623 0.04522585 351.48 270.1622 62.1143

0.2360591 -0.1728623 0.04522585 351.6726 269.8638 62.8309

0.2333281 -0.1725359 0.06138629 351.6726 269.8638 62.83089

0.2320868 -0.1686525 0.07530578 353.5783 268.7455 61.02991

0.2312054 -0.1669614 0.08449702 353.5783 268.7455 61.02991

0.2312054 -0.1669614 0.08449702 355.12 267.6301 59.20607

0.2276344 -0.1667631 0.09404503 356.1794 266.57 57.06951

0.2253494 -0.1721396 0.09851635 356.1794 266.57 57.0695

0.2253494 -0.1721396 0.09851635 356.5578 265.5865 54.84265

0.2253494 -0.1721396 0.09851635 356.532 264.8814 52.90936

0.2259873 -0.1713843 0.09837212 356.532 264.8814 52.90937

0.2259873 -0.1713843 0.09837212 354.926 264.7645 52.29929

0.2296072 -0.1807315 0.1002898 354.343 265.2384 52.91242

0.2245866 -0.1820111 0.1089689 354.343 265.2384 52.91243

0.2216362 -0.1852736 0.1095103 352.5919 264.7931 53.68946

0.2183134 -0.1856894 0.1153262 351.3858 264.6881 55.20045

0.2217855 -0.1970908 0.1175208 351.3858 264.6881 55.20045

0.2203691 -0.1963652 0.121338 349.5047 264.078 57.07215

0.2163198 -0.196558 0.1281227 348.0216 263.7134 59.02449

0.2141208 -0.1949045 0.1341985 346.4473 262.9551 60.82792

0.216144 -0.2033889 0.1361136 346.4473 262.9551 60.82792

0.2023956 -0.2129895 0.1424208 344.8168 262.0493 62.419

0.2000587 -0.2091233 0.1511826 343.4225 261.5946 63.58292

0.1917779 -0.2093908 0.1612108 343.4225 261.5946 63.58293

0.1925495 -0.2160979 0.1631221 342.1515 261.2036 64.39496

0.1925495 -0.2160979 0.1631221 342.1515 261.2036 64.39496

0.1900865 -0.2124003 0.1706916 341.0548 261.0884 64.98766

0.1900865 -0.2124003 0.1706916 341.0548 261.0884 64.98766

0.1886923 -0.2244834 0.1773587 338.554 262.0505 65.18969

0.1885827 -0.2240575 0.1780125 338.5539 262.0505 65.18969

0.1885827 -0.2240575 0.1780125 336.0387 263.2513 65.13624

0.1957894 -0.2408145 0.176131 333.5135 264.5646 65.25954

0.1957894 -0.2408145 0.176131 333.5135 264.5646 65.25954

0.1895063 -0.2488876 0.1717252 331.0683 266.1905 66.13092

0.184054 -0.2579446 0.1641218 328.6628 267.596 68.1255

0.1873319 -0.2549645 0.165067 328.6628 267.596 68.1255

0.1862413 -0.2719611 0.1676041 327.0397 268.4042 71.02054

0.1725056 -0.2805772 0.1681011 325.6096 267.2793 73.80029

0.1741241 -0.2761186 0.1737211 326.0341 267.857 73.88472

0.1719916 -0.2688441 0.1867658 326.0341 267.857 73.88471

0.1700913 -0.2816372 0.188686 323.7281 266.3688 75.24986

0.1672043 -0.2739625 0.2020897 324.2502 266.8648 74.80921

0.1654708 -0.2663597 0.2133656 324.2502 266.8648 74.8092

0.1654708 -0.2663597 0.2133656 324.071 266.3921 73.53939

0.1589328 -0.2786646 0.2163543 324.9397 266.4785 72.66045

0.1651325 -0.270361 0.2221687 324.9397 266.4785 72.66043

0.1651325 -0.270361 0.2221687 322.8552 264.948 74.2838

0.1603909 -0.2728874 0.2225533 323.8234 266.9619 72.70324

0.1599721 -0.2755267 0.2280234 323.8234 266.9619 72.70324

0.1494105 -0.2821838 0.2270451 323.8234 266.9619 72.70324

0.1521442 -0.2775764 0.2308769 324.7607 268.7297 70.97343

0.1509748 -0.28215 0.2316536 324.7607 268.7298 70.97342

0.1451243 -0.2863026 0.2302935 321.485 266.9265 73.45133

0.1448603 -0.2880864 0.228226 321.8124 269.3851 71.12128

0.1454291 -0.2888198 0.2269334 321.8124 269.3851 71.12129

0.1457597 -0.2875989 0.2267672 320.645 268.6672 73.35782

0.1536111 -0.2792291 0.2319851 319.3525 267.9726 75.68524

0.1516229 -0.2791767 0.2333522 319.3525 267.9726 75.68525

0.1516229 -0.2791767 0.2333522 318.5677 267.2977 78.66213

0.1564407 -0.2767147 0.2327378 319.4122 267.1119 77.43145

0.1573687 -0.2734271 0.235975 319.4123 267.1119 77.43145

0.1573687 -0.2734271 0.235975 320.6104 266.3684 77.46085

0.1505415 -0.2761718 0.2372297 320.6104 266.3684 77.46085

0.1486318 -0.2764998 0.2380504 319.5728 263.8998 80.13123

0.1486318 -0.2764998 0.2380504 320.9195 264.5782 80.11783

0.1491675 -0.2780586 0.2358898 318.7834 263.3397 80.18781

0.1607355 -0.2725531 0.2347135 317.5653 263.0739 78.42549

0.1607355 -0.2725531 0.2347135 317.5653 263.0739 78.42549

0.1528125 -0.2785363 0.236609 318.2711 264.746 79.09332

0.1528125 -0.2785363 0.236609 318.2711 264.746 79.09332

0.146751 -0.2780078 0.2410266 316.67 263.3057 78.89542

0.1472379 -0.2760784 0.2450334 315.2372 262.02 78.40647

0.1354934 -0.2807717 0.246472 316.2372 260.4597 80.91634

0.1354934 -0.2807717 0.246472 316.2372 260.4597 80.91634

0.1438093 -0.2727094 0.2507751 315.6416 261.2668 78.43213

0.1429743 -0.2777336 0.2474108 316.0786 259.8914 81.67504

0.1429743 -0.2777336 0.2474108 314.5539 260.1317 81.11451

0.142592 -0.2875209 0.2361968 314.5539 260.1317 81.11452

0.1390495 -0.2970999 0.2262445 315.2591 258.801 84.82279

0.1412802 -0.289505 0.2252876 315.5599 257.1954 86.84451

0.1412802 -0.289505 0.2252876 316.5651 255.7196 88.70816

0.132309 -0.2995127 0.2175183 316.5651 255.7196 88.70817

0.1249624 -0.3064651 0.2121115 316.3347 255.4482 89.0873

0.1393035 -0.2948496 0.2074529 315.2983 255.7195 89.2542

0.1393035 -0.2948496 0.2074529 316.2128 257.239 89.10483

0.154541 -0.2886808 0.2053265 316.2128 257.239 89.10483

0.154541 -0.2886808 0.2053265 315.2031 258.1706 88.17052

0.1585529 -0.2689374 0.202082 315.1586 261.2296 85.49489

0.1679821 -0.2668276 0.1972017 314.5923 263.2811 82.51601

0.1758376 -0.2645858 0.1933365 314.5923 263.2811 82.51599

0.1758376 -0.2645858 0.1933365 314.1532 266.1057 78.68517

0.1795963 -0.2445751 0.1836039 316.4804 267.1051 77.1098

0.1872632 -0.2441654 0.1763462 315.5545 266.2932 77.27817

0.1867506 -0.2521261 0.1653448 315.5545 266.2932 77.27816

0.1867506 -0.2521261 0.1653448 316.7612 266.437 77.30926

0.1914954 -0.2361714 0.1514313 318.0762 266.8049 75.92959

0.1925736 -0.2416169 0.1411226 318.0762 266.8049 75.9296

0.1933554 -0.2453736 0.1333581 319.4235 267.861 73.86482

0.1933554 -0.2453736 0.1333581 320.5472 268.39 72.63055

0.1894096 -0.2367607 0.1260081 321.5911 269.0945 71.50908

0.1841308 -0.2414567 0.1249166 321.5911 269.0945 71.50909

0.1841308 -0.2414567 0.1249166 322.4995 269.4005 70.76887

0.1818178 -0.2425647 0.1261519 323.4841 269.8526 69.76794

0.1819215 -0.2262936 0.1231737 323.4841 269.8526 69.76792

0.1819215 -0.2262936 0.1231737 324.1711 269.7383 69.2942

0.1804387 -0.2270528 0.123955 324.1711 269.7383 69.2942

0.1853836 -0.2297725 0.1109663 324.1109 271.6839 66.2422

0.1902718 -0.2197152 0.09553087 324.0959 273.2233 63.59793

0.1902718 -0.2197152 0.09553087 324.1568 274.8433 60.81459

0.1926557 -0.2239545 0.07957642 324.1568 274.8433 60.81461

0.1913491 -0.2288444 0.06797063 323.657 276.0678 58.30795

0.1888959 -0.2173055 0.06770028 323.657 276.0678 58.30796

0.1907585 -0.2186911 0.0572021 322.6035 276.4398 57.37066

0.1907585 -0.2186911 0.0572021 322.6035 276.4398 57.37066

0.191377 -0.2195248 0.05167585 322.668 277.6925 56.45718

0.1883674 -0.2138441 0.04333029 321.356 278.2867 55.84011

0.1883674 -0.2138441 0.04333029 320.9014 278.9571 55.42141

0.1857906 -0.2171065 0.03789119 320.9014 278.9571 55.42143

0.1823055 -0.2214007 0.02890517 318.7164 280.1347 54.80077

0.1808804 -0.215528 0.0293552 317.3084 281.0122 55.99636

0.1785053 -0.2181107 0.02439996 317.3084 281.0122 55.99635

0.1769037 -0.2200736 0.01744981 316.2629 283.502 53.54554

0.1769037 -0.2200736 0.01744981 316.2629 283.502 53.54554

0.175129 -0.218651 0.01079474 317.2796 287.8992 50.80771

0.1760026 -0.218213 0.001065288 315.7726 291.4869 47.62687

0.1760026 -0.218213 0.001065288 315.7726 291.4869 47.62687

0.1760026 -0.218213 0.001065288 316.9107 295.7207 45.3821

0.1776792 -0.2250016 -0.00926382 316.9107 295.7207 45.3821

0.1776792 -0.2250016 -0.00926382 316.9107 295.7207 45.3821
