-0.01879832 -5.722046E-08 -0.5095643 270.0198 -2.561322E-06 0

-0.02766346 -0.01857479 -0.5087795 271.1469 108.9299 250.0733

-0.02766346 -0.01857479 -0.5087795 271.1469 108.9299 250.0733

-0.02766346 -0.01857479 -0.5087795 271.1469 108.9299 250.0733

-0.01917148 0.0001437378 -0.5095088 272.9818 67.3484 291.3161

-0.0272426 -0.0176893 -0.5088338 272.1731 19.1408 339.1142

-0.05105421 -0.01809322 -0.5056864 272.1731 19.14081 339.1142

-0.05105421 -0.01809322 -0.5056864 272.3109 71.75636 286.1828

-0.05074152 -0.0199102 -0.5056496 272.3272 8.838556 349.0215

-0.05080129 -0.0203433 -0.5056263 274.2371 337.3303 20.09203

-0.04848575 -0.02110628 -0.5059609 276.2574 329.2313 27.41613

-0.04848575 -0.02110628 -0.5059609 276.2574 329.2313 27.41613

-0.04770265 -0.02085789 -0.5060456 275.0359 317.7343 37.58838

-0.04727427 -0.02177879 -0.506047 276.0944 307.7963 46.58997

-0.0467199 -0.02198702 -0.5060071 274.3734 309.3591 43.80476

-0.0467199 -0.02198702 -0.5060071 274.3734 309.3591 43.80476

-0.0448183 -0.02231529 -0.5061647 274.5179 331.3913 20.88642

-0.04347229 -0.02351515 -0.5062278 276.7774 321.016 30.8034

-0.04317714 -0.02362621 -0.5062755 276.7774 321.016 30.80339

-0.04078455 -0.02483963 -0.5064158 276.4047 305.9957 45.1154

-0.04078455 -0.02483963 -0.5064158 276.4047 305.9957 45.1154

-0.03659365 -0.02251585 -0.5068445 277.3939 301.079 49.452

-0.03579488 -0.03230078 -0.5063445 277.2894 298.9487 50.61029

-0.02390065 -0.01909098 -0.5077142 276.4182 307.2858 41.09485

-0.02390065 -0.01909098 -0.5077142 276.4182 307.2858 41.09485

-0.02808163 -0.03874935 -0.5063786 277.5722 301.4974 45.75795

-0.01622062 -0.04173231 -0.5066324 275.656 298.5152 47.56576

-0.01116443 -0.03542181 -0.5072492 276.4213 299.3588 45.26517

-0.01116443 -0.03542181 -0.5072492 276.4213 299.3588 45.26517

-0.01471458 -0.05034427 -0.5058953 276.9263 295.863 47.45256

-0.0001148237 -0.03696642 -0.5074255 277.5798 288.1848 53.80488

-0.00641842 -0.05413799 -0.5058409 278.6119 282.4921 58.2648

-0.00641842 -0.05413799 -0.5058409 278.6119 282.4921 58.2648

0.002944845 -0.03642557 -0.5074561 279.9063 275.9795 63.29149

0.003439777 -0.05417244 -0.5063092 281.5954 269.3493 68.04346

0.006755959 -0.04152363 -0.5074699 281.5954 269.3493 68.04346

0.006755959 -0.04152363 -0.5074699 283.1204 265.5631 69.66085

0.0007866556 -0.03957664 -0.5076697 284.265 261.0653 71.45047

0.00742053 -0.02576008 -0.5091783 285.4987 256.2086 72.92729

0.00608102 -0.04110655 -0.5081874 285.4987 256.2086 72.92728

0.00608102 -0.04110655 -0.5081874 286.548 251.2141 74.24857

0.008778989 -0.04078205 -0.5081741 287.5644 246.3139 75.50191

0.01555916 -0.04746769 -0.507755 288.458 240.5715 77.55616

0.01555916 -0.04746769 -0.507755 288.458 240.5715 77.55616

0.02058655 -0.03996013 -0.5082223 288.458 240.5715 77.55618

0.02418361 -0.03884697 -0.5081501 287.5432 234.7221 80.63203

0.01659082 -0.03664261 -0.5083768 287.9119 228.4902 83.36381

0.01659082 -0.03664261 -0.5083768 287.9119 228.4902 83.36381

0.02600487 -0.03359453 -0.508193 290.5502 230.2155 79.31246

0.0326238 -0.02245577 -0.5084254 290.5502 230.2155 79.31247

0.02299651 -0.02086012 -0.5085281 289.1548 228.762 77.13477

0.02571108 -0.01627195 -0.5085655 290.6856 231.7031 72.36488

0.02757568 -0.01815605 -0.508404 288.8962 230.4055 72.04262

0.02757568 -0.01815605 -0.508404 288.8962 230.4055 72.04262

0.1310952 -0.02164575 -0.4859495 288.0916 232.9884 68.34896

0.1356054 -0.02591675 -0.4845007 287.6908 235.951 64.22453

0.1356054 -0.02591675 -0.4845007 287.6908 235.951 64.22453

0.1443261 -0.03147743 -0.4816436 286.6158 235.7084 63.90792

0.1717587 -0.05242736 -0.4676157 286.6158 235.7083 63.90795

0.1717587 -0.05242736 -0.4676157 283.392 237.4539 61.0284

0.1904195 -0.06635124 -0.4585325 280.2787 240.8457 56.50385

0.2077745 -0.08759259 -0.4472934 280.2787 240.8457 56.50383

0.2054519 -0.08797571 -0.4489361 278.5579 248.6576 48.07806

0.2243453 -0.107957 -0.4353256 278.5579 248.6576 48.07806

0.2243453 -0.107957 -0.4353256 275.9711 245.7059 50.79214

0.2440061 -0.09738925 -0.4271652 275.9711 245.706 50.7921

0.2400934 -0.09813394 -0.4303555 273.4843 240.0254 56.44052

0.2400934 -0.09813394 -0.4303555 271.69 228.7225 68.32018

0.2414692 -0.1233296 -0.4230406 270.9317 153.9669 144.0971

0.2414692 -0.1233296 -0.4230406 270.9317 153.9669 144.0971

0.2354858 -0.1245698 -0.4276505 272.3547 117.4245 182.5263

0.2370366 -0.1494956 -0.4187135 274.0597 125.5656 177.318

0.2410679 -0.1697061 -0.4085858 274.0596 125.5655 177.3181

0.2410679 -0.1697061 -0.4085858 276.0245 148.8124 156.3043

0.2316085 -0.1927757 -0.4065521 278.7662 155.0942 152.3099

0.2456665 -0.1938791 -0.3976788 278.7662 155.0942 152.3099

0.2449764 -0.212421 -0.3885272 280.6304 161.14 148.6204

0.2449764 -0.212421 -0.3885272 282.4531 163.9512 147.3425

0.2467742 -0.2166535 -0.3870651 282.4531 163.9512 147.3425

0.2465808 -0.2351744 -0.3762268 283.4363 163.4235 148.1707

0.2563687 -0.2275476 -0.3743699 283.4363 163.4235 148.1707

0.2563687 -0.2275476 -0.3743699 281.006 158.5673 153.3613

0.2490238 -0.2422452 -0.3712293 281.006 158.5673 153.3613

0.2593238 -0.2476697 -0.360441 279.1671 151.7011 160.6876

0.2593238 -0.2476697 -0.360441 278.3798 140.302 172.1919

0.2571242 -0.2508003 -0.3598515 278.3798 140.302 172.1918

0.2402909 -0.2560974 -0.3690623 278.1249 125.844 186.3236

0.2402909 -0.2560974 -0.3690623 275.2067 106.995 204.8061

0.232552 -0.2578086 -0.3728094 275.2067 106.995 204.8061

0.2266984 -0.2579085 -0.3763292 275.9985 85.69382 225.4142

0.2301488 -0.2576218 -0.374048 273.5625 69.82086 240.9275

0.233418 -0.2593519 -0.3708127 273.5624 69.82105 240.9273

0.2419112 -0.2567943 -0.3671308 274.3736 39.90506 270.6479

0.2419112 -0.2567943 -0.3671308 274.4188 15.35183 295.1713

0.2481745 -0.2551211 -0.3642298 274.4189 15.35178 295.1713

0.2631049 -0.2557612 -0.3531327 271.5737 17.3445 292.584

0.2541537 -0.2604165 -0.3562722 272.6861 322.1595 347.8368

0.2398525 -0.2658809 -0.3621033 272.6861 322.1595 347.8367

0.2414316 -0.265617 -0.3610551 270.4938 233.0589 76.87383

0.2461846 -0.2483501 -0.370024 270.4938 233.0587 76.87387

0.23381 -0.2589045 -0.370815 272.4533 278.0568 32.09988

0.23381 -0.2589045 -0.370815 272.4533 278.0568 32.09988

0.2439173 -0.2432815 -0.3743144 274.4445 247.7738 61.98672

0.2439173 -0.2432815 -0.3743144 274.4445 247.7738 61.98672

0.2359596 -0.2515301 -0.3739632 276.6183 233.5083 75.70151

0.2464275 -0.2387908 -0.3755599 278.8492 229.3748 79.21204

0.2557328 -0.2364415 -0.3692585 280.0989 218.0965 89.68095

0.2433459 -0.2489721 -0.3693932 280.0989 218.0965 89.68095

0.2433459 -0.2489721 -0.3693932 281.3907 227.112 80.15147

0.2475816 -0.2360057 -0.375047 281.3907 227.112 80.15147

0.2685454 -0.2174442 -0.367414 283.0426 224.7074 82.04563

0.2685454 -0.2174442 -0.367414 284.407 228.7743 77.8321

0.2685454 -0.2174442 -0.367414 285.4019 225.7735 80.72273

0.2694678 -0.2120794 -0.3698662 285.4019 225.7735 80.72272

0.2869289 -0.204074 -0.3545811 286.3901 226.5534 79.46239

0.2869289 -0.204074 -0.3545811 286.9508 226.948 77.69863

0.2841045 -0.2015531 -0.358278 286.9508 226.948 77.69863

0.2841045 -0.2015531 -0.358278 286.8749 224.5179 79.23707

0.3027219 -0.1820315 -0.3440418 283.9013 227.8412 76.34255

0.3041823 -0.1751896 -0.3462984 283.9013 227.8412 76.34254

0.3063686 -0.1676809 -0.3480836 283.9013 227.8412 76.34254

0.3063686 -0.1676809 -0.3480836 280.833 237.6906 65.8135

0.318792 -0.1559542 -0.3329109 280.833 237.6906 65.81352

0.325889 -0.1513062 -0.3281501 278.8626 255.9636 46.91111

0.3250432 -0.15053 -0.3293438 278.3813 277.6201 24.56671

0.3239292 -0.1452871 -0.332778 278.3813 277.6201 24.56672

0.3365169 -0.1373256 -0.3078876 278.8422 297.2964 4.343681

0.3330849 -0.1330659 -0.31344 278.8422 297.2965 4.34367

0.326194 -0.1345041 -0.3200046 279.6536 312.1936 348.9081

0.3333223 -0.1108034 -0.3217384 281.084 321.5827 339.4969

0.3420216 -0.1050875 -0.2981071 282.5949 312.5269 348.4486

0.3487856 -0.08075895 -0.2978534 282.5949 312.5269 348.4486

0.3538578 -0.05778199 -0.2972136 282.6927 305.4515 354.5862

0.3587025 -0.032424 -0.2952477 285.8877 304.0607 354.6097

0.3624488 -0.02843036 -0.276584 285.8877 304.0607 354.6097

0.367825 -0.001918974 -0.2708822 284.9478 307.4773 348.7669

0.3680239 0.0141808 -0.270247 287.1686 301.4377 353.3604

0.3680239 0.0141808 -0.270247 287.1686 301.4377 353.3604

0.3759549 0.0381598 -0.2435887 287.1686 301.4377 353.3604

0.3772657 0.03752505 -0.241653 285.951 302.4368 350.2142

0.3772657 0.03752505 -0.241653 288.7375 305.3791 345.4645

0.3803037 0.04454429 -0.2356238 288.7375 305.3791 345.4645

0.3879543 0.05699907 -0.2103787 291.4601 308.4698 340.668

0.3879543 0.05699907 -0.2103787 293.7734 312.5661 334.6983

0.389678 0.05759578 -0.2070035 293.7734 312.5661 334.6983

0.389678 0.05759578 -0.2070035 295.8694 314.9416 330.3353

0.398725 0.07184425 -0.1828293 297.4756 316.5896 326.4718

0.398725 0.07184425 -0.1828293 297.4756 316.5896 326.4718

0.4052556 0.08991441 -0.1589121 299.0992 318.514 322.7109

0.4073608 0.1085599 -0.1408607 299.0601 320.2151 320.3384

0.4086913 0.1084431 -0.1464441 299.0601 320.2151 320.3384

0.4179204 0.1076705 -0.1182539 300.6855 320.8309 318.7752

0.4199418 0.1113149 -0.1072021 299.8889 322.7837 314.787

0.4199418 0.1113149 -0.1072021 299.8889 322.7837 314.787

0.4273151 0.1209269 -0.08663764 301.2375 320.2142 316.7636

0.4313811 0.1135813 -0.0757442 299.3741 321.3511 314.0058

0.4313811 0.1135813 -0.0757442 299.4293 317.1501 317.6496

0.4365829 0.1102569 -0.04434374 299.4293 317.1501 317.6496

0.4441177 0.1050974 -0.04526697 297.7655 318.4759 315.5816

0.4441177 0.1050974 -0.04526697 297.7214 317.8962 316.197

0.44669 0.1031013 -0.0131603 296.4462 318.9243 315.0993

0.4492573 0.09221055 -0.0003076386 296.4462 318.9243 315.0993

0.4573306 0.09091816 -0.01582346 295.2108 316.7958 317.48

0.4573306 0.09091816 -0.01582346 292.7104 314.9926 319.2801

0.4573306 0.09091816 -0.01582346 291.071 312.057 322.5845

0.4573306 0.09091816 -0.01582346 291.071 312.057 322.5845

0.4653966 0.08896351 -0.03481423 288.4615 311.3538 323.8612

0.4655136 0.09239504 -0.02192709 285.7702 312.532 323.279

0.4659191 0.09262884 -0.007737651 282.9324 319.4415 316.6261

0.4659191 0.09262884 -0.007737651 282.9324 319.4415 316.6261

0.4773011 0.0653067 -3.13425E-05 280.5381 331.8067 304.0592

0.479423 0.03951937 0.02594621 278.6288 346.7829 289.4795

0.479423 0.03951937 0.02594621 278.6288 346.7829 289.4795

0.4789001 0.01341161 0.05055881 278.0929 11.34088 265.0491

0.4834932 -0.01668051 0.06024585 278.0929 11.34087 265.0491

0.4786346 -0.0428916 0.08211452 279.0035 33.85585 243.409

0.4786346 -0.0428916 0.08211452 280.2418 49.70697 229.128

0.471691 -0.06776971 0.1029005 280.2417 49.707 229.128

0.4728221 -0.09734344 0.104294 281.1317 60.72921 219.8823

0.4627577 -0.1200902 0.1238844 281.1316 60.72921 219.8823

0.4627577 -0.1200902 0.1238844 281.5431 68.45425 214.0579

0.4522863 -0.1420413 0.138474 281.7993 74.41926 210.064

0.4473851 -0.1677779 0.1383822 281.7993 74.41924 210.0641

0.4381033 -0.18592 0.1447473 281.7844 80.24863 206.1496

0.4381033 -0.18592 0.1447473 281.6281 86.02195 202.2075

0.4265948 -0.2065262 0.1510507 281.6281 86.02192 202.2075

0.4198906 -0.2297622 0.1454328 281.2468 93.48705 196.6495

0.4198906 -0.2297622 0.1454328 281.0884 102.381 189.6927

0.4236785 -0.2275779 0.1376743 281.0884 102.381 189.6926

0.4145036 -0.2314972 0.1576236 280.8114 112.7764 181.1048

0.4177602 -0.2360539 0.1487132 280.8114 112.7765 181.1048

0.4237343 -0.22228 0.1529754 281.1272 120.4029 175.4486

0.4188615 -0.2271009 0.159188 281.1271 120.4028 175.4486

0.4188615 -0.2271009 0.159188 281.1056 133.8915 162.8184

0.4229825 -0.2197189 0.1606891 281.4529 145.1974 152.4313

0.416097 -0.2205518 0.1767251 281.4529 145.1974 152.4313

0.416097 -0.2205518 0.1767251 281.6329 153.3954 145.6795

0.4158463 -0.2176134 0.1809083 281.6981 157.6514 143.3715

0.4160746 -0.2136166 0.1850984 281.6981 157.6514 143.3715

0.4160746 -0.2136166 0.1850984 281.4683 160.3103 142.6408

0.4159837 -0.2134408 0.1853485 281.4682 160.3103 142.6408

0.410798 -0.2171222 0.1925007 281.0581 161.9527 142.9092

0.4097894 -0.2256187 0.1847224 280.6038 161.0467 145.7668

0.4097894 -0.2256187 0.1847224 280.6038 161.0467 145.7668

0.4149237 -0.2256736 0.1729779 280.4768 161.9382 146.7364

0.4158936 -0.2236461 0.1732816 280.9324 162.1067 148.5642

0.407728 -0.2377292 0.1739376 280.9324 162.1068 148.5642

0.407728 -0.2377292 0.1739376 282.3138 164.7542 147.8374

0.4156787 -0.2297038 0.1660555 284.9156 168.4281 145.3206

0.4156787 -0.2297038 0.1660555 284.9156 168.4281 145.3206

0.4146541 -0.235425 0.1605119 284.9155 168.4281 145.3206

0.4151696 -0.238644 0.1543056 286.2213 171.8123 141.3261

0.4148554 -0.2380136 0.1553693 287.7394 175.754 136.8657

0.4183924 -0.2377031 0.146083 287.7394 175.754 136.8657

0.4189762 -0.2407685 0.1392285 289.3267 178.593 133.1334

0.4231017 -0.2317771 0.1419841 289.2211 175.0986 135.0125

0.4201197 -0.2253519 0.1522075 289.2211 175.0986 135.0125

0.4181499 -0.2295699 0.1513259 287.4328 175.3372 132.4939

0.4219159 -0.2225485 0.1513613 286.3599 172.6496 136.4112

0.4219159 -0.2225485 0.1513613 286.3599 172.6496 136.4112

0.4180268 -0.2166536 0.163286 285.0441 167.8436 139.5132

0.4180935 -0.212226 0.1688356 285.1315 175.7825 130.9633

0.4180935 -0.212226 0.1688356 285.1315 175.7825 130.9633

0.4180935 -0.212226 0.1688356 284.6042 167.4969 138.3088

0.4087717 -0.2102551 0.1846844 284.9359 161.737 143.6432

0.4087717 -0.2102551 0.1846844 284.9359 161.737 143.6432

0.4191486 -0.1977122 0.175026 281.2321 157.8289 147.1999

0.4307721 -0.178444 0.1673409 281.2321 157.8289 147.1999

0.4241831 -0.170697 0.1792039 281.8543 155.8548 148.74

0.4298203 -0.1591047 0.1764171 281.8542 155.8548 148.7399

0.428605 -0.1579505 0.1803666 279.6203 136.6693 168.8645

0.428605 -0.1579505 0.1803666 279.6203 136.6693 168.8645

0.4296902 -0.1537109 0.177306 279.138 110.3209 196.1538

0.4373956 -0.1472766 0.1633794 280.3998 87.64824 220.0193

0.4373956 -0.1472766 0.1633794 282.703 74.9641 233.903

0.4449809 -0.1415828 0.1471206 282.703 74.96409 233.903

0.4478182 -0.1329487 0.134387 285.0063 66.17233 244.3058

0.4478182 -0.1329487 0.134387 285.874 65.07565 245.228

0.456323 -0.1253439 0.1110618 285.874 65.07565 245.228

0.4678291 -0.1013059 0.08455486 284.5096 55.3028 256.1077

0.4555685 -0.09816442 0.1048415 286.0856 56.81712 254.9868

0.4555685 -0.09816442 0.1048415 286.0856 56.81712 254.9868

0.4565283 -0.1087729 0.08900049 286.6471 57.04144 254.7706

0.4651231 -0.08574286 0.06692731 286.1567 48.6785 264.5893

0.4523922 -0.08384859 0.08669952 286.1567 48.6785 264.5892

0.4596482 -0.0611496 0.06473251 288.7576 48.26806 265.7702

0.4647481 -0.03723761 0.04276188 288.7576 48.26804 265.7702

0.4647481 -0.03723761 0.04276188 288.7576 48.26804 265.7702

0.4554308 -0.01680605 0.04565765 289.665 41.50576 275.0883

0.4554308 -0.01680605 0.04565765 291.5767 35.68784 283.0936

0.4574372 -0.0004863828 0.02313722 291.5767 35.68787 283.0936

0.4578156 -0.001470534 0.01367453 290.7895 37.63065 282.4207

0.4486977 -0.002535694 0.02824294 292.6306 36.52005 284.602

0.4494715 0.0009017211 0.01040444 292.6306 36.52007 284.602

0.4495877 0.002148698 -3.723822E-05 291.7989 41.29188 281.438

0.4495877 0.002148698 -3.723822E-05 291.7989 41.29188 281.438

0.4440783 0.003038815 -0.007516555 291.6477 47.28101 276.921

0.4437505 -0.0005537027 -0.01888123 289.9319 48.8312 277.9318

0.4437505 -0.0005537027 -0.01888123 289.9319 48.8312 277.9318

0.4427265 -0.004003021 -0.0353346 288.8683 52.01373 276.6688

0.4347791 -0.00476778 -0.02116602 288.0644 51.36029 279.4147

0.4347791 -0.00476778 -0.02116602 288.0925 47.88465 284.3001

0.4341203 -0.00503648 -0.0319026 288.0925 47.88465 284.3001

0.4341203 -0.00503648 -0.0319026 289.8327 44.69156 289.5664

0.42701 0.001363542 -0.05272858 289.8327 44.69157 289.5664

0.422802 0.01187192 -0.07884962 289.8327 44.69156 289.5664

0.422802 0.01187192 -0.07884962 290.7877 43.21119 292.0841

0.4168913 0.02332934 -0.1038123 291.0067 40.8159 297.7743

0.4102701 0.03629401 -0.1212014 291.0067 40.8159 297.7743
