0.02388077 -5.722046E-08 -0.509106 270.0198 -2.561322E-06 0

0.03529825 0.01330141 -0.5083982 270.7298 110.7166 248.351

0.03529825 0.01330141 -0.5083982 270.7298 110.7166 248.351

0.03529825 0.01330141 -0.5083982 270.7298 110.7166 248.351

0.02018739 4.566192E-05 -0.5093958 270.4789 351.0921 6.921887

0.03434042 0.01366219 -0.5084543 270.771 164.5838 192.6058

0.02656485 2.597809E-05 -0.5086895 270.1948 55.05183 300.929

0.02656485 2.597809E-05 -0.5086895 270.1948 55.05183 300.929

0.02354316 -0.002228794 -0.5088333 272.1739 314.6326 40.79776

0.0200966 -0.004579468 -0.5089654 274.3739 316.3376 38.51936

0.01767414 -0.005644054 -0.5090854 276.42 320.7241 33.51574

0.01767414 -0.005644054 -0.5090854 276.42 320.7241 33.51574

0.0165744 -0.006506138 -0.5091121 277.7117 325.4394 27.71758

0.01595358 -0.007543144 -0.5091177 278.0198 317.5841 34.4167

0.02941682 0.002801742 -0.5085042 276.5825 323.3139 27.79343

0.02941682 0.002801742 -0.5085042 276.5825 323.3139 27.79343

0.01485782 -0.01141497 -0.5090173 278.4174 317.4587 32.90513

0.02651892 0.002426205 -0.5086654 276.7883 314.3664 35.167

0.01088028 -0.01113087 -0.5091241 277.8773 312.654 35.60675

0.01088028 -0.01113087 -0.5091241 277.8773 312.654 35.60675

0.01096308 -0.006553001 -0.5092018 276.3734 312.7451 34.55149

0.007375028 -0.008020992 -0.5092453 278.2643 306.6993 39.82165

0.0124555 0.001893196 -0.5091853 276.7722 302.6418 42.86432

0.0124555 0.001893196 -0.5091853 276.7722 302.6418 42.86432

0.0008086246 -0.01080213 -0.5092258 278.1535 305.7013 38.72054

0.01440128 0.002724152 -0.5091301 277.0276 301.2126 42.17793

5.91455E-05 -0.01159447 -0.5092091 277.4643 302.4387 39.57408

5.91455E-05 -0.01159447 -0.5092091 276.1589 301.7733 39.24635

0.01360446 0.002556381 -0.5091529 276.1589 301.7733 39.24635

-0.0008738022 -0.0118903 -0.5092015 277.8509 296.0232 44.2472

0.01267195 0.002222557 -0.5091574 277.7875 286.1978 53.05291

0.01267195 0.002222557 -0.5091574 277.5374 281.4847 56.47078

-0.0006083725 -0.0108284 -0.5092044 277.5374 281.4847 56.47078

0.0125885 0.003501949 -0.5091522 277.6251 279.4886 57.01836

-0.0006957958 -0.01084957 -0.5091169 278.3075 274.4272 60.68642

-0.0006957958 -0.01084957 -0.5091169 278.4946 268.1969 65.46377

0.01337704 0.002436161 -0.5090514 278.4946 268.1969 65.46377

-0.0008240025 -0.01282986 -0.5090707 279.1057 263.7089 68.38461

0.01611707 0.0004231453 -0.5086699 280.0617 259.0497 71.55894

0.01611707 0.0004231453 -0.5086699 281.1666 255.1787 73.73858

0.003236546 -0.01581156 -0.5086693 281.1666 255.1787 73.73861

0.0201634 -0.002779655 -0.5083094 280.8837 251.6545 75.36333

0.01080899 -0.01861954 -0.508261 282.408 252.3246 72.80615

0.01080899 -0.01861954 -0.508261 282.408 252.3246 72.80615

0.02248077 -0.007254639 -0.5083362 282.3978 248.0422 75.12413

0.00810717 -0.02283709 -0.5083074 282.3978 248.0422 75.12413

0.02173607 -0.009691257 -0.508328 285.187 248.7837 72.83093

0.02173607 -0.009691257 -0.508328 287.3412 245.8023 73.93476

0.02556128 -0.008817902 -0.5078315 287.3411 245.8023 73.93476

0.009752445 -0.02362976 -0.5079078 289.5421 242.7523 74.87371

0.009752445 -0.02362976 -0.5079078 290.9026 238.0225 77.34341

0.009752445 -0.02362976 -0.5079078 290.9026 238.0225 77.34341

0.03299573 -0.00742733 -0.5062979 293.3511 236.4345 76.69294

0.03299573 -0.00742733 -0.5062979 293.3511 236.4345 76.69294

0.01689496 -0.0218145 -0.5066757 294.24 231.7975 79.10755

0.01689496 -0.0218145 -0.5066757 296.9538 234.1337 74.98013

0.02101101 -0.01021688 -0.5078186 296.9538 234.1337 74.98013

0.02101101 -0.01021688 -0.5078186 296.8733 236.3928 71.88577

0.02101101 -0.01021688 -0.5078186 296.8727 238.1886 69.00999

0.09444447 0.006861963 -0.4848006 296.8727 238.1886 69.01

0.07835399 -0.006165218 -0.4876691 299.756 239.3099 67.23556

0.07835399 -0.006165218 -0.4876691 299.756 239.3099 67.23556

0.1024444 -0.000123682 -0.4746299 299.1477 237.6154 68.29269

0.1145872 0.01246076 -0.471681 299.1477 237.6154 68.29269

0.1145872 0.01246076 -0.471681 302.4496 237.5431 66.99057

0.1145872 0.01246076 -0.471681 305.3373 237.675 65.3989

0.1186238 0.009819173 -0.4605896 305.3373 237.675 65.39889

0.1186238 0.009819173 -0.4605896 308.0106 237.6474 64.17542

0.1186238 0.009819173 -0.4605896 308.0106 237.6474 64.17542

0.1186238 0.009819173 -0.4605896 310.2407 237.7385 62.97869

0.1453443 0.02557185 -0.4436089 310.2408 237.7385 62.97869

0.1319127 0.0212808 -0.4480111 312.4083 237.6427 62.17229

0.1319127 0.0212808 -0.4480111 314.5254 237.4861 61.56836

0.1490562 0.03125253 -0.4377154 316.2557 237.559 61.15183

0.1479665 0.02376437 -0.4385549 316.2557 237.5591 61.15183

0.1397294 0.006268444 -0.4418435 318.0511 237.3035 61.30119

0.1409302 -0.008788318 -0.4358712 318.0511 237.3035 61.3012

0.1409302 -0.008788318 -0.4358712 319.33 236.8878 61.77467

0.1343636 -0.02876572 -0.4370826 320.9468 236.3935 62.35918

0.1282584 -0.04952534 -0.4370574 322.0907 235.7507 63.43721

0.1308759 -0.06840586 -0.4280248 322.0907 235.7507 63.4372

0.1308759 -0.06840586 -0.4280248 322.0907 235.7507 63.4372

0.1274007 -0.09177346 -0.4246878 322.8503 235.2693 64.18958

0.1323546 -0.1147982 -0.4140499 322.8503 235.2693 64.18958

0.1323546 -0.1147982 -0.4140499 322.8503 235.2693 64.18958

0.1473966 -0.1277779 -0.4050688 325.3965 233.9802 65.45557

0.1480116 -0.1522386 -0.396295 328.0088 232.6267 66.47517

0.1480116 -0.1522386 -0.396295 328.0088 232.6267 66.47517

0.1622898 -0.166145 -0.3849565 330.5681 231.6522 67.45474

0.1596311 -0.1891766 -0.3753183 332.595 231.3033 68.28995

0.1700252 -0.1802151 -0.3638936 334.0366 231.5221 68.93158

0.181641 -0.1871569 -0.3546596 334.0366 231.5221 68.93159

0.181641 -0.1871569 -0.3546596 335.3984 231.9048 69.36195

0.1941285 -0.2028175 -0.3390926 336.5108 232.5829 69.6972

0.1968274 -0.199854 -0.3354412 337.5025 233.6724 69.89857

0.1893789 -0.217174 -0.328899 337.5025 233.6724 69.89857

0.1824001 -0.2333328 -0.3216978 338.3704 235.1984 70.03487

0.1824001 -0.2333328 -0.3216978 338.3704 235.1984 70.03487

0.1887798 -0.2452248 -0.3079185 339.3968 236.7208 70.22553

0.1887798 -0.2452248 -0.3079185 339.3968 236.7208 70.22553

0.185113 -0.2564466 -0.3009238 340.5373 238.3703 70.2898

0.191153 -0.2575607 -0.2961586 340.5373 238.3703 70.2898

0.1922628 -0.2561443 -0.2948366 341.5086 240.0743 70.39036

0.1861754 -0.2669374 -0.2891137 341.5086 240.0743 70.39034

0.1922611 -0.2716444 -0.2806217 342.6501 242.5123 70.12119

0.1884385 -0.2807025 -0.2742273 343.7426 245.6338 69.5077

0.1885983 -0.2804867 -0.2740553 343.7426 245.6338 69.50771

0.1945502 -0.2795089 -0.2708753 344.7563 248.6606 69.11273

0.1909047 -0.287026 -0.2655557 346.0936 251.2998 68.96613

0.1993286 -0.2860074 -0.2604156 347.5415 254.2447 68.71659

0.1991758 -0.286228 -0.2605879 347.5415 254.2447 68.71659

0.1930765 -0.2933925 -0.2571883 348.3992 257.1906 68.66532

0.1930765 -0.2933925 -0.2571883 348.3992 257.1906 68.66532

0.1989655 -0.2884642 -0.2582724 349.2493 259.982 68.39716

0.1989655 -0.2884642 -0.2582724 350.1938 262.4323 68.08198

0.1957612 -0.2918694 -0.2568918 350.1938 262.4323 68.08198

0.1957612 -0.2918694 -0.2568918 351.2113 264.905 67.87838

0.1947254 -0.292988 -0.2564051 351.977 267.1759 67.96407

0.2009731 -0.2867362 -0.2580412 352.7185 269.1385 67.93248

0.1890945 -0.2911619 -0.2620327 352.7185 269.1385 67.93248

0.1890945 -0.2911619 -0.2620327 353.5959 270.6909 67.70967

0.1965603 -0.2847615 -0.2635679 354.4443 272.2862 67.4735

0.2008122 -0.2779792 -0.258935 354.4443 272.2862 67.47349

0.1964639 -0.2836284 -0.2561292 355.2044 274.0604 67.58107

0.2106854 -0.2756044 -0.2535729 355.2044 274.0604 67.58106

0.2106854 -0.2756044 -0.2535729 355.2044 274.0604 67.58106

0.2041761 -0.280483 -0.2442486 355.7709 275.9795 67.80245

0.2041761 -0.280483 -0.2442486 356.1276 277.4859 65.86251

0.2041761 -0.280483 -0.2442486 356.1276 277.4859 65.86251

0.2188029 -0.2713813 -0.241854 356.6417 279.1646 64.42451

0.2219805 -0.2644524 -0.2372023 356.5818 278.2336 61.7661

0.2139395 -0.2738213 -0.2339382 356.5818 278.2336 61.7661

0.2139395 -0.2738213 -0.2339382 357.7343 277.4339 62.73232

0.2139395 -0.2738213 -0.2339382 358.8598 276.507 63.52188

0.2312527 -0.253724 -0.2244137 358.8598 276.507 63.52189

0.2312527 -0.253724 -0.2244137 357.094 274.5247 63.26084

0.2312527 -0.253724 -0.2244137 357.094 274.5247 63.26084

0.2330439 -0.254872 -0.2212374 356.0665 273.3015 64.7031

0.235218 -0.2475667 -0.2165844 356.0665 273.3015 64.7031

0.2399317 -0.2453103 -0.2139654 354.9782 270.5839 63.32113

0.2399317 -0.2453103 -0.2139654 356.6064 270.2067 63.37785

0.2543745 -0.235836 -0.2078474 355.125 268.7556 63.12406

0.2565868 -0.2315476 -0.1961851 355.125 268.7556 63.12408

0.2661811 -0.2295171 -0.1854971 355.125 268.7556 63.12406

0.2661811 -0.2295171 -0.1854971 356.5258 269.1458 63.19572

0.2691253 -0.2299513 -0.1748961 356.5258 269.1458 63.19571

0.2693159 -0.2409739 -0.1590445 355.5629 266.0188 61.49782

0.2801408 -0.2362308 -0.1470063 357.1613 264.73 61.03761

0.2802697 -0.2321095 -0.14458 357.1613 264.73 61.03762

0.2925953 -0.2266275 -0.1278957 355.9473 263.4122 59.3947

0.2932999 -0.2327138 -0.1146684 355.6382 263.0369 58.07409

0.2967906 -0.2360239 -0.09765953 355.6382 263.0369 58.07409

0.29689 -0.2379954 -0.09870265 354.8527 262.2466 58.82254

0.3008815 -0.2369352 -0.08865522 354.1229 261.6151 59.8015

0.2993006 -0.2444208 -0.07214793 354.1229 261.6151 59.8015

0.2994834 -0.2478769 -0.0737821 353.5684 261.1608 61.2073

0.2994834 -0.2478769 -0.0737821 352.9077 260.3993 62.90822

0.3044555 -0.2459604 -0.05820142 352.9077 260.3993 62.90823

0.3049436 -0.2542848 -0.04644072 352.7422 260.0177 64.65881

0.3049436 -0.2542848 -0.04644072 352.6977 259.7653 66.32011

0.2994603 -0.2628698 -0.03211026 352.6977 259.7653 66.32011

0.2994603 -0.2628698 -0.03211026 352.5749 259.7236 67.80302

0.311407 -0.2545849 -0.02361832 352.5749 259.7236 67.80302

0.3036411 -0.2646098 -0.01137617 352.5749 259.7236 67.80302

0.3036411 -0.2646098 -0.01137617 352.6066 260.2119 68.57948

0.3036411 -0.2646098 -0.01137617 351.4447 259.4538 68.21684

0.314676 -0.2581188 -0.00791708 351.4447 259.4538 68.21684

0.3123423 -0.2609604 0.007143974 350.5596 259.0852 67.91804

0.3123423 -0.2609604 0.007143974 349.9197 259.0889 67.64809

0.3084844 -0.2646872 0.02206976 349.9197 259.0889 67.6481

0.3004455 -0.2824162 0.03179077 349.2318 259.1894 67.34602

0.3004455 -0.2824162 0.03179077 349.0001 259.9189 67.27488

0.2995209 -0.2838071 0.02789005 349.0001 259.9189 67.27489

0.2995209 -0.2838071 0.02789005 349.1128 260.7711 67.14703

0.2990769 -0.2947895 0.02750925 349.2198 261.4764 66.6144

0.2990769 -0.2947895 0.02750925 349.2198 261.4764 66.6144

0.2981822 -0.2946537 0.03702876 348.8657 262.0398 66.80778

0.2981822 -0.2946537 0.03702876 348.8657 262.0398 66.80778

0.3029523 -0.2940745 0.05215539 348.9746 263.0377 67.48211

0.3029523 -0.2940745 0.05215539 348.7372 263.9709 68.49878

0.2927331 -0.3028741 0.05962146 348.7372 263.971 68.49876

0.2864707 -0.3064681 0.07065368 348.7372 263.971 68.49876

0.2857829 -0.3143354 0.0681253 348.4594 264.891 67.57275

0.2864217 -0.31247 0.07378907 348.6208 265.3505 69.69496

0.2864217 -0.31247 0.07378907 348.6208 265.3505 69.69496

0.2882911 -0.3099561 0.07703988 347.0132 265.7091 68.81564

0.2873674 -0.3189891 0.07402407 348.5516 265.9211 68.07689

0.2804642 -0.323086 0.08227375 348.5516 265.9211 68.07688

0.2801516 -0.3208721 0.0914867 346.9167 265.2187 68.00626

0.2801516 -0.3208721 0.0914867 347.1418 263.4647 67.39329

0.2758321 -0.3298143 0.09294845 347.1418 263.4647 67.39328

0.2758321 -0.3298143 0.09294845 348.6221 263.3906 67.65323

0.2768611 -0.3287503 0.09365573 346.8374 261.623 67.84469

0.2773193 -0.3277429 0.0958063 346.8374 261.623 67.8447

0.2763882 -0.3336938 0.09370645 348.2131 261.6323 67.78887

0.2733356 -0.3348904 0.09828034 349.4798 261.5874 67.19741

0.2733356 -0.3348904 0.09828034 349.4798 261.5874 67.19741

0.2800498 -0.3278489 0.1030058 347.6107 260.4387 68.53758

0.2793476 -0.3323152 0.1014418 347.6107 260.4387 68.53758

0.2720598 -0.3354333 0.1105753 348.8276 261.7319 68.40396

0.2733814 -0.3329487 0.1147464 349.1813 263.6717 67.37745

0.2733814 -0.3329487 0.1147464 349.1813 263.6717 67.37745

0.2684641 -0.3370359 0.1213054 349.1813 263.6717 67.37744

0.2719838 -0.3323068 0.1264049 347.6682 261.9579 68.84484

0.2719838 -0.3323068 0.1264049 349.1699 261.7672 68.69444

0.2678448 -0.3343783 0.1297366 349.1699 261.7672 68.69445

0.2713194 -0.3330843 0.1314668 348.599 259.4789 69.50539

0.2678569 -0.3350623 0.1335247 350.1137 260.7529 69.25751

0.2678569 -0.3350623 0.1335247 350.1137 260.7529 69.25751

0.2700826 -0.3320982 0.1364152 348.6253 261.2993 68.76685

0.2645201 -0.3364433 0.1382533 350.5662 260.8602 68.21667

0.2645201 -0.3364433 0.1382533 350.5662 260.8602 68.21667

0.2667504 -0.3327406 0.1428527 350.3466 261.1427 70.17188

0.2619319 -0.3356661 0.1449099 349.0333 259.7174 69.17674

0.262039 -0.3350669 0.1451005 349.0333 259.7174 69.17675

0.262039 -0.3350669 0.1451005 350.4124 261.3436 69.80199

0.2662952 -0.3302106 0.1484459 348.7815 260.4048 69.31538

0.2596206 -0.3359093 0.1474802 348.7815 260.4048 69.31538

0.2621668 -0.3339738 0.1473716 347.8394 260.091 67.62328

0.2621668 -0.3339738 0.1473716 347.8394 260.091 67.62328

0.2557085 -0.3398757 0.1452103 349.4256 260.4424 68.74024

0.2595707 -0.3375573 0.1437586 349.4256 260.4424 68.74026

0.2593876 -0.3384569 0.1434889 347.4793 259.4718 70.23389

0.2567079 -0.3411266 0.1419778 348.5097 258.8251 71.68535

0.2567079 -0.3411266 0.1419778 348.5097 258.8251 71.68535

0.261557 -0.3383549 0.1407751 346.2429 258.8678 72.24075

0.2575582 -0.341877 0.139634 346.5278 259.7066 73.84157

0.2571926 -0.3431973 0.137045 346.5279 259.7066 73.84157

0.2571926 -0.3431973 0.137045 344.0362 258.6783 76.35748

0.2573867 -0.3423041 0.1373279 344.5691 258.7365 76.0988

0.2511371 -0.3492278 0.1313357 344.5691 258.7365 76.09881

0.2511371 -0.3492278 0.1313357 342.8254 257.9743 75.22688

0.2441392 -0.3569647 0.1234957 340.8804 258.3741 76.11905

0.2405096 -0.3619233 0.1088176 340.8804 258.3741 76.11904

0.2405096 -0.3619233 0.1088176 338.5619 258.5467 77.37589

0.2486128 -0.3621951 0.08764097 336.1074 258.7025 78.6142

0.2343277 -0.3735381 0.07895856 336.1074 258.7025 78.61421

0.2316066 -0.3677209 0.07244493 334.2308 258.9001 79.53116

0.2316066 -0.3677209 0.07244493 334.2308 258.9001 79.53116

0.2328069 -0.3695757 0.05764715 332.9618 259.2915 80.56841

0.2328069 -0.3695757 0.05764715 332.9618 259.2915 80.56841

0.2388069 -0.3547264 0.05521585 331.8036 259.8281 81.6343

0.2388069 -0.3547264 0.05521585 331.8036 259.8281 81.6343

0.2482388 -0.3498929 0.04313673 329.3517 259.6968 81.55466

0.2599348 -0.3420013 0.03711265 327.0703 259.2935 81.37019

0.261968 -0.3274021 0.04398431 327.0703 259.2935 81.37019

0.2604527 -0.3297232 0.03465368 325.8113 259.0411 81.61091

0.2604527 -0.3297232 0.03465368 324.0469 259.199 80.85611

0.2577456 -0.3326475 0.02582288 324.0469 259.1989 80.85612

0.2591753 -0.3182926 0.03261394 323.2484 260.4518 79.29456

0.2605475 -0.3183272 0.01812372 323.2484 260.4518 79.29457

0.2547638 -0.3231934 0.01367798 321.1033 261.5248 77.43343

0.2610081 -0.3183933 0.006793527 319.5954 262.9221 75.58768

0.2614795 -0.3123756 0.009695749 319.5953 262.922 75.58768

0.2614795 -0.3123756 0.009695749 316.7617 264.3046 74.19144

0.2642555 -0.3101704 -0.002711449 316.7617 264.3046 74.19145

0.2642555 -0.3101704 -0.002711449 315.1944 265.7663 72.99902

0.2726788 -0.3022346 -0.0185604 313.0637 267.1015 72.07528

0.2823524 -0.2922832 -0.02986133 313.0637 267.1015 72.07528

0.2823524 -0.2922832 -0.02986133 312.7532 269.0441 71.23887

0.2823524 -0.2922832 -0.02986133 312.7532 269.0441 71.23887

0.2823524 -0.2922832 -0.02986133 311.2155 270.8945 71.21687

0.286832 -0.2962836 -0.04966035 309.6188 273.4258 70.36026

0.2939914 -0.2874453 -0.05888082 309.6188 273.4258 70.36026

0.2992334 -0.2793559 -0.0703015 308.3344 276.4053 69.16892

0.2983765 -0.2902681 -0.07802111 307.5345 278.6345 68.65922

0.3053537 -0.2798265 -0.08847381 307.5345 278.6345 68.65923

0.3086132 -0.272992 -0.09800304 307.2553 279.9958 68.93563
