-0.01466233 -5.722046E-08 -0.5098563 270.0198 -2.561322E-06 0

-0.007723581 0.001440639 -0.5100066 272.0577 7.921534 352.9471

-0.007723581 0.001440639 -0.5100066 272.0577 7.921534 352.9471

-0.007723581 0.001440639 -0.5100066 272.0577 7.921534 352.9471

-0.009028906 -0.004686356 -0.5099657 270.1928 84.37537 275.5128

-0.01244767 -0.008841018 -0.5099241 271.9646 347.3174 13.57912

-0.009765905 0.002698917 -0.510052 270.6265 263.9786 95.89078

-0.009765905 0.002698917 -0.510052 270.6265 263.9786 95.89078

-0.003338954 0.02180832 -0.5096753 273.0213 235.321 124.1701

0.003626151 0.04040926 -0.5085282 275.2597 231.8752 127.1238

-0.001524559 0.02779112 -0.5093842 277.4567 231.4345 127.1137

-0.001524559 0.02779112 -0.5093842 277.4567 231.4345 127.1137

0.004418667 0.04363174 -0.5082555 279.6514 231.2223 126.995

-0.001006201 0.0243116 -0.509572 281.8711 231.292 126.6573

-0.001006201 0.0243116 -0.509572 281.8711 231.292 126.6573

0.006552722 0.04050868 -0.5084996 284.166 231.9785 125.7426

0.0006250245 0.02100855 -0.5097195 286.3275 233.876 123.7468

0.006448001 0.03944867 -0.5085757 288.3361 236.4978 121.1259

0.006448001 0.03944867 -0.5085757 288.3361 236.4978 121.1259

-0.0005559633 0.02050901 -0.5097314 290.1446 239.4598 118.2443

0.002554256 0.04029067 -0.508544 292.063 238.102 119.1555

-0.005166766 0.02183144 -0.5096416 292.7271 234.9007 121.534

-0.005166766 0.02183144 -0.5096416 292.2516 235.1213 120.6095

-0.003119594 0.03552094 -0.5088875 292.2516 235.1213 120.6095

-0.01108877 0.01743238 -0.5097166 292.657 236.03 118.9338

-0.005554918 0.03486448 -0.5089209 291.9308 233.405 120.5704

-0.005554918 0.03486448 -0.5089209 292.3437 238.5577 115.2817

-0.01231223 0.01673716 -0.5097207 292.3437 238.5577 115.2817

-0.004302569 0.03425549 -0.5089744 291.4718 234.2506 118.5468

0.002209736 0.0150115 -0.5099183 291.0681 239.9497 112.9922

0.002209736 0.0150115 -0.5099183 291.7909 235.1977 116.7255

0.009227035 0.0330245 -0.5089903 291.7909 235.1977 116.7255

0.004361053 0.02069778 -0.5097054 290.6855 238.9321 112.7679

0.009910768 0.03215186 -0.509042 290.1463 233.4568 117.2745

0.009910768 0.03215186 -0.509042 290.3131 239.9799 111.1277

0.006531309 0.01916759 -0.5097506 290.3131 239.9799 111.1277

0.01237207 0.03249401 -0.5089664 292.4141 236.8934 113.1716

0.008146796 0.01781427 -0.5097847 292.4141 236.8934 113.1716

0.008146796 0.01781427 -0.5097847 293.4203 234.8263 113.8761

0.01216096 0.02167328 -0.5095553 294.2404 236.1102 111.346

0.007302681 0.01271227 -0.5099503 294.7644 234.8147 111.1198

0.01770318 0.0266633 -0.5092853 294.877 236.4001 108.1592

0.01770318 0.0266633 -0.5092853 294.877 236.4001 108.1592

0.015863 0.02547031 -0.509407 295.3454 236.4829 106.5193

0.0183707 0.03118647 -0.5090047 295.3454 236.4829 106.5193

0.01408574 0.02777298 -0.5092452 296.6545 237.1422 104.5226

0.01408574 0.02777298 -0.5092452 297.4655 235.9315 104.067

0.01553803 0.02510576 -0.5093414 297.4655 235.9315 104.067

0.01229031 0.008511829 -0.5099774 297.9903 234.7112 103.2696

0.02008037 0.00943222 -0.5098215 298.3315 233.8462 101.9159

0.02674991 0.02636724 -0.5089198 298.5445 234.3933 98.98401

0.02194151 0.02336723 -0.5092962 298.5445 234.3933 98.984

0.02194151 0.02336723 -0.5092962 298.5445 234.3933 98.984

0.02872525 0.02528681 -0.508797 298.5445 234.3933 98.984

0.02457537 0.02193724 -0.5091698 298.1633 233.756 97.25216

0.02457537 0.02193724 -0.5091698 298.1633 233.756 97.25216

0.02457537 0.02193724 -0.5091698 297.8813 234.0314 94.67445

0.01356033 0.02020866 -0.509728 297.9072 234.1847 92.16345

0.01356033 0.02020866 -0.509728 298.4863 239.3809 85.99979

0.01356033 0.02020866 -0.509728 298.4863 239.3809 85.99979

0.01356033 0.02020866 -0.509728 299.1478 243.6518 80.67128

0.1057188 0.05710733 -0.4840928 298.8723 246.239 76.74562

0.1057188 0.05710733 -0.4840928 300.6974 249.5447 72.19943

0.1042695 0.07259056 -0.4823298 300.6974 249.5447 72.19942

0.1042695 0.07259056 -0.4823298 301.5031 248.3169 70.62788

0.124654 0.07932959 -0.4697835 301.5031 248.3169 70.62788

0.124654 0.07932959 -0.4697835 303.9552 248.4322 68.29978

0.1162466 0.0570114 -0.4751471 304.0022 246.5099 67.24804

0.1162466 0.0570114 -0.4751471 306.7328 246.443 65.44395

0.1325083 0.07262377 -0.4634029 306.7328 246.4429 65.44395

0.1294925 0.06363153 -0.4655724 309.2565 244.6369 65.04243

0.1302738 0.07802667 -0.4631582 309.2565 244.6369 65.04243

0.1302738 0.07802667 -0.4631582 308.0744 242.1794 64.86784

0.1382659 0.0632571 -0.4580668 310.7937 242.0931 63.65705

0.1361788 0.04412464 -0.4609256 310.7937 242.0931 63.65705

0.1351049 0.02468602 -0.4626892 310.7937 242.0931 63.65705

0.1351049 0.02468602 -0.4626892 313.348 239.8478 64.56347

0.1415276 0.008565588 -0.4576381 312.125 236.7173 66.44072

0.1428846 -0.009648227 -0.4571947 312.125 236.7173 66.44073

0.145924 -0.0264602 -0.4555679 314.277 237.5648 65.38084

0.145924 -0.0264602 -0.4555679 314.277 237.5648 65.38084

0.1574885 -0.03999799 -0.4464505 313.8211 237.6801 65.64536

0.1713403 -0.03550816 -0.4417038 315.9468 237.6166 65.58156

0.1749116 -0.05934734 -0.4377263 315.6641 237.3096 66.34476

0.1749116 -0.05934734 -0.4377263 315.6641 237.3096 66.34476

0.1944626 -0.05103306 -0.4237292 315.5004 236.8127 67.36378

0.199912 -0.07310354 -0.4179206 317.5345 236.6604 68.13093

0.199912 -0.07310354 -0.4179206 317.5345 236.6604 68.13093

0.199912 -0.07310354 -0.4179206 317.8383 235.6539 69.95393

0.2186061 -0.05974591 -0.4047567 319.3562 235.7379 70.76044

0.2186061 -0.05974591 -0.4047567 319.3562 235.7379 70.76044

0.2175954 -0.08034796 -0.4017245 319.6647 235.638 71.26354

0.2184983 -0.09921355 -0.3969902 319.6647 235.638 71.26354

0.2232963 -0.09365736 -0.390368 319.7608 235.5031 71.62993

0.2394498 -0.08995176 -0.381566 319.7608 235.5031 71.62993

0.2394498 -0.08995176 -0.381566 324.3833 232.69 73.42891

0.239575 -0.109529 -0.3763341 324.3833 232.69 73.42892

0.2547317 -0.1086978 -0.3615455 328.8177 230.2838 74.72456

0.2547317 -0.1086978 -0.3615455 333.0674 228.335 75.64651

0.2550994 -0.1245012 -0.3561494 333.0674 228.335 75.64651

0.2550994 -0.1245012 -0.3561494 337.0322 226.7526 76.26949

0.2684673 -0.112315 -0.3466714 340.8061 225.6172 76.47439

0.2684673 -0.112315 -0.3466714 340.8061 225.6172 76.47439

0.2711529 -0.1301364 -0.338247 344.448 224.5074 76.45387

0.2725784 -0.1271493 -0.3352499 347.7895 223.4851 76.23363

0.2713324 -0.1426112 -0.3299989 347.7895 223.485 76.23363

0.2713324 -0.1426112 -0.3299989 350.6842 223.0368 76.21138

0.2730704 -0.1583472 -0.3199173 352.8152 223.3657 76.11064

0.2818214 -0.1472376 -0.3176258 352.8152 223.3657 76.11065

0.2836084 -0.1575753 -0.3110059 352.8153 223.3657 76.11064

0.2837782 -0.1570899 -0.3106284 354.7053 224.0385 76.06546

0.2921615 -0.1680797 -0.2967965 354.7053 224.0385 76.06546

0.2991448 -0.1653056 -0.2913481 354.7052 224.0385 76.06544

0.2991448 -0.1653056 -0.2913481 356.4385 224.8491 76.15027

0.3016228 -0.179881 -0.2799353 356.4385 224.8491 76.15025

0.3016228 -0.179881 -0.2799353 357.9515 225.7863 76.3899

0.3016228 -0.179881 -0.2799353 0.365561 227.5402 76.4999

0.3071567 -0.1751117 -0.2769259 2.689574 229.3183 76.74591

0.3054669 -0.1844531 -0.2726982 2.689567 229.3183 76.74591

0.3056058 -0.1839292 -0.2723616 4.964876 231.1883 77.25108

0.3046267 -0.1905981 -0.2688506 7.078233 233.1917 77.9666

0.3046267 -0.1905981 -0.2688506 8.942114 235.1782 78.6215

0.3081735 -0.1852557 -0.2685426 8.942101 235.1782 78.62151

0.3081072 -0.1855207 -0.2687073 10.53208 237.2849 79.23121

0.3052289 -0.1960456 -0.2644862 12.29864 239.7325 79.94885

0.3052289 -0.1960456 -0.2644862 13.99997 242.5864 80.95045

0.3052289 -0.1960456 -0.2644862 15.21398 245.7138 82.16727

0.3084235 -0.1906176 -0.2639194 15.21397 245.7138 82.16726

0.3084235 -0.1906176 -0.2639194 16.33123 248.8879 83.42061

0.3084235 -0.1906176 -0.2639194 17.36138 252.1511 84.86748

0.3084235 -0.1906176 -0.2639194 17.36138 252.1511 84.86748

0.3084235 -0.1906176 -0.2639194 17.36138 252.1511 84.86748

0.3084235 -0.1906176 -0.2639194 18.02814 255.4099 86.39841

0.3066846 -0.1995249 -0.2593223 18.64539 258.1465 87.26095

0.3066846 -0.1995249 -0.2593223 18.64539 258.1465 87.26095

0.3066846 -0.1995249 -0.2593223 19.3186 260.7675 88.04071

0.3095597 -0.1946546 -0.2596075 20.16855 263.0903 88.64144

0.3095597 -0.1946546 -0.2596075 20.16855 263.0903 88.64144

0.3095597 -0.1946546 -0.2596075 20.6014 265.3032 89.06516

0.3123988 -0.1890804 -0.2600443 20.60141 265.3032 89.06518

0.3123988 -0.1890804 -0.2600443 20.96592 267.3042 89.29

0.3100013 -0.1979036 -0.2563215 21.68089 269.0317 89.50679

0.3100013 -0.1979036 -0.2563215 21.68089 269.0317 89.50679

0.3104399 -0.195993 -0.2552529 22.20936 270.8182 90.00594

0.3131188 -0.1910539 -0.255725 22.46793 272.809 90.69036

0.3131188 -0.1910539 -0.255725 22.46793 272.809 90.69036

0.3131188 -0.1910539 -0.255725 22.51506 274.7835 91.25002

0.3068766 -0.1859697 -0.2594503 22.60223 276.6489 91.5319

0.3068766 -0.1859697 -0.2594503 22.60223 276.6489 91.5319

0.3093419 -0.1823562 -0.2590874 22.60223 276.6489 91.53188

0.3093419 -0.1823562 -0.2590874 22.55046 278.5582 91.94284

0.3109369 -0.1729705 -0.25326 22.55047 278.5582 91.94284

0.3128469 -0.1719086 -0.2516255 23.10676 280.1006 92.16208

0.3128469 -0.1719086 -0.2516255 23.8748 281.4939 92.10257

0.3128469 -0.1719086 -0.2516255 23.8748 281.4939 92.10257

0.3141004 -0.1611075 -0.2443643 24.89305 279.5743 89.22933

0.3141004 -0.1611075 -0.2443643 26.51879 280.0129 90.04515

0.3141004 -0.1611075 -0.2443643 26.51879 280.0129 90.04515

0.3131711 -0.1670142 -0.2415755 27.839 276.7998 87.59631

0.313562 -0.1608434 -0.2376286 29.2309 276.8277 86.42402

0.313562 -0.1608434 -0.2376286 29.2309 276.8277 86.42402

0.3163587 -0.1559616 -0.2371754 28.12215 274.8435 85.33809

0.313961 -0.1633823 -0.2353588 28.12214 274.8435 85.33808

0.3165755 -0.154309 -0.2317815 27.17362 274.3061 86.01368

0.3185844 -0.1496581 -0.2320784 27.67211 274.8737 86.40414

0.3185844 -0.1496581 -0.2320784 27.67211 274.8737 86.40414

0.3213575 -0.1519176 -0.2267252 26.77552 271.8243 85.15157

0.324543 -0.1515302 -0.2194637 26.53848 271.4409 86.75617

0.3280546 -0.1528315 -0.2132524 26.53848 271.4409 86.75615

0.3280546 -0.1528315 -0.2132524 26.53848 271.4409 86.75615

0.3332379 -0.151697 -0.2058989 26.90257 272.3196 86.51414

0.3387533 -0.1413538 -0.1952365 26.90258 272.3196 86.51413

0.3448903 -0.1363115 -0.1879411 26.13134 269.3842 85.08811

0.3448903 -0.1363115 -0.1879411 25.63186 266.2333 83.65895

0.3524946 -0.1312263 -0.1771419 25.63186 266.2333 83.65896

0.3605822 -0.1272657 -0.1621932 25.90825 262.5684 81.81141

0.3605822 -0.1272657 -0.1621932 27.59255 259.7354 79.91129

0.365702 -0.1306826 -0.1473323 27.59254 259.7354 79.91129

0.365702 -0.1306826 -0.1473323 29.57096 258.3445 78.30223

0.3733039 -0.1303713 -0.1303568 28.24177 256.0302 77.08142

0.3780286 -0.1314289 -0.1147441 28.24175 256.0302 77.08144

0.3780286 -0.1314289 -0.1147441 29.41153 256.2312 75.87916

0.3780286 -0.1314289 -0.1147441 27.92823 254.26 74.77052

0.3842717 -0.1422269 -0.09681865 27.92825 254.26 74.77052

0.3842717 -0.1422269 -0.09681865 26.64843 253.2466 74.99409

0.387924 -0.1417414 -0.08180096 26.64841 253.2466 74.99409

0.3896627 -0.1456073 -0.06502721 26.31952 253.6112 76.34869

0.3910084 -0.1502355 -0.06751055 26.31952 253.6112 76.34869

0.3924088 -0.1527088 -0.05207071 26.18003 254.4698 77.07304

0.3943605 -0.1519271 -0.03760185 26.18002 254.4698 77.07304

0.39478 -0.1533056 -0.03828518 24.8317 253.2445 76.3648

0.3955722 -0.154019 -0.02490825 24.69655 254.1297 76.98286

0.3955722 -0.154019 -0.02490825 24.69655 254.1297 76.98286

0.3990676 -0.1576975 -0.014325 23.8925 254.5074 77.3391

0.3990676 -0.1576975 -0.014325 23.67432 255.435 77.59635

0.3994969 -0.1572535 0.001486087 23.67431 255.435 77.59636

0.3994969 -0.1572535 0.001486087 23.00085 255.544 76.94949

0.3975402 -0.1737479 0.02236241 23.00086 255.544 76.9495

0.3975402 -0.1737479 0.02236241 22.81818 256.0481 76.24673

0.3974023 -0.1710882 0.03907521 22.70736 256.9733 77.08958

0.3955777 -0.1719138 0.05187103 22.70737 256.9733 77.08961

0.3982119 -0.1814121 0.04818224 21.91735 256.7456 77.82564

0.3946291 -0.1856162 0.06015896 21.96425 257.559 78.13528

0.3946291 -0.1856162 0.06015896 21.96425 257.559 78.13528

0.3946291 -0.1856162 0.06015896 21.35167 257.9422 78.69486

0.395798 -0.1987057 0.06512472 20.40299 257.14 79.859

0.3960335 -0.1950048 0.07424182 20.40299 257.14 79.859

0.3960335 -0.1950048 0.07424182 20.40299 257.14 79.859

0.4023767 -0.1790727 0.08004504 21.55824 257.6613 79.42521

0.3973348 -0.204749 0.0823226 21.55825 257.6613 79.42522

0.3973348 -0.204749 0.0823226 20.6274 256.7128 81.13881

0.3971356 -0.2083407 0.07383536 19.86543 257.0893 82.90144

0.3992959 -0.2053781 0.07040457 19.86542 257.0893 82.90144

0.4011815 -0.2170288 0.06477717 20.084 258.4012 83.03902

0.4011815 -0.2170288 0.06477717 20.084 258.4012 83.03902

0.4050951 -0.2039813 0.08083224 20.14682 258.128 81.59625

0.4005605 -0.2086255 0.09094419 21.59854 257.2708 84.12498

0.4014696 -0.2143555 0.08829263 23.7662 258.0649 84.55352

0.4025726 -0.2079737 0.0979994 23.76621 258.0649 84.55352

0.4025726 -0.2079737 0.0979994 23.34295 256.1758 85.63853

0.4012133 -0.2063188 0.1066875 25.31946 256.7152 86.14822

0.4026558 -0.2158324 0.1024244 25.31946 256.7152 86.14822

0.4035853 -0.2108701 0.1088976 26.75603 257.7418 86.86551

0.4035853 -0.2108701 0.1088976 25.40289 257.4372 88.58

0.4035853 -0.2108701 0.1088976 25.40289 257.4372 88.58

0.4009262 -0.2191844 0.1103998 25.40289 257.4372 88.58

0.4020495 -0.215433 0.1136508 26.45361 257.7657 87.73248

0.4020495 -0.215433 0.1136508 26.45361 257.7657 87.73248

0.4058797 -0.2140488 0.1020609 25.46889 255.5231 87.56801

0.4061923 -0.2169486 0.10077 25.16601 255.8636 86.09718

0.4003015 -0.225498 0.1054647 25.16601 255.8636 86.09718

0.4003015 -0.225498 0.1054647 24.63304 254.0248 87.12784

0.4014086 -0.2213114 0.1100266 25.67287 254.009 89.36137

0.3985996 -0.2290042 0.111707 25.67288 254.009 89.36138

0.4007471 -0.2231055 0.1158825 24.94635 253.2084 87.33295

0.4007471 -0.2231055 0.1158825 26.52634 253.7062 87.58389

0.3990041 -0.2252459 0.1177414 24.85846 254.2155 88.34872

0.4028422 -0.2171014 0.1258186 24.85845 254.2155 88.34871

0.4028422 -0.2171014 0.1258186 26.11384 254.831 88.523

0.3983063 -0.2248347 0.1266753 27.10443 254.4535 89.22749

0.3959044 -0.2237775 0.1357518 27.10442 254.4535 89.22749

0.3960504 -0.2255422 0.1350259 28.04061 253.4283 89.73056

0.3939398 -0.228503 0.1362168 27.69415 254.6049 88.17844

0.3972124 -0.2186423 0.1427411 27.69415 254.6049 88.17844

0.3972124 -0.2186423 0.1427411 27.40184 253.4396 89.70736

0.3940994 -0.2236404 0.1444429 27.97414 254.2341 88.2905

0.3944139 -0.2179391 0.1520964 27.97415 254.2341 88.2905

0.3944139 -0.2179391 0.1520964 27.97415 254.2341 88.2905

0.3914265 -0.2224793 0.1532363 26.68939 253.0443 88.11053

0.3914582 -0.2227721 0.1531139 26.68938 253.0443 88.11055

0.3946699 -0.209858 0.1628067 28.1671 253.2598 88.78867

0.3889171 -0.2183561 0.1654535 29.44741 253.3145 89.71479

0.3889171 -0.2183561 0.1654535 29.44741 253.3145 89.71479

0.3899928 -0.2138624 0.1684088 29.26305 253.5148 92.36143

0.3858255 -0.2212311 0.1684893 28.07384 253.8092 91.22209

0.3858255 -0.2212311 0.1684893 28.07384 253.8092 91.22209

0.3893636 -0.2140032 0.1696811 26.75863 254.1423 90.09674

0.389436 -0.2145966 0.1694586 27.64314 252.9783 89.11841

0.3882518 -0.2181832 0.1675857 27.64314 252.9783 89.11842

0.3930678 -0.2052686 0.1726002 25.9469 254.4225 91.2364

0.3900185 -0.2110984 0.1724859 26.2036 253.9534 90.68373

0.3900608 -0.2113926 0.1723703 25.13309 253.8789 92.7985

0.3900608 -0.2113926 0.1723703 25.13309 253.8789 92.7985

0.3804661 -0.2200175 0.1827116 22.16427 253.5964 91.21861

0.3876915 -0.2093932 0.1799877 20.70871 252.3718 91.43348

0.3876915 -0.2093932 0.1799877 20.70871 252.3718 91.43348

0.3829905 -0.2235553 0.1728785 20.83081 252.6977 90.06537

0.3912227 -0.2217729 0.1559081 20.83082 252.6977 90.06536

0.3911096 -0.2209044 0.1562934 19.3611 250.3791 88.55392

0.3875009 -0.2313066 0.1501113 19.3611 250.3791 88.55392

0.3846687 -0.2436477 0.1373275 19.64977 248.7692 87.35919

0.3841666 -0.2379087 0.140066 19.64976 248.7692 87.35919

0.3841666 -0.2379087 0.140066 17.18241 248.2097 87.43414

0.3841666 -0.2379087 0.140066 15.27562 248.5306 87.71741

0.3882867 -0.2378811 0.128254 15.2756 248.5306 87.71741

0.3839924 -0.2347501 0.1202592 15.27561 248.5306 87.71741

0.3815042 -0.2442607 0.1086801 14.15653 248.7029 88.17551

0.3810684 -0.2508419 0.09426186 12.89998 248.3416 88.59064

0.3810684 -0.2508419 0.09426186 11.19633 247.7111 88.24952

0.3728086 -0.2482115 0.08511094 11.19632 247.7111 88.24952

0.3775676 -0.2431413 0.07851159 9.122849 247.9038 87.13477

0.3829945 -0.2352392 0.07626777 6.81736 248.4215 86.42004

0.3829945 -0.2352392 0.07626777 4.330441 249.8576 85.55517

0.3852578 -0.2072008 0.08252018 4.330441 249.8576 85.55516

0.386376 -0.2050593 0.08264182 1.728659 251.5132 84.35436

0.386376 -0.2050593 0.08264182 1.728659 251.5132 84.35436

0.3881085 -0.2060655 0.07123319 2.453254 253.7962 84.06985

0.3836501 -0.1881598 0.07832738 0.1412894 253.8165 82.80263

0.3772145 -0.206166 0.06270187 0.1412707 253.8165 82.80264

0.3772145 -0.206166 0.06270187 0.1412707 253.8165 82.80264

0.3772145 -0.206166 0.06270187 0.6865273 254.6897 83.02522

0.3743782 -0.194055 0.05624664 358.0897 255.4102 82.13242

0.3735457 -0.1990884 0.04251529 358.0897 255.4102 82.13242

0.3735457 -0.1990884 0.04251529 357.045 256.1432 80.55713

0.3738884 -0.2003407 0.03242218 356.248 256.7766 79.70603

0.3701952 -0.1997676 0.02530061 356.248 256.7766 79.70602

0.3721017 -0.1970654 0.01724135 354.929 256.9996 79.79302

0.3721017 -0.1970654 0.01724135 354.929 256.9996 79.79302

0.3731187 -0.1957307 0.007980365 353.9258 257.2326 80.37653

0.3753361 -0.1894736 0.001413259 353.224 257.3 81.24641

0.3753361 -0.1894736 0.001413259 353.224 257.3 81.24641

0.3741233 -0.1896635 -0.004947352 352.8605 257.4804 82.80412

0.3735317 -0.1903628 -0.01418092 352.6565 257.7173 84.1885

0.3735317 -0.1903628 -0.01418092 352.6565 257.7173 84.1885

0.3735317 -0.1903628 -0.01418092 352.5092 258.1102 85.27338

0.3705395 -0.1848095 -0.02022697 352.5092 258.1102 85.27338

0.3705395 -0.1848095 -0.02022697 352.2833 258.8642 85.66895

0.3705435 -0.1826183 -0.03480277 352.2832 258.8642 85.66895

0.3705435 -0.1826183 -0.03480277 351.9707 259.5706 86.01311

0.375502 -0.1742874 -0.05280485 351.9707 259.5706 86.01311

0.3762424 -0.1664059 -0.0701205 353.1175 261.9557 86.92604

0.3762608 -0.1569278 -0.0892617 353.6756 264.3256 87.81385

0.3762608 -0.1569278 -0.0892617 353.6756 264.3256 87.81385

0.376925 -0.1548429 -0.1051463 353.8147 266.4142 88.45763

0.3723895 -0.1528768 -0.1227164 354.0295 268.567 89.15413

0.369218 -0.1465311 -0.1389651 354.0295 268.567 89.15413

0.369218 -0.1465311 -0.1389651 354.3835 270.4011 89.79391

0.3688345 -0.1363945 -0.1587847 354.3835 270.4011 89.7939

0.3688345 -0.1363945 -0.1587847 354.7651 272.3165 90.47124

0.3645605 -0.1305752 -0.1729181 355.0368 274.2804 91.05042

0.3645605 -0.1305752 -0.1729181 355.0368 274.2804 91.05042

0.3657159 -0.1391495 -0.1789106 355.2734 275.981 91.40437

0.3588418 -0.1370377 -0.1938373 355.6442 277.6614 91.84666

0.3556238 -0.1186014 -0.2111518 355.6442 277.6614 91.84666

0.3437576 -0.1209857 -0.22872 355.6442 277.6614 91.84666

0.3440679 -0.1335973 -0.2373891 355.9524 279.0038 92.15405

0.3392526 -0.1198083 -0.2512731 355.9523 279.0038 92.15405

0.3392526 -0.1198083 -0.2512731 356.1684 280.0455 92.35815

0.3288687 -0.1120817 -0.2680813 356.1684 280.0455 92.35815

0.3214496 -0.1133086 -0.2934455 356.2847 280.8544 92.49645

0.3214496 -0.1133086 -0.2934455 356.2847 280.8544 92.49645

0.3107091 -0.1113498 -0.3055159 356.2847 280.8544 92.49645

0.3029261 -0.1019086 -0.3164322 354.2498 280.918 91.76686

0.2980541 -0.1224508 -0.3313005 354.2498 280.918 91.76687

0.2917576 -0.109412 -0.3413166 351.203 280.8398 90.41691

0.2917576 -0.109412 -0.3413166 351.203 280.8398 90.41691

0.2856561 -0.09041052 -0.3518763 346.8613 281.0218 88.68148
