0.00223261 -5.722046E-08 -0.5102988 270.0198 -2.614683E-06 0

0.01099096 0.01512417 -0.5099574 272.3185 60.51165 298.8639

0.01099096 0.01512417 -0.5099574 272.3185 60.51165 298.8639

0.01099096 0.01512417 -0.5099574 272.3185 60.51165 298.8639

0.003193478 -0.003741817 -0.5102764 272.9362 48.98164 309.2557

0.005357805 -0.001030598 -0.5102708 272.3378 37.57132 319.4969

-0.006429547 -0.0004944419 -0.5101788 272.3378 37.57132 319.4969

-0.01025048 -0.007309341 -0.5100642 272.1859 64.51688 291.7982

-0.008608383 -0.004813156 -0.5101242 272.5309 51.09582 303.9193

-0.007086376 -0.003149643 -0.5101606 274.7621 40.03514 314.6198

-0.007086376 -0.003149643 -0.5101606 274.7621 40.03514 314.6198

-0.01518894 -0.008674964 -0.5099196 276.9892 37.77726 316.5814

-0.01159223 0.01119724 -0.5099649 279.1044 38.38739 315.8085

-0.01987094 -0.007064381 -0.5097835 281.154 37.35455 316.5151

-0.01892858 -0.007221908 -0.5098354 281.154 37.35453 316.5151

-0.01160545 0.01216965 -0.5099605 283.3134 34.30086 318.9455

-0.01431435 0.005425015 -0.510008 285.2894 35.8527 316.5593

-0.01440349 0.0209008 -0.5096059 286.962 33.93567 317.4208

-0.02098668 0.005410423 -0.5097773 286.962 33.93567 317.4208

-0.02098668 0.005410423 -0.5097773 286.5589 39.66176 311.1875

-0.01266234 0.02295158 -0.509564 287.4045 33.5668 316.3383

-0.0161093 0.005150299 -0.5099574 285.6177 37.15581 312.3509

-0.0161093 0.005150299 -0.5099574 285.6177 37.15581 312.3509

-0.00553428 0.01903496 -0.5098525 285.7515 32.69256 315.381

-0.01063339 -0.001868763 -0.5101235 286.3044 37.41421 309.7657

-0.0005775557 0.009179134 -0.5101548 286.381 29.62323 316.4921

0.0006048527 -0.004858761 -0.5102252 286.381 29.62321 316.4921

0.0006048527 -0.004858761 -0.5102252 284.1087 30.42314 315.123

0.01206126 0.006784 -0.510061 283.7765 36.70669 308.1108

0.002293449 -0.01401466 -0.5100511 283.8532 26.92471 316.8845

0.006072079 -0.01462337 -0.5100497 283.8532 26.92471 316.8845

0.01589929 -0.0002252769 -0.5100476 281.9097 23.83655 319.043

0.01589929 -0.0002252769 -0.5100476 281.9097 23.83655 319.043

0.006741803 -0.02086086 -0.5098243 280.3573 15.77512 325.724

0.006741803 -0.02086086 -0.5098243 280.3573 15.77512 325.724

0.009950195 -0.01738443 -0.5099022 278.2826 9.836493 330.2484

0.01930831 -0.03073385 -0.5089136 275.9525 352.009 346.1369

0.01750646 -0.03987797 -0.5083441 274.8472 350.2035 346.2177

0.0110069 -0.05143999 -0.5074872 274.8472 350.2034 346.2178

0.0110069 -0.05143999 -0.5074872 276.0407 309.7044 24.36779

0.05019506 -0.05323374 -0.5022255 276.8936 278.7124 52.95351

0.03629506 -0.05597689 -0.5031232 278.7516 266.9163 62.57124

0.03629506 -0.05597689 -0.5031232 278.7516 266.9163 62.57124

0.02444682 -0.06080023 -0.5032787 280.0394 255.6806 71.72895

0.07351297 -0.06769667 -0.4862733 282.2512 261.0244 64.97796

0.06225855 -0.0719137 -0.4872381 282.2512 261.0244 64.97793

0.06225855 -0.0719137 -0.4872381 282.6747 266.5783 59.0894

0.0504883 -0.07697307 -0.4878267 283.3683 275.8954 48.86

-0.0576834 -0.08996721 -0.4988329 283.3683 275.8954 48.86

-0.06182838 -0.1012762 -0.4961613 284.1837 283.3318 40.30298

-0.06182838 -0.1012762 -0.4961613 284.1837 283.3318 40.30298

-0.0641738 -0.1124833 -0.4934419 286.6807 287.6984 34.10716

0.1333862 -0.07315006 -0.4230732 288.3985 290.8987 28.50271

0.1333862 -0.07315006 -0.4230732 290.2626 292.8012 24.41631

0.131861 -0.07956382 -0.4223931 290.2626 292.8012 24.41631

0.1479008 -0.07795563 -0.4030889 291.0005 295.9915 19.95601

0.1479008 -0.07795563 -0.4030889 293.3242 297.184 17.44679

0.1484591 -0.08611073 -0.4012198 293.3242 297.184 17.4468

0.1712068 -0.06976793 -0.3645108 296.0079 295.8003 16.60955

0.1712068 -0.06976793 -0.3645108 296.0079 295.8003 16.60955

0.1726469 -0.07494996 -0.3627989 297.8933 296.0483 14.5763

0.1767454 -0.09099266 -0.3571118 297.8933 296.0483 14.57631

0.1872403 -0.07772432 -0.3301014 299.3147 294.5426 13.56003

0.1928801 -0.0901548 -0.3236299 299.3147 294.5427 13.56001

0.2001798 -0.1012994 -0.315806 300.4203 293.7665 11.9309

0.2001798 -0.1012994 -0.315806 301.0384 293.069 10.35095

0.2121565 -0.1017141 -0.2907059 301.0383 293.069 10.35095

0.2209522 -0.1124609 -0.2799978 301.2213 292.7415 8.454328

0.2209522 -0.1124609 -0.2799978 301.2027 293.3493 5.880926

0.230285 -0.1242599 -0.2671973 301.2027 293.3493 5.880932

0.2385326 -0.1355923 -0.2520742 300.8367 294.6362 2.761348

0.2385326 -0.1355923 -0.2520742 300.1632 296.304 359.5533

0.2449726 -0.1491735 -0.2378238 300.1632 296.304 359.5533

0.2509238 -0.1591145 -0.2248207 299.5336 297.7716 357.157

0.2506172 -0.167566 -0.2335006 299.5336 297.7716 357.157

0.2567181 -0.1761688 -0.2201596 299.5328 298.8881 355.6547

0.2567181 -0.1761688 -0.2201596 299.527 301.7984 353.5077

0.262379 -0.1870188 -0.2039389 298.9213 303.8868 353.0098

0.262379 -0.1870188 -0.2039389 298.9213 303.8868 353.0098

0.2652948 -0.1944814 -0.1928874 298.9213 303.8868 353.0098

0.2635795 -0.2143062 -0.2103264 298.6351 305.472 353.0311

0.2650985 -0.2239819 -0.1979732 298.6351 305.472 353.0311

0.266378 -0.2302738 -0.1888258 297.0819 306.7201 354.3788

0.266378 -0.2302738 -0.1888258 295.7194 307.2006 356.5069

0.2658625 -0.246567 -0.1929675 295.7194 307.2006 356.507

0.2692694 -0.251536 -0.1814888 294.6417 306.2018 0.1190701

0.2692694 -0.251536 -0.1814888 293.8177 305.3038 3.767328

0.278328 -0.2439372 -0.178165 293.8177 305.3038 3.76734

0.290179 -0.2486066 -0.1786252 293.1756 304.6432 7.336519

0.290179 -0.2486066 -0.1786252 293.1756 304.6432 7.336519

0.2884608 -0.2530451 -0.1751417 292.4967 303.6902 11.22195

0.2926161 -0.2520215 -0.1696378 291.7791 302.3848 15.43921

0.2902116 -0.2625311 -0.1770357 291.7791 302.3848 15.43922

0.2911049 -0.2626514 -0.175383 290.9117 300.2202 20.45469

0.2882695 -0.2688288 -0.1706421 290.2953 297.1536 26.43106

0.2882695 -0.2688288 -0.1706421 290.2953 297.1536 26.43106

0.2858442 -0.2770534 -0.1761763 290.0377 293.8212 32.6081

0.2884464 -0.2731288 -0.1780532 290.0377 293.8212 32.6081

0.2884464 -0.2731288 -0.1780532 289.9864 290.9427 38.37641

0.2939557 -0.2685328 -0.1760221 289.9864 290.9427 38.37635

0.2998995 -0.263878 -0.1756732 290.8692 289.8323 41.96915

0.2998995 -0.263878 -0.1756732 292.1017 286.6944 47.10497

0.3089305 -0.2541122 -0.1744173 292.1017 286.6944 47.10496

0.317749 -0.2438315 -0.1732459 293.4575 285.391 50.27776

0.3170401 -0.2473742 -0.1752802 293.4575 285.391 50.27776

0.3270699 -0.2335884 -0.1757648 294.9448 284.4063 52.91039

0.3308982 -0.2294656 -0.1740215 296.5037 283.662 55.25867

0.3308982 -0.2294656 -0.1740215 296.5037 283.662 55.25867

0.3369443 -0.223462 -0.1784734 298.0672 283.4788 57.17767

0.3369377 -0.2252895 -0.1761735 299.5241 282.5424 59.78713

0.3369377 -0.2252895 -0.1761735 299.5241 282.5424 59.78713

0.3395348 -0.2281449 -0.1672885 300.9207 281.7639 62.06934

0.3399103 -0.2253906 -0.1657246 300.9207 281.7639 62.06934

0.3399103 -0.2253906 -0.1657246 302.3048 281.1621 63.73215

0.3407345 -0.2259563 -0.1632433 303.5168 280.9037 64.70379

0.3511215 -0.213084 -0.1584723 304.7295 280.1431 65.73269

0.3515757 -0.204668 -0.1539437 304.7295 280.1431 65.7327

0.3571437 -0.2005779 -0.1463217 304.7295 280.1431 65.73269

0.3661761 -0.19587 -0.1293951 305.8625 279.4125 66.89453

0.3661761 -0.19587 -0.1293951 305.8625 279.4125 66.89453

0.3649962 -0.1877006 -0.114749 306.4252 277.6449 68.63792

0.366603 -0.1913895 -0.1029242 306.4252 277.6449 68.63792

0.366603 -0.1913895 -0.1029242 305.2685 277.0614 69.48701

0.3698926 -0.1791051 -0.09323398 306.3223 279.5733 65.70348

0.3698926 -0.1791051 -0.09323398 305.2961 278.3862 66.94435

0.3738545 -0.1761707 -0.08239192 305.2961 278.3862 66.94435

0.3748915 -0.1623983 -0.06794208 306.7914 279.3557 63.67894

0.3748915 -0.1623983 -0.06794208 308.0712 280.5459 61.17385

0.3774717 -0.1605229 -0.05727569 308.0712 280.5459 61.17386

0.3833327 -0.1515308 -0.04034094 305.4549 279.3315 61.17388

0.3808063 -0.1442782 -0.03721396 305.4549 279.3315 61.17388

0.3817264 -0.1445147 -0.02479752 305.2347 280.9864 58.61608

0.3817264 -0.1445147 -0.02479752 304.2133 282.0305 56.14792

0.3820912 -0.1451184 -0.01270695 304.2133 282.0305 56.14794

0.3812167 -0.1428588 -0.01190708 303.6712 282.9832 53.50309

0.3798374 -0.1468335 0.00633213 303.6712 282.9832 53.50311

0.3756265 -0.1553077 0.02570679 303.5162 283.5329 51.99346

0.3756265 -0.1553077 0.02570679 303.5162 283.5329 51.99346

0.3747429 -0.1616965 0.04247075 300.4402 281.6973 52.47715

0.3683711 -0.170106 0.06122443 297.6693 280.1357 53.15584

0.3704641 -0.1762583 0.05960326 297.6693 280.1357 53.15586

0.3693464 -0.1726853 0.07500798 295.098 277.9742 54.68954

0.3693464 -0.1726853 0.07500798 295.098 277.9742 54.68954

0.3693464 -0.1726853 0.07500798 293.0293 275.4659 57.07404

0.3698411 -0.1807991 0.08737166 291.568 273.2775 59.33885

0.3644895 -0.1850879 0.09997221 290.6517 271.9013 60.81224

0.3644895 -0.1850879 0.09997221 290.6517 271.9013 60.81224

0.3565291 -0.1945654 0.1101628 289.3984 271.2519 61.72926

0.3594818 -0.2056537 0.1074117 289.3984 271.2519 61.72926

0.3535903 -0.2109374 0.1163494 288.8354 270.694 62.93748

0.3559319 -0.2047787 0.1201499 288.329 269.6089 64.8167

0.3544406 -0.206671 0.121313 288.329 269.6089 64.8167

0.3572953 -0.2189637 0.1178922 287.6023 269.0974 66.12922

0.3586505 -0.2129513 0.1246 287.6023 269.0975 66.12919

0.3624452 -0.2092095 0.1198686 286.8238 269.2316 66.86029

0.3624452 -0.2092095 0.1198686 286.8238 269.2316 66.86029

0.3655426 -0.2254758 0.1151439 286.3593 269.7099 67.24155

0.3644151 -0.2281114 0.1135149 284.8816 270.1404 67.90364

0.3642479 -0.2264099 0.117392 284.8816 270.1404 67.9036

0.3642479 -0.2264099 0.117392 283.8226 271.3276 67.95929

0.3658566 -0.2374681 0.1136017 283.2998 273.2042 67.3958

0.3651927 -0.2376366 0.1153717 283.2998 273.2042 67.3958

0.3683357 -0.2337189 0.1133657 283.4997 275.9565 66.05697

0.3681646 -0.2334197 0.1145315 283.4997 275.9565 66.05697

0.3694085 -0.2428273 0.1107759 283.8234 278.829 64.76923

0.3694085 -0.2428273 0.1107759 284.7191 281.1738 63.96914

0.3749194 -0.2333536 0.1126082 285.7201 283.1633 63.51073

0.3749194 -0.2333536 0.1126082 285.7201 283.1633 63.51073

0.3756047 -0.2395607 0.1101872 286.5696 284.6812 63.66613

0.3842185 -0.2276062 0.1057405 286.5696 284.6811 63.66616

0.377333 -0.2376202 0.1084707 287.4041 286.3758 63.67826

0.3836773 -0.2215788 0.1195996 288.4211 288.6826 62.81069

0.3846666 -0.2292526 0.1166172 288.4211 288.6826 62.81066

0.3819388 -0.2230051 0.1360741 288.3201 291.6042 61.48443

0.3738324 -0.2289744 0.1481378 288.3201 291.6042 61.48445

0.3752418 -0.2216959 0.1554649 288.7643 289.8011 65.18867

0.373587 -0.2348934 0.1555925 288.7643 289.8011 65.18864

0.373587 -0.2348934 0.1555925 286.8803 283.6944 70.93599

0.3701527 -0.2322114 0.1673802 287.5952 277.7357 76.28617

0.3701527 -0.2322114 0.1673802 287.5952 277.7357 76.28617

0.3694815 -0.238171 0.1665224 289.6303 274.3952 79.33191

0.3694815 -0.238171 0.1665224 287.6855 272.1393 82.15597

0.3689834 -0.2377718 0.1681889 287.6855 272.1393 82.15597

0.3752185 -0.2251986 0.1716637 287.1768 267.3842 88.27502

0.3757584 -0.2286909 0.1701939 287.1768 267.3842 88.27502

0.3665121 -0.2432414 0.1701832 288.7944 272.1337 83.58102

0.3724373 -0.2338804 0.1704413 286.8299 268.5459 86.36972

0.3724373 -0.2338804 0.1704413 288.4507 273.0536 81.39119

0.3726812 -0.2317532 0.1717242 288.4507 273.0536 81.39119

0.3761864 -0.2251045 0.1729212 286.0614 271.4203 83.35123

0.3761864 -0.2251045 0.1729212 286.0743 278.9241 76.72291

0.3770819 -0.222178 0.1747459 286.0743 278.9241 76.72292

0.3760571 -0.2222325 0.1758196 283.9273 276.547 79.76749

0.3735068 -0.2285804 0.1730964 285.4673 283.4438 73.10054

0.3735068 -0.2285804 0.1730964 285.4673 283.4438 73.10054

0.3713067 -0.2309458 0.1746828 284.6087 282.6271 74.11076

0.3690985 -0.2312394 0.1743199 284.5002 282.5487 74.27551

0.3690985 -0.2312394 0.1743199 284.5002 282.5487 74.27551

0.3690985 -0.2312394 0.1743199 285.7217 280.9946 75.33793

0.373725 -0.2224576 0.1758837 285.7217 280.9946 75.33794

0.3706214 -0.2257341 0.1739301 284.9099 278.2067 77.7561

0.3706214 -0.2257341 0.1739301 284.9099 278.2067 77.7561

0.3690895 -0.2278745 0.1743959 284.9307 288.5115 66.87844

0.3690895 -0.2278745 0.1743959 283.7858 298.1435 56.26995

0.3686829 -0.2150285 0.1772741 283.7858 298.1435 56.26993

0.3686829 -0.2150285 0.1772741 282.1187 304.7928 49.51389

0.3669849 -0.2213978 0.1729035 282.1188 304.7929 49.51386

0.3669849 -0.2213978 0.1729035 282.9951 302.7287 53.2626

0.363882 -0.205541 0.1778606 281.3711 309.6295 46.09537

0.3607596 -0.2157811 0.1719958 281.3711 309.6296 46.09533

0.3625929 -0.2182302 0.1649045 282.3062 303.4652 52.2854

0.3625929 -0.2182302 0.1649045 283.0505 315.1977 39.19268

0.3557471 -0.2128404 0.1612786 285.2239 314.556 38.24839

0.360932 -0.2095273 0.1539292 285.2239 314.556 38.24837

0.3544283 -0.2263374 0.144982 284.4425 321.6357 30.17411

0.3565584 -0.2268167 0.1388815 283.5841 320.2084 33.13796

0.3513971 -0.2043842 0.1453531 283.5841 320.2084 33.13798

0.344828 -0.2152871 0.1453461 285.5811 331.6518 22.02861

0.346025 -0.2171517 0.1396144 286.3897 342.369 11.49304

0.346025 -0.2171517 0.1396144 286.3897 342.369 11.49304

0.3365494 -0.2122316 0.1359106 288.6961 347.287 6.352551

0.334813 -0.2192299 0.1289103 288.1769 352.7308 0.8710832

0.334813 -0.2192299 0.1289103 288.1769 352.7308 0.8710832

0.334813 -0.2192299 0.1289103 288.1769 352.7308 0.8710832

0.3290054 -0.2002497 0.1265782 289.7497 346.4072 7.380342

0.3290054 -0.2002497 0.1265782 289.2113 341.8762 12.50212

0.3236511 -0.199165 0.1155542 289.2113 341.8762 12.50211

0.3163013 -0.2135475 0.1100932 289.1141 338.2291 16.84225

0.3163013 -0.2135475 0.1100932 289.0491 335.7204 20.50737

0.3163013 -0.2135475 0.1100932 289.0491 335.7204 20.50737

0.3119629 -0.1904836 0.1037658 289.5187 332.9592 23.81588

0.3106138 -0.1982257 0.09272454 289.5187 332.9591 23.81589

0.3141836 -0.1947505 0.08793771 290.7803 330.2221 26.73018

0.3049672 -0.1726252 0.09148733 291.9805 328.7869 27.92369

0.3046859 -0.173872 0.09005238 291.9805 328.7869 27.92368

0.3036899 -0.176814 0.08765636 293.6056 329.0401 27.33174

0.3036899 -0.176814 0.08765636 294.7914 330.1149 25.81476

0.3062508 -0.1773065 0.07711819 294.7914 330.1149 25.81476

0.2970678 -0.1652571 0.06830981 296.4298 331.6799 24.06491

0.2970678 -0.1652571 0.06830981 297.3423 333.6808 21.82161

0.2969691 -0.1539827 0.05897082 299.007 336.3699 19.01465

0.2970363 -0.1572031 0.04935123 299.007 336.3699 19.01466

0.2970363 -0.1572031 0.04935123 301.2502 339.475 16.15295

0.2970363 -0.1572031 0.04935123 301.2502 339.475 16.15295

0.2935401 -0.145472 0.04686122 301.6581 343.3424 12.6908

0.2904544 -0.1559768 0.02883329 301.6581 343.3424 12.69082

0.2904544 -0.1559768 0.02883329 301.6581 343.3424 12.69082

0.291606 -0.1563668 0.006258201 301.9976 343.8869 12.53826

0.2890878 -0.1504482 -0.007999063 305.1884 344.7927 14.07808

0.2890878 -0.1504482 -0.007999063 305.1533 346.2524 13.32872

0.2890878 -0.1504482 -0.007999063 305.1533 346.2524 13.32872

0.2890878 -0.1504482 -0.007999063 307.4792 348.257 12.85739

0.2869164 -0.1525806 -0.02231153 308.1826 352.287 10.0549

0.2869164 -0.1525806 -0.02231153 308.1826 352.287 10.0549

0.2869164 -0.1525806 -0.02231153 310.3261 354.2159 10.3565

0.2879362 -0.1496573 -0.02819705 310.3677 353.7436 14.02908

0.293317 -0.1484314 -0.04630166 310.3677 353.7436 14.02908

0.293317 -0.1484314 -0.04630166 308.6674 356.6344 13.15319

0.293705 -0.142059 -0.06137786 308.5816 356.7527 15.38658

0.293705 -0.142059 -0.06137786 308.5816 356.7527 15.38658

0.3010649 -0.1472202 -0.08077734 307.4622 1.350869 12.92431

0.2979464 -0.1447125 -0.09552556 307.1962 5.69062 10.7111

0.298568 -0.1334948 -0.1089731 307.1962 5.690618 10.7111

0.3067283 -0.1532684 -0.1210157 307.1962 5.690618 10.7111

0.3032756 -0.1472407 -0.1362435 307.8935 7.417499 10.29474

0.3024119 -0.1331851 -0.1517465 307.8935 7.417486 10.29476

0.3044238 -0.1339639 -0.1779719 306.3632 5.336589 15.13726

0.3044238 -0.1339639 -0.1779719 305.0207 5.223967 17.76145

0.30111 -0.1185646 -0.1938282 305.0208 5.223972 17.76145

0.2967731 -0.09983605 -0.2103631 303.7676 5.994635 19.71336

0.2967731 -0.09983605 -0.2103631 302.3813 4.60465 22.84401

0.2893953 -0.0980975 -0.2211819 302.3813 4.604649 22.84402

0.2854892 -0.1332745 -0.2691317 300.5345 7.428563 21.66562

0.2838103 -0.1119738 -0.2803776 298.2356 10.59185 20.47835

0.2838103 -0.1119738 -0.2803776 298.2356 10.59185 20.47835

0.2673986 -0.1448211 -0.3109951 296.7046 10.16987 22.55155

0.2673986 -0.1448211 -0.3109951 296.7046 10.16987 22.55155

0.264315 -0.1347786 -0.3180651 295.4926 8.763584 24.97488

0.264315 -0.1347786 -0.3180651 294.2891 9.220776 25.06929

0.2522722 -0.1443019 -0.3396009 294.2891 9.220763 25.06931

0.2491886 -0.1345964 -0.3458061 293.0386 11.13404 23.91432

0.2459929 -0.1228673 -0.3523977 292.4774 10.81343 24.67578

0.227707 -0.147852 -0.3794167 292.4774 10.81342 24.67579

0.2177777 -0.1474991 -0.385337 292.1979 10.76231 25.11451

0.223989 -0.1228243 -0.3903982 292.198 10.76232 25.1145

0.205935 -0.121507 -0.4186084 290.683 15.40453 20.36982

0.205935 -0.121507 -0.4186084 290.1558 19.88889 15.49659

0.2044546 -0.09709954 -0.425648 290.1558 19.88891 15.49658

0.1948457 -0.103085 -0.4287363 289.0273 27.69865 7.901276

0.170197 -0.1201192 -0.4469286 287.9754 33.16397 2.585397

0.1656659 -0.1055139 -0.4522858 287.9754 33.16397 2.585413

0.1544824 -0.1092695 -0.4553418 288.4171 32.06602 3.758124

0.1544824 -0.1092695 -0.4553418 287.2369 38.8487 357.1783

0.1253276 -0.1022448 -0.4735927 287.2369 38.84872 357.1783

0.1082668 -0.09351519 -0.4795668 288.3953 39.63345 356.2074

0.1082668 -0.09351519 -0.4795668 286.8638 41.80895 353.7775

0.1048005 -0.06984334 -0.4843448 286.8638 41.80894 353.7775

0.06590166 -0.07909412 -0.4944243 286.1602 40.95248 354.5719

0.06590166 -0.07909412 -0.4944243 286.5734 47.22429 348.8821

0.06862381 -0.05541132 -0.4972672 286.5734 47.2243 348.8821

0.06862381 -0.05541132 -0.4972672 286.5734 47.2243 348.8821

0.04532676 -0.06120815 -0.502391 287.0717 42.94611 353.6142

0.05085801 -0.04139202 -0.5038828 286.0688 43.35043 353.2585

0.05449062 -0.0276313 -0.5044453 286.0688 43.35044 353.2585

0.04423544 -0.02911692 -0.506286 286.0688 43.35043 353.2585

0.0407332 -0.02354833 -0.5068692 286.083 43.36541 353.1667

0.03298287 -0.0141536 -0.5077813 286.083 43.36541 353.1667

0.01841201 -0.01476374 -0.5093645 286.0869 43.37042 353.0847

0.004987858 -0.01693039 -0.5096055 286.0869 43.37042 353.0847

0.001091172 -0.01174736 -0.5097744 286.0869 43.37042 353.0847

0.001091172 -0.01174736 -0.5097744 286.0869 43.37042 353.0847

-0.0145879 -0.005509643 -0.509712 286.0869 43.37043 353.0847

-0.0200836 -0.0001625633 -0.5095547 286.0881 43.37886 352.9984

-0.02313043 0.004337997 -0.5094071 285.2726 48.24401 348.1722

-0.02313043 0.004337997 -0.5094071 285.2726 48.24401 348.1722

-0.02194247 0.01568733 -0.5092366 285.5594 47.6557 348.3089

-0.03182523 0.0009272003 -0.5089556 285.6164 47.57885 347.9301

-0.03246265 0.0009466552 -0.5089405 286.0693 55.5851 339.4192

-0.02462678 0.01896183 -0.5090276 286.0693 55.58509 339.4192

-0.0289246 0.005114364 -0.509129 286.6669 62.90726 331.6324

-0.0289246 0.005114364 -0.509129 288.0646 67.69285 326.7728

-0.02398304 0.02208029 -0.5089201 289.796 68.48202 325.7859

-0.03214097 0.005278645 -0.5089219 289.796 68.48203 325.7859

-0.03214097 0.005278645 -0.5089219 291.5736 74.39621 320.0277

-0.03214097 0.005278645 -0.5089219 294.1137 77.08873 317.7407

-0.02913844 0.02331968 -0.5086443 295.895 78.70452 316.5909

-0.03108601 0.01184515 -0.5089256 295.8949 78.70452 316.5909

-0.03108601 0.01184515 -0.5089256 297.1831 77.50577 318.2574

-0.03586548 0.002276745 -0.5087439 295.3991 77.37502 317.7096

-0.03247986 0.006916237 -0.5089409 297.245 78.9123 316.3991

-0.03247986 0.006916237 -0.5089409 297.245 78.9123 316.3991

-0.0275686 0.01119753 -0.5091544 297.6319 80.9161 314.4185

-0.01783393 0.02242624 -0.5092177 297.1806 79.74808 315.3436

-0.01846799 0.02249611 -0.5092145 296.2227 76.23479 318.3009

-0.02418072 0.009503803 -0.5093834 296.2227 76.23479 318.3009
