0.01650824 -5.722046E-08 -0.509735 270 -2.561321E-06 0

0.03239601 0.0133326 -0.5087976 270 -2.844645E-06 0

0.03239601 0.0133326 -0.5087976 272.278 2.359959 357.4095

0.01722287 0.0007111359 -0.5097109 274.2444 2.29756 358.0402

0.03210449 0.01464947 -0.508787 274.2444 2.297561 358.0402

0.01645926 0.001993275 -0.5097397 272.0517 7.38062 353.3572

0.01645926 0.001993275 -0.5097397 274.0377 20.76645 340.1425

0.03068598 0.0151351 -0.5088603 274.0377 20.76644 340.1425

0.01566835 0.002961788 -0.5097505 271.9798 35.51541 325.9568

0.01566835 0.002961788 -0.5097505 271.9798 35.51541 325.9568

0.03067143 0.01670792 -0.5088025 273.9313 13.14406 348.0957

0.0158157 0.00410059 -0.5097381 271.6742 27.36422 334.1261

0.03065795 0.01637495 -0.5088141 273.9041 21.8608 339.2766

0.03065795 0.01637495 -0.5088141 273.9041 21.8608 339.2766

0.01622754 0.003817119 -0.5097274 271.7058 33.29646 328.1198

0.0320009 0.01651897 -0.5087267 273.609 6.466251 354.8139

0.01904182 0.004709015 -0.5096225 271.3136 11.94111 349.6573

0.01904182 0.004709015 -0.5096225 271.3136 11.94111 349.6573

0.03343186 0.0176996 -0.508595 273.4415 353.671 7.696141

0.01787025 0.005024014 -0.5096619 271.2001 358.469 3.103559

0.03273042 0.01893207 -0.5085963 273.315 13.96295 347.3228

0.03273042 0.01893207 -0.5085963 273.315 13.96295 347.3228

0.01692475 0.006484737 -0.5096777 271.3412 342.7919 18.87692

0.03061035 0.0182674 -0.5087526 273.4474 0.1070215 1.397125

0.01853631 0.006255512 -0.5096245 271.3018 16.91856 344.903

0.01853631 0.006255512 -0.5096245 271.3018 16.91856 344.903

0.03459021 0.01841532 -0.5084921 273.5237 358.9139 2.828365

0.01934078 0.004853439 -0.5096099 271.3209 340.2094 21.81732

0.03296568 0.01619888 -0.5086778 273.484 354.2319 7.6255

0.03296568 0.01619888 -0.5086778 273.484 354.2319 7.6255

0.01852279 0.002056789 -0.5096616 271.2009 348.9217 13.25491

0.03416169 0.01395916 -0.5086653 273.4034 1.20096 0.8372633

0.01962637 9.796143E-05 -0.5096315 271.1406 12.85988 349.3892

0.01962637 9.796143E-05 -0.5096315 271.1406 12.85988 349.3892

0.0304955 0.0125144 -0.5089429 273.3203 4.084131 357.9695

0.01402411 0.000282383 -0.5098163 271.007 357.4446 4.783982

0.02807598 0.01448999 -0.5090203 273.1368 10.93976 350.9948

0.02807598 0.01448999 -0.5090203 273.1368 10.93976 350.9948

0.01190561 0.002182217 -0.5098562 271.0132 38.83513 323.3575

0.02699384 0.01523443 -0.509057 273.0983 9.697395 352.3837

0.01178123 0.002452812 -0.5098578 271.0868 44.55238 317.824

0.01178123 0.002452812 -0.5098578 271.0868 44.55238 317.824

0.02717236 0.01534298 -0.5090443 273.0787 12.59988 349.6653

0.01208831 0.001683083 -0.5098538 270.813 358.0886 4.52685

0.02720165 0.01520176 -0.5090517 273.0945 3.061146 359.5082

0.02720165 0.01520176 -0.5090517 273.0945 3.061146 359.5082

0.01111869 0.002880135 -0.5098752 270.9384 12.87948 350.2549

0.02538482 0.01651617 -0.5091046 273.0941 350.9434 12.09881

0.0118929 0.003627205 -0.5098693 270.9498 327.9353 35.69358

0.0118929 0.003627205 -0.5098693 270.9498 327.9353 35.69358

0.02652629 0.01582895 -0.5090846 273.0389 354.1599 9.323828

0.0120679 0.00125679 -0.5098765 271.0879 333.8032 30.36418

0.02811012 0.01404007 -0.5090428 273.2045 356.7321 7.261865

0.02811012 0.01404007 -0.5090428 273.2045 356.7321 7.261865

0.01475857 0.00210577 -0.5097937 271.0965 21.75732 342.5192

0.03038222 0.01516108 -0.5088801 273.2345 356.6086 7.508475

0.01655966 0.002233486 -0.5097355 271.4754 321.0457 43.3607

0.01655966 0.002233486 -0.5097355 271.4754 321.0457 43.3607

0.03269853 0.01514814 -0.5087345 273.6089 340.5084 23.6163

0.01936255 0.001947498 -0.509638 272.0959 303.9547 60.16219

0.01961697 0.001949787 -0.5096187 273.7727 335.1957 28.43553

0.03607295 0.01425362 -0.5085228 273.7727 335.1957 28.43553

0.02200398 0.0001225662 -0.5095249 272.5396 302.2468 61.49223

0.03815065 0.01241215 -0.5084195 274.7763 318.7994 44.50964

0.03827742 0.01241278 -0.5084051 274.7763 318.7994 44.50963

0.02738492 0.002417564 -0.5092536 274.2438 292.7677 70.51019

0.04166883 0.01341837 -0.5081128 276.0168 310.1587 52.4816

0.02739241 0.002589168 -0.5092523 276.6566 291.1459 71.13284

0.02840687 0.002529716 -0.5091575 276.6566 291.1459 71.13284

0.04326989 0.01501053 -0.5078948 278.8878 301.1759 60.30709

0.04326989 0.01501053 -0.5078948 279.7768 288.6439 72.34129

0.02581955 0.003029995 -0.5092925 282.2471 293.0747 67.30068

0.03126308 0.002639008 -0.5087363 282.2471 293.0747 67.30069

0.04133666 0.0132336 -0.5078516 283.3591 285.4754 74.51048

0.02357833 0.0009928894 -0.5091563 285.3763 290.1612 69.4479

0.0335441 0.01118048 -0.508475 285.6619 286.1192 72.72477

0.03427176 0.011147 -0.5083883 285.6619 286.1192 72.72478

0.01742038 -0.001624718 -0.5093637 285.9287 284.3199 74.11434

0.01742038 -0.001624718 -0.5093637 286.1505 291.6426 65.31687

0.03027507 0.01082972 -0.5086488 285.8949 298.5078 57.38036

0.1380882 0.005405188 -0.468356 285.8949 298.5078 57.38036

0.1380882 0.005405188 -0.468356 285.6941 305.9575 48.86411

0.1380882 0.005405188 -0.468356 284.8257 313.4943 40.22695

0.1224441 -0.007676754 -0.4726557 284.8257 313.4943 40.22696

0.1581973 -0.009510783 -0.4445094 284.8285 322.8696 29.87064

0.1581973 -0.009510783 -0.4445094 284.9176 332.8929 18.78595

0.1581973 -0.009510783 -0.4445094 285.7581 341.691 8.779555

0.1690279 0.00194252 -0.4406033 285.7581 341.691 8.779558

0.1935552 0.0001866817 -0.4117442 286.3217 348.219 0.6938065

0.1935552 0.0001866817 -0.4117442 287.2347 353.7365 354.106

0.1773468 -0.01097237 -0.4188373 287.8476 0.0928385 346.8695

0.1773468 -0.01097237 -0.4188373 287.8476 0.0928385 346.8695

0.2051217 -0.001746054 -0.3859683 289.5551 3.389188 342.2109

0.1924706 -0.001813974 -0.39243 289.5551 3.389187 342.2109

0.2014321 0.005175361 -0.3878761 290.8469 7.241331 337.1846

0.2014321 0.005175361 -0.3878761 290.8469 7.241331 337.1846

0.199628 -0.005791941 -0.3697726 292.0542 12.10241 331.4383

0.1957233 -0.02130155 -0.3712887 293.2076 16.91109 325.5512

0.2071512 -0.02320476 -0.3649199 293.2076 16.91108 325.5512

0.2071512 -0.02320476 -0.3649199 294.1829 22.09594 319.2425

0.2139864 -0.0420839 -0.3380502 295.1063 26.78146 313.4736

0.2226293 -0.03854628 -0.3328506 295.1063 26.78147 313.4736

0.217325 -0.06033237 -0.3331201 295.8807 31.54082 307.8484

0.217325 -0.06033237 -0.3331201 295.8807 31.54082 307.8484

0.2184244 -0.07979716 -0.309545 296.4538 34.937 303.9955

0.2154064 -0.09939668 -0.305966 296.7967 39.33113 299.3506

0.2154064 -0.09939668 -0.305966 296.7967 39.33113 299.3506

0.2107404 -0.1218353 -0.3010639 296.743 40.78189 298.2234

0.2220593 -0.1343379 -0.2740628 297.1866 45.03501 294.076

0.2220593 -0.1343379 -0.2740628 297.5629 48.29771 291.6404

0.2144829 -0.1534822 -0.2700143 297.5629 48.29771 291.6404

0.2198045 -0.1700842 -0.2553915 297.2447 49.43243 291.7188

0.2139227 -0.1893442 -0.2391868 297.2447 49.43243 291.7188

0.2139227 -0.1893442 -0.2391868 297.1228 50.22089 292.0135

0.2205539 -0.1939357 -0.2292801 297.1227 50.22093 292.0134

0.2110252 -0.2110361 -0.2230619 297.1227 50.22092 292.0134

0.2109373 -0.211601 -0.2245506 294.9642 57.46224 285.9903

0.2000541 -0.2284044 -0.2179502 292.8818 64.05883 280.8123

0.2036149 -0.2326556 -0.2100115 292.8818 64.05882 280.8123

0.2036149 -0.2326556 -0.2100115 291.1886 67.07665 279.4947

0.2031786 -0.2350984 -0.2158879 290.4146 73.13758 275.1984

0.1924484 -0.2468163 -0.2126164 289.4234 76.58583 274.2009

0.1924484 -0.2468163 -0.2126164 289.4234 76.58583 274.2009

0.1801678 -0.2573895 -0.2108331 288.8653 82.65298 270.5806

0.1779656 -0.259968 -0.2156396 287.3763 86.70982 269.0783

0.1779656 -0.259968 -0.2156396 287.3763 86.70982 269.0783

0.1653809 -0.268786 -0.2148461 286.3394 89.38064 268.4902

0.1731792 -0.2636608 -0.2150523 285.5715 93.26207 266.7722

0.1645046 -0.2724776 -0.219647 284.8862 96.44887 265.9903

0.1645046 -0.2724776 -0.219647 284.8862 96.44887 265.9903

0.1704283 -0.2670622 -0.2217716 284.0451 100.7312 264.2304

0.1704283 -0.2670622 -0.2217716 282.9404 106.5474 261.0439

0.1589605 -0.2731828 -0.2255164 282.2315 110.947 259.0029

0.1709197 -0.268097 -0.2228572 282.2315 110.947 259.0029

0.1586884 -0.2781565 -0.2195492 281.6947 114.2967 258.0221

0.1586884 -0.2781565 -0.2195492 281.3999 119.1161 255.5813

0.1659586 -0.2753 -0.2216749 281.3998 119.1161 255.5814

0.1545496 -0.2850871 -0.2175131 280.7893 125.5197 251.423

0.1630794 -0.2794339 -0.2186183 280.7892 125.5197 251.423

0.1604977 -0.2808794 -0.2186764 280.1701 136.5914 241.8379

0.1596982 -0.282224 -0.2218168 279.614 144.5722 235.4549

0.1675291 -0.2763097 -0.2234806 279.6141 144.5722 235.4549

0.1602928 -0.2820417 -0.2216198 279.9347 151.399 230.1242

0.1602928 -0.2820417 -0.2216198 279.9347 151.399 230.1242

0.1646251 -0.2793304 -0.2222629 280.0612 154.9029 228.2616

0.1531224 -0.2871986 -0.22045 280.639 157.4386 227.4311

0.1569451 -0.2837291 -0.222247 280.2701 162.675 224.0914

0.1569451 -0.2837291 -0.222247 280.2701 162.675 224.0914

0.1525065 -0.2880283 -0.2194039 280.2554 169.0812 219.7032

0.162882 -0.2821016 -0.2196469 279.9522 170.0512 220.6858

0.16251 -0.2850067 -0.2161442 279.9522 170.0512 220.6858

0.1675446 -0.2826994 -0.2153288 280.0835 165.8134 226.8109

0.1676075 -0.2825792 -0.2150401 280.6635 163.949 230.461

0.1584252 -0.2890907 -0.2133391 280.6635 163.949 230.4611

0.156199 -0.2883966 -0.2159046 280.7697 169.1386 227.2884

0.156199 -0.2883966 -0.2159046 280.2024 185.7029 211.196

0.1476463 -0.2933192 -0.2172672 280.2024 185.7029 211.196

0.1586606 -0.2855947 -0.2197798 279.9763 197.4015 199.2368

0.157653 -0.2876054 -0.2178745 281.0154 211.0111 185.9368

0.157653 -0.2876054 -0.2178745 281.0154 211.0111 185.9368

0.1697249 -0.2812356 -0.2217845 282.675 223.0827 174.9675

0.1581928 -0.2891901 -0.2200739 281.1275 230.0121 168.8422

0.1656793 -0.2843428 -0.2208799 282.6284 233.0054 165.2893

0.1656793 -0.2843428 -0.2208799 282.6284 233.0054 165.2893

0.1587129 -0.2917179 -0.2213819 281.1594 241.0284 157.9976

0.1676474 -0.2863929 -0.221749 281.1594 241.0284 157.9977

0.1603955 -0.2933911 -0.2179313 282.2547 233.6299 165.3642

0.1603955 -0.2933911 -0.2179313 280.5375 237.833 161.4695

0.1626437 -0.2906658 -0.2233495 280.5375 237.8331 161.4695

0.1493507 -0.2967259 -0.2246612 280.9389 242.8486 157.9224

0.1493507 -0.2967259 -0.2246612 280.6703 252.7416 148.5554

0.1551348 -0.2903282 -0.2290575 280.6703 252.7415 148.5554

0.1478233 -0.2950201 -0.2344645 279.5706 256.7137 145.7555

0.15906 -0.2878091 -0.2360677 279.5706 256.7137 145.7555

0.15906 -0.2878091 -0.2360677 277.7551 247.5474 155.0188

0.1572807 -0.2909104 -0.2334439 276.5444 250.5505 152.9159

0.1714565 -0.2839299 -0.2302318 278.4221 252.1793 150.5775

0.1615227 -0.2906803 -0.2289882 278.4221 252.1793 150.5775

0.1615227 -0.2906803 -0.2289882 279.1865 261.3278 140.1437

0.1583943 -0.2902086 -0.2317551 279.1436 264.5909 134.7924

0.1607789 -0.2863901 -0.2315859 279.1436 264.591 134.7924

0.1710731 -0.2790432 -0.233174 276.5782 268.722 130.1844

0.1710731 -0.2790432 -0.233174 278.1189 268.0289 130.2162

0.1711706 -0.2804507 -0.231407 278.119 268.0289 130.2163

0.1882455 -0.2682981 -0.2273964 276.8205 284.105 113.9734

0.1882455 -0.2682981 -0.2273964 277.3156 271.2265 125.994

0.1815603 -0.2736808 -0.2264157 277.3156 271.2265 125.994

0.1815603 -0.2736808 -0.2264157 277.8669 288.5024 108.0047

0.199009 -0.2612223 -0.2242054 277.4268 275.1316 119.8922

0.2153685 -0.2490008 -0.2229905 277.4268 275.1316 119.8922

0.2153685 -0.2490008 -0.2229905 278.005 290.8299 103.5484

0.2233221 -0.2418241 -0.2230652 278.0049 290.8299 103.5484

0.2359965 -0.2305075 -0.2157646 277.7597 281.5858 110.8696

0.2359965 -0.2305075 -0.2157646 277.7597 281.5858 110.8696

0.2348733 -0.2342856 -0.2129019 278.5467 291.2549 99.31738

0.2495495 -0.2248485 -0.206278 279.0437 291.119 97.04582

0.2495865 -0.2241537 -0.2044953 279.0437 291.1191 97.04572

0.2481662 -0.229732 -0.1999835 278.4366 292.4079 96.50355

0.2481662 -0.229732 -0.1999835 279.519 282.2131 106.7598

0.2599622 -0.2217234 -0.1939459 279.519 282.2131 106.7598

0.2577849 -0.2264415 -0.1812571 279.4952 293.8846 94.63318

0.2657622 -0.2237308 -0.1729102 278.24 280.2695 107.694

0.2636198 -0.2313894 -0.1659713 278.24 280.2695 107.694

0.2636198 -0.2313894 -0.1659713 278.2174 292.2718 95.04314

0.2720062 -0.2266177 -0.1550338 276.8127 281.9108 105.4327

0.2662896 -0.2359946 -0.1509136 276.8127 281.9108 105.4327

0.2743873 -0.2313212 -0.1434594 276.2372 282.9771 104.6117

0.2743873 -0.2313212 -0.1434594 275.9683 272.9911 115.0357

0.2712285 -0.2343749 -0.1339784 275.9683 272.9912 115.0357

0.2806619 -0.2299066 -0.1217315 275.9683 272.9911 115.0357

0.2806619 -0.2299066 -0.1217315 276.0644 278.9495 109.2214

0.2814476 -0.2321527 -0.1154948 276.0644 278.9495 109.2214

0.2912758 -0.2264799 -0.1015477 276.298 254.8944 132.3747

0.2916059 -0.2298476 -0.09264316 276.6117 258.2367 129.4182

0.2916059 -0.2298476 -0.09264316 276.6117 258.2367 129.4182

0.3030896 -0.221634 -0.07390344 277.0567 250.2883 137.7154

0.3046175 -0.224051 -0.07773902 277.2123 249.0084 139.4565

0.2995608 -0.234245 -0.06653259 277.2123 249.0084 139.4565

0.2995608 -0.234245 -0.06653259 278.8894 240.1541 148.4555

0.2995552 -0.2385363 -0.04900158 279.4231 247.4982 141.1879

0.2997711 -0.238886 -0.04948949 278.5713 241.9903 146.5363

0.2909071 -0.2524755 -0.03174317 278.5713 241.9903 146.5362

0.29868 -0.2446811 -0.0173172 277.6468 231.5886 156.2118

0.29868 -0.2446811 -0.0173172 276.9824 221.6193 165.5085

0.2972159 -0.2484519 -0.001140089 276.9824 221.6192 165.5086

0.2896711 -0.2566538 0.01692441 276.6725 209.8134 176.7026

0.2896711 -0.2566538 0.01692441 276.1268 201.6607 184.4122

0.2875176 -0.2581744 0.02732351 276.1268 201.6607 184.4122

0.2825568 -0.2638969 0.04429776 275.4977 195.2753 190.346

0.2825568 -0.2638969 0.04429776 275.4977 195.2753 190.346

0.2789423 -0.2653722 0.05666545 275.4976 195.2753 190.3461

0.267194 -0.2721741 0.07727125 275.4834 189.5333 196.0863

0.2700474 -0.2772998 0.07342177 276.0858 184.2431 201.769

0.2673432 -0.2763971 0.08569593 276.0858 184.2431 201.769

0.2584065 -0.2795805 0.1013525 277.317 178.1993 208.3082

0.2584065 -0.2795805 0.1013525 277.9797 176.2175 210.9706

0.2615617 -0.2856495 0.09725547 277.9797 176.2175 210.9706

0.2553614 -0.2873529 0.1081096 278.7473 176.3401 211.6225

0.2438578 -0.2927344 0.1196192 279.4364 179.4449 209.424

0.247513 -0.3008066 0.1145563 279.4364 179.4449 209.424

0.2314132 -0.3093618 0.1249546 279.856 184.9349 204.9438

0.2314132 -0.3093618 0.1249546 279.856 184.9349 204.9438

0.2141375 -0.3166167 0.1370016 280.0694 192.2738 198.6128

0.2215435 -0.3134857 0.146718 280.9695 193.4784 198.6347

0.2215435 -0.3134857 0.146718 280.4358 194.5777 198.4761

0.2078218 -0.3203098 0.1519629 280.4358 194.5777 198.4761

0.2116916 -0.3190398 0.1492688 280.5807 190.9362 203.1548

0.2104102 -0.3312733 0.1419567 280.5807 190.9362 203.1548

0.2104102 -0.3312733 0.1419567 280.5359 190.3627 204.9121

0.2135514 -0.3298154 0.1406547 280.5359 190.3627 204.9121

0.2124478 -0.3277852 0.1469319 281.6691 198.8899 195.6518

0.2143739 -0.3341293 0.1431066 280.2247 197.4174 197.6894

0.2139377 -0.3273042 0.1586843 282.4913 198.8615 195.8642

0.2087236 -0.3277147 0.1646683 282.4913 198.8615 195.8642

0.203062 -0.3289773 0.1691681 281.0305 204.0019 191.1542

0.2054537 -0.3367346 0.1647356 281.1646 214.476 180.9225

0.2016504 -0.3384097 0.1659975 281.1646 214.4761 180.9225

0.1968869 -0.3401847 0.1680746 282.8682 213.3581 183.3208

0.1968869 -0.3401847 0.1680746 282.8682 213.3581 183.3208

0.1983807 -0.3452013 0.1650209 281.1479 208.5766 188.0171

0.1887373 -0.3481117 0.170139 282.5661 213.4993 182.4965

0.1887373 -0.3481117 0.170139 282.5661 213.4993 182.4965

0.1828704 -0.3521879 0.1681455 281.158 206.7672 189.5745

0.1776693 -0.3609852 0.1590231 279.0477 210.5226 185.0831

0.1917348 -0.3542912 0.1577356 279.0478 210.5226 185.0831

0.1917348 -0.3542912 0.1577356 279.3084 207.1719 186.5397

0.2021831 -0.346837 0.1612174 278.6535 218.5257 175.927

0.2050758 -0.346512 0.1649901 278.6535 218.5256 175.927

0.2050758 -0.346512 0.1649901 280.2166 208.5819 186.9391

0.2040872 -0.3403032 0.1785794 280.2166 208.5819 186.9391

0.199385 -0.3425181 0.1796537 279.9223 213.4774 183.5077

0.1989553 -0.348796 0.1671864 278.7305 218.0152 177.737

0.1989553 -0.348796 0.1671864 278.7305 218.0152 177.737

0.2063766 -0.3446401 0.1668085 278.3847 199.1152 195.2762

0.2090157 -0.3415314 0.1698878 276.805 186.7283 207.4676

0.2093748 -0.3425531 0.1692133 276.8049 186.7283 207.4676

0.2132206 -0.3371446 0.175169 278.0614 197.5802 196.2726

0.212174 -0.3324637 0.1851045 276.405 201.1451 191.8284

0.2106278 -0.3270076 0.1962538 276.405 201.1451 191.8284

0.2103575 -0.3262034 0.1966963 278.4789 188.7855 204.0006

0.2049207 -0.328361 0.1988341 276.7859 182.2949 210.5569

0.1964458 -0.3281356 0.2075681 279.2183 181.9874 210.6375

0.2032765 -0.3216139 0.2111672 279.2183 181.9874 210.6375

0.2036005 -0.3224087 0.2107443 281.3603 173.1473 219.1678

0.1966675 -0.3260082 0.2117879 280.2609 168.9434 224.8389

0.1950068 -0.3274286 0.2111313 280.2609 168.9435 224.8389

0.1968431 -0.3266612 0.2106154 281.9113 168.1992 225.2612

0.1967454 -0.3263921 0.2107559 282.8211 172.9138 220.4241

0.187345 -0.3350477 0.2056783 280.693 164.9704 229.0672

0.1831817 -0.3429679 0.1961533 280.693 164.9704 229.0672

0.1831817 -0.3429679 0.1961533 281.847 161.1181 232.7006

0.1887105 -0.3461166 0.1829587 279.2876 157.6231 236.9563

0.1969038 -0.3446858 0.1769261 280.0284 163.0005 230.8081

0.1969038 -0.3446858 0.1769261 280.0284 163.0005 230.8081

0.2010219 -0.3435734 0.1744412 277.9534 165.2586 229.8565

0.2074768 -0.3370788 0.1750797 277.3683 170.4691 226.4554

0.2137838 -0.3294025 0.1819674 278.0853 179.6506 218.4052

0.2137838 -0.3294025 0.1819674 278.0853 179.6506 218.4052

0.2118058 -0.3313697 0.1807042 275.7581 172.2588 226.684

0.2197028 -0.3226557 0.1813879 277.201 167.8829 230.4411

0.2203414 -0.324409 0.1774433 274.5627 165.9891 232.9012

0.2203414 -0.324409 0.1774433 274.5627 165.9891 232.9012

0.227953 -0.3211797 0.1722922 274.9174 181.05 217.3339

0.227953 -0.3211797 0.1722922 272.7191 157.4115 240.9256

0.2308396 -0.3201628 0.1703302 274.4785 156.3629 241.4581

0.2300193 -0.3180968 0.1715828 274.4785 156.3628 241.4581

0.2300193 -0.3180968 0.1715828 273.2492 121.0999 277.0032

0.2300193 -0.3180968 0.1715828 273.686 132.7139 264.2724

0.232746 -0.316025 0.1684567 272.2458 93.88578 303.3224

0.2291123 -0.3199707 0.1659715 272.2458 93.88544 303.3228

0.2442602 -0.3116454 0.1601072 272.2458 93.8857 303.3225

0.2434268 -0.3095883 0.1613659 272.5737 128.3177 268.1203

0.2580217 -0.299856 0.1570086 273.0599 77.12254 319.7387

0.2575974 -0.2992103 0.1589256 273.0599 77.12276 319.7385

0.2651643 -0.2950103 0.1542636 274.9295 60.83447 335.6675

0.2657263 -0.2938142 0.1519166 273.603 71.77081 324.65

0.2657263 -0.2938142 0.1519166 273.603 71.77081 324.65

0.2732005 -0.2895389 0.1467809 274.151 39.88701 356.8296

0.2749135 -0.2897899 0.1430395 273.5862 64.38144 332.0224

0.2746674 -0.2893035 0.1433707 273.5863 64.38144 332.0225

0.2802154 -0.2875061 0.1360639 275.3505 41.94214 354.908

0.2791751 -0.2898772 0.1331402 274.0227 60.88432 336.1785

0.2826483 -0.2873282 0.1269494 273.2956 90.27956 307.3657

0.2826483 -0.2873282 0.1269494 273.2956 90.27956 307.3657

0.2825915 -0.2893955 0.1222945 274.422 63.35549 335.9004

0.2785973 -0.29559 0.1078275 274.367 88.68559 310.7502

0.2785973 -0.29559 0.1078275 274.367 88.68559 310.7502

0.292114 -0.2848359 0.1007699 275.6584 109.218 290.3965

0.2849676 -0.2960752 0.0880319 278.0602 114.2572 286.5716

0.2824232 -0.2910997 0.09227491 279.2978 121.2709 281.4679

0.2754842 -0.3016794 0.0781953 279.2978 121.2708 281.468

0.270453 -0.3100263 0.06128119 278.5615 108.2564 296.5318

0.270453 -0.3100263 0.06128119 279.316 117.3485 288.3385

0.2604779 -0.3118197 0.05133142 277.8994 107.2293 300.4126

0.2722466 -0.3037268 0.03670106 277.8994 107.2293 300.4127

0.2722466 -0.3037268 0.03670106 278.8798 116.8791 291.9175

0.2733271 -0.3036674 0.02816986 277.3102 105.163 304.846

0.2762625 -0.2927357 0.02234327 276.4739 108.2154 302.2371

0.2762625 -0.2927357 0.02234327 276.4739 108.2154 302.2371

0.2873003 -0.282465 0.01365483 276.9807 88.5522 321.4966

0.2873003 -0.282465 0.01365483 277.7895 95.0517 314.7543

0.2818609 -0.2748201 0.01548826 278.8627 81.68002 327.7908

0.2818609 -0.2748201 0.01548826 278.8627 81.68002 327.7908

0.2849812 -0.2720244 -0.0001110363 278.989 83.19858 326.1026

0.2882904 -0.2684695 -0.004935379 280.4305 75.89633 333.0449

0.2854281 -0.2625653 0.001122179 280.4304 75.89633 333.0449

0.2913913 -0.2556694 -0.01163 282.4315 70.22655 338.4978

0.2913913 -0.2556694 -0.01163 283.8594 70.94273 337.4621

0.2969243 -0.2476804 -0.03002223 285.8261 67.76141 340.7837

0.3047726 -0.2315691 -0.04076454 285.8261 67.76142 340.7837

0.3111789 -0.2196653 -0.05556262 285.8261 67.76142 340.7837

0.3111789 -0.2196653 -0.05556262 288.5977 64.65182 345.4758

0.3186033 -0.206423 -0.06366958 288.5977 64.65182 345.4758

0.319323 -0.2023033 -0.07835925 291.4579 63.9742 347.4208

0.319323 -0.2023033 -0.07835925 291.4579 63.9742 347.4208

0.3248184 -0.1907282 -0.08455617 293.4293 70.36995 341.5015

0.3248184 -0.1907282 -0.08455617 293.4293 70.36995 341.5015

0.3311922 -0.1818653 -0.09588603 295.5623 76.19022 336.8682

0.3291519 -0.1798062 -0.1062361 296.6369 81.98564 332.5638

0.3237116 -0.177387 -0.1253076 296.9775 78.80882 338.0999

0.3237116 -0.177387 -0.1253076 296.9775 78.80882 338.0999

0.3287933 -0.172163 -0.1427046 296.2489 82.51155 335.313

0.3236255 -0.1681368 -0.1584498 296.6283 80.7412 338.5363

0.32704 -0.1535389 -0.1660735 297.6038 85.90193 334.2896

0.32704 -0.1535389 -0.1660735 297.6038 85.90193 334.2896

0.3239056 -0.1594956 -0.1962837 299.7105 86.02105 335.8422

0.3239056 -0.1594956 -0.1962837 299.1639 91.27843 332.3123

0.3245728 -0.1533297 -0.2000587 298.0323 89.62953 336.1161

0.3245728 -0.1533297 -0.2000587 298.0323 89.62953 336.1161

0.3259375 -0.1532154 -0.2323441 298.0323 89.62953 336.1161

0.3259375 -0.1532154 -0.2323441 298.1444 94.48442 332.6581

0.3262089 -0.1422948 -0.2388178 298.1444 94.48442 332.6581

0.3262089 -0.1422948 -0.2388178 297.2404 93.96241 335.4978

0.3064667 -0.1486856 -0.286853 296.0309 93.2703 338.0757

0.308929 -0.1343552 -0.2912481 296.0309 93.27032 338.0757

0.308929 -0.1343552 -0.2912481 294.5778 92.85289 339.8788

0.2928035 -0.1400073 -0.3049229 293.2117 93.99135 339.4948

0.2819634 -0.141995 -0.3375271 293.2117 93.99136 339.4948

0.2876094 -0.1254386 -0.3393176 292.098 94.48471 339.4729

0.2730538 -0.1312958 -0.3489892 291.5343 95.23499 339.4772

0.2730538 -0.1312958 -0.3489892 291.5343 95.23499 339.4772

0.2581776 -0.1308632 -0.3775313 291.6427 95.70911 339.2787

0.264707 -0.1116219 -0.3791853 292.5769 97.10618 337.8191

0.264707 -0.1116219 -0.3791853 292.5769 97.10618 337.8191

0.264707 -0.1116219 -0.3791853 293.3037 97.54989 337.2137

0.2319258 -0.1169439 -0.4107429 292.4932 96.52291 338.2501

0.2319258 -0.1169439 -0.4107429 292.1427 96.33482 338.4698

0.2319258 -0.1169439 -0.4107429 292.1427 96.33482 338.4698

0.2395816 -0.09749491 -0.4114251 292.9128 96.31792 338.3206

0.2216788 -0.09384315 -0.4314338 293.4211 97.60041 336.4573

0.2042183 -0.1019889 -0.4381511 293.4211 97.60041 336.4573

0.2042183 -0.1019889 -0.4381511 293.4211 97.60041 336.4573

0.2042183 -0.1019889 -0.4381511 293.6836 104.5156 329.9113

0.1924842 -0.07802161 -0.4555362 293.6836 104.5155 329.9113

0.1924842 -0.07802161 -0.4555362 294.2109 109.29 325.4575

0.1924842 -0.07802161 -0.4555362 294.2109 109.29 325.4575

0.1745318 -0.08675454 -0.4611541 294.1834 113.5453 320.848

0.1519761 -0.08134526 -0.4751602 294.66 111.0779 323.1521

0.1519761 -0.08134526 -0.4751602 296.3901 115.8405 319.1309

0.1519761 -0.08134526 -0.4751602 296.3901 115.8405 319.1309

0.1519761 -0.08134526 -0.4751602 298.0941 116.8148 319.056

0.1303828 -0.07592508 -0.4855024 297.3383 114.1991 322.5623

0.1426543 -0.05946579 -0.4843454 297.3383 114.1991 322.5623

0.1385154 -0.05729467 -0.4858062 295.5256 118.2024 319.0048

0.1385154 -0.05729467 -0.4858062 294.8246 116.5246 320.3507