-0.008928468 -5.722046E-08 -0.5101414 270 -2.561321E-06 0

0.002056393 0.01481901 -0.5100002 271.9997 100.8668 258.5166

0.002056393 0.01481901 -0.5100002 271.9997 100.8668 258.5166

0.002056393 0.01481901 -0.5100002 271.9997 100.8668 258.5166

-0.002381966 -0.00529747 -0.5101865 273.9672 95.90101 262.9906

-0.004436038 0.01267382 -0.5096926 275.1616 91.90088 266.9839

-0.00924235 -0.007189407 -0.509735 276.4363 84.97945 273.9996

-0.00924235 -0.007189407 -0.509735 276.4363 84.97945 273.9996

-0.005252402 0.008963756 -0.5097636 277.7011 78.80228 280.3656

-0.0003700848 0.02368761 -0.5093329 276.0358 92.66473 266.2756

0.006511208 0.03613861 -0.5085595 274.6874 113.9299 244.8742

0.006511208 0.03613861 -0.5085595 274.6874 113.9299 244.8742

0.01534738 0.03746444 -0.5082737 274.0546 143.028 215.7305

0.0297453 0.02477102 -0.5084121 274.1871 175.6562 183.069

0.04291774 0.03960823 -0.5065278 275.1348 200.7665 157.9343

0.04291774 0.03960823 -0.5065278 275.1348 200.7665 157.9343

0.04076901 0.02177153 -0.5077845 276.901 213.6226 144.8499

0.0532787 0.02716169 -0.5064571 278.4779 203.4605 154.3388

0.05185641 0.01687008 -0.5070518 277.8081 217.583 140.2905

0.05185641 0.01687008 -0.5070518 277.8081 217.583 140.2905

0.05618775 0.02144285 -0.5064172 279.2018 206.7383 150.3323

0.06503372 0.02927493 -0.5049641 277.4819 203.4356 153.3835

0.06548509 0.01224564 -0.5056055 278.0942 216.8699 139.918

0.06548509 0.01224564 -0.5056055 278.0942 216.8699 139.918

0.07370204 0.02650838 -0.5039251 278.4933 200.8858 155.3841

0.07314213 0.006195145 -0.5046897 276.7088 204.3087 151.9546

0.08219556 0.02417361 -0.5027519 278.816 207.019 148.6756

0.07656663 0.008017559 -0.5041558 278.816 207.019 148.6756

0.07656663 0.008017559 -0.5041558 278.7189 195.6877 159.267

0.08261047 0.006957893 -0.5032166 277.3808 210.4083 144.7504

0.08357877 0.007056427 -0.5030553 278.2974 198.1195 156.3807

0.0811744 0.004127998 -0.5034569 277.0532 212.8893 141.9788

0.08099983 0.009488068 -0.5034125 279.0682 211.8829 142.2426

0.08099983 0.009488068 -0.5034125 279.0682 211.8829 142.2426

0.0783851 0.003919544 -0.5039003 279.1609 221.5723 131.9398

0.0841552 0.01861032 -0.5026995 279.3895 211.6902 140.8197

0.0841552 0.01861032 -0.5026995 278.083 210.5719 141.2247

0.07866357 0.001809597 -0.5039285 278.083 210.5719 141.2247

0.08415435 0.01943624 -0.5026684 278.2658 225.1543 126.1122

0.08699442 0.01927425 -0.502284 278.8848 213.7758 136.6061

0.078871 0.0006336021 -0.5039917 278.3189 216.936 132.6034

0.08468818 0.01888292 -0.5026928 278.3189 216.936 132.6034

0.08468818 0.01888292 -0.5026928 277.0813 209.1539 139.5424

0.08612587 0.008011265 -0.5028526 276.8975 225.9348 122.7675

0.09030937 0.02305833 -0.5016523 276.8974 225.9348 122.7676

0.09030937 0.02305833 -0.5016523 275.9743 208.6239 139.4683

0.09030937 0.02305833 -0.5016523 275.9743 208.6239 139.4683

0.08014602 0.003017578 -0.5038087 274.5662 226.2125 122.2268

0.08693879 0.02074036 -0.5022621 276.7459 235.6578 112.78

0.08693879 0.02074036 -0.5022621 276.7459 235.6578 112.78

0.08053041 0.002159786 -0.5037518 276.9503 217.1647 130.6438

0.09046568 0.01632391 -0.5018964 276.8869 235.2723 112.797

0.09046568 0.01632391 -0.5018964 277.4993 221.0207 126.2747

0.08481248 -0.001843357 -0.5031441 277.4993 221.0207 126.2746

0.08889639 0.007212524 -0.5023902 278.141 238.918 108.3546

0.09065638 0.007108555 -0.5021042 279.892 229.5948 116.8916

0.09085384 0.004120789 -0.5021019 279.892 229.5948 116.8916

0.08956495 -0.0007691002 -0.5023497 282.6595 233.7815 112.0352

0.08956495 -0.0007691002 -0.5023497 285.3672 232.305 112.3684

0.08498134 -0.006914577 -0.5030984 285.3672 232.305 112.3684

0.07728585 -0.01150125 -0.5042543 288.6251 231.1486 111.9987

0.07816394 -0.01160316 -0.5041273 288.6251 231.1486 111.9987

0.06606965 -0.01260721 -0.5058304 290.5768 229.3697 112.2249

0.06032331 -0.004277458 -0.5066867 290.5768 229.3697 112.2249

0.06032331 -0.004277458 -0.5066867 293.4041 230.6966 108.5236

0.06032331 -0.004277458 -0.5066867 296.7369 231.7188 105.0285

0.05319048 -0.001135139 -0.5075018 296.7369 231.7188 105.0285

0.0495692 -0.001038265 -0.5078137 299.3413 230.746 103.1354

0.038405 -0.01037573 -0.508675 301.5898 229.361 101.3061

0.0296955 -0.02047216 -0.5089518 301.5898 229.361 101.3061

0.0296955 -0.02047216 -0.5089518 302.3311 226.6148 100.5734

0.1675209 -0.02036093 -0.4554038 303.1308 227.268 96.42303

0.1615286 -0.02895106 -0.4571004 303.1308 227.268 96.42303

0.1615286 -0.02895106 -0.4571004 303.1948 228.3299 92.08984

0.1563944 -0.03678386 -0.458321 303.1948 228.3299 92.08984

0.184836 -0.03607953 -0.4282027 304.9386 231.0028 87.17374

0.184836 -0.03607953 -0.4282027 305.0685 231.2949 84.32138

0.184836 -0.03607953 -0.4282027 305.0685 231.2949 84.32138

0.1828764 -0.04532264 -0.4281655 307.4065 233.2508 80.83471

0.2071507 -0.04090925 -0.3941513 308.7269 234.3278 77.7724

0.2075186 -0.05082702 -0.3928013 308.7269 234.3278 77.77242

0.2075186 -0.05082702 -0.3928013 312.5204 234.6597 75.89102

0.2105222 -0.05879562 -0.3900817 312.5204 234.6597 75.89101

0.2254635 -0.05452809 -0.3603982 317.5185 231.8792 76.54356

0.2254635 -0.05452809 -0.3603982 317.5185 231.8792 76.54356

0.2254635 -0.05452809 -0.3603982 322.4686 229.1416 77.2952

0.2294624 -0.0589262 -0.3571675 327.0875 226.6653 77.47134

0.2370581 -0.06632506 -0.3328245 327.0875 226.6653 77.47134

0.2370581 -0.06632506 -0.3328245 331.1962 224.328 77.32639

0.2407879 -0.07906336 -0.3188208 335.1844 222.2304 77.01183

0.2448271 -0.09508409 -0.3112801 335.1844 222.2304 77.01183

0.2448271 -0.09508409 -0.3112801 338.718 221.0674 76.91327

0.2485913 -0.1111288 -0.3028685 341.3414 220.7755 76.64646

0.2541493 -0.1149232 -0.2824891 341.3414 220.7755 76.64645

0.2541493 -0.1149232 -0.2824891 343.6361 220.779 76.13387

0.2605965 -0.127488 -0.27099 346.128 220.8361 75.44193

0.2605965 -0.127488 -0.27099 346.128 220.8361 75.44193

0.2639096 -0.1408491 -0.2543595 348.2841 221.4814 74.70161

0.272454 -0.138613 -0.2464565 348.2841 221.4814 74.7016

0.272454 -0.138613 -0.2464565 350.2128 222.3894 74.10081

0.2732088 -0.1534741 -0.2366183 350.2128 222.3894 74.10079

0.2752034 -0.1615188 -0.2291973 351.8926 223.3578 73.55777

0.2752034 -0.1615188 -0.2291973 351.8926 223.3578 73.55777

0.2752034 -0.1615188 -0.2291973 353.1021 225.859 74.0576

0.2851543 -0.1610706 -0.2170252 353.1021 225.859 74.05759

0.2827075 -0.1736232 -0.2108534 354.6054 228.3099 74.62229

0.2827075 -0.1736232 -0.2108534 355.9597 230.7855 75.10625

0.2784506 -0.1877748 -0.204288 356.9445 233.1638 75.63533

0.2784506 -0.1877748 -0.204288 356.9445 233.1638 75.63533

0.2727199 -0.2030069 -0.1964627 357.7683 235.6986 76.30695

0.2725754 -0.2108059 -0.1882792 357.7683 235.6985 76.30695

0.2725754 -0.2108059 -0.1882792 358.8111 237.968 76.9003

0.2725754 -0.2108059 -0.1882792 0.2615186 240.6443 77.71825

0.2726105 -0.2100003 -0.1877641 1.704918 243.7137 78.5449

0.2726105 -0.2100003 -0.1877641 1.704918 243.7137 78.5449

0.2807437 -0.2111195 -0.1740214 2.383732 247.0833 79.42911

0.2807437 -0.2111195 -0.1740214 2.975412 249.9385 80.05753

0.2807272 -0.2067469 -0.1713905 2.975412 249.9385 80.05753

0.2807272 -0.2067469 -0.1713905 3.2901 252.8994 80.68043

0.2815991 -0.2074009 -0.1691555 3.503173 255.8485 81.22293

0.2815991 -0.2074009 -0.1691555 3.503173 255.8485 81.22293

0.2833055 -0.2080084 -0.1639558 3.925443 258.641 81.771

0.2833055 -0.2080084 -0.1639558 4.16406 261.1333 82.2586

0.2833055 -0.2080084 -0.1639558 4.16406 261.1333 82.2586

0.2833055 -0.2080084 -0.1639558 4.909782 263.1762 82.84216

0.2831173 -0.2036059 -0.1613822 5.725669 265.0101 83.36613

0.2833264 -0.2069341 -0.1567142 5.725685 265.0101 83.36613

0.2833264 -0.2069341 -0.1567142 5.725685 265.0101 83.36613

0.2833264 -0.2069341 -0.1567142 6.256258 266.7778 83.4489

0.2864197 -0.1914726 -0.1519085 6.256267 266.7778 83.44888

0.2864197 -0.1914726 -0.1519085 6.976627 268.2484 83.33926

0.2836164 -0.1987913 -0.1477091 7.857304 269.4307 82.99369

0.2836164 -0.1987913 -0.1477091 7.857304 269.4307 82.99369

0.2815501 -0.1851097 -0.1404491 8.960389 270.2402 82.35224

0.2831359 -0.1820748 -0.1412263 10.33998 270.6208 81.60744

0.2831359 -0.1820748 -0.1412263 10.33998 270.6208 81.60744

0.2831359 -0.1820748 -0.1412263 11.88684 270.7415 81.2754

0.2827705 -0.1658961 -0.1352834 13.57782 270.2776 80.96813

0.2827705 -0.1658961 -0.1352834 13.57782 270.2776 80.96813

0.2827705 -0.1658961 -0.1352834 14.58827 269.7745 78.73086

0.2798866 -0.1729219 -0.1324528 13.6328 266.4906 77.2867

0.2767018 -0.1621223 -0.1264567 13.6328 266.4906 77.28671

0.2767018 -0.1621223 -0.1264567 14.40353 262.9639 77.06287

0.2758035 -0.1594543 -0.1249576 14.40353 262.964 77.06287

0.2772047 -0.1566204 -0.1254401 14.98538 263.3376 77.34276

0.2772047 -0.1566204 -0.1254401 13.7519 260.821 76.60636

0.2799864 -0.1499891 -0.1273521 13.7519 260.821 76.60636

0.2742128 -0.1538901 -0.1222725 13.75191 260.821 76.60637

0.2742128 -0.1538901 -0.1222725 14.40172 261.1899 77.10644

0.2755444 -0.1511584 -0.1226858 13.41001 258.2037 76.36774

0.2785434 -0.142264 -0.1264909 13.41002 258.2037 76.36774

0.2775561 -0.1399586 -0.1250943 12.40679 255.7594 75.89591

0.2775561 -0.1399586 -0.1250943 11.47633 253.2175 75.3913

0.2775561 -0.1399586 -0.1250943 11.47633 253.2175 75.3913

0.2858792 -0.1358306 -0.1099889 10.44956 251.015 74.78902

0.2871011 -0.1384033 -0.1114243 9.733895 250.3132 74.91046

0.2871011 -0.1384033 -0.1114243 9.733895 250.3132 74.91046

0.2871011 -0.1384033 -0.1114243 8.986006 249.3289 76.04383

0.2871011 -0.1384033 -0.1114243 8.986006 249.3289 76.04383

0.2888604 -0.1422942 -0.1135815 8.86363 249.1278 77.78615

0.2972224 -0.1377205 -0.0963361 8.0506 248.4591 78.64789

0.3058195 -0.1318647 -0.07533161 8.050598 248.4591 78.6479

0.3058195 -0.1318647 -0.07533161 8.235879 248.6888 77.81932

0.3171864 -0.1364528 -0.05550572 7.367379 247.3003 76.93498

0.3171864 -0.1364528 -0.05550572 7.367379 247.3003 76.93498

0.3163449 -0.1455957 -0.03217624 7.289878 247.4674 77.25858

0.3143201 -0.1531199 -0.008039174 7.289875 247.4673 77.25858

0.3174263 -0.1732689 0.01479393 5.988445 246.1922 77.99529

0.3174263 -0.1732689 0.01479393 5.988445 246.1922 77.99529

0.3127324 -0.1787387 0.03537415 4.845369 245.7694 78.44501

0.3064879 -0.1840288 0.05655994 4.621965 246.6683 78.71464

0.306057 -0.2044803 0.07596654 4.62197 246.6683 78.71464

0.306057 -0.2044803 0.07596654 4.131871 247.4772 79.44365

0.2991683 -0.206545 0.0953495 4.131885 247.4772 79.44365

0.2991683 -0.206545 0.0953495 4.394161 248.8031 79.96477

0.303196 -0.2215173 0.09340799 3.92819 250.0514 80.49367

0.2953307 -0.2213988 0.1161256 3.551023 251.6344 81.03993

0.2953307 -0.2213988 0.1161256 3.551023 251.6344 81.03993

0.2858089 -0.2226402 0.1358949 3.084301 253.2385 81.69375

0.2809412 -0.235835 0.1507074 3.084297 253.2385 81.69374

0.2809412 -0.235835 0.1507074 2.478862 254.8916 82.45885

0.2779479 -0.2354447 0.1567467 1.867578 256.7024 83.16534

0.2805886 -0.2292898 0.1611057 1.368577 258.5741 83.73671

0.2783062 -0.2419835 0.1663835 1.368586 258.574 83.73669

0.2783062 -0.2419835 0.1663835 0.307401 260.0938 84.63233

0.2795908 -0.2398454 0.1673233 359.542 261.9691 85.49388

0.2858654 -0.2304301 0.169932 359.542 261.9691 85.49388

0.287127 -0.2372942 0.1692072 359.1905 259.9145 84.43554

0.2789699 -0.238881 0.1802587 359.1905 259.9145 84.43555

0.2817006 -0.2326853 0.1840755 359.1905 259.9146 84.43553

0.2817006 -0.2326853 0.1840755 0.6571691 260.58 84.65906

0.2801194 -0.2265745 0.1976817 1.303104 258.6215 84.68107

0.2730947 -0.2315579 0.2016958 1.303114 258.6215 84.68108

0.2730947 -0.2315579 0.2016958 1.835237 256.6273 84.49227

0.2715955 -0.2250378 0.2108905 3.165114 255.7572 84.55099

0.2654354 -0.233425 0.2150798 3.165118 255.7572 84.55099

0.2654354 -0.233425 0.2150798 2.573051 253.6221 84.31174

0.2653097 -0.2267837 0.2222216 2.573044 253.6222 84.31174

0.2641825 -0.2233846 0.2269568 3.754194 254.7168 84.48867

0.2643952 -0.2246421 0.2269235 4.631618 255.2764 82.91522

0.2633351 -0.2221972 0.2305346 3.398957 253.3918 82.74687

0.2633351 -0.2221972 0.2305346 3.398957 253.3918 82.74687

0.2657894 -0.2193411 0.2304532 4.576116 254.8991 82.84024

0.2657894 -0.2193411 0.2304532 5.488421 256.4245 82.26074

0.272022 -0.2051125 0.2362119 4.172531 254.3496 82.05077

0.2653446 -0.2162142 0.233895 4.172527 254.3495 82.05077

0.2653446 -0.2162142 0.233895 3.226257 252.0884 81.69102

0.2656774 -0.2115229 0.2384672 3.226249 252.0884 81.691

0.2636956 -0.2144538 0.238049 4.337523 253.2568 81.31729

0.2636956 -0.2144538 0.238049 2.458716 252.2732 81.96633

0.2658055 -0.2017212 0.246676 2.458718 252.2732 81.96633

0.2659309 -0.2023463 0.246697 3.682958 253.4597 82.20428

0.2618296 -0.2114356 0.2434398 3.682956 253.4597 82.2043

0.2561199 -0.2253913 0.2369053 3.009917 251.8615 84.67293

0.2554852 -0.2360348 0.227019 3.009931 251.8615 84.67292

0.2554852 -0.2360348 0.227019 1.57023 250.8146 86.67909

0.2524809 -0.2480762 0.2173344 1.570238 250.8146 86.6791

0.2487733 -0.2622211 0.204633 359.5094 250.3908 88.43501

0.2478508 -0.2524173 0.2055163 357.6506 250.5152 89.8875

0.2580409 -0.2559559 0.1878373 355.9892 250.8805 90.84901

0.2580409 -0.2559559 0.1878373 355.9892 250.8805 90.84901

0.2712749 -0.2532653 0.1721863 354.5096 251.4724 91.50481

0.2712749 -0.2532653 0.1721863 354.5096 251.4724 91.50481

0.2691007 -0.2391678 0.1737577 353.1879 252.1433 91.81468

0.268829 -0.2435439 0.1680043 351.4459 252.8539 92.10149

0.2674276 -0.2485861 0.1627743 351.4459 252.8539 92.1015

0.2674276 -0.2485861 0.1627743 352.0167 255.7474 92.45057

0.2773584 -0.2200834 0.1571707 352.4658 256.1049 90.29775

0.2900906 -0.208078 0.1503928 352.4658 256.1049 90.29777

0.2992456 -0.1988263 0.1448695 353.6895 257.8285 88.99773

0.2942552 -0.1840293 0.1454232 352.6079 257.3425 89.09679

0.2943412 -0.1915818 0.1351313 352.6078 257.3425 89.09678

0.299008 -0.191055 0.125272 352.6079 257.3425 89.09678

0.299008 -0.191055 0.125272 353.2877 257.5951 89.2878

0.2956864 -0.2023224 0.1150478 353.2877 257.5951 89.2878

0.2956864 -0.2023224 0.1150478 350.5135 258.785 87.59957

0.2956864 -0.2023224 0.1150478 348.2037 259.7207 85.82934

0.3046479 -0.1937553 0.1060632 348.2037 259.7207 85.82934

0.3066428 -0.1972797 0.09301494 346.7536 260.7388 84.6599

0.2984998 -0.1762826 0.09530455 345.6499 262.1524 83.49095

0.3008897 -0.1774966 0.08497621 345.6499 262.1523 83.49096

0.3065472 -0.1736835 0.07157882 343.9733 262.8431 82.59141

0.3110394 -0.1642382 0.06165544 343.9733 262.8431 82.59142

0.3110394 -0.1642382 0.06165544 341.9991 263.4033 82.12193

0.3110394 -0.1642382 0.06165544 340.1664 264.2908 81.9146

0.3200527 -0.1523092 0.04346671 340.1664 264.2908 81.9146

0.3250955 -0.1449421 0.02873706 338.4334 265.4845 81.43327

0.3264605 -0.1473818 0.02808566 336.9205 266.5753 80.88971

0.3264605 -0.1473818 0.02808566 336.9205 266.5753 80.88971

0.3239207 -0.1538321 0.02230991 335.3095 267.1953 80.66029

0.3266761 -0.1492328 0.009948106 333.7037 267.4531 80.93176

0.3290919 -0.1538545 0.008464121 333.7037 267.4531 80.93176

0.3317644 -0.1482122 -0.0031283 333.7037 267.4531 80.93176

0.3283111 -0.1548176 -0.01695846 330.6326 266.787 81.45586

0.3280591 -0.1745163 -0.02730862 330.6325 266.7869 81.45586

0.3280591 -0.1745163 -0.02730862 327.407 266.1318 82.04448

0.3320513 -0.164457 -0.03899098 324.2963 265.7274 82.20882

0.3357303 -0.1537492 -0.04970724 324.2963 265.7274 82.20881

0.3410145 -0.1600193 -0.06871884 321.4396 265.8618 81.67004

0.3435977 -0.1501269 -0.07760091 318.7905 266.8022 80.26023

0.3435977 -0.1501269 -0.07760091 318.7905 266.8022 80.26023

0.3433632 -0.1447461 -0.08814546 316.3765 268.3266 78.51627

0.3493404 -0.1613564 -0.1001756 313.3919 269.0299 77.53916

0.3471008 -0.1591503 -0.1109143 313.3919 269.0299 77.53915

0.3461182 -0.1521028 -0.1231939 311.451 270.7863 76.13588

0.3461182 -0.1521028 -0.1231939 308.8586 272.2751 74.57622

0.3459093 -0.1430983 -0.1340874 308.8586 272.2751 74.57622

0.3467387 -0.1311643 -0.1437985 306.2536 274.109 72.72439

0.3525316 -0.1622049 -0.1766129 304.292 276.8409 70.47165
