0.01466233 -5.722046E-08 -0.5098563 270.0198 -2.561322E-06 0

0.006526941 -0.00877613 -0.5100268 272.0869 320.7012 39.68452

0.006526941 -0.00877613 -0.5100268 272.0869 320.7012 39.68452

0.006526941 -0.00877613 -0.5100268 272.0869 320.7012 39.68452

0.01759006 0.008571281 -0.5097687 270.5679 243.6584 116.502

0.008555727 -0.002443485 -0.5100664 272.5645 272.067 88.0171

0.01345097 0.004948711 -0.5099427 272.115 234.3193 125.1593

0.01345097 0.004948711 -0.5099427 272.115 234.3193 125.1593

0.01587786 0.006504936 -0.5098554 272.5275 279.502 79.78296

0.01889545 0.007748852 -0.509735 274.7753 290.335 69.02304

0.02161353 0.007979793 -0.5096235 276.55 285.9246 73.16309

0.02034551 0.008093033 -0.5097069 276.55 285.9246 73.16309

0.02273475 0.00848236 -0.5095996 275.3145 274.0086 84.49365

0.0254399 0.008591881 -0.5094699 275.8522 289.8018 68.43973

0.02780192 0.007789306 -0.5093514 275.7533 297.7274 60.02098

0.02780192 0.007789306 -0.5093514 275.7533 297.7274 60.02098

0.03492133 0.01368896 -0.5087884 275.0078 287.6073 69.47358

0.02432042 0.003076687 -0.5095798 275.4323 300.832 55.74118

0.03546799 0.01703424 -0.5086496 275.2635 288.4295 67.49394

0.03546799 0.01703424 -0.5086496 275.2635 288.4295 67.49394

0.02414959 7.604599E-05 -0.5095972 273.4217 299.4425 56.01411

0.0369328 0.01532118 -0.5085998 275.2021 308.566 46.83838

0.02590662 -0.001361561 -0.5095246 273.3896 294.3717 60.52922

0.02590662 -0.001361561 -0.5095246 273.3896 294.3717 60.52922

0.03892764 0.01193212 -0.5085573 275.1586 294.9289 59.67168

0.0259323 -0.004003544 -0.5095094 273.8012 277.1225 76.94484

0.02562435 -0.00392395 -0.5095331 274.1818 299.8748 53.89854

0.02840446 0.004799995 -0.5093782 274.1818 299.8748 53.89854

0.01683703 -0.01168436 -0.5097803 273.2657 286.1778 67.0025

0.02900214 0.004599552 -0.5093463 275.0792 297.142 56.04699

0.02900214 0.004599552 -0.5093463 274.2707 274.4789 78.29877

0.02567548 -0.003992729 -0.50953 274.2707 274.4789 78.29877

0.03918716 0.01139694 -0.5085573 274.853 287.0301 65.28348

0.02832747 -0.004404602 -0.509386 273.61 275.6683 76.01873

0.02832747 -0.004404602 -0.509386 273.61 275.6683 76.01873

0.0402088 0.01215843 -0.5084598 275.5253 290.5226 61.17806

0.02849205 -0.002212143 -0.5093983 274.4481 273.5572 77.60402

0.03928736 0.01107325 -0.5085639 275.5477 290.8777 60.05096

0.03928736 0.01107325 -0.5085639 275.5477 290.8777 60.05096

0.0294634 -0.004951515 -0.5093238 273.8502 282.921 67.49712

0.04300608 0.009681816 -0.508284 275.887 294.3608 56.03703

0.03369135 -0.006688328 -0.5090345 274.9013 276.6523 73.25726

0.03369135 -0.006688328 -0.5090345 274.9013 276.6523 73.25726

0.04481352 0.008449745 -0.5081499 274.7087 298.324 51.49282

0.0339962 -0.00659151 -0.5090297 275.3053 298.7579 50.73171

0.04766849 0.008452492 -0.5079043 274.2014 279.6226 69.40305

0.04766849 0.008452492 -0.5079043 274.2014 279.6226 69.40305

0.03797878 -0.008089885 -0.5087265 276.0424 286.9663 61.89944

0.04873464 0.007652779 -0.5078474 275.2074 272.3757 75.83643

0.03806451 -0.008512745 -0.5087447 275.0332 285.1912 62.48995

0.03806451 -0.008512745 -0.5087447 275.0332 285.1912 62.48995

0.05156892 0.006672706 -0.5075812 276.3822 282.4261 64.73811

0.0421939 -0.01057451 -0.5083554 274.9841 272.2238 74.24368

0.05431018 0.00549345 -0.5072845 274.1881 281.5636 64.27776

0.05431018 0.00549345 -0.5072845 274.9741 290.9063 54.42702

0.04352902 -0.01113745 -0.5082307 274.9741 290.9063 54.42702

0.0551491 0.003995075 -0.5072352 274.1797 283.9697 60.62008

0.04228196 -0.0115317 -0.5083544 275.7528 299.3591 45.05977

0.04228196 -0.0115317 -0.5083544 275.7528 299.3591 45.05977

0.05291486 0.0051618 -0.5074713 275.7528 299.359 45.05978

0.04246721 -0.01135277 -0.5083517 274.1636 292.2038 51.56908

0.05519393 0.003565693 -0.5072423 274.1636 292.2038 51.56908

0.05519393 0.003565693 -0.5072423 276.4236 294.1067 49.56026

0.05128573 -0.01024801 -0.5075614 277.2608 279.6297 63.19217

0.06389151 0.002315712 -0.5062286 275.7983 280.0065 61.87074

0.05409715 -0.01391464 -0.5071831 275.7984 280.0065 61.87071

0.05409715 -0.01391464 -0.5071831 277.4756 284.4566 56.08759

0.06681056 -0.000712738 -0.5058565 278.5992 272.7585 66.41527

0.05636999 -0.01808979 -0.5068037 279.0986 264.3422 73.34605

0.05839381 -0.02374809 -0.5063408 279.0986 264.3422 73.34605

0.05839381 -0.02374809 -0.5063408 279.8346 258.0062 77.8783

0.05805915 -0.02924114 -0.5060918 280.3517 252.1909 81.77389

0.05370959 -0.03419638 -0.5062615 280.7486 247.3143 84.33227

0.04995285 -0.03767155 -0.5063995 280.7486 247.3143 84.33226

0.05142501 -0.03846748 -0.5061611 280.8898 240.5519 88.38052

0.04183577 -0.0420552 -0.5067587 280.951 231.4273 94.31459

0.04174897 -0.03492176 -0.5073074 280.08 222.1655 100.2392

0.01681832 -0.03479719 -0.5087531 280.08 222.1655 100.2392

0.1585483 -0.09698281 -0.4343406 278.6214 218.0341 101.7685

0.1359143 -0.09921879 -0.4414497 277.0922 228.108 89.61073

0.1197993 -0.1030273 -0.4452285 277.893 246.8908 69.12003

0.1045304 -0.1098343 -0.4474424 277.893 246.8908 69.12

0.148779 -0.11487 -0.3994193 279.4196 256.6534 57.529

0.1383845 -0.1192605 -0.4018617 281.3831 261.2131 51.05392

0.126748 -0.1266735 -0.4034289 281.3831 261.2131 51.05392

0.1182421 -0.1337345 -0.4037326 283.032 265.5002 44.30814

0.1511701 -0.1270482 -0.3550276 284.7393 269.8897 37.65256

0.1444192 -0.1336978 -0.3553959 284.7393 269.8897 37.65255

0.1381623 -0.1424192 -0.3544944 284.762 273.6438 30.91929

0.1365725 -0.1495977 -0.352146 284.762 273.6438 30.91932

0.1557248 -0.1358404 -0.3117102 287.3484 270.5309 32.24777

0.1526656 -0.1465668 -0.3083463 289.5952 269.6899 31.05231

0.1545476 -0.1547928 -0.3033485 289.5953 269.6899 31.05228

0.1545476 -0.1547928 -0.3033485 291.5266 268.5615 30.02621

0.1662668 -0.1479416 -0.2684806 293.067 267.1423 29.10397

0.1662668 -0.1479416 -0.2684806 293.067 267.1423 29.10397

0.1679951 -0.1426334 -0.2588146 294.5281 265.0159 29.02859

0.1745611 -0.1438967 -0.2537199 295.5878 263.1793 28.80477

0.1759674 -0.1614954 -0.2418808 295.5878 263.1793 28.80476

0.1759674 -0.1614954 -0.2418808 296.9221 261.1458 28.9931

0.1777694 -0.1734158 -0.2237922 296.9221 261.1458 28.9931

0.1798233 -0.1875624 -0.2103374 298.7819 258.7514 29.8296

0.1820916 -0.1996257 -0.1968507 300.1346 257.9716 29.2581

0.1820916 -0.1996257 -0.1968507 300.1346 257.9716 29.2581

0.1841481 -0.2117494 -0.1845066 301.7794 257.0392 30.12397

0.1841481 -0.2117494 -0.1845066 301.5411 257.6942 29.90019

0.1852503 -0.2216017 -0.1713655 301.5411 257.6941 29.90019

0.1852503 -0.2216017 -0.1713655 301.5411 257.6941 29.90019

0.1847809 -0.2271377 -0.1756508 301.4081 258.3904 29.7389

0.1847809 -0.2271377 -0.1756508 303.0288 252.4477 37.39598

0.1841571 -0.2367134 -0.1632228 303.0288 252.4477 37.39598

0.1822273 -0.2454292 -0.1521395 305.0901 248.0524 43.9935

0.1801527 -0.2593337 -0.160933 306.9749 244.5933 49.8978

0.177111 -0.2674928 -0.1506243 306.975 244.5933 49.89777

0.1734947 -0.2750255 -0.1409572 308.8478 241.6997 55.32375

0.1734947 -0.2750255 -0.1409572 310.8344 238.5634 60.83664

0.1657508 -0.2928337 -0.1384462 310.8344 238.5634 60.83661

0.1590659 -0.2995432 -0.1317728 313.2804 235.9397 65.79774

0.1512062 -0.3054357 -0.127428 315.5 234.141 70.00731

0.1512062 -0.3054357 -0.127428 315.5 234.141 70.00731

0.1426372 -0.3162877 -0.1285699 317.4243 233.4401 73.0237

0.1454827 -0.3160618 -0.1259095 319.2332 233.2216 75.32009

0.1536848 -0.3116385 -0.1271847 319.2332 233.2216 75.32009

0.1536848 -0.3116385 -0.1271847 320.9922 233.7329 76.8261

0.1519239 -0.3150443 -0.1235913 322.6768 234.2289 77.91977

0.1535238 -0.3123924 -0.1282574 324.1305 234.9039 78.58004

0.1514581 -0.3152916 -0.1235323 324.1305 234.9039 78.58004

0.1514581 -0.3152916 -0.1235323 325.4469 235.7614 78.89568

0.1526167 -0.3193907 -0.1192336 326.4427 237.1467 78.78959

0.1645807 -0.3145187 -0.116233 326.4427 237.1467 78.78959

0.1645807 -0.3145187 -0.116233 327.0618 238.7463 78.61815

0.1536128 -0.3224584 -0.1092826 328.2176 239.9184 78.71925

0.1654908 -0.3163095 -0.1091167 328.2176 239.9184 78.71926

0.1548672 -0.3234316 -0.1036991 329.2714 241.057 79.24295

0.1548672 -0.3234316 -0.1036991 330.1809 242.0926 80.23191

0.1581132 -0.3209612 -0.1064401 330.1809 242.0926 80.23193

0.1539285 -0.3192951 -0.09851728 330.1809 242.0926 80.23193

0.1533428 -0.3184257 -0.1021766 330.8676 243.1665 81.23809

0.1533428 -0.3184257 -0.1021766 330.8676 243.1665 81.23809

0.1612388 -0.3136498 -0.1047607 331.4731 243.7093 82.07936

0.1531286 -0.3021314 -0.09468383 332.4167 243.963 83.05339

0.1550852 -0.2989321 -0.1014147 332.4167 243.963 83.05339

0.1550852 -0.2989321 -0.1014147 333.3955 244.2732 83.99127

0.1438745 -0.3061195 -0.09637319 334.1278 244.8777 84.62811

0.1495963 -0.2858071 -0.08868638 334.1278 244.8778 84.62812

0.1495963 -0.2858071 -0.08868638 334.7194 246.2238 84.60908

0.1414635 -0.2916313 -0.08288123 334.923 247.5767 84.82822

0.1400322 -0.2947925 -0.07361003 334.923 247.5767 84.82822

0.1394541 -0.2742887 -0.06675816 334.2197 249.0007 84.35672

0.1394541 -0.2742887 -0.06675816 334.2197 249.0007 84.35672

0.1394541 -0.2742887 -0.06675816 335.86 250.1745 82.76011

0.140728 -0.2587458 -0.06214442 336.9401 248.4169 80.92996

0.1395773 -0.2606009 -0.05675431 338.3636 246.8056 79.45526

0.1395773 -0.2606009 -0.05675431 338.3636 246.8056 79.45526

0.1395773 -0.2606009 -0.05675431 339.7535 245.129 78.20686

0.1397963 -0.2439559 -0.05234915 340.9583 243.3245 76.85159

0.1378055 -0.2450595 -0.05247261 340.9583 243.3245 76.85161

0.1363891 -0.2469926 -0.04680339 340.9583 243.3245 76.85159

0.1363891 -0.2469926 -0.04680339 342.2027 241.7661 75.54047

0.1360725 -0.237406 -0.04440698 343.2109 238.4549 72.98071

0.1389801 -0.2360715 -0.04247449 343.2109 238.4549 72.98072

0.1435064 -0.2347576 -0.03382421 343.485 235.9696 70.10765

0.1430492 -0.2301055 -0.03280601 341.8987 233.1826 68.52187

0.1475939 -0.228411 -0.02307086 341.8987 233.1826 68.52187

0.152523 -0.2259894 -0.01238553 341.8936 231.9237 66.60445

0.1570882 -0.2231756 -0.001939602 341.8936 231.9237 66.60446

0.1570882 -0.2231756 -0.001939602 341.0161 229.8463 64.93649

0.1544724 -0.2244172 0.01621792 340.9174 228.5876 63.82592

0.1544724 -0.2244172 0.01621792 339.2661 226.3316 64.29173

0.1498844 -0.2347887 0.03410538 339.2661 226.3316 64.29172

0.1498844 -0.2347887 0.03410538 338.3149 224.7025 65.25127

0.1407599 -0.2374195 0.05072365 338.3149 224.7025 65.25128

0.1353562 -0.2363901 0.06747366 337.3264 222.8309 66.25298

0.1359341 -0.2456113 0.06789539 336.6498 221.089 67.19594

0.1295693 -0.2441416 0.08378194 336.6498 221.089 67.19595

0.1214162 -0.2427507 0.09870638 336.3273 219.8733 67.82619

0.1162184 -0.2396039 0.1117856 336.3273 219.8733 67.82619

0.1159487 -0.2535178 0.1135796 336.2534 218.9765 68.18916

0.1106066 -0.2500095 0.1260044 336.2534 218.9765 68.18917

0.1055832 -0.2459649 0.1377285 334.8326 220.0298 67.67082

0.100968 -0.2416056 0.1484854 334.8326 220.0298 67.67083

0.09979103 -0.2550444 0.1509463 333.2921 221.3616 67.13354

0.09599219 -0.2502305 0.1611237 332.2695 223.2799 66.32301

0.09134161 -0.2458386 0.1703255 332.2695 223.2799 66.32301

0.09096432 -0.2389873 0.1800035 331.669 225.1046 65.58396

0.0884869 -0.2555895 0.1838428 330.5229 226.3046 65.51785

0.08643252 -0.249024 0.1935732 330.5229 226.3046 65.51785

0.0812952 -0.2428651 0.2033759 329.1446 228.1595 66.08611

0.0812952 -0.2428651 0.2033759 329.7678 229.0969 66.51305

0.07699119 -0.2489032 0.2119213 329.7678 229.0969 66.51305

0.07699119 -0.2489032 0.2119213 330.8303 229.798 66.34954

0.0791623 -0.2396664 0.22155 330.7342 231.7074 66.64035

0.08726047 -0.2286789 0.2299623 330.7341 231.7074 66.64034

0.08427571 -0.2430331 0.2343613 329.3169 230.7872 68.39514

0.08565254 -0.2426111 0.2342993 328.0114 229.7038 71.48646

0.08565254 -0.2426111 0.2342993 328.0114 229.7038 71.48646

0.09698317 -0.2409863 0.2315437 327.945 229.2302 73.79006

0.1002257 -0.2636285 0.2283663 327.9449 229.2302 73.79008

0.1002257 -0.2636285 0.2283663 327.9449 229.2302 73.79008

0.1055058 -0.2618828 0.2279961 328.1289 228.8401 75.53779

0.1055058 -0.2618828 0.2279961 325.9522 228.1869 78.00635

0.1041185 -0.2881267 0.2224319 325.9522 228.1869 78.00635

0.1184615 -0.2798984 0.2257373 323.637 228.186 80.07929

0.1184615 -0.2798984 0.2257373 321.5789 228.491 81.33552

0.1264638 -0.2780319 0.2236934 321.5789 228.4911 81.33551

0.1225571 -0.2901995 0.2265988 319.8779 229.473 81.56124

0.1326093 -0.2831081 0.2298858 319.8779 229.473 81.56123

0.1326093 -0.2831081 0.2298858 319.8779 229.473 81.56123

0.1470824 -0.2734615 0.2327414 320.3965 231.7853 79.4983

0.1452769 -0.2821397 0.2338251 320.3965 231.7853 79.49831

0.1530786 -0.2787992 0.2328526 320.3965 231.7853 79.49831

0.1642393 -0.2716192 0.2337325 321.3643 230.0042 82.65482

0.1642393 -0.2716192 0.2337325 322.2538 231.429 81.20125

0.1744151 -0.2735884 0.2364144 323.3683 230.9488 80.89068

0.1831136 -0.2658811 0.2386201 323.3683 230.9487 80.89069

0.1831136 -0.2658811 0.2386201 324.8812 230.0264 81.49325

0.193664 -0.2549688 0.2421739 326.3069 228.1605 82.7105

0.1854144 -0.2739545 0.240385 326.5478 226.6413 86.36482

0.1906648 -0.2681427 0.2428186 326.5478 226.6413 86.36483

0.1906648 -0.2681427 0.2428186 326.4027 224.8567 90.01422

0.1964211 -0.2608475 0.2461541 327.0218 226.8191 89.28086

0.1881813 -0.2707344 0.2456378 327.0218 226.8191 89.28087

0.1918722 -0.2654992 0.2484804 325.1742 226.1499 90.30347

0.1918722 -0.2654992 0.2484804 323.3251 226.6441 90.33867

0.1954461 -0.2610221 0.2504307 320.7979 226.6329 90.55553

0.1992163 -0.2600077 0.2541103 320.798 226.6329 90.55552

0.1952646 -0.264958 0.2520558 322.3914 228.0305 88.98753

0.1952646 -0.264958 0.2520558 322.3914 228.0305 88.98753

0.1834289 -0.2763228 0.2487223 321.0603 226.871 89.23352

0.1964391 -0.2643884 0.247431 321.3472 225.0766 92.00085

0.1964391 -0.2643884 0.247431 321.3472 225.0766 92.00085

0.1886393 -0.2747108 0.2422001 321.3838 223.8781 93.61697

0.1801628 -0.2896438 0.2309968 321.5887 222.8747 94.77248

0.1825811 -0.2735823 0.2301734 322.069 221.5747 95.62584

0.176404 -0.2836398 0.2226949 322.069 221.5747 95.62583

0.176404 -0.2836398 0.2226949 322.8946 219.9996 96.43004

0.1674043 -0.2964328 0.212759 323.6451 218.2422 97.26153

0.1606404 -0.2832074 0.2015133 324.0535 216.5418 98.20507

0.1606404 -0.2832074 0.2015133 324.0535 216.5418 98.20507

0.1462005 -0.2963886 0.1933873 324.132 214.952 99.30882

0.1395918 -0.3015759 0.1902249 323.5793 213.9029 99.45811

0.1479928 -0.2619752 0.1858871 323.5792 213.9029 99.45811

0.1479928 -0.2619752 0.1858871 323.4421 214.3634 97.30349

0.1342997 -0.2746504 0.1778135 323.3127 214.6862 94.52096

0.1258679 -0.2818511 0.1726387 322.6713 215.678 91.90336

0.1191779 -0.2464062 0.1711852 322.6713 215.678 91.90336

0.1191779 -0.2464062 0.1711852 321.2857 217.115 89.69454

0.1171869 -0.2496136 0.167881 321.2857 217.115 89.69456

0.1122055 -0.256276 0.1611096 321.2857 217.115 89.69456

0.1129241 -0.22961 0.1505674 319.9669 218.692 87.46935

0.1129241 -0.22961 0.1505674 317.3137 222.6305 84.04794

0.1083117 -0.2337148 0.1476113 317.3137 222.6305 84.04794

0.1007067 -0.2401497 0.1425813 315.5356 226.8803 80.59624

0.1010535 -0.2186959 0.1377237 314.7855 230.5883 77.56283

0.1010535 -0.2186959 0.1377237 314.7855 230.5883 77.56283

0.09730889 -0.2229142 0.1335955 314.4131 234.0085 74.8538

0.09730889 -0.2229142 0.1335955 314.1981 237.3164 72.58141

0.08260292 -0.2271804 0.1210277 314.1981 237.3164 72.58141

0.08260292 -0.2271804 0.1210277 314.1222 240.0723 71.10699

0.06989985 -0.2359292 0.1119521 314.1427 242.4956 70.30123

0.06254062 -0.2409777 0.1053579 314.1427 242.4956 70.30123

0.05961861 -0.2380086 0.09735744 314.163 244.6918 69.69772

0.05961861 -0.2380086 0.09735744 314.163 244.6918 69.69772

0.05918806 -0.2407399 0.09067554 313.989 246.6627 69.20307

0.06197658 -0.2425795 0.0836364 313.6644 248.5452 68.95369

0.06123234 -0.2482476 0.08416311 312.9803 250.5281 68.65398

0.06123234 -0.2482476 0.08416311 312.9803 250.5281 68.65398

0.06123234 -0.2482476 0.08416311 312.2213 252.8734 67.89764
