-0.01848035 -5.722046E-08 -0.5095894 270 -2.561321E-06 0

-0.0130225 0.01915317 -0.5094113 271.8695 154.0801 205.2164

-0.0130225 0.01915317 -0.5094113 271.8695 154.0801 205.2164

-0.0130225 0.01915317 -0.5094113 271.8695 154.0801 205.2164

-0.01676546 -0.001136799 -0.5096606 270.229 23.83553 336.4789

-0.01646681 0.01383013 -0.5094839 272.8912 227.9205 132.0899

-0.02639568 -0.005992126 -0.508997 275.4069 245.6287 114.8062

-0.02639568 -0.005992126 -0.508997 275.4069 245.6287 114.8062

-0.02483218 -0.006250534 -0.5090725 277.2176 245.141 114.8917

-0.02320494 -0.00849741 -0.5091168 279.0834 246.5558 112.9537

-0.02306259 0.003318329 -0.5091833 281.4367 246.6234 112.4922

-0.02306259 0.003318329 -0.5091833 281.4367 246.6234 112.4922

-0.02694237 0.01348097 -0.508825 279.5193 251.7964 107.5464

-0.03032345 0.009213981 -0.5087299 281.5455 246.6702 112.1495

-0.02857322 0.03132256 -0.5080296 279.9041 256.0419 103.2506

-0.02857322 0.03132256 -0.5080296 279.9041 256.0419 103.2506

-0.03595616 0.01501007 -0.5083045 281.1334 266.5308 93.457

-0.03647371 0.02597437 -0.5078557 280.4535 256.2111 103.1576

-0.04335028 0.00855938 -0.5079074 282.1933 264.745 95.25352

-0.04335028 0.00855938 -0.5079074 282.1933 264.745 95.25352

-0.03887677 0.02898843 -0.5075142 282.2702 255.9084 103.3189

-0.02998369 0.03615724 -0.5076575 282.0352 259.3248 99.41394

-0.03108492 0.01941467 -0.5085068 280.9193 254.0031 104.0451

-0.02949932 0.01945959 -0.5086712 280.9193 254.0031 104.0451

-0.02042539 0.03344255 -0.5083894 282.5567 264.0926 94.3946

-0.02243123 0.01836382 -0.5090727 281.7776 256.2325 101.3033

-0.01454281 0.03485221 -0.508497 282.1391 268.3741 89.50296

-0.01454281 0.03485221 -0.508497 282.1391 268.3741 89.50296

-0.01110435 0.01575027 -0.5097528 282.8705 278.8441 79.0265

-0.01021416 0.03208774 -0.5090042 282.767 270.3972 86.34479

-0.01270064 0.03943788 -0.5084314 284.1245 278.267 78.77218

-0.01270064 0.03943788 -0.5084314 284.1245 278.267 78.77218

-0.01775217 0.02221264 -0.5094266 284.3733 271.6959 84.08691

-0.01237334 0.03817062 -0.5086392 283.7267 278.4616 76.62488

-0.01237334 0.03817062 -0.5086392 286.102 276.4689 78.02223

-0.008430912 0.03441874 -0.5090057 286.102 276.4689 78.02223

-0.008430912 0.03441874 -0.5090057 285.6262 274.0798 78.89442

-0.007366171 0.03022333 -0.5092885 287.8416 275.6872 76.56252

-0.02502795 0.04172009 -0.5079129 288.0646 272.2051 77.89487

-0.03397364 0.03751038 -0.5077217 288.0646 272.2051 77.89487

-0.03397364 0.03751038 -0.5077217 287.8518 271.9021 75.83925

-0.02026481 0.04091229 -0.5081524 287.8518 271.9021 75.83926

-0.02051359 0.04010828 -0.5082065 288.673 272.8401 72.69648

-0.02051359 0.04010828 -0.5082065 290.515 272.8293 70.72263

-0.01014732 0.0419159 -0.5080133 290.515 272.8293 70.72263

-0.009587503 0.04313667 -0.507922 290.5757 270.6155 70.33433

-0.005723138 0.0388777 -0.508324 290.2231 270.3976 67.76405

-0.005723138 0.0388777 -0.508324 290.2231 270.3976 67.76405

-0.009479589 0.03998757 -0.5084895 291.4883 271.4435 64.13518

-0.008211734 0.02763708 -0.5093322 292.0905 271.412 61.23272

-0.008211734 0.02763708 -0.5093322 292.0905 271.412 61.23272

-0.004833241 0.04313307 -0.5082978 291.4902 272.3863 57.17036

-0.02865576 0.0198464 -0.5090997 290.9393 276.0288 50.82471

-0.02865576 0.0198464 -0.5090997 290.9393 276.0288 50.82471

-0.02715531 0.03255604 -0.5085275 291.7063 278.9603 44.82195

-0.02818197 0.02618259 -0.5088397 293.6843 281.3269 39.52102

0.08276509 0.0501743 -0.4865036 293.6843 281.3269 39.52103

0.08459244 0.05156908 -0.4860433 295.4304 283.2492 34.62923

0.08663658 0.03776479 -0.4869509 297.5476 280.9998 33.40217

0.08663658 0.03776479 -0.4869509 297.5476 280.9998 33.40217

0.1186587 0.05778645 -0.4698342 297.5476 280.9998 33.40218

0.1198544 0.04392812 -0.4710292 296.3528 283.4475 28.08889

0.1198544 0.04392812 -0.4710292 296.3528 283.4475 28.08889

0.1198544 0.04392812 -0.4710292 296.2486 286.8625 22.28864

0.1423604 0.05937186 -0.4549436 297.2309 289.141 18.46335

0.1423604 0.05937186 -0.4549436 297.2309 289.141 18.46335

0.1509688 0.04289042 -0.4540199 296.7981 292.6735 13.68021

0.1601488 0.03317408 -0.4516824 297.0549 288.1607 17.30984

0.1699066 0.03567367 -0.4423777 297.0549 288.1607 17.30985

0.1780951 0.02435921 -0.4399178 294.562 288.7278 14.79912

0.1811229 0.001706057 -0.4393524 293.5229 284.4334 18.40052

0.1811229 0.001706057 -0.4393524 293.5229 284.4334 18.40052

0.203854 0.01672883 -0.4220547 292.9792 288.4617 13.57688

0.2120686 -0.006133118 -0.4182773 293.0806 291.0756 10.4242

0.2120686 -0.006133118 -0.4182773 293.0806 291.0756 10.4242

0.2255517 -0.02358204 -0.4105324 293.5968 292.3697 9.087419

0.2402017 -0.03698413 -0.4006524 293.7785 290.2652 12.32588

0.2402017 -0.03698413 -0.4006524 293.7785 290.2652 12.32588

0.251685 -0.05929716 -0.3908012 293.7785 290.2652 12.32588

0.2663064 -0.0594407 -0.3809655 292.8782 291.8037 10.81647

0.2659882 -0.0596008 -0.3814947 292.7076 281.733 20.1529

0.2659882 -0.0596008 -0.3814947 292.7076 281.733 20.1529

0.2821592 -0.06522655 -0.3687437 292.8781 272.4713 28.81022

0.2848522 -0.08103143 -0.3635015 293.674 263.5154 37.50657

0.2830781 -0.08221979 -0.3666777 293.674 263.5154 37.50657

0.287384 -0.09412963 -0.3604108 294.9677 255.781 45.43018

0.2910876 -0.1056274 -0.3541988 294.9677 255.781 45.43018

0.2910876 -0.1056274 -0.3541988 295.6629 248.6959 53.1763

0.2922589 -0.1185885 -0.3539613 296.6526 243.7881 59.2774

0.2966712 -0.1291328 -0.3465227 297.8744 241.0465 63.59697

0.2966712 -0.1291328 -0.3465227 297.8744 241.0465 63.59697

0.3037287 -0.1269551 -0.3411721 298.2191 241.2841 65.37061

0.3006617 -0.1442205 -0.3403181 296.6889 240.4296 67.30689

0.3006617 -0.1442205 -0.3403181 296.6889 240.4296 67.30689

0.3022369 -0.1475268 -0.3374939 298.9046 238.7355 70.15256

0.3002069 -0.1597873 -0.3337023 298.9046 238.7355 70.15255

0.2965177 -0.163576 -0.3392363 297.5426 236.3798 73.12076

0.2981206 -0.1577605 -0.3405832 297.5426 236.3798 73.12077

0.2965025 -0.1667122 -0.3377195 299.8792 238.2099 72.20816

0.2965025 -0.1667122 -0.3377195 299.8792 238.2099 72.20816

0.2939276 -0.1692704 -0.3413066 298.0831 238.6613 72.02425

0.2962722 -0.1604547 -0.3435304 300.7278 241.6589 69.52699

0.2986112 -0.1658032 -0.3389348 300.7278 241.6589 69.52699

0.2986112 -0.1658032 -0.3389348 299.0602 242.4266 68.31132

0.3089337 -0.1594907 -0.3341209 299.0602 242.4266 68.31133

0.3089337 -0.1594907 -0.3341209 300.889 246.6758 64.91076

0.3101234 -0.1683892 -0.3286071 299.8184 247.0883 64.62037

0.3136241 -0.1730056 -0.3228361 301.3716 249.2039 63.23303

0.3122531 -0.1745914 -0.3247971 301.3716 249.2039 63.23305

0.3119347 -0.1727419 -0.3260894 303.936 244.3081 66.49565

0.3065018 -0.1891813 -0.3220938 306.4799 238.885 70.74777

0.3104168 -0.1757296 -0.3259415 306.4799 238.885 70.74777

0.3099472 -0.176245 -0.3265968 306.3761 234.7209 74.0291

0.3158863 -0.169203 -0.3246248 306.376 234.7209 74.0291

0.3158863 -0.169203 -0.3246248 310.2285 231.9225 76.14442

0.3222326 -0.1629204 -0.3215869 310.2285 231.9225 76.14445

0.32042 -0.1715074 -0.3185901 309.891 230.2451 77.24045

0.32042 -0.1715074 -0.3185901 309.891 230.2451 77.24045

0.3260948 -0.1686522 -0.3143278 312.1511 229.4328 77.59532

0.3260948 -0.1686522 -0.3143278 313.9739 229.5893 77.11546

0.3262172 -0.174967 -0.3091776 313.9739 229.5893 77.11546

0.3091373 -0.1897551 -0.3178821 315.6997 229.5739 76.93964

0.3091373 -0.1897551 -0.3178821 317.923 229.7418 76.8847

0.2882214 -0.2051308 -0.3278287 317.923 229.7418 76.88471

0.2824948 -0.202249 -0.3154533 320.0971 229.8582 76.74467

0.2824948 -0.202249 -0.3154533 321.6588 230.358 75.99981

0.2578987 -0.2206507 -0.3240683 321.6588 230.358 75.99982

0.2395419 -0.2379773 -0.3258915 323.3195 230.6537 75.04872

0.2688396 -0.2017572 -0.2794078 325.6019 230.2501 74.50031

0.2633258 -0.2068976 -0.2808957 325.6019 230.2501 74.50031

0.2578898 -0.2107515 -0.2830656 327.9722 229.9406 74.38345

0.2578898 -0.2107515 -0.2830656 327.9722 229.9406 74.38345

0.2680732 -0.1740597 -0.2408051 329.7062 230.0867 74.0606

0.2644732 -0.1774124 -0.2423341 331.1429 230.7341 73.56391

0.2644732 -0.1774124 -0.2423341 331.1429 230.7341 73.56391

0.2625594 -0.1800765 -0.2424503 331.1429 230.7341 73.5639

0.2619184 -0.1462775 -0.2042008 332.6442 231.7318 72.15248

0.2619184 -0.1462775 -0.2042008 332.6442 231.7318 72.15248

0.2620898 -0.1465044 -0.2038178 333.7401 232.6071 70.53309

0.2622 -0.1486017 -0.2021509 334.3623 233.6773 68.65981

0.2551201 -0.1218795 -0.1734877 334.3623 233.6773 68.65981

0.2562885 -0.123419 -0.170654 334.5698 234.8739 66.6497

0.2562885 -0.123419 -0.170654 334.8319 235.6933 64.92017

0.2562885 -0.123419 -0.170654 334.8319 235.6933 64.92017

0.2472336 -0.1043069 -0.1464011 335.1708 236.294 63.1741

0.248764 -0.1134652 -0.136674 335.9514 236.603 61.51765

0.248764 -0.1134652 -0.136674 335.9514 236.603 61.51765

0.2520574 -0.1188611 -0.1256055 336.7206 236.3907 59.68843

0.2489096 -0.1041211 -0.1030319 337.492 236.1 57.85651

0.2489096 -0.1041211 -0.1030319 337.492 236.1 57.85651

0.2525506 -0.1090554 -0.08796516 337.735 235.9244 55.60822

0.2531753 -0.1206392 -0.06900144 338.0406 236.0368 53.69317

0.2472807 -0.113272 -0.06433852 338.0406 236.0368 53.69316

0.2470469 -0.123004 -0.04422205 337.6238 235.7155 52.79117

0.2470469 -0.123004 -0.04422205 337.6238 235.7155 52.79117

0.2468555 -0.1288355 -0.02411422 338.4703 235.4335 52.66449

0.2440993 -0.137154 -0.006336879 338.4703 235.4335 52.66447

0.2440993 -0.137154 -0.006336879 338.1826 233.4153 52.82692

0.2405312 -0.1429595 0.01196414 338.1826 233.4153 52.82692

0.2357376 -0.148408 0.02895939 341.2073 230.6624 53.35306

0.2403331 -0.1551806 0.02762708 343.153 226.8659 54.7548

0.2403331 -0.1551806 0.02762708 343.153 226.8659 54.7548

0.2403331 -0.1551806 0.02762708 344.9835 223.6953 55.75922

0.2349226 -0.1597222 0.04364002 345.3786 221.5897 56.6948

0.2404459 -0.1691594 0.06075132 345.3786 221.5898 56.6948

0.2374632 -0.1661558 0.07825182 346.0782 220.7904 56.86067

0.2374632 -0.1661558 0.07825182 346.0782 220.7904 56.86067

0.2332692 -0.1638635 0.09409621 346.6613 220.4326 57.01824

0.2370288 -0.1760425 0.1093839 346.6613 220.4326 57.01825

0.2326784 -0.17222 0.1238526 346.7881 220.3066 57.23018

0.2326784 -0.17222 0.1238526 347.2458 220.5466 57.29987

0.2276753 -0.1695847 0.1361742 347.9059 220.8563 57.41803

0.2359645 -0.1878345 0.1374996 347.9059 220.8563 57.41803

0.231173 -0.18445 0.1496809 348.6736 221.6373 57.60874

0.2256841 -0.1820803 0.1605634 348.6736 221.6373 57.60874

0.2256841 -0.1820803 0.1605634 349.1348 224.2142 57.11747

0.2303374 -0.1940114 0.1753394 349.1348 224.2142 57.11747

0.2229074 -0.1902053 0.1886104 349.898 226.4714 56.23209

0.2229074 -0.1902053 0.1886104 350.7162 228.5299 55.44057

0.2288413 -0.1691913 0.201111 350.7162 228.5299 55.44056

0.2381506 -0.1973733 0.2052082 351.429 230.5442 55.33825

0.2356948 -0.195446 0.209836 351.429 230.5442 55.33826

0.2356948 -0.195446 0.209836 351.4629 231.735 57.6417

0.2441659 -0.1751519 0.2179155 351.793 232.092 60.2383

0.2531923 -0.2059256 0.2206804 351.9346 231.883 62.90325

0.2635959 -0.1846525 0.2272273 351.9346 231.883 62.90325

0.2635959 -0.1846525 0.2272273 352.3257 231.8842 65.6721

0.2730362 -0.1675435 0.2293293 352.7089 232.1819 68.4911

0.2916752 -0.2004122 0.2259457 352.7089 232.1819 68.49112

0.2916752 -0.2004122 0.2259457 353.8466 233.3947 70.8233

0.3022068 -0.1776187 0.2311138 353.8466 233.3947 70.8233

0.3071114 -0.1984095 0.230921 355.0756 234.0617 70.9796

0.3074686 -0.1970733 0.231589 355.0756 234.0617 70.97959

0.3074686 -0.1970733 0.231589 354.8126 233.8979 69.9971

0.3171479 -0.1698167 0.2399745 354.8126 233.8979 69.99711

0.3250624 -0.141417 0.2476771 352.6365 233.0641 73.36975

0.3411871 -0.214666 0.2413116 349.7791 232.1665 76.61275

0.353218 -0.1844831 0.2488462 349.7791 232.1664 76.61275

0.3628658 -0.1568916 0.2538402 346.3232 231.7649 79.37291

0.3628658 -0.1568916 0.2538402 343.1317 231.6247 81.93439

0.3685934 -0.2042764 0.2478769 343.1317 231.6247 81.93438

0.3685934 -0.2042764 0.2478769 340.0552 231.2956 84.24742

0.3667645 -0.1987473 0.2549827 337.2807 230.72 86.58762

0.3667645 -0.1987473 0.2549827 337.2807 230.72 86.58762

0.3685531 -0.2371957 0.237488 334.7197 229.298 89.19038

0.3670637 -0.2448178 0.2319965 332.2867 228.2126 91.88386

0.3670637 -0.2448178 0.2319965 332.2867 228.2126 91.88386

0.3676579 -0.253027 0.2220333 330.0476 227.394 93.84346

0.3737992 -0.2689134 0.2009496 327.9965 225.9189 95.10862

0.3848172 -0.2590338 0.192972 327.9965 225.9189 95.10861

0.3848172 -0.2590338 0.192972 329.1226 226.3086 93.82101

0.3962836 -0.2453973 0.1875109 327.8156 225.2288 92.8873

0.4069097 -0.2347391 0.1812356 327.8156 225.2288 92.88731

0.4069097 -0.2347391 0.1812356 328.8947 226.7342 91.57624

0.4164025 -0.2190045 0.1793605 328.8947 226.7342 91.57623

0.4164025 -0.2190045 0.1793605 326.8077 227.0744 90.03465

0.4247687 -0.2070351 0.1767934 326.8077 227.0743 90.03465

0.4295784 -0.1944556 0.179436 327.9386 229.7208 87.82821

0.4341327 -0.1813044 0.1822235 327.9386 229.7208 87.82821

0.4341327 -0.1813044 0.1822235 328.2683 231.7134 85.01125

0.4297658 -0.1889285 0.1864414 329.4898 232.8394 82.615

0.4294964 -0.1926531 0.1832229 329.6265 229.7657 85.30499

0.4294964 -0.1926531 0.1832229 329.6265 229.7657 85.30499

0.4279577 -0.2039226 0.1744155 328.7625 228.4467 88.32038

0.4279403 -0.2036712 0.1746109 327.9843 226.4884 90.27199

0.4305822 -0.2115161 0.1579993 327.9843 226.4884 90.27199

0.4305822 -0.2115161 0.1579993 330.2649 226.3046 90.76487

0.4251136 -0.2277303 0.1500705 331.3829 225.6819 90.67856

0.4250968 -0.2175863 0.1578052 331.8657 224.3553 91.33773

0.4193604 -0.2327693 0.1513566 331.8657 224.3553 91.33772

0.4112317 -0.2498313 0.1463774 331.6358 223.3449 92.66788

0.4112317 -0.2498313 0.1463774 331.2715 222.7051 93.71781

0.4033977 -0.235709 0.1616522 330.897 221.8284 94.55085

0.4033977 -0.235709 0.1616522 330.897 221.8284 94.55085

0.3923415 -0.2534524 0.1620178 330.7536 221.021 94.87624

0.3923415 -0.2534524 0.1620178 330.7536 221.021 94.87624

0.3842898 -0.1982583 0.1863699 328.8289 219.4633 95.74396

0.3842898 -0.1982583 0.1863699 327.3304 219.6229 96.43459

0.3806308 -0.2064876 0.1849372 325.4467 219.8775 96.54222

0.3802273 -0.2059247 0.1863891 325.4467 219.8775 96.54222

0.3659002 -0.1414796 0.1962961 325.4467 219.8775 96.54222

0.3659002 -0.1414796 0.1962961 323.7076 219.8591 96.91173

0.3659002 -0.1414796 0.1962961 323.2676 221.5801 93.3417

0.3668799 -0.1377379 0.1971268 323.2676 221.5801 93.3417

0.3494374 -0.09915122 0.1994008 322.3229 223.7698 89.66057

0.3482184 -0.09934054 0.2014286 321.2977 226.2139 86.78395

0.3482184 -0.09934054 0.2014286 321.2977 226.2139 86.78395

0.3422451 -0.1268582 0.1961465 319.6479 229.0912 83.64275

0.3193588 -0.1225164 0.1878838 319.6479 229.0912 83.64276

0.3193588 -0.1225164 0.1878838 318.4278 231.8703 80.34991

0.3149714 -0.1488941 0.1758528 317.6507 233.9712 77.89991

0.3064106 -0.1765943 0.165008 316.9507 236.5389 75.79095

0.2949004 -0.1486154 0.1637615 316.9507 236.5389 75.79094

0.2848791 -0.1684349 0.162309 316.0051 240.5139 72.42147

0.2848791 -0.1684349 0.162309 316.0051 240.5139 72.42147

0.2856701 -0.1740643 0.1548057 315.874 243.5402 69.55994

0.2724361 -0.1546941 0.1491548 315.6277 245.4953 67.30117

0.2659658 -0.1687615 0.1455356 315.6277 245.4953 67.30117

0.2659658 -0.1687615 0.1455356 315.2104 246.5143 66.24747

0.2545479 -0.1874435 0.1430702 315.5063 247.1953 65.49933

0.2417407 -0.178178 0.1378213 315.5063 247.1953 65.49933

0.2417407 -0.178178 0.1378213 315.5063 247.1953 65.49933

0.2339769 -0.1937916 0.1299243 314.1612 245.7716 67.7298

0.2339769 -0.1937916 0.1299243 313.0961 244.8678 69.84348

0.2273019 -0.1763062 0.1280173 313.0962 244.8679 69.8435

0.2258108 -0.1812466 0.1236836 313.3224 245.4937 70.38363

0.2179317 -0.2003279 0.1072984 313.688 246.0732 70.82432

0.2179317 -0.2003279 0.1072984 313.688 246.0732 70.82432

0.2064497 -0.2044845 0.0922106 313.1028 245.3694 72.69688

0.2042467 -0.2101638 0.08397999 313.379 244.9884 74.96886
