-0.01052187 -5.722046E-08 -0.5100761 270.0198 -2.561322E-06 0

-0.00671625 0.01776861 -0.5098308 272.1656 317.8324 42.44352

-0.00671625 0.01776861 -0.5098308 272.1656 317.8324 42.44352

-0.00671625 0.01776861 -0.5098308 272.1656 317.8324 42.44352

-0.0111804 -0.00155714 -0.5100597 270.4631 238.1937 121.3887

-0.008551963 0.01005541 -0.5100138 272.2527 319.4805 40.25235

-0.01956432 -0.002404919 -0.5095693 270.7776 253.3972 105.4709

-0.01956432 -0.002404919 -0.5095693 270.7776 253.3972 105.4709

-0.01408333 0.016917 -0.5094752 272.5289 214.5933 144.0595

-0.008669353 0.03602583 -0.5086024 274.5988 231.9555 126.7016

-0.003179584 0.05535001 -0.5069148 274.1028 205.918 152.1511

-0.003179584 0.05535001 -0.5069148 274.1028 205.918 152.1511

-0.0009790258 0.05861435 -0.5065566 274.3546 234.2101 123.9031

0.001703284 0.05671008 -0.5067715 274.8157 206.8702 150.4656

0.01103886 0.05087337 -0.5072864 273.1251 199.9642 156.8423

0.01103886 0.05087337 -0.5072864 273.1251 199.9642 156.8423

0.0167149 0.0691327 -0.5049661 273.742 233.8932 123.0691

0.01334191 0.04888441 -0.5074266 274.1806 200.5144 155.8509

0.02230836 0.06082065 -0.5058315 273.7117 230.2543 126.259

0.02230836 0.06082065 -0.5058315 273.7117 230.2543 126.259

0.01809451 0.04226169 -0.5078867 274.3353 199.3364 156.41

0.02408566 0.05004673 -0.5069296 273.7119 230.3348 125.4809

0.02254431 0.03700061 -0.5081065 275 205.5261 149.6143

0.02254431 0.03700061 -0.5081065 275 205.5261 149.6143

0.02752915 0.05392015 -0.506344 273.9101 227.3776 127.8015

0.02290102 0.03395173 -0.5083033 274.5254 199.849 154.5799

0.02315275 0.04182344 -0.5077175 273.9769 179.4435 174.1933

0.02315275 0.04182344 -0.5077175 273.9769 179.4435 174.1933

0.01544737 0.02705297 -0.5090107 273.5445 213.6313 140.2456

0.02092289 0.04637197 -0.5074192 274.4951 185.1612 168.0248

0.01780672 0.0300979 -0.50875 272.9108 209.3654 144.076

0.01780672 0.0300979 -0.50875 272.9108 209.3654 144.076

0.02338 0.04925219 -0.5070277 274.6837 193.6991 159.0582

0.02279948 0.03497346 -0.5082386 273.1712 218.2074 134.7274

0.03013739 0.05304686 -0.506313 275.2884 211.5768 140.6509

0.03013739 0.05304686 -0.506313 275.2884 211.5768 140.6509

0.0263153 0.03453295 -0.5081241 273.1732 212.2389 139.6053

0.02740983 0.03262462 -0.5081924 274.9292 212.4998 138.6788

0.02677216 0.03263992 -0.5082001 273.7674 186.9571 163.7654

0.02818557 0.03704286 -0.5078217 273.7674 186.9571 163.7653

0.02785923 0.03170671 -0.5082008 271.8993 215.8397 135.0365

0.02785923 0.03170671 -0.5082008 271.8993 215.8397 135.0365

0.02901123 0.03620104 -0.5078612 273.6349 186.363 163.8448

0.02769192 0.03124074 -0.508264 271.4808 198.6978 151.5707

0.03306228 0.04518033 -0.5068932 271.4808 198.6978 151.5708

0.03306228 0.04518033 -0.5068932 273.1654 165.2451 184.375

0.02954551 0.02466499 -0.5085011 271.8661 211.8673 138.2167

0.03496587 0.04171623 -0.5070422 274.0688 199.936 149.6612

0.03496587 0.04171623 -0.5070422 274.0688 199.936 149.6612

0.03090328 0.02243603 -0.5085236 272.0893 208.7879 140.5865

0.03577302 0.039631 -0.5071734 272.0893 208.7879 140.5865

0.03577302 0.039631 -0.5071734 274.2834 202.17 146.6296

0.03145886 0.02642475 -0.508318 272.526 213.708 134.9667

0.03663221 0.04486118 -0.5066761 274.8812 212.3233 135.8975

0.03682335 0.04485366 -0.5066704 274.8812 212.3233 135.8975

0.03389418 0.02781773 -0.5080945 275.7538 220.3259 127.1144

0.03389418 0.02781773 -0.5080945 277.0687 216.3638 130.0064

0.03963081 0.04536324 -0.5064131 277.0687 216.3638 130.0064

0.04052091 0.04529763 -0.5063821 278.0925 228.8067 116.7954

0.03833328 0.02757814 -0.5078254 279.562 229.2103 115.2303

0.04230256 0.03613443 -0.5069728 279.5619 229.2103 115.2303

0.04230256 0.03613443 -0.5069728 281.1017 231.2438 111.8258

0.03860326 0.01961821 -0.5082151 281.1017 231.2437 111.8258

0.03998483 0.03741794 -0.5071082 281.1017 231.2438 111.8258

0.03998483 0.03741794 -0.5071082 281.8531 229.3729 112.0117

0.03143925 0.03069128 -0.5081607 281.8531 229.3729 112.0117

0.03310906 0.04072306 -0.5074638 283.4333 225.0536 114.1863

0.03310906 0.04072306 -0.5074638 284.6522 221.4867 115.2608

0.02912687 0.04263539 -0.507551 285.8305 217.8948 116.1231

0.02701451 0.04385405 -0.5075639 285.8305 217.8948 116.1231

0.0263535 0.04374925 -0.5075904 286.9919 213.1795 117.8856

0.02605882 0.04320236 -0.5076525 287.8599 207.7932 120.1131

0.0269268 0.04107845 -0.5077835 288.3216 202.69 122.0132

0.0269268 0.04107845 -0.5077835 288.3216 202.69 122.0132

0.127636 0.06634583 -0.4791207 288.2736 197.7506 123.9275

0.127636 0.06634583 -0.4791207 287.6369 192.8819 125.8944

0.128395 0.07035021 -0.478346 287.6369 192.8819 125.8944

0.128395 0.07035021 -0.478346 286.2756 189.275 126.6469

0.1565703 0.08335539 -0.4591301 284.4842 191.9811 121.4683

0.1592079 0.06199888 -0.461597 284.4842 191.9811 121.4683

0.1592079 0.06199888 -0.461597 283.2043 189.0035 122.068

0.1690589 0.07552734 -0.4560455 283.2043 189.0035 122.068

0.1966971 0.09482906 -0.4334531 283.2043 189.0035 122.068

0.1966971 0.09482906 -0.4334531 281.8692 196.0641 112.7509

0.2011725 0.07140204 -0.4358845 281.6678 205.2022 102.9005

0.2036944 0.0474896 -0.4379694 281.6677 205.2022 102.9005

0.2165499 0.05393752 -0.4226072 281.3418 212.835 94.35809

0.2266006 0.06647161 -0.415492 281.3419 212.835 94.35809

0.2329848 0.04668134 -0.4146551 281.9371 219.9504 86.36624

0.2329848 0.04668134 -0.4146551 281.9371 219.9504 86.36624

0.2519484 0.03256662 -0.4017693 280.2418 216.966 88.21072

0.2661531 0.03200023 -0.3925502 281.5418 220.6693 84.54373

0.2661531 0.03200023 -0.3925502 281.0432 218.9283 86.93809

0.2661531 0.03200023 -0.3925502 281.0432 218.9283 86.93809

0.2803386 0.01550331 -0.3838788 283.0634 219.0161 87.26756

0.2894526 -0.006751928 -0.3773125 282.5712 213.6675 93.47005

0.2894526 -0.006751928 -0.3773125 285.2037 211.1689 96.32147

0.299007 -0.02679814 -0.3688763 285.2037 211.1689 96.32147

0.3051546 -0.0469469 -0.3658876 286.1013 202.9221 105.5301

0.3051546 -0.0469469 -0.3658876 286.1013 202.9221 105.5301

0.3144288 -0.06326028 -0.355429 286.1013 202.9222 105.5301

0.3144288 -0.06326028 -0.355429 286.9286 205.7754 103.4798

0.3168219 -0.0853951 -0.35544 289.912 200.0685 109.2136

0.3268735 -0.1046016 -0.3409079 289.912 200.0685 109.2136

0.3453029 -0.09907133 -0.3239703 292.6682 196.1259 113.6597

0.3453029 -0.09907133 -0.3239703 295.0289 193.2635 117.2902

0.3456219 -0.1152153 -0.3261891 295.0289 193.2635 117.2902

0.3626788 -0.1220905 -0.3044445 297.4641 191.8878 119.5063

0.3626788 -0.1220905 -0.3044445 299.5183 192.0262 119.932

0.362706 -0.1387954 -0.2971676 299.5183 192.0262 119.932

0.3558199 -0.1484041 -0.3069984 301.6563 192.0911 120.092

0.3558199 -0.1484041 -0.3069984 302.3245 189.5155 123.9418

0.3558199 -0.1484041 -0.3069984 302.3245 189.5155 123.9418

0.3525635 -0.1555087 -0.3072387 301.8967 191.8812 123.5369

0.3424518 -0.1656125 -0.318484 300.7168 189.5437 127.0651

0.3424518 -0.1656125 -0.318484 300.7168 189.5437 127.0651

0.3365918 -0.1704454 -0.32216 301.5779 191.7991 124.9872

0.3234322 -0.1775609 -0.3316572 303.5602 194.961 121.8997

0.321788 -0.1784594 -0.3338319 303.5602 194.961 121.8997

0.3291865 -0.1698925 -0.3310767 303.5602 194.961 121.8997

0.3291865 -0.1698925 -0.3310767 303.1212 194.2478 122.883

0.3377972 -0.1616437 -0.3265016 303.0967 199.3454 117.2376

0.3460055 -0.1508821 -0.325252 303.0967 199.3454 117.2375

0.3475739 -0.1682193 -0.3149107 303.5369 204.1653 112.1642

0.3475739 -0.1682193 -0.3149107 303.5369 204.1653 112.1642

0.3512413 -0.1572818 -0.3164902 302.6992 208.2647 107.435

0.3380334 -0.1718959 -0.3248666 302.608 211.5562 103.0667

0.3380334 -0.1718959 -0.3248666 302.608 211.5562 103.0667

0.326066 -0.1722849 -0.3366779 301.9551 209.0437 104.2013

0.326066 -0.1722849 -0.3366779 304.0526 211.2484 101.1314

0.327009 -0.1717483 -0.3355092 304.0526 211.2484 101.1314

0.3240362 -0.1716416 -0.3384352 305.0587 208.2896 102.9662

0.306884 -0.1810707 -0.3493341 306.9072 208.9778 101.6537

0.302224 -0.1707463 -0.3584761 307.9706 208.1799 101.5095

0.3127391 -0.1642727 -0.3464745 307.9706 208.1799 101.5095

0.311901 -0.1684222 -0.3452355 309.1562 208.5365 100.2657

0.3120703 -0.1674688 -0.3455462 310.8531 209.5603 98.82829

0.3120703 -0.1674688 -0.3455462 310.8531 209.5603 98.82829

0.3218822 -0.168533 -0.3205101 311.6727 207.7502 100.7119

0.3218822 -0.168533 -0.3205101 311.6727 207.7502 100.7119

0.3169168 -0.164338 -0.3275591 311.6727 207.7502 100.7119

0.3173614 -0.1695206 -0.324473 312.3196 208.1052 101.5299

0.3375564 -0.1463474 -0.2834631 313.7423 210.7467 99.28389

0.3356374 -0.1441845 -0.2868302 313.7423 210.7467 99.2839

0.3311518 -0.1519566 -0.2880293 315.0661 212.7156 98.18631

0.3311518 -0.1519566 -0.2880293 315.9003 213.841 98.13556

0.3286739 -0.1576025 -0.2878334 315.9003 213.841 98.13555

0.3276793 -0.1567589 -0.2894237 316.928 215.4735 97.52887

0.3276793 -0.1567589 -0.2894237 317.9261 217.2007 96.84153

0.3276793 -0.1567589 -0.2894237 317.9261 217.2007 96.84153

0.3302806 -0.1089628 -0.1979619 318.2861 218.9045 95.72292

0.3278027 -0.1125027 -0.200089 318.2861 218.9045 95.72292

0.3278027 -0.1125027 -0.200089 318.5742 221.0078 93.4744

0.3262583 -0.1136721 -0.2019438 318.9835 223.0388 90.65815

0.3152275 -0.08351392 -0.1635393 318.9835 223.0388 90.65815

0.3152275 -0.08351392 -0.1635393 319.4389 224.9862 87.79469

0.3125429 -0.08869629 -0.1659456 319.4389 224.9862 87.79469

0.3128631 -0.08639582 -0.1665549 319.7038 226.9666 84.76733

0.3128631 -0.08639582 -0.1665549 319.5833 228.9223 81.67649

0.3115997 -0.09182679 -0.1660167 319.5833 228.9223 81.67649

0.2867631 -0.05948471 -0.1227058 319.4341 230.8756 78.81516

0.2874244 -0.05845387 -0.1216495 319.4341 230.8756 78.81515

0.2868156 -0.06572732 -0.1193522 319.0842 231.1751 75.60057

0.2868156 -0.06572732 -0.1193522 319.0842 231.1751 75.60057

0.2712291 -0.05118138 -0.09664391 318.4701 231.8858 72.32737

0.2719131 -0.05778462 -0.09082414 317.655 232.3009 69.16844

0.2719131 -0.05778462 -0.09082414 317.655 232.3009 69.16844

0.2719131 -0.05778462 -0.09082414 316.8544 233.0664 66.07235

0.2648057 -0.04814006 -0.0774356 315.5451 233.737 62.99115

0.2660674 -0.05890595 -0.06460696 315.5451 233.737 62.99115

0.2660674 -0.05890595 -0.06460696 315.088 235.0682 60.42961

0.2670056 -0.06837225 -0.04968953 314.1674 231.7149 62.01526

0.2677008 -0.07624412 -0.03343794 314.1674 231.7149 62.01529

0.2677008 -0.07624412 -0.03343794 315.8872 232.3325 60.92362

0.2667627 -0.08453593 -0.01692217 314.0422 230.2196 61.22278

0.2645333 -0.09282673 -0.0005682707 314.0422 230.2195 61.22279

0.2684403 -0.09617589 -0.002276173 313.3541 230.3298 61.14384

0.2652837 -0.1036766 0.01381612 313.3541 230.3298 61.14386

0.2614167 -0.1100866 0.02928182 313.3541 230.3298 61.14384

0.2614167 -0.1100866 0.02928182 314.2099 230.8271 61.00201

0.2656014 -0.1238397 0.04207505 314.2099 230.8271 61.00201

0.2656014 -0.1238397 0.04207505 314.0378 227.7889 62.94783

0.2603454 -0.1288113 0.05725873 313.7516 225.3784 65.06586

0.2546232 -0.1328247 0.07193943 313.5978 225.6562 65.17493

0.2623327 -0.1420345 0.07032409 313.5978 225.6562 65.17493

0.2559466 -0.1459847 0.0843652 313.1743 226.3476 64.52728

0.2559466 -0.1459847 0.0843652 312.741 227.1181 63.67984

0.2512012 -0.1454012 0.09845903 312.741 227.1181 63.67985

0.2621407 -0.1606154 0.09678984 312.463 227.8255 63.09633

0.2564824 -0.1604805 0.1111129 312.4561 228.7094 62.94128

0.2564824 -0.1604805 0.1111129 312.4561 228.7094 62.94128

0.2518794 -0.1563219 0.1265051 313.6746 229.924 63.32208

0.2537462 -0.1729895 0.141529 313.8656 227.502 66.38367

0.2537462 -0.1729895 0.141529 313.8656 227.502 66.38367

0.2507029 -0.1636569 0.157186 316.6896 228.5835 65.75905

0.2470109 -0.1539842 0.1720972 319.2111 228.2655 65.45291

0.2610882 -0.1811256 0.1732826 319.2111 228.2655 65.4529

0.2601441 -0.1726515 0.1830762 321.5633 228.6274 65.09843

0.2645066 -0.151616 0.1950622 321.5633 228.6274 65.09843

0.2645066 -0.151616 0.1950622 320.5004 226.4112 65.42916

0.2719453 -0.1776949 0.2022795 320.5004 226.4112 65.42916

0.2680684 -0.1748118 0.2098258 321.6168 228.1355 65.33343

0.2680684 -0.1748118 0.2098258 321.6168 228.1355 65.33343

0.2680684 -0.1748118 0.2098258 322.7685 229.4437 66.35162

0.2812107 -0.2065472 0.2076758 323.0198 230.5268 67.68385

0.2820668 -0.203625 0.2093935 322.9568 231.7342 68.52544

0.2800418 -0.2003438 0.2151962 322.9568 231.7342 68.52544

0.2847963 -0.1768178 0.2291223 324.2942 234.4625 67.31422

0.2974905 -0.211992 0.2252309 324.2942 234.4625 67.31421

0.3040009 -0.1858594 0.2391858 324.1389 235.7686 66.1913

0.3040009 -0.1858594 0.2391858 324.1389 235.7686 66.1913

0.3084711 -0.1633116 0.2496897 325.502 234.1165 70.11633

0.3293646 -0.1799894 0.2532507 326.0912 232.2513 73.73751

0.3192246 -0.1821386 0.264451 326.6794 232.0903 76.81926

0.3192246 -0.1821386 0.264451 326.6794 232.0903 76.81926

0.3230745 -0.1575513 0.2753426 327.2307 231.0523 80.14753

0.3377236 -0.204732 0.2643228 327.4822 230.1512 82.967

0.3435174 -0.1819161 0.2733885 327.6682 228.5266 86.14374

0.3435174 -0.1819161 0.2733885 327.6682 228.5266 86.14374

0.3440688 -0.1662136 0.2825396 327.0507 226.1827 89.86

0.3528237 -0.196625 0.2778633 327.0507 226.1826 89.86001

0.3528237 -0.196625 0.2778633 327.1691 225.348 92.70992

0.3491274 -0.1926709 0.285205 327.169 225.3479 92.70994

0.3439038 -0.1928165 0.2913861 323.4334 222.8868 94.84616

0.3513049 -0.2257496 0.2748289 319.6766 220.6754 97.5552

0.3446149 -0.2299734 0.2797531 319.6766 220.6754 97.5552

0.3389308 -0.2357292 0.2818982 317.5444 219.0916 100.242

0.3389308 -0.2357292 0.2818982 317.5444 219.0916 100.242

0.3393865 -0.2661254 0.2622937 316.8067 217.5753 102.3005

0.3417726 -0.2722947 0.2526877 315.2164 216.4534 103.8646

0.3455701 -0.2751763 0.2442607 312.0157 214.8051 105.2791

0.3455701 -0.2751763 0.2442607 312.0157 214.8051 105.2791

0.3536116 -0.2830971 0.2264873 311.7405 215.6007 102.9711

0.3637106 -0.2782964 0.2162113 310.3594 217.8562 100.0401

0.3637106 -0.2782964 0.2162113 310.3594 217.8562 100.0401

0.3757701 -0.26282 0.2149516 309.497 217.4893 100.3442

0.3764549 -0.2663892 0.210928 309.497 217.4893 100.3442

0.3881156 -0.2516486 0.2078735 306.8251 218.1599 99.66432

0.398572 -0.2343667 0.20829 307.1533 220.0235 96.59423

0.398572 -0.2343667 0.20829 307.1533 220.0235 96.59423

0.4082264 -0.2190718 0.2072257 307.1533 220.0235 96.59424

0.4168618 -0.2008925 0.2084523 307.7506 220.9114 94.28466

0.4168618 -0.2008925 0.2084523 306.3697 217.6165 97.1651

0.4245116 -0.1874288 0.2055339 306.3697 217.6165 97.16509

0.4284303 -0.1903563 0.1957361 307.7857 219.0377 96.19141

0.4284303 -0.1903563 0.1957361 307.7857 219.0377 96.19141

0.437402 -0.1856411 0.1797706 308.8128 219.0457 96.03806

0.4325843 -0.1965068 0.1798794 309.2277 220.5816 94.26349

0.4324824 -0.1961126 0.1803705 309.2277 220.5816 94.26349

0.4359058 -0.1801536 0.1885885 308.9587 223.0183 91.15197

0.4312509 -0.1733828 0.2049287 306.0623 222.7923 91.39218

0.4231243 -0.1781746 0.2173806 305.5366 225.9177 89.16333

0.4234141 -0.1789915 0.2164444 305.5365 225.9177 89.16335

0.4233013 -0.1666641 0.2262845 303.6723 224.9788 90.99343

0.4210038 -0.1754899 0.2238856 303.7904 228.2866 89.20838

0.4210038 -0.1754899 0.2238856 303.7904 228.2866 89.20838

0.4206976 -0.1885507 0.2134545 303.2718 230.8783 87.1571

0.4255055 -0.1792408 0.2119399 303.2717 230.8783 87.15709

0.4255055 -0.1792408 0.2119399 303.2717 230.8783 87.15709

0.4234851 -0.1889864 0.2074732 302.1505 232.8184 85.17454

0.4233516 -0.1885855 0.2079511 302.7047 230.5148 87.74809

0.4185289 -0.2045861 0.2025162 302.8526 228.6636 89.51785

0.4185289 -0.2045861 0.2025162 302.8526 228.6636 89.51785

0.4183321 -0.2179188 0.1885322 302.8493 226.8232 91.41246

0.4166563 -0.2117634 0.1960853 302.9653 225.3361 92.7725

0.417522 -0.2244745 0.1793944 302.9653 225.3361 92.77251

0.4185477 -0.2305475 0.1690014 303.627 223.6734 94.19611

0.4185477 -0.2305475 0.1690014 304.2955 221.0656 96.34303

0.4114417 -0.2302442 0.1747571 304.2955 221.0656 96.34303

0.4134823 -0.2337115 0.1650696 304.2492 219.1282 97.47299

0.4070137 -0.2496232 0.1576857 305.1285 218.7997 97.57166

0.4070137 -0.2496232 0.1576857 305.1285 218.7997 97.57166

0.4078805 -0.2145766 0.1786792 306.0217 218.9858 97.22698

0.4078805 -0.2145766 0.1786792 306.0217 218.9858 97.22698

0.4084527 -0.2107079 0.1819465 306.5029 219.3636 96.68382

0.4084527 -0.2107079 0.1819465 306.8005 220.4237 96.1722

0.3941554 -0.1587875 0.2116422 306.8005 220.4237 96.17216

0.3941554 -0.1587875 0.2116422 306.7963 221.0364 95.97523

0.392453 -0.1597155 0.2140935 306.7963 221.0364 95.97523

0.3863032 -0.1695561 0.2176808 306.7435 221.555 95.67838

0.3626752 -0.1121325 0.2328238 306.7435 221.555 95.67838

0.3522307 -0.1300231 0.2394608 308.5153 225.2793 91.85202

0.3522307 -0.1300231 0.2394608 310.3597 228.021 88.86138

0.3522307 -0.1300231 0.2394608 310.3597 228.021 88.86138

0.3232429 -0.09190169 0.2444494 311.6545 230.6178 85.93099

0.3232429 -0.09190169 0.2444494 312.6414 232.8421 83.32553

0.3210223 -0.09823044 0.2449141 312.6413 232.8421 83.32555

0.3177523 -0.1087343 0.24474 313.4277 234.8396 80.88578

0.2974743 -0.07385719 0.2419221 314.0534 236.9032 78.3236

0.2974743 -0.07385719 0.2419221 314.0534 236.9032 78.3236

0.2938878 -0.1026583 0.2357189 314.3113 238.8887 75.79055

0.2891462 -0.1312549 0.2272416 314.1887 241.26 73.23508

0.268856 -0.1217074 0.214457 314.1887 241.26 73.23505

0.2652625 -0.1437533 0.2050826 313.9324 243.823 70.62364

0.2652625 -0.1437533 0.2050826 313.8925 246.3355 68.01817

0.2587707 -0.1656814 0.1966608 313.8925 246.3355 68.01818

0.2408052 -0.1599107 0.1859772 313.8925 246.3355 68.01816

0.2408052 -0.1599107 0.1859772 313.9454 248.8131 65.41855

0.2325724 -0.1807495 0.1771604 313.9454 248.8132 65.41853

0.2325724 -0.1807495 0.1771604 314.0872 251.7742 63.31339

0.2176242 -0.174657 0.1695489 314.5661 252.8427 62.42724

0.2070911 -0.1911172 0.1649233 314.566 252.8427 62.42724

0.2001752 -0.2017757 0.160713 313.0248 252.4299 62.41059

0.2001752 -0.2017757 0.160713 312.8777 254.9298 60.44513

0.1927247 -0.1842835 0.1570766 312.8777 254.9298 60.44513

0.1902032 -0.1927364 0.1498388 311.7716 254.2527 61.12758

0.1902032 -0.1927364 0.1498388 311.7716 254.2527 61.12758

0.1880772 -0.1981674 0.1453717 311.675 252.2549 64.37642

0.182703 -0.1842806 0.1436634 310.6234 250.693 66.71404

0.182703 -0.1842806 0.1436634 309.1909 249.2676 69.48096

0.1854849 -0.184655 0.1395594 309.1909 249.2676 69.48096

0.1831176 -0.2005818 0.1192217 309.2296 248.4425 72.03236

0.1790984 -0.1901969 0.1184497 309.2296 248.4424 72.03237

0.1739187 -0.2023934 0.1052172 307.4828 250.8974 70.18249

0.1788784 -0.2029943 0.09527478 308.3419 252.2689 70.93774

0.1788784 -0.2029943 0.09527478 308.3419 252.2689 70.93774

0.1800011 -0.2053448 0.08783269 308.3419 252.2689 70.93773

0.1818864 -0.206581 0.0807656 306.6535 252.5829 71.36909

0.1807146 -0.2032748 0.08083303 306.9234 255.9943 70.92319

0.1840802 -0.2039726 0.07086639 306.9234 255.9943 70.92319

0.1840802 -0.2039726 0.07086639 306.5678 259.7373 69.99215

0.1897995 -0.2017822 0.06142048 305.7601 263.675 68.2933

0.1928744 -0.210132 0.06066456 305.7601 263.675 68.29332

0.1928744 -0.210132 0.06066456 305.056 267.3898 66.33164

0.1928744 -0.210132 0.06066456 305.0463 271.3105 64.37614

0.1997708 -0.2063068 0.0506489 305.0463 271.3105 64.37614

0.2041303 -0.2188371 0.04880866 304.9475 274.6665 62.78621

0.2114137 -0.2141867 0.03700639 304.9475 274.6665 62.78621

0.2184135 -0.209043 0.02318911 304.6606 277.704 61.385

0.2308306 -0.2195762 0.003033857 303.5753 280.865 59.15586

0.2308306 -0.2195762 0.003033857 303.5753 280.865 59.15586

0.2372051 -0.2124536 -0.01014287 303.2276 284.7074 56.1067

0.2460624 -0.2006488 -0.0264385 303.5294 288.6981 52.98086

0.2604977 -0.2048961 -0.05104015 303.5294 288.698 52.98088

0.2604977 -0.2048961 -0.05104015 303.5294 288.698 52.98088

0.2678162 -0.1902228 -0.0673521 303.6362 291.0614 51.39718

0.2736127 -0.1750432 -0.08332171 302.2009 297.0558 46.50115

0.2851009 -0.1791564 -0.1136851 302.2009 297.0558 46.50115
