0.008290988 -5.722046E-08 -0.5101646 270.0198 -2.561322E-06 0

0.01607282 0.01892006 -0.5096391 270.3477 311.3061 47.96761

0.01607282 0.01892006 -0.5096391 270.3477 311.3061 47.96761

0.01607282 0.01892006 -0.5096391 270.3477 311.3061 47.96761

0.01075273 -0.0003659248 -0.5101299 270.2238 287.8297 70.64567

0.01434061 0.01837978 -0.509765 270.6383 218.3202 139.2128

0.008783741 -0.0008816528 -0.5102214 270.4088 305.3251 51.48785

0.008783741 -0.0008816528 -0.5102214 270.4088 305.3251 51.48785

0.01354969 0.01584412 -0.5098718 272.0698 224.6043 131.8367

0.01707342 0.03465549 -0.5088419 274.3257 218.5688 137.4188

0.01707342 0.03465549 -0.5088419 276.4895 217.0964 138.4252

0.01075523 0.01659611 -0.509923 276.4895 217.0963 138.4252

0.01075523 0.01659611 -0.509923 278.3477 217.0039 137.8506

0.01139287 0.01660263 -0.5099062 279.4684 217.8315 136.0685

0.01139287 0.01660263 -0.5099062 279.1245 215.3787 137.633

0.01755399 0.03301314 -0.5089321 279.1245 215.3787 137.633

0.01755399 0.03301314 -0.5089321 278.6408 214.5146 137.7117

0.01787267 0.03300897 -0.5089195 278.8231 220.3441 131.0609

0.01787267 0.03300897 -0.5089195 278.8747 215.9585 134.5477

0.01218627 0.0134119 -0.5099801 278.8747 215.9585 134.5477

0.01218627 0.0134119 -0.5099801 278.2117 221.4483 128.2543

0.01218627 0.0134119 -0.5099801 278.6725 217.5377 131.1512

0.01218627 0.0134119 -0.5099801 278.8529 221.3788 126.3363

0.01872542 0.03245227 -0.5089247 278.8529 221.3788 126.3363

0.01872542 0.03245227 -0.5089247 279.1643 215.322 131.4152

0.01936267 0.032444 -0.5088971 277.7721 211.459 134.4452

0.01936267 0.032444 -0.5088971 277.0636 206.3349 138.8265

0.01359629 0.0128603 -0.5099546 277.0637 206.3349 138.8265

0.01359629 0.0128603 -0.5099546 276.5419 207.1264 137.1957

0.02005196 0.03193171 -0.5089028 277.2453 215.5797 127.801

0.02005196 0.03193171 -0.5089028 277.7221 213.5116 128.7766

0.02005196 0.03193171 -0.5089028 276.6749 212.2995 129.1699

0.02005196 0.03193171 -0.5089028 276.6749 212.2995 129.1699

0.01941474 0.03194 -0.5089312 276.7981 216.4332 124.0962

0.01358097 0.0123908 -0.5099706 277.3668 214.1756 125.2856

0.01358097 0.0123908 -0.5099706 277.0077 216.2883 122.1825

0.01358097 0.0123908 -0.5099706 277.0077 216.2883 122.1825

0.0206085 0.03148207 -0.5089086 277.1617 212.8733 124.5454

0.0206085 0.03148207 -0.5089086 277.1671 215.3268 121.0753

0.0206085 0.03148207 -0.5089086 277.5661 221.1442 114.1772

0.0206085 0.03148207 -0.5089086 277.5661 221.1442 114.1772

0.0206085 0.03148207 -0.5089086 277.8208 219.2811 114.8257

0.01471983 0.01196709 -0.509945 276.9227 216.8519 116.2146

0.02105713 0.03108496 -0.5089147 276.5248 217.5024 114.3788

0.02105713 0.03108496 -0.5089147 276.5248 217.5024 114.3788

0.02105713 0.03108496 -0.5089147 276.5098 218.3214 112.3146

0.02105713 0.03108496 -0.5089147 276.5702 214.2299 115.1257

0.01512339 0.01159882 -0.5099418 274.4122 211.4364 117.2773

0.01512339 0.01159882 -0.5099418 274.4122 211.4364 117.2773

0.01512339 0.01159882 -0.5099418 273.3353 200.9822 126.5893

0.02141813 0.03073253 -0.508921 272.3141 196.6448 129.7633

0.02141813 0.03073253 -0.508921 271.4391 183.6579 141.6288

0.02141813 0.03073253 -0.508921 271.4391 183.6579 141.6288

0.01544787 0.01127226 -0.5099394 271.4093 143.6306 180.7095

0.01544787 0.01127226 -0.5099394 271.3435 199.4932 123.7271

0.01544787 0.01127226 -0.5099394 271.8005 194.9818 126.9135

0.01544787 0.01127226 -0.5099394 271.8005 194.9818 126.9135

0.01544787 0.01127226 -0.5099394 270.5578 235.2219 85.85712

0.02170809 0.03041837 -0.5089276 271.9624 212.8038 106.9904

0.02170809 0.03041837 -0.5089276 273.003 243.9076 74.80025

0.02170809 0.03041837 -0.5089276 273.003 243.9076 74.80025

0.01589978 0.01097963 -0.5099305 274.3761 228.4727 89.00404

0.01589978 0.01097963 -0.5099305 275.4836 226.9451 89.11256

0.01589978 0.01097963 -0.5099305 275.4788 223.7697 90.22224

0.02213169 0.03013458 -0.5089249 275.4788 223.7699 90.22215

0.02340557 0.03011764 -0.5088573 275.4772 233.8636 77.87784

0.01738366 0.01070784 -0.5098762 273.6432 273.2966 38.12774

0.01738366 0.01070784 -0.5098762 273.6432 273.2966 38.12774

0.01738366 0.01070784 -0.5098762 273.1103 310.5285 0.2409725

0.02133293 0.01067167 -0.5096679 274.3324 339.6809 329.8423

0.02133293 0.01067167 -0.5096679 274.3324 339.6809 329.8423

0.027538 0.02980971 -0.5086093 272.8912 339.4784 329.0182

0.027538 0.02980971 -0.5086093 275.1157 0.05266318 308.8626

0.03579566 0.02968214 -0.5078635 275.1155 0.05270147 308.8626

0.02976696 0.01035988 -0.509013 275.5542 16.47511 291.9453

0.02976696 0.01035988 -0.509013 276.1619 347.4246 320.3856

0.03594414 0.02945415 -0.5078663 276.1619 347.4246 320.3856

0.02899051 0.02956241 -0.5085158 275.3497 359.0364 307.0258

0.02899051 0.02956241 -0.5085158 277.8658 350.0683 315.3881

0.02899051 0.02956241 -0.5085158 277.8658 350.0683 315.3881

0.02294053 0.01021603 -0.5095802 279.9603 355.0849 309.8402

0.1317767 0.008667125 -0.4747124 282.525 351.7371 312.757

0.1375128 0.02616102 -0.4724382 282.525 351.7371 312.757

0.1375128 0.02616102 -0.4724382 282.525 351.7371 312.757

0.1375128 0.02616102 -0.4724382 283.9336 345.1118 318.4066

0.1720555 0.02426305 -0.4458457 283.9336 345.1118 318.4066

0.1720555 0.02426305 -0.4458457 282.1663 336.5512 325.6833

0.1667359 0.007717867 -0.4484526 282.1664 336.5512 325.6833

0.1667359 0.007717867 -0.4484526 282.0852 326.0104 335.3788

0.2002641 0.02201091 -0.4146377 282.0852 326.0104 335.3788

0.1966669 0.02171931 -0.4163713 284.4399 328.4762 331.8419

0.1861534 0.01642121 -0.4214166 285.3799 331.104 327.5249

0.1861534 0.01642121 -0.4214166 286.3815 329.6091 327.5801

0.1959505 0.01219076 -0.3984044 286.3815 329.6091 327.5801

0.1877207 0.006532631 -0.4024792 287.2775 328.7088 327.317

0.1802183 -0.0002681351 -0.4059465 286.9795 316.204 338.5561

0.1802183 -0.0002681351 -0.4059465 286.9795 316.204 338.5561

0.1891011 -0.002486401 -0.3829553 286.9795 316.204 338.5561

0.1843454 -0.008680344 -0.3851774 286.9795 316.204 338.5561

0.1806053 -0.01570095 -0.3867239 286.9795 316.204 338.5561

0.1790275 -0.02121397 -0.3871942 286.9795 316.204 338.5561

0.1892774 -0.01291443 -0.3649941 287.529 304.3934 349.1672

0.1873165 -0.01866943 -0.365756 289.2766 299.9799 352.5863

0.1873165 -0.01866943 -0.365756 290.353 297.4745 354.4594

0.1873165 -0.01866943 -0.365756 290.353 297.4745 354.4594

0.194244 -0.01086136 -0.345311 289.0121 297.0378 353.8188

0.1936579 -0.01224961 -0.3455937 290.2802 294.7278 355.1271

0.1936579 -0.01224961 -0.3455937 290.3699 282.3892 5.773896

0.1910388 -0.02613047 -0.3462799 290.3699 282.3892 5.773894

0.1944733 -0.03074581 -0.3276217 291.663 272.5254 14.22037

0.1940489 -0.04513816 -0.3262035 294.1542 266.269 19.22191

0.1940489 -0.04513816 -0.3262035 296.5826 260.299 23.83497

0.1951754 -0.05948627 -0.3232168 296.5826 260.299 23.83497

0.1985716 -0.06673058 -0.3075605 299.186 254.7433 27.98162

0.2028843 -0.07866745 -0.3018717 302.0236 249.5026 31.92549

0.2028843 -0.07866745 -0.3018717 304.7205 245.7741 34.71959

0.209076 -0.08639196 -0.2910227 304.7205 245.7741 34.7196

0.2215989 -0.09041399 -0.2803388 304.7205 245.7741 34.71959

0.2215989 -0.09041399 -0.2803388 304.7205 245.7741 34.71959

0.2265888 -0.1066223 -0.2704807 304.7205 245.7741 34.71959

0.2313869 -0.1187181 -0.2510349 304.7205 245.7741 34.71959

0.2385278 -0.1207505 -0.2432616 307.417 243.3205 36.57771

0.2385278 -0.1207505 -0.2432616 307.417 243.3205 36.57771

0.2385278 -0.1207505 -0.2432616 310.167 241.7255 38.13452

0.2447023 -0.1171736 -0.23031 313.0467 240.3223 39.31292

0.2447023 -0.1171736 -0.23031 313.0467 240.3223 39.31292

0.2447023 -0.1171736 -0.23031 313.0467 240.3223 39.31292

0.2447946 -0.1450092 -0.2137745 315.3801 239.984 39.9449

0.2449144 -0.1457745 -0.2143362 315.3801 239.984 39.9449

0.2431408 -0.16041 -0.2057292 315.3801 239.984 39.94491

0.2387405 -0.1752243 -0.1986774 316.888 240.144 40.36432

0.2315114 -0.1945091 -0.1980431 316.888 240.1439 40.36433

0.2315114 -0.1945091 -0.1980431 316.888 240.1439 40.36433

0.23784 -0.1862995 -0.1984365 317.839 240.3189 40.76022

0.2357452 -0.1943451 -0.1931493 317.8391 240.3189 40.76021

0.2330659 -0.19941 -0.1912285 317.8391 240.3189 40.76022

0.2329118 -0.1960246 -0.1894498 318.5118 240.4353 41.13545

0.2291524 -0.19953 -0.1903726 318.5118 240.4353 41.13544

0.2291524 -0.19953 -0.1903726 318.5118 240.4353 41.13544

0.2268178 -0.2080722 -0.1839141 319.0346 240.5072 41.4778

0.2267898 -0.2069318 -0.1833427 319.0346 240.5072 41.47779

0.2262036 -0.2111108 -0.1792572 319.0346 240.5072 41.47779

0.228543 -0.2147794 -0.1717756 319.4658 240.549 41.78418

0.2326416 -0.2095009 -0.1727895 319.4658 240.549 41.78419

0.232723 -0.2117913 -0.1739112 319.4658 240.549 41.78418

0.2408677 -0.2051201 -0.1707896 319.8351 240.5692 42.05615

0.2408677 -0.2051201 -0.1707896 319.8351 240.5692 42.05615

0.2408677 -0.2051201 -0.1707896 320.1594 240.5727 42.29667

0.2379154 -0.2080436 -0.1713905 320.1594 240.5727 42.29668

0.2379294 -0.2083294 -0.1715314 320.4489 240.5626 42.50902

0.2379294 -0.2083294 -0.1715314 322.5532 240.1738 43.34521

0.2379294 -0.2083294 -0.1715314 322.5532 240.1738 43.34521

0.2379294 -0.2083294 -0.1715314 324.8918 239.7048 44.09919

0.2420386 -0.2076415 -0.166021 327.3003 239.0574 44.84713

0.2420386 -0.2076415 -0.166021 329.5486 238.5847 45.5289

0.2420386 -0.2076415 -0.166021 329.5486 238.5847 45.5289

0.2514879 -0.1986059 -0.1630036 331.7074 238.6206 46.01401

0.251289 -0.1968807 -0.1621996 333.9755 238.9011 46.46901

0.251289 -0.1968807 -0.1621996 333.9755 238.9011 46.46901

0.251289 -0.1968807 -0.1621996 336.3712 239.2389 46.81393

0.2438328 -0.2094501 -0.1577754 338.7381 239.4551 47.1517

0.2439662 -0.211196 -0.1585476 340.7388 239.7211 47.36153

0.2513222 -0.2017951 -0.1593 340.7388 239.7211 47.36151

0.2513222 -0.2017951 -0.1593 342.7641 240.1026 47.43477

0.2513222 -0.2017951 -0.1593 344.8722 240.9175 47.28675

0.2497544 -0.2078866 -0.1538393 346.6599 241.8086 47.4336

0.2521545 -0.203693 -0.1555245 346.6599 241.8086 47.43359

0.2521545 -0.203693 -0.1555245 348.3002 242.0849 48.07664

0.2521545 -0.203693 -0.1555245 350.1269 242.0708 48.6727

0.2509996 -0.2050292 -0.1493634 351.5031 242.6498 48.93316

0.2509996 -0.2050292 -0.1493634 351.5031 242.6498 48.93316

0.2509996 -0.2050292 -0.1493634 351.5031 242.6498 48.93316

0.244056 -0.2151966 -0.1465412 352.8775 243.249 49.19826

0.2435657 -0.2101828 -0.144536 353.7545 243.744 49.25721

0.2435657 -0.2101828 -0.144536 353.7545 243.744 49.25721

0.2362008 -0.2186211 -0.1442419 354.6931 244.097 49.41735

0.2444915 -0.2095502 -0.1438902 354.6931 244.097 49.41736

0.24336 -0.20107 -0.1403761 354.6931 244.097 49.41734

0.2349009 -0.2126329 -0.1377225 355.632 244.4626 49.57806

0.2417855 -0.2031824 -0.1400548 355.632 244.4626 49.57805

0.2391618 -0.2085235 -0.1366685 356.5711 244.8411 49.73991

0.2375342 -0.1982691 -0.1325707 357.2267 244.9293 49.94184

0.2373405 -0.1976425 -0.133847 357.2267 244.9293 49.94185

0.2377018 -0.1955995 -0.1361865 357.964 245.0574 50.03288

0.2433598 -0.1865272 -0.1388946 358.8584 245.1989 50.14896

0.2433598 -0.1865272 -0.1388946 358.8584 245.1989 50.14896

0.2337028 -0.1829914 -0.1309329 359.764 245.407 50.24103

0.2337028 -0.1829914 -0.1309329 359.764 245.407 50.24103

0.2382966 -0.1801915 -0.1264595 359.764 245.407 50.24103

0.2359392 -0.1832747 -0.1264491 359.764 245.407 50.24102

0.2264184 -0.1802928 -0.1148018 359.764 245.407 50.24103

0.2264184 -0.1802928 -0.1148018 0.6689298 245.6296 50.33281

0.229054 -0.1772787 -0.1142663 0.6689281 245.6296 50.33281

0.2284263 -0.1822674 -0.1074723 0.6689144 245.6296 50.33281

0.2342457 -0.1799887 -0.09840365 1.572726 245.8676 50.42514

0.2342457 -0.1799887 -0.09840365 2.292164 245.687 50.42912

0.2237183 -0.1588769 -0.08830259 3.009837 245.5199 50.42383

0.2264397 -0.1562264 -0.08606677 3.00983 245.5199 50.42383

0.2264391 -0.1567408 -0.08512781 3.725231 245.367 50.41017

0.2264391 -0.1567408 -0.08512781 4.466636 245.3226 50.23004

0.2216463 -0.1512115 -0.07621063 5.177288 245.2849 49.96785

0.2244947 -0.1470938 -0.07593148 5.177281 245.2849 49.96783

0.2223209 -0.1468739 -0.06889071 5.991459 245.0926 49.7654

0.2223209 -0.1468739 -0.06889071 6.878889 244.9523 49.59824

0.2219597 -0.1496522 -0.06389514 7.752428 244.8271 49.46399

0.2221403 -0.150336 -0.06162216 7.75244 244.8271 49.46399

0.2200659 -0.1531938 -0.05388915 8.539298 244.7855 49.29668

0.2200659 -0.1531938 -0.05388915 9.221299 244.8127 49.139

0.2200659 -0.1531938 -0.05388915 9.832679 244.9878 49.07701

0.2200659 -0.1531938 -0.05388915 10.42534 245.3528 49.1308

0.2202141 -0.153465 -0.05396795 10.42534 245.3528 49.1308

0.2188427 -0.1561184 -0.05189618 11.05877 245.6218 49.30305

0.2188427 -0.1561184 -0.05189618 11.64529 245.966 49.55529

0.2220385 -0.1542598 -0.0431406 12.1984 246.3675 49.80798

0.223085 -0.1561708 -0.04362814 12.1984 246.3675 49.80798

0.223085 -0.1561708 -0.04362814 12.61401 247.2342 50.4494

0.2252339 -0.154107 -0.03975396 12.97637 248.1234 51.02289

0.2252339 -0.154107 -0.03975396 12.97637 248.1234 51.02289

0.2265852 -0.1565574 -0.04039366 13.23045 249.2085 51.71962

0.2265477 -0.1584656 -0.03236541 13.48891 250.3092 52.4817

0.2265477 -0.1584656 -0.03236541 13.48891 250.3092 52.4817

0.2268438 -0.1590176 -0.03248636 13.69202 251.4769 53.20471

0.2268438 -0.1590176 -0.03248636 13.80579 252.7051 53.9728

0.2268438 -0.1590176 -0.03248636 13.72803 254.0396 54.78275

0.2268438 -0.1590176 -0.03248636 13.72803 254.0396 54.78275

0.2283383 -0.159866 -0.0325384 13.57628 255.3428 55.62897

0.2283785 -0.1611615 -0.02498976 13.38629 256.6289 56.39947

0.2283785 -0.1611615 -0.02498976 13.38629 256.6289 56.39947

0.2291272 -0.1598602 -0.02645169 13.30163 257.7748 57.12981

0.2276207 -0.1675557 -0.01748696 13.29135 258.8932 57.86274

0.2226327 -0.174873 -0.006781983 13.20397 260.04 58.71353

0.2226327 -0.174873 -0.006781983 13.20397 260.04 58.71353

0.2224608 -0.1749612 0.009573883 13.04775 261.1542 59.5562

0.2243039 -0.1790128 0.009219217 12.85891 262.2816 60.4083

0.2235833 -0.1785451 0.02397833 12.85891 262.2816 60.4083

0.2235833 -0.1785451 0.02397833 12.69926 263.4349 61.24352

0.2235833 -0.1785451 0.02397833 12.69926 263.4349 61.24352

0.2249442 -0.1828725 0.03401095 12.60173 264.5865 62.12742

0.2249442 -0.1828725 0.03401095 12.45744 265.8081 63.16999

0.2230833 -0.1842845 0.03836752 12.45744 265.808 63.16999

0.2230833 -0.1842845 0.03836752 12.45744 265.808 63.16999

0.2258299 -0.1910822 0.03813037 11.81514 267.126 64.02892

0.2258299 -0.1910822 0.03813037 11.81514 267.126 64.02892

0.2199121 -0.1951094 0.05036347 11.25425 268.5044 64.88422

0.2199121 -0.1951094 0.05036347 11.25425 268.5044 64.88422

0.2199121 -0.1951094 0.05036347 10.693 270.0749 65.88171

0.2160316 -0.2004672 0.0639522 10.30958 271.6588 66.92631

0.216133 -0.1964634 0.07506883 10.30958 271.6588 66.9263

0.216133 -0.1964634 0.07506883 10.12578 273.2598 68.03247

0.2133895 -0.1983114 0.07800104 10.03661 274.8999 69.17074

0.2052338 -0.2069444 0.08845888 10.03662 274.8999 69.17074

0.2019284 -0.2072885 0.095017 9.8428 276.5992 70.15723

0.2019284 -0.2072885 0.095017 9.505657 278.2227 70.91989

0.203117 -0.2034159 0.1006843 9.505645 278.2227 70.91988

0.2042651 -0.2073852 0.1010285 9.085906 279.7613 71.54017

0.2074784 -0.201896 0.1055003 8.671312 281.2493 72.2683

0.2074784 -0.201896 0.1055003 8.205461 282.6894 72.98338

0.2074784 -0.201896 0.1055003 8.205461 282.6894 72.98338

0.2126221 -0.2014727 0.1125374 7.756944 284.0692 73.71407

0.2126221 -0.2014727 0.1125374 7.297541 285.4336 74.45109

0.2088061 -0.2033767 0.1161983 6.788817 286.751 75.37381

0.2088061 -0.2033767 0.1161983 6.788817 286.751 75.37381

0.2088061 -0.2033767 0.1161983 6.241612 288.1621 76.45771

0.2064769 -0.2143109 0.1210003 6.241622 288.1621 76.45773

0.1985714 -0.2193928 0.1250566 5.783059 289.6371 77.61632

0.1985714 -0.2193928 0.1250566 5.351418 291.1187 78.96498

0.1985714 -0.2193928 0.1250566 4.940935 292.6833 80.30725

0.2000806 -0.2271886 0.1257792 4.94093 292.6833 80.30725

0.193232 -0.2313643 0.128838 4.685903 294.4125 81.39272

0.193232 -0.2313643 0.128838 4.093671 295.9915 81.72967

0.193232 -0.2313643 0.128838 3.48173 297.5637 81.84982

0.1941421 -0.2373418 0.1292431 3.48173 297.5637 81.84982

0.1941421 -0.2373418 0.1292431 2.933516 298.8953 83.07452

0.1941421 -0.2373418 0.1292431 2.933516 298.8953 83.07452

0.1951946 -0.2314897 0.137977 3.548957 299.0023 85.40469

0.1958499 -0.2362093 0.1384054 3.922828 299.8318 83.31909

0.1958499 -0.2362093 0.1384054 3.212011 298.8321 85.06889

0.1932234 -0.2389068 0.137464 3.212018 298.8321 85.06888

0.1932234 -0.2389068 0.137464 3.814317 299.708 83.14846

0.1937972 -0.2436477 0.1377523 2.380531 298.744 84.42957

0.1926047 -0.2406757 0.1444848 2.380524 298.744 84.42957

0.1926047 -0.2406757 0.1444848 3.322026 300.3615 83.64474

0.1926047 -0.2406757 0.1444848 3.322026 300.3615 83.64474

0.1914685 -0.2426711 0.1426456 1.764667 299.1499 83.75941

0.1917382 -0.2452036 0.1428017 3.367328 300.0521 83.41654

0.1912316 -0.2430604 0.1470809 2.745757 297.9438 83.43139

0.1906308 -0.2448566 0.1448648 2.745757 297.9438 83.43138

0.1908711 -0.2427977 0.1479804 4.379476 299.0123 83.19644

0.1912634 -0.2472324 0.1483232 3.230868 298.1466 82.03814

0.1979317 -0.2410694 0.1497128 4.31695 299.0312 83.69495

0.2042432 -0.2343244 0.1519279 4.316953 299.0312 83.69494

0.2042432 -0.2343244 0.1519279 4.071572 299.0734 81.45466

0.2101039 -0.2282788 0.1542633 5.598527 298.8595 82.64524

0.2165144 -0.2198751 0.1575706 5.59852 298.8594 82.64524

0.2165144 -0.2198751 0.1575706 4.520199 299.4328 81.36317

0.2198709 -0.2145603 0.1602271 4.760518 299.3253 83.55192

0.2154801 -0.2167201 0.1653676 4.77008 301.0716 82.26577

0.2156109 -0.2179513 0.1635691 4.770086 301.0716 82.26576

0.2156109 -0.2179513 0.1635691 3.774556 299.4865 83.56819

0.2123345 -0.2155884 0.1708256 3.774556 299.4865 83.5682

0.2084528 -0.2247379 0.1678517 4.988884 300.5684 82.67167

0.2112139 -0.2193962 0.1714289 3.562759 299.1672 82.89742

0.2112139 -0.2193962 0.1714289 3.562759 299.1672 82.89742

0.2149209 -0.2225896 0.1651208 5.097643 299.9422 82.28843

0.2149209 -0.2225896 0.1651208 5.097643 299.9422 82.28843

0.2144611 -0.2206887 0.1682408 3.89525 298.6615 83.67529

0.2065892 -0.229825 0.1658414 3.895241 298.6615 83.67529

0.2122989 -0.2212183 0.1702752 4.97844 300.4411 83.57178

0.2128071 -0.2240295 0.1705564 3.699047 298.6824 84.19913

0.2155052 -0.2220106 0.1698068 4.674738 297.0898 85.2978

0.2177829 -0.2156543 0.1750124 4.674747 297.0898 85.2978

0.217449 -0.2182605 0.1721738 4.477387 298.5938 84.21562

0.2176402 -0.2191941 0.1722603 4.198618 297.8888 86.47652

0.2213505 -0.2161341 0.1713969 4.198613 297.8888 86.47652

0.2169459 -0.2183165 0.1742392 4.40444 299.2878 84.96392

0.2068784 -0.2268059 0.1756341 4.404433 299.2878 84.96391

0.2074386 -0.2302568 0.1759274 3.822392 298.2718 86.96965

0.2149371 -0.2197122 0.1803552 4.538993 300.2879 86.79263

0.2122556 -0.2250674 0.1768944 3.781487 298.0073 86.62639

0.2162791 -0.2202644 0.1780626 3.781494 298.0073 86.6264

0.2175083 -0.2274638 0.1787478 5.158246 298.5901 85.53209

0.2182343 -0.2322249 0.1715978 3.680429 297.3048 86.02716

0.2182343 -0.2322249 0.1715978 3.680429 297.3048 86.02716

0.2216337 -0.2286244 0.1720749 2.070941 297.4864 86.01706

0.2291653 -0.2290983 0.1612377 0.6427377 298.1864 87.50381

0.2336293 -0.2289917 0.1651841 0.6427463 298.1864 87.50382

0.2336293 -0.2289917 0.1651841 1.543271 298.1383 86.83365

0.2318801 -0.2314729 0.1641874 1.54327 298.1383 86.83364

0.2302165 -0.2298893 0.1686918 2.516745 297.245 88.37326

0.2206491 -0.2459515 0.1686134 0.8539829 296.662 90.09828

0.2206491 -0.2459515 0.1686134 359.0632 297.2856 91.92886

0.2160102 -0.2481128 0.1714299 359.0632 297.2856 91.92886

0.2160102 -0.2481128 0.1714299 357.0997 298.9317 91.90875

0.2124154 -0.2534672 0.1685718 355.3996 297.703 90.99133

0.2026526 -0.2607183 0.1695292 355.3996 297.7031 90.99133

0.2026526 -0.2607183 0.1695292 356.3818 298.4966 92.65456

0.2026526 -0.2607183 0.1695292 354.7797 296.7836 94.00816

0.2022832 -0.2533963 0.1692797 355.0291 297.4372 96.58083

0.2022832 -0.2533963 0.1692797 355.0291 297.4372 96.58083

0.2023197 -0.2563859 0.164672 354.6344 296.4626 99.83885

0.2023197 -0.2563859 0.164672 355.2108 296.3831 101.0275

0.2008885 -0.2405222 0.1639507 355.2108 296.3831 101.0275

0.2008885 -0.2405222 0.1639507 353.6598 294.402 101.2148

0.2049785 -0.2426405 0.1555517 353.6597 294.402 101.2148

0.2049785 -0.2426405 0.1555517 351.7862 294.7928 100.3995

0.2049785 -0.2426405 0.1555517 351.7862 294.7928 100.3995

0.2050606 -0.2239049 0.1556682 350.2209 293.4799 99.47434

0.2045203 -0.2273512 0.1513233 349.6233 293.841 97.37373

0.2045203 -0.2273512 0.1513233 349.6233 293.841 97.37373

0.208568 -0.2238803 0.150973 349.6233 293.841 97.37372

0.1949391 -0.2168336 0.151535 348.2858 292.0095 96.73979

0.1973052 -0.2160099 0.1496373 348.2859 292.0095 96.73978

0.1973052 -0.2160099 0.1496373 347.3049 290.2908 96.08253

0.1973052 -0.2160099 0.1496373 347.3049 290.2908 96.08253

0.1939483 -0.2009578 0.1471218 346.8173 288.5265 95.55937

0.1962626 -0.1997783 0.1456516 346.9259 286.7488 95.44035

0.1962626 -0.1997783 0.1456516 346.9259 286.7488 95.44035

0.1962626 -0.1997783 0.1456516 347.7526 284.8607 95.41943

0.1921149 -0.177988 0.1444711 348.993 283.0385 95.34752

0.1921149 -0.177988 0.1444711 348.993 283.0385 95.34752

0.1913738 -0.1829256 0.1391907 349.2631 281.0825 95.30591

0.1884832 -0.1744253 0.1369697 348.5853 279.4951 94.77452

0.1884832 -0.1744253 0.1369697 348.5853 279.4951 94.77452

0.1907621 -0.1691567 0.1403803 347.1943 278.6741 92.57719

0.1842526 -0.1533592 0.1351902 346.3467 280.3631 89.07748

0.1842526 -0.1533592 0.1351902 346.3467 280.3631 89.07748

0.1842526 -0.1533592 0.1351902 345.2087 281.4597 85.89899

0.1827227 -0.1587376 0.1309934 344.0973 282.5641 82.93932

0.1770326 -0.1466157 0.1268015 344.0973 282.5641 82.93932

0.1788488 -0.1425198 0.1289051 344.0973 282.5641 82.93932

0.1788488 -0.1425198 0.1289051 342.8488 282.4238 80.51258

0.1788488 -0.1425198 0.1289051 342.8488 282.4238 80.51258

0.1768865 -0.1387992 0.1274072 340.5775 284.9662 78.88058

0.1758294 -0.1431746 0.1239827 338.3808 287.6305 77.53709

0.1758294 -0.1431746 0.1239827 338.3808 287.6305 77.53709

0.1758294 -0.1431746 0.1239827 335.9293 288.2995 79.15833

0.1752644 -0.1421056 0.1235757 334.9782 288.2931 82.19599

0.1767679 -0.1378412 0.1262357 334.9782 288.2931 82.19599

0.1767679 -0.1378412 0.1262357 333.6252 287.9403 82.2804

0.1767679 -0.1378412 0.1262357 333.5116 287.6473 84.94472

0.1760792 -0.1433232 0.1234554 333.5116 287.6473 84.94472

0.1760792 -0.1433232 0.1234554 332.9803 287.5471 87.52003

0.1760792 -0.1433232 0.1234554 332.3299 287.6205 89.44003

0.1775623 -0.1392239 0.125996 332.3299 287.6205 89.44003

0.1768443 -0.1379046 0.1254601 331.9849 288.0953 90.23926

0.1768443 -0.1379046 0.1254601 331.7368 288.6312 90.27861

0.1756399 -0.1421068 0.1224258 331.7368 288.6313 90.27861

0.1756399 -0.1421068 0.1224258 331.478 289.1329 90.00804

0.1756399 -0.1421068 0.1224258 331.478 289.1329 90.00804

0.1773118 -0.1385408 0.125301 330.8338 289.4704 89.67978

0.1773118 -0.1385408 0.125301 330.8338 289.4704 89.67978

0.1763789 -0.1480586 0.1153366 330.0457 290.485 88.69202

0.1748543 -0.1596699 0.1027958 330.0457 290.485 88.69202

0.1748543 -0.1596699 0.1027958 326.5413 292.0749 88.01313

0.1748543 -0.1596699 0.1027958 322.9392 293.8084 87.31985

0.1802954 -0.156531 0.0981176 322.9392 293.8084 87.31985

0.1816591 -0.1593231 0.09883659 319.3523 295.495 86.70074

0.1816591 -0.1593231 0.09883659 319.3523 295.495 86.70074

0.1860279 -0.157244 0.09391748 316.1114 297.9221 85.08892

0.1860279 -0.157244 0.09391748 313.3986 299.4763 83.79624

0.1860279 -0.157244 0.09391748 313.3986 299.4763 83.79624

0.1915457 -0.1688354 0.09639855 311.5435 301.93 81.53422

0.1913094 -0.1705569 0.09380247 309.9092 301.129 83.11795

0.1913094 -0.1705569 0.09380247 309.9092 301.129 83.11795

0.1921106 -0.1728596 0.08775481 308.8556 300.5904 84.43731

0.1976362 -0.186641 0.08980022 308.0853 301.052 84.58448

0.1976362 -0.186641 0.08980022 308.0853 301.052 84.58448

0.1997234 -0.1851974 0.08815619 307.0559 301.2734 84.83567

0.1997234 -0.1851974 0.08815619 306.6276 301.4108 85.73432

0.1997234 -0.1851974 0.08815619 306.6276 301.4108 85.73432

0.2052454 -0.2017224 0.09016146 306.6276 301.4108 85.73431

0.2054194 -0.2034084 0.08587497 306.6276 301.4108 85.73431

0.2054194 -0.2034084 0.08587497 306.271 302.018 86.04087

0.2054194 -0.2034084 0.08587497 303.0983 305.3253 83.45489

0.2110407 -0.2182761 0.08638394 303.0983 305.3253 83.45486

0.2110407 -0.2182761 0.08638394 300.2171 308.4557 80.89334

0.21259 -0.2229284 0.06894369 297.4054 313.032 76.66835

0.21259 -0.2229284 0.06894369 297.4054 313.032 76.66835

0.2170537 -0.2483571 0.06846093 294.8578 317.8842 71.88776

0.2170537 -0.2483571 0.06846093 293.6193 324.2481 65.51437

0.2170537 -0.2483571 0.06846093 293.6193 324.2481 65.51437

0.2261409 -0.2777198 0.04883065 293.6339 331.6422 58.61769

0.2261409 -0.2777198 0.04883065 293.3478 338.3391 52.37441

0.2261409 -0.2777198 0.04883065 293.3478 338.3391 52.37441

0.2332086 -0.2743936 0.03121379 292.8107 343.716 47.35108

0.2397503 -0.3039662 0.004386406 293.4594 339.8324 52.73463

0.2471334 -0.297645 -0.01508062 293.4594 339.8324 52.73463

0.2471334 -0.297645 -0.01508062 293.4594 339.8324 52.73463

0.2626696 -0.2831772 -0.02664991 293.4594 339.8324 52.73463

0.2626696 -0.2831772 -0.02664991 293.3092 336.0136 58.24833

0.2762884 -0.2973905 -0.05104008 292.7223 333.1389 61.77243

0.2896622 -0.2822666 -0.06166738 292.7223 333.1389 61.77242

0.3027006 -0.2657676 -0.07156394 292.654 330.5417 63.88263

0.3154472 -0.2480101 -0.07978463 291.7713 331.1008 63.15022

0.3145496 -0.271465 -0.09394811 291.7713 331.1008 63.1502

0.3145496 -0.271465 -0.09394811 291.0383 335.4415 58.04328

0.3275187 -0.2528804 -0.1012124 290.2903 341.1119 51.93052

0.3275187 -0.2528804 -0.1012124 290.2903 341.1119 51.93052

0.3235773 -0.2806723 -0.1205713 290.0347 347.0347 45.71872

0.3379487 -0.2600749 -0.1271548 290.4737 349.6806 42.99699

0.3513326 -0.2385382 -0.1329719 290.4737 349.6805 42.99699

0.3513326 -0.2385382 -0.1329719 290.6967 353.0935 39.28969

0.3585651 -0.2424204 -0.1607842 291.2012 355.1759 36.88628

0.3585651 -0.2424204 -0.1607842 291.2012 355.1759 36.88628

0.3585651 -0.2424204 -0.1607842 292.0679 356.7014 35.30247

0.3585651 -0.2424204 -0.1607842 292.0306 358.5436 32.80268

0.3492795 -0.2670088 -0.1830029 292.0306 358.5436 32.80267

0.3492795 -0.2670088 -0.1830029 292.6324 0.7170373 30.40053

0.3618574 -0.2436292 -0.1910075 290.989 0.8465655 29.42328

0.3618574 -0.2436292 -0.1910075 290.989 0.8465655 29.42328

0.3580524 -0.2441488 -0.2235211 290.989 0.8465748 29.42328

0.3703871 -0.2194154 -0.2290024 291.5237 1.328703 28.88962

0.3703871 -0.2194154 -0.2290024 289.196 11.68491 17.66569

0.3644375 -0.2287063 -0.2386705 289.196 11.68493 17.66566

0.3716542 -0.2094535 -0.2451268 287.6856 23.81915 4.866373

0.3818107 -0.1847484 -0.2493461 287.5565 36.21391 352.3447

0.3727 -0.1913335 -0.2721201 287.5565 36.21391 352.3447

0.3727 -0.1913335 -0.2721201 287.5565 36.21391 352.3447

0.3773905 -0.1779341 -0.2747344 289.0792 46.3752 342.4045

0.3812459 -0.167794 -0.2757895 289.0792 46.3752 342.4045

0.3743102 -0.1677183 -0.2911597 289.0792 46.37519 342.4045

0.3743102 -0.1677183 -0.2911597 289.0792 46.37519 342.4045

0.3735475 -0.1595417 -0.2966822 289.0792 46.37519 342.4045

0.3716036 -0.1504473 -0.3037893 289.0792 46.37522 342.4045

0.3703131 -0.139847 -0.3107293 289.0792 46.3752 342.4045

0.3703131 -0.139847 -0.3107293 290.8565 47.68373 342.1795

0.3703473 -0.1221635 -0.3180576 290.8565 47.68374 342.1794

0.3695101 -0.1119855 -0.3227432 290.8565 47.68373 342.1794

0.3567948 -0.1128884 -0.3410376 290.8565 47.68373 342.1795

0.3549835 -0.1046757 -0.345518 291.2691 46.89248 344.1033

0.3549835 -0.1046757 -0.345518 291.2691 46.89248 344.1033

0.3466265 -0.1103997 -0.3521575 291.2691 46.89248 344.1033

0.3466265 -0.1103997 -0.3521575 291.4485 46.10852 346.0207

0.3322346 -0.1138252 -0.368007 291.4485 46.10851 346.0207
