0.00516431 -0.01593453 -0.5099019 270 -2.58967E-06 0

0.01255693 0.002000828 -0.5100262 270.8004 159.8518 199.272

0.01255693 0.002000828 -0.5100262 270.8004 159.8518 199.272

0.01255693 0.002000828 -0.5100262 270.8004 159.8518 199.272

0.004483036 -0.01692495 -0.5098841 270.8933 143.2876 214.9092

0.01357308 0.0008846283 -0.5100033 271.2444 117.7893 239.4814

-0.009809501 -0.01836605 -0.5098385 271.075 106.2729 250.0201

-0.008492712 -0.01616318 -0.5099367 271.2484 116.7846 238.5501

-0.008492712 -0.01616318 -0.5099367 271.2484 116.7846 238.5501

-0.006638251 -0.01459923 -0.5100201 273.0274 112.0494 242.9309

-0.00534172 -0.01253511 -0.5100902 274.4366 107.5691 247.1772

-0.003652386 -0.01017357 -0.5101577 275.3755 102.7113 251.8745

-0.003652386 -0.01017357 -0.5101577 275.3755 102.7113 251.8745

-0.0001732215 -0.009728108 -0.5102026 275.9124 98.27299 255.8897

0.001736733 -0.008156833 -0.5102273 275.9836 84.3373 269.2863

0.004959405 -0.004072781 -0.5102551 275.5097 79.86077 272.8269

0.004959405 -0.004072781 -0.5102551 275.5097 79.86077 272.8269

0.009760979 -0.0009078598 -0.5101957 274.2711 70.99758 280.9848

0.005421337 -0.02056972 -0.5098463 274.7102 78.49904 272.5315

0.01220924 -0.003816261 -0.5101296 276.3593 68.53883 281.9499

0.01220924 -0.003816261 -0.5101296 276.3593 68.53883 281.9499

0.01189989 -0.00790472 -0.5100899 277.4553 66.55874 283.4282

0.0152621 -0.006462936 -0.5100207 275.8221 71.80502 277.6056

0.01835473 -0.01509012 -0.5097364 274.4734 72.48565 276.2165

0.01897994 -0.01521492 -0.5097153 274.4734 72.48565 276.2165

0.02104556 -0.01305387 -0.5096942 273.8999 81.6312 266.1921

0.02153901 -0.01533646 -0.5096099 274.0988 78.68903 268.1561

0.02229783 -0.01345453 -0.5096328 274.6159 79.60022 266.3526

0.02229783 -0.01345453 -0.5096328 274.6159 79.60022 266.3526

0.01756144 -0.01459831 -0.5097865 274.7943 76.26527 268.7491

0.01974917 -0.01004911 -0.5098164 274.5073 75.66563 268.3331

0.01157934 -0.0254686 -0.5095344 273.8082 85.06847 257.8317

0.01157934 -0.0254686 -0.5095344 273.8082 85.06847 257.8317

0.01944962 -0.007864208 -0.5098705 274.2496 81.10123 260.6375

0.01097878 -0.02597586 -0.5095221 274.8503 83.29057 257.4698

0.0191353 -0.008389091 -0.5098758 274.8233 77.05574 262.6884

0.0191353 -0.008389091 -0.5098758 274.8233 77.05574 262.6884

0.01189155 -0.0271582 -0.5094417 274.9231 87.97664 250.8601

0.01663197 -0.01069159 -0.5099205 274.0496 86.09122 251.7478

0.008440407 -0.02965828 -0.5093739 273.5857 92.82119 243.9304

0.008440407 -0.02965828 -0.5093739 273.5413 81.12981 254.6159

0.01648317 -0.01176132 -0.5099046 273.5413 81.12981 254.6159

0.008772688 -0.03080383 -0.5093004 273.9064 91.65033 243.2567

0.008273614 -0.03069803 -0.5093129 272.6818 83.65282 250.1752

0.01284708 -0.02152662 -0.5096881 272.3331 121.0063 211.9242

0.004830852 -0.0368454 -0.5089495 272.3331 121.0063 211.9242

0.004830852 -0.0368454 -0.5089495 272.871 160.0356 171.7395

0.01448356 -0.01977768 -0.5097183 273.829 187.1061 143.2308

0.007943042 -0.03806402 -0.5088239 273.829 187.1061 143.2307

0.007943042 -0.03806402 -0.5088239 275.2574 193.5031 135.1419

0.01851266 -0.02203096 -0.5094971 275.2574 193.503 135.1419

0.01089027 -0.04138698 -0.5085115 275.8794 197.5598 129.2364

0.01089027 -0.04138698 -0.5085115 276.1161 199.8294 124.9063

0.02002273 -0.02524246 -0.509291 276.1162 199.8294 124.9063

0.01260976 -0.04592102 -0.5080823 276.3153 199.2114 123.4873

0.01260976 -0.04592102 -0.5080823 276.3153 199.2114 123.4873

0.02269062 -0.03136162 -0.5088389 278.6113 209.136 111.9796

0.02269062 -0.03136162 -0.5088389 281.0021 206.8031 112.7012

0.0272211 -0.02807653 -0.5088085 281.0021 206.8031 112.7012

0.02860788 -0.02827194 -0.5087184 283.0094 205.5771 111.8249

0.02173535 -0.04717793 -0.5076553 283.1854 205.9809 109.0332

0.02173535 -0.04717793 -0.5076553 283.1854 205.9809 109.0332

0.02173535 -0.04717793 -0.5076553 283.7673 208.8958 104.1972

0.02640229 -0.0518284 -0.5069603 283.7674 208.8958 104.1973

0.02922055 -0.05632679 -0.5063255 286.0651 200.498 111.1353

0.03516349 -0.05868124 -0.5056798 289.127 207.24 103.2159

0.04561904 -0.05800117 -0.5046882 289.127 207.24 103.2159

0.04864724 -0.07930321 -0.5014977 292.9843 206.179 103.0634

0.05710753 -0.08053122 -0.5004087 295.0216 209.707 98.87177

0.06510923 -0.08714183 -0.4983197 295.0216 209.707 98.87177

0.06510923 -0.08714183 -0.4983197 295.0216 209.707 98.87177

0.07479262 -0.1090772 -0.4923349 296.2338 205.4579 102.6566

0.08658606 -0.09936361 -0.4924582 296.2338 205.4579 102.6566

0.08658606 -0.09936361 -0.4924582 296.2338 205.4579 102.6566

0.08584183 -0.1240947 -0.4869467 296.2338 205.4579 102.6566

0.1056061 -0.1138053 -0.4851241 296.9796 205.4092 102.12

0.1056061 -0.1138053 -0.4851241 296.9796 205.4092 102.12

0.1033801 -0.1369608 -0.4795873 300.9473 207.5956 98.82588

0.1167294 -0.1324627 -0.4765322 300.9473 207.5956 98.82588

0.1257506 -0.1249713 -0.4762605 305.0148 209.0577 96.43383

0.1257506 -0.1249713 -0.4762605 308.926 211.244 93.48704

0.1299464 -0.1404858 -0.4699016 312.4099 213.0929 91.96912

0.1299464 -0.1404858 -0.4699016 312.4099 213.0929 91.96912

0.1312852 -0.1536715 -0.4653805 312.4099 213.0929 91.96912

0.1353749 -0.1650859 -0.4602717 312.4099 213.0929 91.96912

0.1160398 -0.1750956 -0.4640345 312.4099 213.0929 91.96912

0.1234705 -0.1855092 -0.4580317 315.3188 214.771 90.27059

0.1234705 -0.1855092 -0.4580317 315.3188 214.771 90.27059

0.1819213 -0.1620761 -0.4370583 317.4298 215.6291 89.42717

0.1819213 -0.1620761 -0.4370583 319.0337 215.8811 89.13377

0.1819213 -0.1620761 -0.4370583 320.4202 215.8263 89.04066

0.1819213 -0.1620761 -0.4370583 321.691 215.6079 89.01689

0.1913045 -0.1677319 -0.4308743 322.8897 215.2915 89.01313

0.1913045 -0.1677319 -0.4308743 322.8897 215.2915 89.01313

0.2074408 -0.1586723 -0.4268202 326.9083 216.8208 88.46734

0.2074408 -0.1586723 -0.4268202 330.4574 218.2082 88.25729

0.2065579 -0.1594822 -0.4272588 333.9838 219.3008 88.2529

0.2065579 -0.1594822 -0.4272588 333.9838 219.3008 88.2529

0.2086656 -0.1807916 -0.4176408 337.5763 220.3728 88.23264

0.2086656 -0.1807916 -0.4176408 340.7307 221.2323 88.39018

0.2030585 -0.1859247 -0.4200461 343.5496 221.9556 88.60448

0.2137328 -0.1769559 -0.418622 343.5496 221.9556 88.60449

0.2137328 -0.1769559 -0.418622 346.0717 222.7311 88.84772

0.2137328 -0.1769559 -0.418622 348.3754 223.7122 88.95016

0.2189961 -0.1806469 -0.4151638 350.5851 224.7074 89.0032

0.2189961 -0.1806469 -0.4151638 350.5851 224.7074 89.0032

0.2189961 -0.1806469 -0.4151638 353.0659 226.0443 88.88567

0.2271548 -0.198925 -0.4022226 354.8502 227.2735 88.81419

0.2269291 -0.1991271 -0.4023222 354.8502 227.2735 88.81419

0.2269291 -0.1991271 -0.4023222 356.5743 228.4047 88.83678

0.2387346 -0.1873993 -0.4011219 356.5743 228.4047 88.83678

0.2387346 -0.1873993 -0.4011219 357.592 229.9359 89.22195

0.2387346 -0.1873993 -0.4011219 358.3672 230.8865 89.58477

0.2387346 -0.1873993 -0.4011219 358.3672 230.8865 89.58477

0.2424085 -0.1970945 -0.3943589 0.06493291 230.6636 89.78059

0.257401 -0.1828993 -0.3916881 0.06492779 230.6636 89.78059

0.257401 -0.1828993 -0.3916881 2.801271 229.4916 91.20856

0.257401 -0.1828993 -0.3916881 2.801271 229.4916 91.20856

0.257401 -0.1828993 -0.3916881 4.989667 228.6692 92.26929

0.2541364 -0.2033896 -0.3836332 4.989655 228.6692 92.26929

0.2541364 -0.2033896 -0.3836332 6.400973 228.1995 92.89655

0.2541364 -0.2033896 -0.3836332 6.819121 228.0668 93.2313

0.2617836 -0.1959783 -0.3824964 6.819119 228.0668 93.2313

0.2617836 -0.1959783 -0.3824964 7.398137 228.0198 93.3865

0.2617836 -0.1959783 -0.3824964 9.308514 228.3317 93.54155

0.2644749 -0.1985791 -0.3792901 12.23229 228.8541 93.23837

0.2644749 -0.1985791 -0.3792901 12.23229 228.8541 93.23837

0.2644749 -0.1985791 -0.3792901 14.72636 229.2419 93.02347

0.2644749 -0.1985791 -0.3792901 17.14394 228.7595 92.55809

0.2577769 -0.215425 -0.3746797 17.14393 228.7595 92.55809

0.2612506 -0.2121463 -0.3728836 18.82316 228.3889 92.42587

0.2612506 -0.2121463 -0.3728836 20.40964 228.2295 92.26632

0.2726409 -0.1986384 -0.3721691 20.40964 228.2295 92.26631

0.2726409 -0.1986384 -0.3721691 22.23959 228.2011 92.24219

0.2810938 -0.1897377 -0.3668093 23.89495 228.0368 92.1695

0.2810938 -0.1897377 -0.3668093 23.89495 228.0368 92.1695

0.2810938 -0.1897377 -0.3668093 25.16196 227.3907 91.60751

0.2810938 -0.1897377 -0.3668093 26.42354 226.5524 90.93603

0.2909882 -0.1782521 -0.3593382 26.42354 226.5524 90.93603

0.2964925 -0.1721425 -0.3578143 26.42353 226.5524 90.93604

0.2964925 -0.1721425 -0.3578143 27.67194 225.7803 90.34148

0.2937501 -0.1891022 -0.3514585 27.67195 225.7803 90.34149

0.3087231 -0.1678785 -0.3371731 29.26641 224.5155 89.22787

0.3087231 -0.1678785 -0.3371731 29.26641 224.5155 89.22787

0.3087231 -0.1678785 -0.3371731 30.68966 223.4227 88.12022

0.3156015 -0.1594565 -0.3348853 30.68966 223.4227 88.12022

0.3202846 -0.1476315 -0.315702 30.68966 223.4227 88.12021

0.3111681 -0.1623296 -0.3175981 31.88138 222.4767 87.09851

0.3111681 -0.1623296 -0.3175981 32.94614 221.5154 86.08151

0.3012704 -0.1784016 -0.3185186 33.90995 220.3384 84.79136

0.3050609 -0.161632 -0.2972741 33.90996 220.3384 84.79136

0.297568 -0.1743927 -0.2976566 34.838 219.3562 83.68552

0.297568 -0.1743927 -0.2976566 35.53377 218.4875 82.39835

0.297568 -0.1743927 -0.2976566 35.82195 218.4859 81.79905

0.3002029 -0.1530425 -0.2775663 35.82195 218.4859 81.79903

0.3002029 -0.1530425 -0.2775663 36.04897 217.8717 80.54607

0.2959383 -0.1635687 -0.2761388 35.57178 217.5809 79.3829

0.2959383 -0.1635687 -0.2761388 35.57178 217.5809 79.3829

0.2970031 -0.1433953 -0.2569987 35.27076 217.5695 79.08359

0.2970031 -0.1433953 -0.2569987 35.27076 217.5695 79.08359

0.3008494 -0.1383828 -0.2552669 35.30437 216.7742 78.40201

0.3008494 -0.1383828 -0.2552669 35.30437 216.7742 78.40201

0.2991988 -0.1131728 -0.2369005 35.17255 216.3597 78.1254

0.29443 -0.1293298 -0.2345947 35.03476 216.2941 78.51464

0.29443 -0.1293298 -0.2345947 35.03476 216.2941 78.51464

0.2981927 -0.1240378 -0.232692 35.67863 215.114 77.46864

0.2981927 -0.1240378 -0.232692 35.4268 213.9502 76.0061

0.2957702 -0.1348442 -0.229754 35.4268 213.9503 76.0061

0.300084 -0.1287298 -0.2276579 33.89408 213.5709 75.63652

0.2986657 -0.1371033 -0.2246138 33.89409 213.5709 75.63651

0.2986657 -0.1371033 -0.2246138 34.17683 211.9318 74.76041

0.297915 -0.1492922 -0.2177346 34.17685 211.9318 74.7604

0.2959171 -0.1621991 -0.2111264 34.23565 211.3896 75.08681

0.2921963 -0.1792672 -0.2023228 34.89625 210.0272 74.35442

0.2921963 -0.1792672 -0.2023228 35.04636 208.8265 73.51722

0.2894399 -0.1945529 -0.1918946 35.04637 208.8265 73.51721

0.2818802 -0.1139228 -0.1377644 34.82951 207.5274 72.08572

0.2834354 -0.121617 -0.1276226 34.82952 207.5274 72.08572

0.2834354 -0.121617 -0.1276226 34.82952 207.5274 72.08572

0.2860847 -0.1259667 -0.1170546 34.5125 206.6986 71.27792

0.2798434 -0.1150071 -0.1095632 34.2919 205.5099 69.65717

0.2798434 -0.1150071 -0.1095632 34.2919 205.5099 69.65717

0.2798434 -0.1150071 -0.1095632 33.79492 204.3802 67.95043

0.2776341 -0.1115189 -0.1071467 33.29859 203.7585 66.70638

0.2799074 -0.1144077 -0.09777657 33.24152 203.1282 65.32147

0.2799074 -0.1144077 -0.09777657 33.24152 203.1282 65.32147

0.2778782 -0.1113568 -0.0958358 33.1834 202.3762 63.88578

0.2778782 -0.1113568 -0.0958358 33.03306 201.5976 62.46461

0.2841185 -0.1015464 -0.08812574 33.03306 201.5976 62.46462

0.2841185 -0.1015464 -0.08812574 32.95665 201.1709 61.364

0.2889118 -0.1082337 -0.09235046 32.91198 200.9716 60.5391

0.2889118 -0.1082337 -0.09235046 32.91198 200.9716 60.5391

0.2874155 -0.1209756 -0.08043858 33.05972 201.0083 60.21565

0.2880927 -0.1364827 -0.06939991 32.92793 201.3491 60.03139

0.2880927 -0.1364827 -0.06939991 32.92793 201.3491 60.03139

0.2880927 -0.1364827 -0.06939991 32.25096 202.0591 59.89813

0.2922469 -0.1365582 -0.04883525 31.93826 202.7927 59.87656

0.2922469 -0.1365582 -0.04883525 31.93826 202.7927 59.87656

0.2931357 -0.1383048 -0.03720939 31.93825 202.7927 59.87657

0.2975778 -0.1305564 -0.02904808 30.97907 203.509 59.98335

0.3132082 -0.1587436 -0.0401773 30.97907 203.509 59.98335

0.3132082 -0.1587436 -0.0401773 30.08933 204.0811 60.27631

0.3104667 -0.1661036 -0.03054784 29.71187 204.66 60.69486

0.3104667 -0.1661036 -0.03054784 29.71187 204.66 60.69486

0.3200189 -0.1914154 -0.04100874 29.5895 205.2384 61.28484

0.3211123 -0.1918634 -0.02844303 29.05825 206.1942 62.28152

0.3211123 -0.1918634 -0.02844303 29.05825 206.1942 62.28152

0.3211123 -0.1918634 -0.02844303 28.87053 207.1113 63.14531

0.332964 -0.2064606 -0.03713041 28.80047 208.224 64.01817

0.332964 -0.2064606 -0.03713041 28.80047 208.224 64.01817

0.332964 -0.2064606 -0.03713041 28.43877 209.4514 64.58487

0.332964 -0.2064606 -0.03713041 28.43877 209.4514 64.58487

0.3375054 -0.237785 -0.05064488 27.889 210.8302 65.43243

0.3375054 -0.237785 -0.05064488 27.889 210.8302 65.43243

0.3340368 -0.2451032 -0.03688331 27.84351 212.2745 66.40805

0.3343475 -0.2598068 -0.04304209 27.76895 213.9146 67.5639

0.3343475 -0.2598068 -0.04304209 27.76895 213.9146 67.5639

0.3355709 -0.2575478 -0.04692298 27.76896 213.9146 67.5639

0.3328957 -0.2883362 -0.06133153 27.78331 215.5216 68.54185

0.332433 -0.2916331 -0.04644682 27.78332 215.5216 68.54184

0.3363544 -0.2865654 -0.04964664 27.27859 218.0656 70.28523

0.3471956 -0.2753347 -0.03694396 27.2786 218.0656 70.28522

0.3431552 -0.3006043 -0.0499102 27.90742 220.2968 71.85658

0.3539971 -0.2897934 -0.03626756 28.84889 222.2545 73.26726

0.3637381 -0.2790006 -0.02151223 28.87046 224.3464 74.70573

0.3719115 -0.2687982 -0.00622776 28.87045 224.3464 74.70573

0.369097 -0.2918521 -0.020793 29.13742 226.5034 76.05367

0.377702 -0.2813489 -0.00516509 29.13742 226.5034 76.05368

0.377702 -0.2813489 -0.00516509 29.74849 228.7352 77.62154

0.3861787 -0.2693929 0.01166493 30.10134 231.0806 79.22379

0.3926219 -0.2585905 0.02866405 30.38547 233.3925 80.6395

0.3910222 -0.2809319 0.01231135 30.38548 233.3925 80.63951

0.3975856 -0.270191 0.02991892 30.52792 235.7929 82.21341

0.4031909 -0.2587189 0.04974249 30.68096 238.2467 83.91178

0.4031909 -0.2587189 0.04974249 30.68096 238.2467 83.91178

0.401738 -0.278472 0.03367561 30.51907 240.5835 85.58886

0.4065532 -0.2686588 0.05109864 30.10343 242.8434 87.15358

0.4065532 -0.2686588 0.05109864 29.13378 245.2015 88.7043

0.4106081 -0.2580191 0.07000872 29.13378 245.2015 88.7043

0.4126403 -0.2623469 0.07683128 28.56273 247.8975 90.23124

0.4126403 -0.2623469 0.07683128 29.0904 250.4939 91.5217

0.4147741 -0.2521982 0.0967444 29.09038 250.4939 91.5217

0.4166493 -0.2398296 0.1178391 29.52027 252.7153 92.33669

0.4170627 -0.2503744 0.1085912 29.14456 254.9439 93.11924

0.4146299 -0.2446407 0.1290491 28.97808 257.3513 94.35642

0.4146299 -0.2446407 0.1290491 28.97808 257.3513 94.35642

0.4120167 -0.2364115 0.1509055 29.01356 259.8881 95.72639

0.4122324 -0.2317955 0.1638694 29.08072 262.1488 97.12122

0.4122324 -0.2317955 0.1638694 28.43577 263.9144 98.02026

0.4122324 -0.2317955 0.1638694 28.43577 263.9144 98.02026

0.4069216 -0.2246545 0.1856424 27.31388 265.3774 98.3012

0.4073542 -0.2161342 0.1986606 26.37278 266.8857 98.5588

0.4073542 -0.2161342 0.1986606 26.37278 266.8857 98.5588

0.4008699 -0.2180703 0.2094423 26.03201 268.951 99.49161

0.3950423 -0.2170751 0.2212179 26.03201 268.9509 99.49162

0.3961116 -0.2224559 0.2168433 25.5688 271.0524 100.6869

0.3966371 -0.2083136 0.229557 25.56846 273.1085 101.3067

0.3893386 -0.2117612 0.2387146 25.56846 273.1085 101.3067

0.3893386 -0.2117612 0.2387146 24.44469 274.2495 102.0175

0.3824978 -0.206928 0.2548516 24.44469 274.2495 102.0175

0.3824978 -0.206928 0.2548516 23.17021 275.2819 102.0454

0.3758744 -0.2075572 0.2640296 23.17021 275.2819 102.0454

0.3758744 -0.2075572 0.2640296 23.34935 277.2978 101.9638

0.3764587 -0.2100914 0.2621832 24.20997 279.3143 102.7

0.3783354 -0.1981889 0.2686691 24.20996 279.3144 102.7

0.3783354 -0.1981889 0.2686691 21.77022 278.5452 103.1203

0.3774075 -0.1861179 0.2784301 20.66594 278.4982 101.2373

0.3664798 -0.1822336 0.2949231 19.04006 277.6573 102.672

0.3664798 -0.1822336 0.2949231 19.04006 277.6573 102.672

0.3633831 -0.1732615 0.3040217 20.06461 278.5992 105.0904

0.3503768 -0.1810476 0.3158434 18.54802 277.5051 104.2799

0.3413281 -0.18662 0.3224398 18.54801 277.5051 104.2799

0.3508577 -0.1827516 0.3143246 20.02166 277.2682 103.2323

0.3508577 -0.1827516 0.3143246 18.34258 276.1713 104.2691

0.3637038 -0.1790303 0.3020034 18.34259 276.1713 104.2691

0.3637038 -0.1790303 0.3020034 19.58745 275.4457 104.0239

0.3624091 -0.190078 0.2967634 20.8346 274.57 104.2468

0.3624091 -0.190078 0.2967634 19.3885 272.7491 103.7472

0.3637951 -0.1856898 0.2980799 19.3885 272.7491 103.7472

0.3654692 -0.1743028 0.3028695 20.08459 274.6347 103.5887

0.3654692 -0.1743028 0.3028695 21.03359 275.2372 105.8748

0.3585022 -0.1824764 0.3063623 21.03359 275.2372 105.8748

0.3461035 -0.1839978 0.3193582 21.30675 274.808 103.6314

0.3461035 -0.1839978 0.3193582 19.73814 273.9332 104.8592

0.3363659 -0.1790097 0.332334 18.54895 273.0956 102.8896

0.3284721 -0.1681417 0.3456401 18.54895 273.0956 102.8896

0.3284721 -0.1681417 0.3456401 18.8355 272.5027 104.3923

0.3282277 -0.1595841 0.3496326 18.83549 272.5027 104.3923

0.3282277 -0.1595841 0.3496326 19.75354 271.7851 103.3862

0.3325273 -0.1432751 0.3526205 18.43182 270.2959 101.5472

0.3251878 -0.1526593 0.3555158 18.43183 270.2959 101.5472

0.3251004 -0.1523822 0.3556472 18.01588 268.9887 103.1144

0.3251004 -0.1523822 0.3556472 20.09985 268.1458 101.8056

0.3198717 -0.1594711 0.3572767 20.09985 268.1458 101.8056

0.3100765 -0.1726601 0.359773 18.81831 267.0403 102.6902

0.3100765 -0.1726601 0.359773 17.63883 264.8232 101.8219

0.3137932 -0.159996 0.3623957 17.63882 264.8233 101.822

0.3025633 -0.1643391 0.3699239 19.45453 265.9561 102.2036

0.3025633 -0.1643391 0.3699239 20.19963 268.0443 102.5855

0.3015798 -0.1557996 0.374395 20.19963 268.0443 102.5855

0.2922537 -0.1482455 0.3847162 19.63555 269.6924 103.3933

0.2922537 -0.1482455 0.3847162 19.63555 269.6924 103.3933

0.2900649 -0.1523525 0.3847682 19.23004 271.3779 103.741

0.2970552 -0.1462006 0.3816841 18.00418 272.532 104.9307

0.2970552 -0.1462006 0.3816841 18.00418 272.532 104.9307

0.2958222 -0.1592808 0.3773831 16.63006 271.0558 106.1201

0.3023769 -0.1547046 0.3740775 16.63006 271.0558 106.1201

0.3025344 -0.155276 0.373842 17.55064 272.3184 106.1854

0.3001237 -0.1670021 0.3707178 15.51932 271.1643 106.7999

0.3151346 -0.1550231 0.3633916 15.51933 271.1643 106.7999

0.3151346 -0.1550231 0.3633916 15.13795 269.9577 106.638

0.3098525 -0.1707258 0.3608873 15.13794 269.9577 106.638

0.314782 -0.1626383 0.3603562 12.7851 268.4852 106.5997

0.314782 -0.1626383 0.3603562 12.51484 270.1197 106.8938

0.314782 -0.1626383 0.3603562 12.51484 270.1197 106.8938

0.3114265 -0.1716145 0.3589724 12.30005 270.0226 105.8295

0.3143587 -0.1580477 0.3626275 11.9787 268.8665 106.0687

0.3143587 -0.1580477 0.3626275 11.9787 268.8665 106.0687

0.3021108 -0.165296 0.3697372 10.62183 267.4614 106.5114

0.3079512 -0.1543669 0.3694454 7.982119 266.4966 107.0611

0.3079512 -0.1543669 0.3694454 7.982119 266.4966 107.0611

0.3028693 -0.1631586 0.3698679 5.707518 265.4364 107.3036

0.3069143 -0.1610301 0.3674586 3.806103 264.2727 107.0225

0.3067389 -0.1604727 0.3677147 3.806099 264.2727 107.0225

0.3047866 -0.1780189 0.3612047 1.720507 263.6534 107.2306

0.3128764 -0.1757874 0.3553329 1.720495 263.6534 107.2306

0.3129812 -0.1924167 0.3465154 0.1983918 262.7549 106.9616

0.3129078 -0.1921431 0.3466618 0.1983884 262.7549 106.9616

0.3212971 -0.2043071 0.33171 358.7152 263.8305 106.8545

0.3212971 -0.2043071 0.33171 358.7152 263.8305 106.8545

0.3296822 -0.2153775 0.3161121 357.4491 264.8732 105.9241

0.3293533 -0.2140612 0.3169501 359.3915 264.5557 104.7273

0.3331589 -0.2296452 0.3016976 359.3915 264.5557 104.7273

0.3331589 -0.2296452 0.3016976 1.703277 266.5249 105.1088

0.337796 -0.2450169 0.2839258 3.688313 268.6998 105.9497

0.3422112 -0.2471494 0.2741607 3.68831 268.6998 105.9497

0.3422112 -0.2471494 0.2741607 6.25843 269.9293 106.6813

0.3460359 -0.2625762 0.2542997 8.99566 271.438 106.9784

0.3634254 -0.256659 0.2353796 8.995668 271.438 106.9784

0.352798 -0.2569349 0.2411579 10.39084 272.5033 108.1388

0.352798 -0.2569349 0.2411579 10.39084 272.5033 108.1388

0.3615668 -0.2541856 0.2308641 9.90809 273.8792 107.0808

0.3615668 -0.2541856 0.2308641 9.702298 274.8996 105.6107

0.3632868 -0.216905 0.245742 9.702305 274.8996 105.6107

0.3632868 -0.216905 0.245742 10.46916 274.8268 103.5479

0.3659841 -0.2283649 0.2309096 10.64375 275.0583 102.0776

0.3659841 -0.2283649 0.2309096 10.64375 275.0583 102.0776

0.3549011 -0.1943088 0.2411056 10.64375 275.0582 102.0776

0.3588083 -0.1951928 0.2345187 10.55027 275.2071 101.9086

0.3588083 -0.1951928 0.2345187 10.55027 275.2071 101.9086

0.3603288 -0.198835 0.2290642 8.107689 272.9355 100.1367

0.34328 -0.1687571 0.2383849 5.589687 271.5634 98.65217

0.34328 -0.1687571 0.2383849 2.514267 270.242 97.86256

0.3386021 -0.1789183 0.2376644 2.51427 270.242 97.86256

0.3386021 -0.1789183 0.2376644 359.6809 269.2363 96.46131

0.3243807 -0.144197 0.2431134 357.8363 267.6102 94.83672

0.3243807 -0.144197 0.2431134 357.8363 267.6102 94.83672

0.3250739 -0.1465698 0.240757 356.1443 265.87 93.80668

0.3307223 -0.1445275 0.2342099 356.1443 265.87 93.80666

0.3229936 -0.1306452 0.2290091 354.1653 264.5445 93.0626

0.3211931 -0.1537462 0.2168759 351.9361 263.4001 92.9378

0.3211931 -0.1537462 0.2168759 349.7847 262.4788 92.6244

0.3211931 -0.1537462 0.2168759 349.7847 262.4788 92.6244

0.3109636 -0.1350629 0.218501 348.0063 261.6204 92.36946

0.3174091 -0.1412227 0.2049162 346.7144 260.9554 92.16779

0.3174091 -0.1412227 0.2049162 346.7144 260.9554 92.16779

0.3188578 -0.1536633 0.1933917 345.476 260.5822 92.43047

0.3128748 -0.1488045 0.1834081 345.476 260.5822 92.43047

0.3203003 -0.1490884 0.1698597 344.6438 260.3328 92.60966

0.3203003 -0.1490884 0.1698597 344.6438 260.3328 92.60966

0.3238428 -0.1535726 0.1587869 344.6438 260.3328 92.60966

0.3204685 -0.135124 0.1552596 343.2632 259.9009 92.77209

0.3179366 -0.1504874 0.1460615 341.9456 259.5327 92.9915

0.3179366 -0.1504874 0.1460615 341.9456 259.5327 92.9915

0.3179366 -0.1504874 0.1460615 340.7422 259.1411 93.20509

0.3098122 -0.1380289 0.147912 339.3777 258.7488 93.4014

0.3098122 -0.1380289 0.147912 339.3777 258.7488 93.4014

0.3130231 -0.1342814 0.1445634 337.7612 258.4778 93.40109

0.3130231 -0.1342814 0.1445634 336.4819 258.1739 93.37269

0.3044592 -0.1224259 0.1457023 336.4819 258.1739 93.37268

0.304237 -0.1304451 0.1390561 335.5356 257.8671 93.32876

0.304237 -0.1304451 0.1390561 334.214 257.7876 93.17085

0.3074926 -0.1263993 0.1355885 334.214 257.7876 93.17085

0.2972386 -0.1134092 0.1366244 332.4908 257.9375 93.00349

0.2972386 -0.1134092 0.1366244 331.0479 258.4091 92.29765

0.2972386 -0.1134092 0.1366244 331.0479 258.4091 92.29765

0.2970719 -0.1191983 0.13198 329.7673 259.0714 91.61176

0.2970719 -0.1191983 0.13198 329.7673 259.0714 91.61176

0.2898655 -0.1106889 0.1324816 328.6412 260.4287 90.74152

0.2921053 -0.1075943 0.1300898 328.6411 260.4286 90.74153

0.2921053 -0.1075943 0.1300898 327.7071 261.8179 90.12521

0.2916193 -0.1206657 0.1192618 327.7071 261.8179 90.12521

0.2845185 -0.1124954 0.1198955 327.475 265.2364 87.05087

0.2845185 -0.1124954 0.1198955 327.475 265.2364 87.05087

0.2904955 -0.1083124 0.1089114 327.4787 269.0347 83.77953

0.2873853 -0.1238316 0.1002813 327.4787 269.0347 83.77953

0.2835216 -0.1191842 0.1007244 326.0066 271.1531 81.63817

0.2795312 -0.1336078 0.09352014 324.9701 274.6706 78.53206

0.2811382 -0.1373785 0.08260321 324.9701 274.6706 78.53207

0.2811382 -0.1373785 0.08260321 323.4505 276.6481 76.94045

0.2773416 -0.1322849 0.08317815 322.1495 279.6572 74.83928

0.2796085 -0.1340813 0.0719552 320.3268 281.3787 74.26805

0.2796085 -0.1340813 0.0719552 320.3268 281.3787 74.26805

0.2845133 -0.1297947 0.05951281 320.3268 281.3787 74.26807

0.2845133 -0.1297947 0.05951281 319.7961 286.2122 71.87164

0.2858216 -0.1314333 0.04865757 318.2833 287.0724 73.16265

0.2858216 -0.1314333 0.04865757 319.6743 288.8439 74.45254

0.287899 -0.1297997 0.04003035 319.6742 288.8439 74.45252

0.2853844 -0.1448995 0.03054338 319.4345 289.3439 74.85431

0.282443 -0.1523052 0.02005181 320.2336 290.5994 74.64159

0.282443 -0.1523052 0.02005181 320.2336 290.5994 74.64159

0.2769495 -0.1632892 0.00293694 320.2336 290.5994 74.64159

0.275926 -0.1648441 -0.008015842 319.4505 292.7616 72.69754

0.2790476 -0.157944 -0.0236463 318.7389 295.0323 70.61636

0.2845069 -0.168885 -0.0272818 318.7389 295.0323 70.61637

0.2845069 -0.168885 -0.0272818 317.0737 296.4111 69.85807

0.2821189 -0.1699077 -0.04184362 316.2065 296.8365 70.40926

0.2821189 -0.1699077 -0.04184362 316.2065 296.8365 70.40926

0.2881122 -0.1846094 -0.04763792 316.3237 299.3288 68.39235

0.2881122 -0.1846094 -0.04763792 314.8853 300.3484 67.95621

0.283406 -0.1874436 -0.06248691 314.8853 300.3483 67.95624

0.283406 -0.1874436 -0.06248691 313.7728 301.3851 68.01131

0.2890742 -0.2080458 -0.07087536 313.7728 301.3851 68.01131

0.2869108 -0.2059735 -0.08442386 312.6635 302.774 68.31577

0.2869108 -0.2059735 -0.08442386 310.9749 305.2405 66.83925

0.2869108 -0.2059735 -0.08442386 310.9749 305.2405 66.83925

0.2905146 -0.2304044 -0.09557427 311.1322 306.9298 65.70821

0.2880502 -0.2267192 -0.1106565 310.6416 307.1016 66.91384

0.2880502 -0.2267192 -0.1106565 310.6416 307.1016 66.91384

0.2817149 -0.2310889 -0.1177029 310.6416 307.1016 66.91386

0.2787769 -0.2587948 -0.1426429 310.4012 307.7006 67.34106

0.2787769 -0.2587948 -0.1426429 310.4696 307.6177 69.48773

0.2787769 -0.2587948 -0.1426429 310.4696 307.6177 69.48773

0.2764258 -0.2494146 -0.1625405 310.3073 307.6792 71.18272

0.2705557 -0.2785115 -0.1765559 309.7405 308.847 71.68107

0.2705557 -0.2785115 -0.1765559 309.7405 308.847 71.68107

0.2705557 -0.2785115 -0.1765559 309.1777 310.7349 71.23798

0.2705557 -0.2785115 -0.1765559 309.1777 310.7349 71.23798

0.2487052 -0.31242 -0.195216 309.1068 312.6495 70.01084

0.2487052 -0.31242 -0.195216 308.5375 314.7968 68.32706

0.2487052 -0.31242 -0.195216 308.5375 314.7968 68.32706

0.230548 -0.344071 -0.2076521 306.6859 317.6598 65.52573

0.230548 -0.344071 -0.2076521 304.0858 321.1355 61.59582

0.230548 -0.344071 -0.2076521 300.9462 325.5482 57.03655

0.230548 -0.344071 -0.2076521 300.9462 325.5482 57.03655

0.2004689 -0.3798804 -0.2201072 297.8805 329.4278 53.58941

0.2143676 -0.3615094 -0.2372795 297.078 328.5334 54.24004

0.2143676 -0.3615094 -0.2372795 297.078 328.5334 54.24004

0.2143676 -0.3615094 -0.2372795 294.4955 328.391 54.47323

0.2070395 -0.3620787 -0.2606523 294.4955 328.391 54.47325

0.2070395 -0.3620787 -0.2606523 291.2867 331.3867 50.55886

0.2095325 -0.3495696 -0.2753239 291.2867 331.3867 50.55886

0.2095325 -0.3495696 -0.2753239 288.7704 334.741 46.13808

0.1981587 -0.3599827 -0.2778468 288.7704 334.741 46.13809

0.1981587 -0.3599827 -0.2778468 287.6854 341.9153 38.01158

0.1828713 -0.3610336 -0.2868207 287.6854 341.9153 38.01157

0.1887656 -0.3487018 -0.29804 286.1348 358.1594 20.36057

0.1758822 -0.3588987 -0.3002767 286.7524 20.07006 356.7873

0.1820546 -0.3459427 -0.3115906 286.7524 20.07006 356.7873

0.1883944 -0.332397 -0.3223798 290.2118 37.98532 336.6429

0.2014016 -0.317745 -0.3292181 294.8423 44.33442 328.3787

0.1792291 -0.330739 -0.3367393 294.8423 44.33442 328.3787

0.2001776 -0.3113617 -0.3433475 301.4703 54.78815 316.3169

0.2190483 -0.2962484 -0.3451948 307.7126 61.4056 308.9891

0.2328591 -0.2841744 -0.3463037 313.5996 66.45196 303.7392

0.2328591 -0.2841744 -0.3463037 313.5996 66.45196 303.7392

0.239733 -0.2760739 -0.3481609 318.7598 70.85269 299.8072

0.1917877 -0.2765219 -0.3833698 318.7598 70.85269 299.8072

0.1884897 -0.2684336 -0.3906844 318.7598 70.85269 299.8072

0.1884897 -0.2684336 -0.3906844 323.4588 74.68555 296.6083

0.1855904 -0.259401 -0.3981038 320.2494 75.64556 296.1443

0.1832179 -0.2505386 -0.404822 320.2494 75.64555 296.1443

0.1805452 -0.2400488 -0.4123097 316.4598 77.17708 295.4277
