-0.02513274 0.09023352 -0.1345649 0.125568 0.430659 -9.70209 0.33 -0.2901 1.212 0.007679448 0.02513274 -0.01710423 1.274319 -0.060822 -8.802513 0.3365 -0.0032 0.9733 -0.08995158

-0.02513274 0.09023352 -0.1345649 0.125568 0.430659 -9.70209 0.33 -0.2901 1.212 0.01186824 -0.1441642 0.008028515 1.406754 -0.17658 -8.871183 0.3365 -0.0032 0.9733 -0.08995158

-0.02513274 0.09023352 -0.1345649 0.125568 0.430659 -9.70209 0.33 -0.2901 1.212 0.01186824 -0.1441642 0.008028515 1.406754 -0.17658 -8.871183 0.3365 -0.0032 0.9733 -0.08995158

-0.02513274 0.09023352 -0.1345649 0.125568 0.430659 -9.70209 0.33 -0.2901 1.212 0.01186824 -0.1441642 0.008028515 1.406754 -0.17658 -8.871183 0.3365 -0.0032 0.9733 -0.08995158

-0.02513274 0.09023352 -0.1345649 0.125568 0.430659 -9.70209 0.33 -0.2901 1.212 0.01186824 -0.1441642 0.008028515 1.406754 -0.17658 -8.871183 0.3365 -0.0032 0.9733 -0.08995158

-0.02513274 0.09023352 -0.1345649 0.125568 0.430659 -9.70209 0.33 -0.2901 1.212 0.003141593 -0.01850049 -0.007679448 0.992772 -0.178542 -8.841754 0.3278 0.0122 0.9749 -0.1933288

-0.02513274 0.09023352 -0.1345649 0.125568 0.430659 -9.70209 0.33 -0.2901 1.212 0.003141593 -0.01850049 -0.007679448 0.992772 -0.178542 -8.841754 0.3278 0.0122 0.9749 -0.1933288

-0.02513274 0.09023352 -0.1345649 0.125568 0.430659 -9.70209 0.33 -0.2901 1.212 0.003141593 -0.01850049 -0.007679448 0.992772 -0.178542 -8.841754 0.3278 0.0122 0.9749 -0.1933288

-0.002094395 -0.07120943 -0.134914 0.479709 0.418887 -9.615763 0.2224 -0.2777 1.216 0.02111848 -0.006108652 0.01396263 2.006145 0.155979 -8.722072 0.2335 -0.0189 1.0061 -0.1933288

-0.008552114 -0.07190756 -0.1794198 0.459108 0.511101 -9.65206 0.2318 -0.2702 1.224 -0.04555309 0.08115781 -0.06876598 2.130732 0.118701 -8.664192 0.2335 -0.0189 1.0061 -0.1919862

-0.008552114 -0.07190756 -0.1794198 0.459108 0.511101 -9.65206 0.2318 -0.2702 1.224 -0.04555309 0.08115781 -0.06876598 2.130732 0.118701 -8.664192 0.2335 -0.0189 1.0061 -0.1919862

0.09250245 -0.02042035 -0.05253441 0.385533 0.866223 -9.81883 0.2318 -0.2702 1.224 -0.02338741 -0.1125737 0.01151917 2.405412 0.218763 -8.752482 0.2453 -0.016 0.9868 -0.1919862

0.08447394 0.07260569 0.02094395 0.346293 0.8416981 -9.871803 0.2428 -0.2732 1.2432 0.04520402 -0.1977458 0.1132719 2.262186 0.269775 -8.804475 0.2453 -0.016 0.9868 -0.1919862

-0.1246165 0.0561996 -0.03193953 0.408096 0.481671 -9.785476 0.2428 -0.2732 1.2432 -0.03159046 -0.01692969 0.004363323 1.979658 0.121644 -8.642611 0.2437 -0.0035 0.9762 -0.1893011

-0.1246165 0.0561996 -0.03193953 0.408096 0.481671 -9.785476 0.2428 -0.2732 1.2432 -0.03159046 -0.01692969 0.004363323 1.979658 0.121644 -8.642611 0.2437 -0.0035 0.9762 -0.1893011

-0.1094321 -0.01937315 -0.100531 0.450279 0.455184 -9.726616 0.2335 -0.2759 1.2487 -0.05707227 0.06963864 -0.03525565 1.939437 0.172656 -8.652421 0.2437 -0.0035 0.9762 -0.1893011

0.1794198 -0.006283185 -0.06440265 0.365913 0.728883 -9.728578 0.2335 -0.2759 1.2487 0.01884956 -0.06056292 0.02617994 2.065005 0.205029 -8.697547 0.2296 -0.0072 0.981 -0.1893011

0.07592182 -0.005061455 -0.07958701 0.36297 0.571923 -9.718767 0.2417 -0.2745 1.2351 -0.03141592 -0.00715585 -0.0148353 2.107188 0.161865 -8.67204 0.2296 -0.0072 0.981 -0.1893011

0.07592182 -0.005061455 -0.07958701 0.36297 0.571923 -9.718767 0.2417 -0.2745 1.2351 -0.03141592 -0.00715585 -0.0148353 2.107188 0.161865 -8.67204 0.2296 -0.0072 0.981 -0.1893011

0.0158825 0.01082104 -0.0837758 0.36297 0.590562 -9.81 0.2417 -0.2745 1.2351 -0.0296706 -0.08779006 0.01797689 2.163105 0.216801 -8.700489 0.2347 -0.0156 0.9761 -0.1893011

0.07120943 0.09599311 -0.01029744 0.269775 0.673947 -9.850221 0.2585 -0.2914 1.2241 0.01099557 -0.08831366 0.0413643 2.071872 0.322749 -8.68185 0.2347 -0.0156 0.9761 -0.1893011

0.01658063 0.03071779 -0.06021386 0.370818 0.498348 -9.676584 0.2585 -0.2914 1.2241 -0.03385939 -0.01256637 -0.005410521 1.987506 0.216801 -8.669098 0.2479 -0.0169 0.9717 -0.1879585

0.01658063 0.03071779 -0.06021386 0.370818 0.498348 -9.676584 0.2585 -0.2914 1.2241 -0.03385939 -0.01256637 -0.005410521 1.987506 0.216801 -8.669098 0.2479 -0.0169 0.9717 -0.1879585

-0.106116 -0.09093165 -0.07016224 0.469899 0.468918 -9.687375 0.2551 -0.3031 1.2248 -0.002617994 -0.06091199 -0.005410521 2.02086 0.234459 -8.667135 0.2513 -0.0242 0.9628 -0.1879585

-0.04572763 -0.03420845 -0.008726646 0.381609 0.694548 -9.904177 0.2551 -0.3031 1.2248 -0.03717551 -0.01117011 -0.0003490658 2.012031 0.322749 -8.704413 0.2513 -0.0242 0.9628 -0.1879585

0.1033235 0.09756391 0.008203047 0.261927 0.776952 -9.968922 0.244 -0.2928 1.233 -0.02199115 -0.001396263 0.01151917 2.010069 0.285471 -8.77897 0.2461 -0.0205 0.966 -0.1879585

0.1033235 0.09756391 0.008203047 0.261927 0.776952 -9.968922 0.244 -0.2928 1.233 -0.02199115 -0.001396263 0.01151917 2.010069 0.285471 -8.77897 0.2461 -0.0205 0.966 -0.1879585

-0.029147 0.01640609 -0.03857178 0.385533 0.479709 -9.823734 0.2568 -0.2893 1.2417 0.009075711 -0.02391101 0.009075711 2.000259 0.297243 -8.729919 0.2461 -0.0205 0.966 -0.1879585

-0.07644542 -0.06021386 -0.07452556 0.450279 0.499329 -9.858069 0.2568 -0.2893 1.2417 -0.01169371 -0.02129302 0.02495821 2.003202 0.281547 -8.707356 0.2439 -0.0189 0.9822 -0.1879585

-0.03560472 0.0270526 -0.06178465 0.375723 0.25506 -9.725635 0.2321 -0.2881 1.2567 -0.02024582 0.001745329 0.01396263 2.03067 0.351198 -8.729919 0.2439 -0.0189 0.9822 -0.1879585

-0.03560472 0.0270526 -0.06178465 0.375723 0.25506 -9.725635 0.2321 -0.2881 1.2567 -0.02024582 0.001745329 0.01396263 2.03067 0.351198 -8.729919 0.2439 -0.0189 0.9822 -0.1879585

-0.1007055 -0.00418879 -0.1453859 0.411039 0.124587 -9.65206 0.2025 -0.274 1.2491 0.004537856 -0.03804818 0.006981317 2.059119 0.310977 -8.684793 0.2681 -0.0071 0.9955 -0.1879585

0.1275836 0.02321288 -0.1624902 0.359046 0.373761 -9.663831 0.2025 -0.274 1.2491 -0.0005235987 -0.08936086 0.01012291 2.175858 0.371799 -8.724033 0.2645 -0.011 0.9963 -0.1879585

0.1911135 0.1455605 -0.1966986 0.20601 0.240345 -9.653041 0.2078 -0.2819 1.2406 0.04625123 -0.08534659 0.06824237 2.093454 0.378666 -8.772102 0.2645 -0.011 0.9963 -0.1825883

0.1911135 0.1455605 -0.1966986 0.20601 0.240345 -9.653041 0.2078 -0.2819 1.2406 0.04625123 -0.08534659 0.06824237 2.093454 0.378666 -8.772102 0.2645 -0.011 0.9963 -0.1825883

-0.02775074 0.1918117 -0.3972369 0.25506 -0.218763 -9.575541 0.2078 -0.2819 1.2406 0.005235988 -0.06544985 0.0408407 2.048328 0.278604 -8.700489 0.2672 -0.0262 0.978 -0.1825883

-0.1453859 0.2710496 -0.553793 0.296262 -0.131454 -9.644212 0.2218 -0.2861 1.2423 -0.009948377 -0.1179843 0.003141593 2.066967 0.30411 -8.601408 0.2672 -0.0262 0.978 -0.1825883

-0.05829399 0.2865831 -0.34191 0.301167 0.332559 -9.64225 0.2218 -0.2861 1.2423 -0.03071779 -0.05794493 0.002792527 2.062062 0.404172 -8.654383 0.2662 -0.0259 0.9725 -0.165135

-0.05829399 0.2865831 -0.34191 0.301167 0.332559 -9.64225 0.2218 -0.2861 1.2423 -0.03071779 -0.05794493 0.002792527 2.062062 0.404172 -8.654383 0.2662 -0.0259 0.9725 -0.165135

-0.1047198 0.2438225 -0.2925172 0.366894 0.222687 -9.403866 0.2068 -0.2813 1.2483 -0.03124139 -0.108734 0.06981317 2.132694 0.331578 -8.718147 0.2637 -0.0145 0.9724 -0.165135

-0.1047198 0.2438225 -0.2925172 0.366894 0.222687 -9.403866 0.2068 -0.2813 1.2483 0.03124139 -0.3199188 0.1370083 2.068929 0.297243 -8.627895 0.2637 -0.0145 0.9724 -0.165135

-0.1130973 0.08552113 -0.4354596 0.607239 0.113796 -9.243963 0.1844 -0.2822 1.2456 -0.03159046 -0.1769764 0.0122173 1.82466 0.315882 -8.538625 0.2582 -0.0096 0.9771 -0.153052

0.3377212 -0.0122173 -0.3806563 0.6690421 0.570942 -9.396999 0.1844 -0.2822 1.2456 -0.03159046 -0.1769764 0.0122173 1.82466 0.315882 -8.538625 0.2582 -0.0096 0.9771 -0.153052

0.505971 -0.02216568 -0.2750639 0.567999 0.397305 -9.497062 0.1588 -0.2706 1.2391 -0.08604473 0.007330383 -0.07173304 1.809945 0.338445 -8.665174 0.2582 -0.0096 0.9771 -0.153052

0.505971 -0.02216568 -0.2750639 0.567999 0.397305 -9.497062 0.1588 -0.2706 1.2391 0.0122173 -0.3080506 0.03368485 1.964943 0.31392 -8.752482 0.2536 -0.0098 0.9768 -0.153052

0.09773844 0.05480334 -0.511556 0.472842 -0.5552461 -9.415639 0.1588 -0.2706 1.2391 0.02268928 -0.3358013 0.05602507 1.905102 0.281547 -8.622991 0.2536 -0.0098 0.9768 -0.1627184

-0.1780236 0.06492625 -0.766025 0.511101 -0.558189 -9.441145 0.1488 -0.2606 1.239 0.02268928 -0.3358013 0.05602507 1.905102 0.281547 -8.622991 0.2536 -0.0098 0.9768 -0.1627184

-0.1780236 0.06492625 -0.766025 0.511101 -0.558189 -9.441145 0.1488 -0.2606 1.239 -0.08168141 -0.08045968 -0.03124139 1.796211 0.310977 -8.609257 0.2539 -0.0075 0.9741 -0.1627184

-0.1780236 0.06492625 -0.766025 0.511101 -0.558189 -9.441145 0.1488 -0.2606 1.239 -0.1305506 -0.01012291 -0.05393067 1.855071 0.330597 -8.83783 0.2539 -0.0075 0.9741 -0.1627184

-0.1780236 0.06492625 -0.766025 0.511101 -0.558189 -9.441145 0.1488 -0.2606 1.239 0.0153589 -0.2185152 0.1398009 1.745199 0.3924 -8.810362 0.2718 0.0023 0.9732 -0.1471447

0.5068436 -0.1900664 -1.360484 0.102024 -1.004544 -8.886879 0.1433 -0.2525 1.2322 0.0153589 -0.2185152 0.1398009 1.745199 0.3924 -8.810362 0.2718 0.0023 0.9732 -0.1471447

0.5068436 -0.1900664 -1.360484 0.102024 -1.004544 -8.886879 0.1433 -0.2525 1.2322 -0.06387905 -0.001047197 -0.03926991 1.475424 0.301167 -8.581789 0.2718 0.0023 0.9732 -0.1471447

0.4035201 -0.2837905 -1.581268 -0.116739 -1.615707 -8.69068 0.1433 -0.2525 1.2322 -0.06387905 -0.001047197 -0.03926991 1.475424 0.301167 -8.581789 0.2718 0.0023 0.9732 -0.1192194

0.5365142 -0.3396411 -1.852842 -0.345312 -1.77561 -8.627895 0.125 -0.2496 1.215 -0.1567306 -0.7801622 0.03839725 2.627118 0.487557 -8.330652 0.2811 -0.0343 0.9872 -0.1192194

0.5365142 -0.3396411 -1.852842 -0.345312 -1.77561 -8.627895 0.125 -0.2496 1.215 -0.1567306 -0.7801622 0.03839725 2.627118 0.487557 -8.330652 0.2811 -0.0343 0.9872 -0.1192194

0.803375 -0.4651302 -1.969779 -0.551322 -1.788363 -8.715204 0.125 -0.2496 1.215 -0.1314233 -1.125912 0.06387905 2.594745 0.516006 -8.23059 0.2854 -0.0339 0.9717 -0.1192194

0.803375 -0.4651302 -1.969779 -0.551322 -1.788363 -8.715204 0.125 -0.2496 1.215 -0.1432915 -1.402197 0.1366593 2.380887 0.48069 -8.039295 0.3007 -0.0247 0.9698 -0.1192194

1.029221 -0.5223771 -2.0272 -0.9721711 -1.800135 -8.828019 0.105 -0.237 1.1945 -0.2054253 -1.491209 0.2153736 1.980639 0.499329 -7.862716 0.3007 -0.0247 0.9698 -0.1192194

1.305332 -0.4379031 -2.064375 -1.433241 -1.784439 -9.049726 0.082 -0.2078 1.1863 -0.2054253 -1.491209 0.2153736 1.980639 0.499329 -7.862716 0.3007 -0.0247 0.9698 -0.09720141

1.787392 -0.376642 -2.106787 -1.74618 -1.730484 -9.232191 0.082 -0.2078 1.1863 -0.2729695 -1.481785 0.3281219 1.581372 0.6033151 -7.732243 0.3427 -0.0298 0.969 -0.09720141

1.787392 -0.376642 -2.106787 -1.74618 -1.730484 -9.232191 0.082 -0.2078 1.1863 -0.3426081 -1.605354 0.5398303 1.345932 0.663156 -7.704774 0.3427 -0.0298 0.969 -0.09720141

2.13192 -0.4757768 -2.069786 -1.919817 -1.862919 -9.248868 0.0701 -0.1701 1.1851 -0.4366814 -1.883559 0.8342674 1.197801 0.6621751 -7.612561 0.405 -0.0456 0.9546 -0.1302284

2.397559 -0.6340781 -2.250951 -2.168991 -2.227851 -9.2214 0.0701 -0.1701 1.1851 -0.4366814 -1.883559 0.8342674 1.197801 0.6621751 -7.612561 0.405 -0.0456 0.9546 -0.1302284

2.397559 -0.6340781 -2.250951 -2.168991 -2.227851 -9.2214 0.0701 -0.1701 1.1851 -0.5705481 -2.155482 1.185951 0.97119 0.66708 -7.41636 0.405 -0.0456 0.9546 -0.1302284

2.539105 -0.2528982 -2.654122 -2.508417 -2.669301 -9.231211 0.0243 -0.1203 1.1579 -1.003564 -2.297202 1.517215 0.389457 0.491481 -7.245667 0.4671 -0.0522 0.9438 0.3665192

2.138377 -0.2263692 -2.701944 -2.035575 -3.017556 -9.084061 0.0243 -0.1203 1.1579 -1.003564 -2.297202 1.517215 0.389457 0.491481 -7.245667 0.4671 -0.0522 0.9438 0.3665192

2.138377 -0.2263692 -2.701944 -2.035575 -3.017556 -9.084061 0.0243 -0.1203 1.1579 -1.537111 -2.557605 1.758245 -0.183447 0.204048 -7.109307 0.4671 -0.0522 0.9438 0.3665192

2.138377 -0.2263692 -2.701944 -2.035575 -3.017556 -9.084061 0.0243 -0.1203 1.1579 -1.914103 -2.665816 1.779538 -1.310616 0.326673 -6.948423 0.5289 -0.0686 0.9112 0.694104

1.673422 -0.5522221 -1.949009 -0.854451 -2.41326 -9.436239 -0.1369 0.0364 1.027 -1.914103 -2.665816 1.779538 -1.310616 0.326673 -6.948423 0.5289 -0.0686 0.9112 0.694104

1.673422 -0.5522221 -1.949009 -0.854451 -2.41326 -9.436239 -0.1369 0.0364 1.027 -1.998751 -2.072404 1.55247 -3.142143 1.074195 -7.037694 0.5289 -0.0686 0.9112 0.694104

1.942377 -0.5333726 -1.789137 -0.373761 -2.340666 -9.49608 -0.2194 0.1033 0.9749 -1.998751 -2.072404 1.55247 -3.142143 1.074195 -7.037694 0.5289 -0.0686 0.9112 0.694104

1.812001 -0.6805039 -1.527512 0.006867 -2.627118 -9.599086 -0.3145 0.1543 0.8915 -0.7494444 0.6319837 -0.1661554 -6.081219 3.341286 -8.226666 0.6967 -0.2912 0.7236 0.694104

1.812001 -0.6805039 -1.527512 0.006867 -2.627118 -9.599086 -0.3145 0.1543 0.8915 -0.7494444 0.6319837 -0.1661554 -6.081219 3.341286 -8.226666 0.6967 -0.2912 0.7236 0.694104

1.659983 -0.655022 -1.295209 0.08829 -3.003822 -9.718767 -0.3145 0.1543 0.8915 -0.6293657 0.9094911 -0.1560324 -5.656446 3.401127 -7.943158 0.6967 -0.2912 0.7236 0.8874328

1.736603 -0.5857325 -1.238835 0.177561 -3.444291 -9.575541 -0.3843 0.2016 0.8103 -0.6293657 0.9094911 -0.1560324 -5.656446 3.401127 -7.943158 0.6967 -0.2912 0.7236 0.8874328

1.736603 -0.5857325 -1.238835 0.177561 -3.444291 -9.575541 -0.3843 0.2016 0.8103 -0.82205 0.6654941 -0.1530654 -4.656807 3.192174 -7.677306 0.7072 -0.3496 0.6837 0.8874328

1.661728 -0.5731661 -1.271472 0.275661 -4.059378 -9.2989 -0.3843 0.2016 0.8103 -1.127308 0.2740167 -0.1596976 -3.739572 3.06072 -7.424208 0.7072 -0.3496 0.6837 0.8874328

1.463459 -0.6750934 -1.133417 0.348255 -4.486113 -9.060516 -0.4513 0.2518 0.7264 -1.316153 -0.07347836 -0.1811652 -3.239262 3.255939 -7.254495 0.7071 -0.3742 0.667 0.9760419

1.463459 -0.6750934 -1.133417 0.348255 -4.486113 -9.060516 -0.4513 0.2518 0.7264 -1.316153 -0.07347836 -0.1811652 -3.239262 3.255939 -7.254495 0.7071 -0.3742 0.667 0.9760419

1.432392 -0.8037241 -0.9873328 0.387495 -4.790223 -8.795647 -0.4513 0.2518 0.7264 -1.333781 -0.1944297 -0.259705 -3.089169 3.59046 -7.343766 0.7071 -0.3742 0.667 0.9760419

1.432392 -0.8037241 -0.9873328 0.387495 -4.790223 -8.795647 -0.4513 0.2518 0.7264 -1.333781 -0.1944297 -0.259705 -3.089169 3.59046 -7.343766 0.7071 -0.3742 0.667 0.9760419

1.390678 -0.9128072 -0.9548696 0.453222 -5.315058 -8.655363 -0.5047 0.2887 0.638 -1.234471 -0.0439823 -0.3942699 -3.193155 3.890646 -7.411456 0.707 -0.3845 0.66 1.027059

1.209513 -0.7330383 -1.019621 0.243288 -5.945841 -8.660268 -0.5047 0.2887 0.638 -1.234471 -0.0439823 -0.3942699 -3.193155 3.890646 -7.411456 0.707 -0.3845 0.66 1.027059

1.081057 -0.617672 -1.056099 0.157941 -6.41574 -8.522928 -0.5484 0.3147 0.5529 -1.163611 0.06021386 -0.5181882 -3.3354 4.134915 -7.197597 0.707 -0.3845 0.66 1.027059

1.081057 -0.617672 -1.056099 0.157941 -6.41574 -8.522928 -0.5484 0.3147 0.5529 -1.167102 0.127409 -0.5237733 -3.449196 4.299723 -6.977853 0.7153 -0.4147 0.6392 1.027059

1.081057 -0.617672 -1.056099 0.157941 -6.41574 -8.522928 -0.5484 0.3147 0.5529 -1.165356 0.1991421 -0.5382596 -3.450177 4.440987 -6.852285 0.7153 -0.4147 0.6392 1.075391

1.081057 -0.617672 -1.056099 0.157941 -6.41574 -8.522928 -0.5484 0.3147 0.5529 -1.165356 0.1991421 -0.5382596 -3.450177 4.440987 -6.852285 0.7153 -0.4147 0.6392 1.075391

1.42 -0.6328564 -0.8765044 0.17658 -7.211331 -6.978834 -0.6712 0.3324 0.3802 -1.225396 0.182736 -0.5982988 -3.446253 4.626396 -6.594283 0.7212 -0.4544 0.6126 1.075391

1.42 -0.6328564 -0.8765044 0.17658 -7.211331 -6.978834 -0.6712 0.3324 0.3802 -1.306553 0.1073378 -0.6462954 -3.444291 4.879494 -6.397101 0.7236 -0.4798 0.5876 1.075391

1.366767 -0.6918485 -0.8335692 0.20601 -7.470315 -6.608016 -0.7165 0.3126 0.2757 -1.306553 0.1073378 -0.6462954 -3.444291 4.879494 -6.397101 0.7236 -0.4798 0.5876 1.075391

1.280548 -0.8874999 -0.8201302 0.397305 -7.811703 -6.300963 -0.7165 0.3126 0.2757 -1.32261 0.09128072 -0.7110472 -3.419766 5.131611 -6.273496 0.7236 -0.4798 0.5876 1.075391

1.280548 -0.8874999 -0.8201302 0.397305 -7.811703 -6.300963 -0.7165 0.3126 0.2757 -1.32261 0.09128072 -0.7110472 -3.419766 5.131611 -6.273496 0.7236 -0.4798 0.5876 1.121038

1.179843 -0.8864527 -0.7927285 0.289395 -8.051067 -6.266629 -0.7575 0.2883 0.1811 -1.32261 0.09128072 -0.7110472 -3.419766 5.131611 -6.273496 0.7236 -0.4798 0.5876 1.121038

1.179843 -0.8864527 -0.7927285 0.289395 -8.051067 -6.266629 -0.7575 0.2883 0.1811 -1.32261 0.09128072 -0.7110472 -3.419766 5.131611 -6.273496 0.7236 -0.4798 0.5876 1.121038

1.166578 -0.7396706 -0.7845255 0.037278 -8.130528 -6.206788 -0.7575 0.2883 0.1811 -1.419651 0.1635374 -0.7162831 -3.831786 6.403968 -5.609358 0.7669 -0.5155 0.5054 1.121038

1.180017 -0.8578293 -0.736878 0.128511 -8.254134 -5.985081 -0.8075 0.2523 0.1011 -1.348965 0.2733186 -0.6462954 -3.924 6.633522 -5.79771 0.7755 -0.5252 0.4669 1.141177

1.180017 -0.8578293 -0.736878 0.128511 -8.254134 -5.985081 -0.8075 0.2523 0.1011 -1.154361 0.5169665 -0.6901032 -4.043682 6.784596 -5.825178 0.7755 -0.5252 0.4669 1.141177

1.071807 -1.006008 -0.6927211 0.266832 -8.455239 -5.909544 -0.8075 0.2523 0.1011 -1.154361 0.5169665 -0.6901032 -4.043682 6.784596 -5.825178 0.7755 -0.5252 0.4669 1.141177

0.9998991 -0.9532988 -0.6712536 0.234459 -8.629857 -6.049827 -0.8601 0.1983 0.05 -1.079137 0.5675811 -0.739496 -4.010328 6.920955 -5.477904 0.8022 -0.539 0.439 1.141177

0.9998991 -0.9532988 -0.6712536 0.234459 -8.629857 -6.049827 -0.8601 0.1983 0.05 -1.145634 0.4082325 -0.7803367 -3.819033 7.020036 -5.16987 0.8022 -0.539 0.439 1.141177

1.007229 -0.7656759 -0.7354817 0.169713 -8.822133 -6.152833 -0.8914 0.1363 0.0102 -1.145634 0.4082325 -0.7803367 -3.819033 7.020036 -5.16987 0.8022 -0.539 0.439 1.141177

1.088562 -0.5970771 -0.7393215 0.206991 -8.889822 -6.232293 -0.8914 0.1363 0.0102 -1.192932 0.304909 -0.8124508 -3.70818 7.060257 -5.01291 0.8248 -0.5332 0.4154 1.154602

1.088562 -0.5970771 -0.7393215 0.206991 -8.889822 -6.232293 -0.8914 0.1363 0.0102 -1.193107 0.2520255 -0.8424704 -3.700332 7.140699 -4.769622 0.8432 -0.517 0.3961 1.154602

1.196598 -0.5082399 -0.6686357 0.31392 -8.891785 -6.183243 -0.9194 0.046 -0.0224 -1.193107 0.2520255 -0.8424704 -3.700332 7.140699 -4.769622 0.8432 -0.517 0.3961 1.154602

1.196598 -0.5082399 -0.6686357 0.31392 -8.891785 -6.183243 -0.9194 0.046 -0.0224 -1.221556 0.1085595 -0.8691739 -3.67875 7.292754 -4.514562 0.8432 -0.517 0.3961 1.154602

1.196598 -0.4359832 -0.5811946 0.31392 -8.891785 -6.183243 -0.9194 0.046 -0.0224 -1.246863 -0.01256637 -0.8693485 -3.735648 7.456582 -4.429215 0.8592 -0.4887 0.3706 1.154602

1.128879 -0.4359832 -0.5811946 0.521892 -9.272412 -5.438664 -0.8952 -0.1661 -0.0232 -1.246863 -0.01256637 -0.8693485 -3.735648 7.456582 -4.429215 0.8592 -0.4887 0.3706 1.154602

0.9580112 -0.3476696 -0.5202826 0.484614 -9.359721 -5.242464 -0.8952 -0.1661 -0.0232 -1.185428 0.01919862 -0.8417723 -3.924 7.617465 -4.442949 0.8592 -0.4887 0.3706 1.154602

0.9580112 -0.3476696 -0.5202826 0.484614 -9.359721 -5.242464 -0.8952 -0.1661 -0.0232 -1.098336 0.06649704 -0.8255407 -4.118238 7.788159 -4.337982 0.885 -0.4568 0.3346 1.154602

0.8752826 -0.2853613 -0.4588471 0.489519 -9.32931 -4.975632 -0.8408 -0.2323 0.0116 -1.098336 0.06649704 -0.8255407 -4.118238 7.788159 -4.337982 0.885 -0.4568 0.3346 1.154602

0.9363692 -0.302291 -0.3895575 0.5640751 -9.249849 -4.721553 -0.8408 -0.2323 0.0116 -1.098336 0.06649704 -0.8255407 -4.118238 7.788159 -4.337982 0.885 -0.4568 0.3346 1.154602

0.9363692 -0.302291 -0.3895575 0.5640751 -9.249849 -4.721553 -0.8408 -0.2323 0.0116 -0.8223991 0.2665118 -0.6801548 -4.607757 8.080498 -4.058397 0.9253 -0.4508 0.2997 1.154602

0.8002334 -0.3089233 -0.320617 0.6867 -9.294975 -4.527315 -0.7644 -0.273 0.0502 -0.8223991 0.2665118 -0.6801548 -4.607757 8.080498 -4.058397 0.9253 -0.4508 0.2997 1.145205

0.6325073 -0.1776745 -0.3351032 0.678852 -9.381304 -4.485132 -0.6911 -0.2907 0.0715 -0.7651523 0.2768092 -0.6852162 -4.662694 8.058915 -3.974031 0.9346 -0.4199 0.2915 1.145205

0.6325073 -0.1776745 -0.3351032 0.678852 -9.381304 -4.485132 -0.6911 -0.2907 0.0715 -0.7651523 0.2768092 -0.6852162 -4.662694 8.058915 -3.974031 0.9346 -0.4199 0.2915 1.145205

0.6056293 -0.005585053 -0.3024656 0.659232 -9.302823 -4.387032 -0.6911 -0.2907 0.0715 -0.7353072 0.2885029 -0.6918485 -4.712724 8.002017 -3.887703 0.9346 -0.4199 0.2915 1.145205

0.6031858 -0.005759587 -0.2394592 0.857394 -9.218457 -4.19868 -0.6182 -0.2939 0.0884 -0.689056 0.2745403 -0.6719518 -4.712724 7.951986 -3.794508 0.9551 -0.3844 0.2804 1.145205

0.6031858 -0.005759587 -0.2394592 0.857394 -9.218457 -4.19868 -0.6182 -0.2939 0.0884 -0.689056 0.2745403 -0.6719518 -4.712724 7.951986 -3.794508 0.9551 -0.3844 0.2804 1.145205

0.5893977 -0.1141445 -0.1398009 1.085967 -9.181179 -4.013271 -0.6182 -0.2939 0.0884 -0.6293657 0.2211332 -0.6553711 -4.725477 7.914709 -3.674826 0.9551 -0.3844 0.2804 1.145205

0.7545058 -0.1754056 -0.1181588 1.116378 -9.157636 -3.833748 -0.559 -0.293 0.0926 -0.5797984 0.2059489 -0.6433284 -4.761774 7.890183 -3.564954 0.9728 -0.3604 0.2662 1.114326

0.7545058 -0.1754056 -0.1181588 1.116378 -9.157636 -3.833748 -0.559 -0.293 0.0926 -0.5342453 0.1897173 -0.6206391 -4.743135 7.846038 -3.475683 0.9728 -0.3604 0.2662 1.114326

0.8974482 -0.135263 -0.1237438 1.055556 -9.272412 -3.695427 -0.559 -0.293 0.0926 -0.5342453 0.1897173 -0.6206391 -4.743135 7.846038 -3.475683 0.9728 -0.3604 0.2662 1.114326

0.8974482 -0.135263 -0.1237438 1.055556 -9.272412 -3.695427 -0.559 -0.293 0.0926 -0.5160939 0.1675516 -0.6143559 -4.773546 7.782273 -3.402108 0.9975 -0.3374 0.2514 1.114326

0.8974482 -0.135263 -0.1237438 1.055556 -9.272412 -3.695427 -0.559 -0.293 0.0926 -0.5160939 0.1675516 -0.6143559 -4.773546 7.782273 -3.402108 0.9975 -0.3374 0.2514 1.094187

0.8974482 -0.135263 -0.1237438 1.055556 -9.272412 -3.695427 -0.559 -0.293 0.0926 -0.4677482 0.1759292 -0.583289 -4.891266 7.770502 -3.288312 0.9975 -0.3374 0.2514 1.094187

0.4310963 0.1724385 0.01745329 1.064385 -9.258678 -3.037176 -0.4888 -0.2805 0.062 -0.3986332 0.1975713 -0.5420992 -4.977594 7.760692 -3.19806 1.0017 -0.3162 0.238 1.094187

0.4513422 0.1593486 0.03246313 1.073214 -9.257697 -2.881197 -0.4616 -0.2565 0.0632 -0.3986332 0.1975713 -0.5420992 -4.977594 7.760692 -3.19806 1.0017 -0.3162 0.238 1.094187

0.3192207 0.2303835 0.06789331 1.063404 -9.366589 -2.751705 -0.4467 -0.2488 0.0663 -0.3986332 0.1975713 -0.5420992 -4.977594 7.760692 -3.19806 1.0017 -0.3162 0.238 1.075391

0.3192207 0.2303835 0.06789331 1.063404 -9.366589 -2.751705 -0.4467 -0.2488 0.0663 -0.3986332 0.1975713 -0.5420992 -4.977594 7.760692 -3.19806 1.0017 -0.3162 0.238 1.075391

0.2628466 0.169646 0.0158825 1.103625 -9.474499 -2.611422 -0.4467 -0.2488 0.0663 -0.304909 0.04572763 -0.3295181 -5.084523 7.336899 -2.839995 1.0005 -0.2657 0.2591 1.075391

0.1864012 0.236143 -0.01343904 1.016316 -9.527472 -2.585916 -0.434 -0.2376 0.0498 -0.304909 0.04572763 -0.3295181 -5.084523 7.336899 -2.839995 1.0005 -0.2657 0.2591 1.075391

0.1864012 0.236143 -0.01343904 1.016316 -9.527472 -2.585916 -0.434 -0.2376 0.0498 -0.2605776 0.05393067 -0.2860594 -5.134554 7.31826 -2.840976 1.0012 -0.2472 0.2575 1.056595

0.05969026 0.220086 -0.05986479 1.057518 -9.511777 -2.480949 -0.434 -0.2376 0.0498 -0.230558 0.05532694 -0.2412045 -5.190471 7.302565 -2.838033 1.0012 -0.2472 0.2575 1.056595

0.002268928 0.08813913 -0.01413717 1.186029 -9.398962 -2.30535 -0.4329 -0.2395 0.0288 -0.230558 0.05532694 -0.2412045 -5.190471 7.302565 -2.838033 1.0012 -0.2472 0.2575 1.056595

0.07941248 0.05393067 0.03141592 1.20663 -9.253774 -2.274939 -0.4329 -0.2395 0.0288 -0.1940806 0.05986479 -0.1848304 -5.239521 7.277059 -2.811546 1.0108 -0.234 0.2519 1.056595

0.07941248 0.05393067 0.03141592 1.20663 -9.253774 -2.274939 -0.4329 -0.2395 0.0288 -0.1466077 0.05881759 -0.1256637 -5.284647 7.2594 -2.782116 1.0108 -0.234 0.2519 1.044512

0.2340486 0.1345649 0.06056292 1.143846 -9.117414 -2.272977 -0.4394 -0.2471 0.028 -0.1466077 0.05881759 -0.1256637 -5.284647 7.2594 -2.782116 1.0108 -0.234 0.2519 1.044512

0.5159193 0.3778638 0.06649704 1.002582 -9.039916 -2.515284 -0.4394 -0.2471 0.028 -0.1366593 0.05131268 -0.09145525 -5.362146 7.23978 -2.777211 1.0146 -0.2156 0.2544 1.044512

0.5159193 0.3778638 0.06649704 1.002582 -9.039916 -2.515284 -0.4394 -0.2471 0.028 -0.1108284 0.07452556 -0.06422812 -5.453379 7.223103 -2.762496 1.0146 -0.2156 0.2544 1.044512

0.2511529 0.5237733 0.09110618 1.094796 -9.344026 -2.431899 -0.4439 -0.2491 0.0436 -0.06265732 0.09669124 -0.006457718 -5.502429 7.203484 -2.672244 1.0229 -0.1875 0.2532 1.044512

0.2511529 0.5237733 0.09110618 1.094796 -9.675603 -1.949247 -0.4439 -0.2491 0.0436 -0.06265732 0.09669124 -0.006457718 -5.502429 7.203484 -2.672244 1.0229 -0.1875 0.2532 1.044512

0.3738495 0.1877974 -0.0270526 1.410678 -9.675603 -1.949247 -0.4439 -0.2491 0.0436 -0.02495821 0.02600541 0.04886922 -5.432778 7.173072 -2.595726 1.0229 -0.1875 0.2532 1.044512

0.08709192 0.2872812 -0.08412487 1.425393 -9.996391 -1.877634 -0.4555 -0.2337 0.0528 -0.06597345 -0.1047198 0.01466077 -5.418063 7.140699 -2.523132 1.0267 -0.1888 0.2526 1.044512

0.2345722 0.1797689 -0.1143191 1.575486 -9.925759 -1.61865 -0.4735 -0.2227 0.0513 -0.06597345 -0.1047198 0.01466077 -5.418063 7.140699 -2.523132 1.0267 -0.1888 0.2526 1.044512

0.2946116 0.2394592 -0.1310742 1.631403 -9.866899 -1.387134 -0.4735 -0.2227 0.0513 -0.08691739 -0.1757547 -0.005759587 -5.547555 7.114213 -2.497626 1.0127 -0.196 0.2547 1.044512

0.2946116 0.2394592 -0.1310742 1.631403 -9.866899 -1.387134 -0.4735 -0.2227 0.0513 -0.1115265 -0.2347468 -0.01937315 -5.755527 7.074972 -2.457405 1.0127 -0.196 0.2547 1.044512

0.1357866 0.2876303 -0.161443 1.675548 -10.02386 -1.140903 -0.4757 -0.2233 0.0482 -0.1665044 -0.2106612 -0.05078908 -6.065524 6.99453 -2.39364 1.0002 -0.1835 0.2579 1.044512

0.172264 0.267908 -0.1054179 1.683396 -9.931644 -0.8260021 -0.4757 -0.2233 0.0482 -0.1665044 -0.2106612 -0.05078908 -6.065524 6.99453 -2.39364 1.0002 -0.1835 0.2579 1.044512

0.4731588 0.0577704 -0.1991421 1.853109 -10.10136 -0.440469 -0.4491 -0.2249 0.0441 -0.0996583 -0.04799655 -0.04572763 -6.324507 7.05241 -2.438766 1.0002 -0.1835 0.2579 1.044512

0.4731588 0.0577704 -0.1991421 1.853109 -10.10136 -0.440469 -0.4491 -0.2249 0.0441 0.01570796 0.1380555 -0.0567232 -6.472638 7.143642 -2.419146 0.9967 -0.1754 0.2423 1.044512

0.3698353 -0.01762783 -0.2761111 1.90314 -10.68603 -0.169713 -0.4491 -0.2249 0.0441 0.01570796 0.1380555 -0.0567232 -6.472638 7.143642 -2.419146 0.9967 -0.1754 0.2423 1.044512

0.3698353 -0.01762783 -0.2761111 1.90314 -10.68603 -0.169713 -0.4491 -0.2249 0.0441 0.03682645 0.2082178 -0.1162389 -6.482448 7.071048 -2.297502 0.9967 -0.1754 0.2423 1.044512

0.4515167 -0.1469567 -0.2853613 1.950228 -10.92245 0.193257 -0.4372 -0.2196 0.0397 -0.0439823 0.1630138 -0.1860521 -6.413778 6.917031 -2.218041 1.0086 -0.1723 0.2318 1.044512

0.4255112 -0.2101376 -0.3284709 1.994373 -11.12356 0.5248351 -0.4372 -0.2196 0.0397 -0.0439823 0.1630138 -0.1860521 -6.413778 6.917031 -2.218041 1.0086 -0.1723 0.2318 1.044512

0.4255112 -0.2101376 -0.3284709 1.994373 -11.12356 0.5248351 -0.4372 -0.2196 0.0397 -0.1802925 0.09878563 -0.2335251 -6.436341 6.789501 -2.113074 1.0203 -0.1599 0.2341 1.044512

0.336325 -0.3152064 -0.3611086 2.133675 -11.21185 0.823059 -0.4404 -0.2188 0.0352 -0.2708751 0.08255407 -0.2988004 -6.595263 6.73849 -2.055195 1.0203 -0.1599 0.2341 1.044512

0.24103 -0.4527384 -0.3583161 2.28573 -11.1216 1.047708 -0.4404 -0.2188 0.0352 -0.2708751 0.08255407 -0.2988004 -6.595263 6.73849 -2.055195 1.0203 -0.1599 0.2341 1.044512

0.24103 -0.4527384 -0.3583161 2.28573 -11.1216 1.047708 -0.4404 -0.2188 0.0352 -0.2591814 0.1851794 -0.3721042 -6.860133 6.781653 -2.058138 1.0304 -0.1588 0.2352 1.044512

0.1656317 -0.5382596 -0.3780383 2.347533 -10.94306 1.1772 -0.4499 -0.2199 0.0306 -0.2591814 0.1851794 -0.3721042 -6.860133 6.781653 -2.058138 1.0304 -0.1588 0.2352 1.044512

0.1656317 -0.5382596 -0.3780383 2.347533 -10.94306 1.1772 -0.4499 -0.2199 0.0306 -0.2591814 0.1851794 -0.3721042 -6.860133 6.781653 -2.058138 1.0304 -0.1588 0.2352 1.044512

0.2083923 -0.7257079 -0.3797837 2.40345 -10.18572 1.116378 -0.5082 -0.1734 0.0663 -0.2591814 0.1851794 -0.3721042 -6.860133 6.781653 -2.058138 1.0304 -0.1588 0.2352 1.044512

0.2083923 -0.7257079 -0.3797837 2.40345 -10.18572 1.116378 -0.5082 -0.1734 0.0663 -0.2380629 0.5447173 -0.599346 -7.185825 6.732603 -2.015955 1.0409 -0.1286 0.2414 1.055253

0.2577851 -0.8182104 -0.3117158 2.440728 -9.922815 1.002582 -0.5416 -0.1576 0.0969 -0.2865831 0.5604252 -0.6257005 -7.105383 6.613902 -1.939437 1.0409 -0.1286 0.2414 1.055253

0.2864085 -0.8679522 -0.2638938 2.395602 -9.730539 0.837774 -0.5416 -0.1576 0.0969 -0.2865831 0.5604252 -0.6257005 -7.105383 6.613902 -1.939437 1.0409 -0.1286 0.2414 1.055253

0.2864085 -0.8679522 -0.2638938 2.395602 -9.730539 0.837774 -0.5416 -0.1576 0.0969 -0.3473205 0.5445427 -0.6635742 -7.00434 6.515802 -1.898235 1.0236 -0.1208 0.2685 1.057938

0.2364921 -0.8274606 -0.2473132 2.320065 -9.584371 0.648441 -0.5708 -0.1322 0.131 -0.3473205 0.5445427 -0.6635742 -7.00434 6.515802 -1.898235 1.0236 -0.1208 0.2685 1.057938

0.2113594 -0.8360127 -0.1858776 2.307312 -9.414658 0.478728 -0.5708 -0.1322 0.131 -0.384147 0.5412266 -0.6752679 -6.899373 6.468714 -1.896273 1.0236 -0.1208 0.2685 1.057938

0.2113594 -0.8360127 -0.1858776 2.307312 -9.414658 0.478728 -0.5708 -0.1322 0.131 -0.4417428 0.5157448 -0.6906268 -6.834627 6.427512 -1.914912 1.0273 -0.1244 0.2931 1.045855

0.1898918 -0.86132 -0.1190315 2.313198 -9.264565 0.324711 -0.5795 -0.0968 0.1639 -0.4858997 0.5050983 -0.7031932 -6.822855 6.402006 -1.949247 1.0273 -0.1244 0.2931 1.045855

0.1563815 -0.8780752 -0.111352 2.32497 -9.185103 0.179523 -0.6046 -0.0641 0.212 -0.4858997 0.5050983 -0.7031932 -6.822855 6.402006 -1.949247 1.0273 -0.1244 0.2931 1.045855

0.07644542 -0.8969247 -0.1279326 2.333799 -9.180199 -0.000981 -0.6046 -0.0641 0.212 -0.4731588 0.5223771 -0.7108726 -6.824817 6.410835 -2.016936 1.0334 -0.1032 0.293 1.045855

0.07644542 -0.8969247 -0.1279326 2.333799 -9.180199 -0.000981 -0.6046 -0.0641 0.212 -0.4731588 0.5223771 -0.7108726 -6.824817 6.410835 -2.016936 1.0334 -0.1032 0.293 1.045855

0.02181662 -0.9060004 -0.1396263 2.304369 -9.134091 -0.181485 -0.632 -0.0304 0.2616 -0.4731588 0.5223771 -0.7108726 -6.824817 6.410835 -2.016936 1.0334 -0.1032 0.293 1.045855

-0.04363323 -0.8923869 -0.1371829 2.287692 -9.080136 -0.293319 -0.632 -0.0304 0.2616 -0.4614651 0.5818928 -0.6602581 -6.803235 6.155775 -2.297502 0.9939 -0.0505 0.3414 1.045855

-0.04363323 -0.8923869 -0.1371829 2.287692 -9.080136 -0.293319 -0.632 -0.0304 0.2616 -0.4614651 0.5818928 -0.6602581 -6.803235 6.155775 -2.297502 0.9939 -0.0505 0.3414 1.045855

0.04921828 -0.9224065 -0.08883726 2.268072 -8.923177 -0.416925 -0.6408 -0.0115 0.2984 -0.461116 0.5885251 -0.6349508 -6.785577 6.11065 -2.309274 0.984 -0.0356 0.3648 1.045855

-0.01675516 -0.856433 -0.09302605 2.223927 -8.902575 -0.6239161 -0.6408 -0.0115 0.2984 -0.4815363 0.5504768 -0.6009169 -6.770862 6.040017 -2.294559 0.984 -0.0356 0.3648 1.045855

-0.01675516 -0.856433 -0.09302605 2.223927 -8.902575 -0.6239161 -0.6408 -0.0115 0.2984 -0.4815363 0.5504768 -0.6009169 -6.770862 6.040017 -2.294559 0.984 -0.0356 0.3648 0.9961802

-0.02391101 -0.829904 -0.04223697 2.260224 -8.766216 -0.770085 -0.665 0.0202 0.3376 -0.5075417 0.4993387 -0.5700245 -6.776748 5.961537 -2.292597 0.9689 -0.018 0.3819 0.9961802

0.06457718 -0.866905 0.07766715 2.271996 -8.625934 -0.854451 -0.665 0.0202 0.3376 -0.4890413 0.5143485 -0.511556 -6.804216 5.933088 -2.33478 0.9689 -0.018 0.3819 0.9961802

0.06457718 -0.866905 0.07766715 2.271996 -8.625934 -0.854451 -0.665 0.0202 0.3376 -0.4890413 0.5143485 -0.511556 -6.804216 5.933088 -2.33478 0.9689 -0.018 0.3819 0.9961802

0.06457718 -0.866905 0.07766715 2.271996 -8.625934 -0.854451 -0.665 0.0202 0.3376 -0.4700172 0.524646 -0.4756022 -6.786558 5.879134 -2.396583 0.9645 -0.0126 0.3728 0.9666439

0.06457718 -0.866905 0.07766715 2.271996 -8.625934 -0.854451 -0.665 0.0202 0.3376 -0.4700172 0.524646 -0.4756022 -6.786558 5.879134 -2.396583 0.9645 -0.0126 0.3728 0.9666439

0.06457718 -0.866905 0.07766715 2.271996 -8.625934 -0.854451 -0.665 0.0202 0.3376 -0.4700172 0.524646 -0.4756022 -6.786558 5.879134 -2.396583 0.9645 -0.0126 0.3728 0.9666439

0.1228712 -0.6876597 0.2160718 2.048328 -8.752482 -1.143846 -0.7505 0.1299 0.4316 -0.4979424 0.4785693 -0.3857178 -6.833646 5.662332 -2.463291 0.9463 0.0085 0.4048 0.9666439

0.09773844 -0.6639233 0.241379 1.992411 -8.85843 -1.166409 -0.7505 0.1299 0.4316 -0.4979424 0.4785693 -0.3857178 -6.833646 5.662332 -2.463291 0.9463 0.0085 0.4048 0.9666439

0.09773844 -0.6639233 0.241379 1.992411 -8.85843 -1.166409 -0.7505 0.1299 0.4316 -0.5216789 0.4572763 -0.3448771 -6.878772 5.590719 -2.485854 0.9463 0.0085 0.4048 0.9666439

-0.0137881 -0.5960299 0.2274164 1.987506 -9.032067 -1.195839 -0.7742 0.1664 0.452 -0.5244714 0.4569272 -0.307178 -6.892506 5.575023 -2.509398 0.9328 0.0213 0.4391 0.9223394

-0.05846853 -0.6208136 0.2497566 2.049309 -9.165483 -1.1772 -0.7742 0.1664 0.452 -0.5244714 0.4569272 -0.307178 -6.892506 5.575023 -2.509398 0.9328 0.0213 0.4391 0.9223394

-0.05846853 -0.6208136 0.2497566 2.049309 -9.165483 -1.1772 -0.7742 0.1664 0.452 -0.5239478 0.416261 -0.3160791 -6.897411 5.588757 -2.551581 0.9328 0.0213 0.4391 0.9223394

-0.0980875 -0.6635742 0.2064724 2.073834 -9.404847 -1.287072 -0.7924 0.2075 0.4739 -0.5134758 0.4010766 -0.3529056 -6.966081 5.566194 -2.616327 0.9203 0.0197 0.4559 0.9223394

-0.1570796 -0.6337291 0.1027999 2.065986 -9.589275 -1.470519 -0.7924 0.2075 0.4739 -0.5134758 0.4010766 -0.3529056 -6.966081 5.566194 -2.616327 0.9203 0.0197 0.4559 0.9223394

-0.06859144 -0.56985 0.1052434 1.943361 -9.525511 -1.612764 -0.7924 0.2075 0.4739 -0.4483751 0.4778711 -0.3469715 -7.069087 5.54265 -2.661453 0.9203 0.0197 0.4559 0.9223394

-0.06859144 -0.56985 0.1052434 1.943361 -9.525511 -1.612764 -0.7986 0.2577 0.4798 -0.4483751 0.4778711 -0.3469715 -7.069087 5.54265 -2.661453 0.9203 0.0197 0.4559 0.9223394

-0.04537856 -0.450644 0.153938 1.79523 -9.472536 -1.783458 -0.7986 0.2577 0.4798 -0.4483751 0.4778711 -0.3469715 -7.069087 5.54265 -2.661453 0.9203 0.0197 0.4559 0.9223394

0.01762783 -0.3886848 0.2378884 1.759914 -9.391113 -1.89333 -0.8143 0.3042 0.4907 -0.3916519 0.5052728 -0.2949606 -7.10146 5.528916 -2.661453 0.9015 0.0053 0.4676 0.9223394

0.01762783 -0.3886848 0.2378884 1.759914 -9.391113 -1.89333 -0.8143 0.3042 0.4907 -0.4059636 0.4464552 -0.2696534 -7.067124 5.496543 -2.605536 0.9015 0.0053 0.4676 0.9223394

0.1429425 -0.3933972 0.2684316 1.707921 -9.355798 -1.974753 -0.8143 0.3042 0.4907 -0.4059636 0.4464552 -0.2696534 -7.067124 5.496543 -2.605536 0.9015 0.0053 0.4676 0.9223394

0.06335545 -0.3139847 0.2195624 1.612764 -9.44703 -2.027727 -0.8492 0.3495 0.4952 -0.4059636 0.4464552 -0.2696534 -7.067124 5.496543 -2.605536 0.9015 0.0053 0.4676 0.847156

0.06056292 -0.3289946 0.2256711 1.600011 -9.458802 -1.974753 -0.8728 0.3902 0.5071 -0.387114 0.2134538 -0.1361357 -6.726717 5.604454 -2.814489 0.8805 -0.0022 0.5004 0.847156

0.06056292 -0.3289946 0.2256711 1.600011 -9.458802 -1.974753 -0.8728 0.3902 0.5071 -0.4066617 0.1570796 -0.1464331 -6.715926 5.624074 -2.838033 0.857 -0.0145 0.5071 0.847156

-0.02059488 -0.3457497 0.2576106 1.505835 -9.561807 -2.049309 -0.8728 0.3902 0.5071 -0.4066617 0.1570796 -0.1464331 -6.715926 5.624074 -2.838033 0.857 -0.0145 0.5071 0.8216473

-0.02059488 -0.3457497 0.2576106 1.505835 -9.561807 -2.049309 -0.8728 0.3902 0.5071 -0.3417355 0.2085668 -0.116588 -6.795388 5.731002 -2.91357 0.857 -0.0145 0.5071 0.8216473

-0.1127483 -0.2998476 0.2474877 1.349856 -9.627535 -2.150352 -0.8792 0.4282 0.5127 -0.2286381 0.2865831 -0.04572763 -6.837571 5.831064 -2.981259 0.8412 -0.0251 0.534 0.8216473

-0.1567306 -0.2790782 0.2295108 1.242927 -9.619686 -2.22687 -0.8792 0.4282 0.5127 -0.1979203 0.2843142 -0.01413717 -6.761052 5.849703 -3.02148 0.8412 -0.0251 0.534 0.8216473

-0.1567306 -0.2790782 0.2295108 1.242927 -9.619686 -2.22687 -0.8792 0.4282 0.5127 -0.1979203 0.2843142 -0.01413717 -6.761052 5.849703 -3.02148 0.8412 -0.0251 0.534 0.8216473

-0.158825 -0.2736676 0.2370157 1.119321 -9.627535 -2.316141 -0.8928 0.4587 0.5047 -0.1998402 0.2382374 0.005585053 -6.636466 5.850685 -3.014613 0.8369 -0.0272 0.5476 0.8216473

-0.1511455 -0.209614 0.2057743 0.987867 -9.65206 -2.424051 -0.8928 0.4587 0.5047 -0.1724385 0.2038545 0.05829399 -6.538365 5.89581 -3.036195 0.8369 -0.0272 0.5476 0.8216473

-0.1120501 -0.1403245 0.2157227 0.945684 -9.636363 -2.450538 -0.9079 0.4823 0.4901 -0.1605703 0.1445132 0.1117011 -6.476563 5.899734 -3.019518 0.8282 -0.035 0.5367 0.8216473

-0.1120501 -0.1403245 0.2157227 0.945684 -9.636363 -2.450538 -0.9079 0.4823 0.4901 -0.1605703 0.1445132 0.1117011 -6.476563 5.899734 -3.019518 0.8282 -0.035 0.5367 0.8216473

-0.0572468 -0.1589995 0.2389356 0.9908101 -9.730539 -2.441709 -0.9079 0.4823 0.4901 -0.1605703 0.1445132 0.1117011 -6.476563 5.899734 -3.019518 0.8282 -0.035 0.5367 0.8216473

-0.0572468 -0.1589995 0.2389356 0.9908101 -9.730539 -2.441709 -0.9079 0.4823 0.4901 -0.06213372 0.07644542 0.1684243 -6.583491 6.012549 -2.994993 0.8236 -0.0281 0.5555 0.8216473

-0.08185595 -0.06038839 0.1293289 0.928026 -10.16414 -2.406393 -0.9362 0.5561 0.4772 -0.06667157 0.01291544 0.1589995 -6.571719 5.991949 -2.973411 0.8236 -0.0281 0.5555 0.8216473

-0.08185595 -0.06038839 0.1293289 0.928026 -10.16414 -2.406393 -0.9362 0.5561 0.4772 -0.06667157 0.01291544 0.1589995 -6.571719 5.991949 -2.973411 0.8236 -0.0281 0.5555 0.8216473

-0.1108284 -0.02094395 0.07923795 0.952551 -10.20436 -2.401488 -0.9362 0.5561 0.4772 -0.0710349 -0.03420845 0.1373574 -6.616845 5.980176 -2.943981 0.8317 -0.0308 0.5684 0.8216473

-0.1164135 0.04712389 0.05253441 0.9898291 -10.14943 -2.348514 -0.9476 0.581 0.4627 -0.02164208 -0.02356195 0.153589 -6.717888 6.030208 -2.93319 0.8317 -0.0308 0.5684 0.8216473

-0.1115265 0.07644542 0.07138397 1.075176 -10.05917 -2.220003 -0.9476 0.581 0.4627 -0.004712389 -0.03159046 0.1616175 -6.803235 6.009606 -2.916513 0.8306 -0.0411 0.5691 0.8216473

-0.1115265 0.07644542 0.07138397 1.075176 -10.05917 -2.220003 -0.9476 0.581 0.4627 -0.004712389 -0.03159046 0.1616175 -6.803235 6.009606 -2.916513 0.8306 -0.0411 0.5691 0.8216473

-0.1129228 0.05305801 0.09512044 1.130112 -9.996391 -2.112093 -0.9681 0.5848 0.4724 -0.01012291 -0.04886922 0.1361357 -6.858171 5.922297 -2.880216 0.8306 -0.0411 0.5691 0.8216473

-0.1254892 0.04171337 0.1207768 1.152675 -9.947341 -2.031651 -0.9681 0.5848 0.4724 0.004014257 -0.05899213 0.1277581 -6.933708 5.917392 -2.873349 0.8097 -0.0568 0.5623 0.8216473

-0.0122173 -0.005759587 0.1230457 1.1772 -9.881614 -1.990449 -0.9825 0.581 0.4876 0.05044002 -0.02164208 0.1518436 -6.993549 5.959576 -2.907684 0.8097 -0.0568 0.5623 0.7961386

-0.0122173 -0.005759587 0.1230457 1.1772 -9.881614 -1.990449 -0.9825 0.581 0.4876 0.05044002 -0.02164208 0.1518436 -6.993549 5.959576 -2.907684 0.8097 -0.0568 0.5623 0.7961386

0.05253441 0.0143117 0.1206023 1.144827 -9.861012 -1.947285 -1.01 0.5958 0.4966 0.07470009 0.004712389 0.1385791 -6.98472 5.948784 -2.885121 0.8054 -0.0771 0.5642 0.7961386

0.1219985 0.04468043 0.1396263 1.087929 -9.833545 -1.83447 -1.01 0.5958 0.4966 0.07470009 0.004712389 0.1385791 -6.98472 5.948784 -2.885121 0.8054 -0.0771 0.5642 0.7961386

0.07958701 0.0694641 0.08970992 1.054575 -9.921834 -1.769724 -1.0309 0.6115 0.5052 0.0541052 -0.026529 0.1342158 -6.938613 5.86638 -2.812527 0.8054 -0.0771 0.5642 0.7961386

0.07958701 0.0694641 0.08970992 1.054575 -9.921834 -1.769724 -1.0309 0.6115 0.5052 0.0541052 -0.026529 0.1342158 -6.938613 5.86638 -2.812527 0.8054 -0.0771 0.5642 0.7961386

0.2558653 0.06475171 -0.1724385 1.01043 -10.03269 -1.643175 -1.0309 0.6115 0.5052 0.0541052 -0.026529 0.1342158 -6.938613 5.86638 -2.812527 0.8054 -0.0771 0.5642 0.7947961

0.006632251 0.1373574 -0.0572468 0.8829001 -10.22987 -1.624536 -1.0272 0.6142 0.5146 0.04660029 -0.005410521 0.07801621 -6.893487 5.808502 -2.780154 0.8059 -0.0617 0.5776 0.7947961

0.02076942 0.06352998 -0.02059488 0.91233 -10.12196 -1.502892 -1.0272 0.6142 0.5146 0.06510078 0.01692969 0.07958701 -6.893487 5.889924 -2.807622 0.8128 -0.0745 0.5754 0.7947961

0.02076942 0.06352998 -0.02059488 0.91233 -10.12196 -1.502892 -1.0272 0.6142 0.5146 0.06510078 0.01692969 0.07958701 -6.893487 5.889924 -2.807622 0.8128 -0.0745 0.5754 0.7947961

-0.03403392 0.03577925 -0.04171337 0.9290071 -10.0837 -1.447956 -1.0062 0.6115 0.5185 0.03961897 -0.0001745329 0.08970992 -6.912126 5.904639 -2.788983 0.8128 -0.0745 0.5754 0.7947961

-0.06841691 0.003316126 -0.05078908 0.933912 -9.981676 -1.417545 -1.0062 0.6115 0.5185 -0.003490658 0.002443461 0.07784168 -6.928803 5.891886 -2.765439 0.8268 -0.0868 0.572 0.7947961

-0.06841691 0.003316126 -0.05078908 0.933912 -9.981676 -1.417545 -1.0062 0.6115 0.5185 0.02024582 0.03892084 0.05916666 -6.936651 5.942898 -2.785059 0.8268 -0.0868 0.572 0.7947961

-0.05393067 -0.02949606 -0.04677482 0.928026 -9.890443 -1.356723 -0.9993 0.6015 0.5098 0.02024582 0.03892084 0.05916666 -6.936651 5.942898 -2.785059 0.8268 -0.0868 0.572 0.7947961

-0.1703441 -0.05550147 -0.08621927 0.9692281 -9.926739 -1.313559 -1.0133 0.602 0.5084 0.0424115 0.08813913 0.04415683 -6.942537 5.951727 -2.808603 0.8283 -0.092 0.5753 0.7947961

-0.1703441 -0.05550147 -0.08621927 0.9692281 -9.926739 -1.313559 -1.0133 0.602 0.5084 0.0137881 0.09896017 0.02408554 -6.956271 5.916411 -2.79585 0.8283 -0.092 0.5753 0.7947961

-0.2314307 -0.1153663 -0.08063421 0.994734 -9.912025 -1.29492 -1.0133 0.602 0.5084 0.0137881 0.09896017 0.02408554 -6.956271 5.916411 -2.79585 0.8283 -0.092 0.5753 0.7947961

-0.2713987 -0.2008874 -0.0541052 0.9770761 -9.883576 -1.295901 -1.0213 0.6118 0.5257 0.01500983 0.1380555 0.0286234 -6.94548 5.921317 -2.811546 0.8177 -0.1056 0.5837 0.7947961

-0.2713987 -0.2008874 -0.0541052 0.9770761 -9.883576 -1.295901 -1.0213 0.6118 0.5257 0.04433136 0.1724385 0.03892084 -6.881715 5.961537 -2.846862 0.8177 -0.1056 0.5837 0.7947961

-0.3757694 -0.2595305 -0.07749262 0.970209 -9.929683 -1.309635 -1.0213 0.6118 0.5257 0.04433136 0.1724385 0.03892084 -6.881715 5.961537 -2.846862 0.8177 -0.1056 0.5837 0.7947961

-0.4111996 -0.2504548 0.00418879 0.999639 -9.841393 -1.516626 -1.0298 0.6108 0.5446 0.02408554 0.1384046 0.02932153 -6.786558 5.93505 -2.850786 0.8087 -0.1068 0.5873 0.7947961

-0.4111996 -0.2504548 0.00418879 0.999639 -9.841393 -1.516626 -1.0298 0.6108 0.5446 -0.03001966 0.06684611 0.004712389 -6.718869 5.867362 -2.824299 0.8087 -0.1068 0.5873 0.7947961

0.1527163 -0.08045968 0.1038471 0.925083 -9.428391 -2.035575 -1.0298 0.6108 0.5446 -0.05462881 0.0418879 -0.0008726646 -6.766939 5.857552 -2.763477 0.7983 -0.1096 0.5865 0.7947961

0.1532399 -0.03420845 0.08813913 1.029069 -9.5932 -2.268072 -1.0307 0.6145 0.5389 -0.05462881 0.0418879 -0.0008726646 -6.766939 5.857552 -2.763477 0.7983 -0.1096 0.5865 0.7947961

-0.121824 -0.07278023 0.003316126 1.119321 -9.822753 -2.160162 -1.0307 0.6145 0.5389 -0.05462881 0.0418879 -0.0008726646 -6.766939 5.857552 -2.763477 0.7983 -0.1096 0.5865 0.8176196

-0.09756391 -0.1127483 0.026529 1.021221 -9.725635 -2.078739 -1.0352 0.614 0.5265 -0.01832596 -0.07487462 -0.001396263 -6.616845 5.945841 -2.880216 0.7887 -0.0793 0.6003 0.8176196

-0.09756391 -0.1127483 0.026529 1.021221 -9.725635 -2.078739 -1.0352 0.614 0.5265 -0.01832596 -0.07487462 -0.001396263 -6.616845 5.945841 -2.880216 0.7887 -0.0793 0.6003 0.8176196

-0.1825614 -0.07365289 0.06632251 0.862299 -9.796267 -2.165067 -1.0327 0.6034 0.5502 0.05375614 0.01291544 0.03298672 -6.648237 6.048846 -2.960658 0.7765 -0.0797 0.592 0.8176196

-0.4780457 -0.0418879 0.03612831 0.736731 -9.987561 -2.227851 -1.0327 0.6034 0.5502 0.08988446 0.04869469 0.07661995 -6.608016 6.088086 -3.013632 0.7765 -0.0797 0.592 0.8176196

-0.2495821 0.008726646 -0.02792527 0.532683 -9.872785 -2.372058 -1.0177 0.5979 0.5789 0.08988446 0.04869469 0.07661995 -6.608016 6.088086 -3.013632 0.7765 -0.0797 0.592 0.8176196

-0.2495821 0.008726646 -0.02792527 0.532683 -9.872785 -2.372058 -1.0177 0.5979 0.5789 0.07522369 0.05811946 0.1097812 -6.503049 6.104764 -3.061701 0.7758 -0.0845 0.5932 0.8243324

-0.2469641 -0.07627089 -0.008901179 0.567018 -9.890443 -2.454462 -1.0177 0.5979 0.5789 0.1069887 0.02303835 0.1434661 -6.388272 6.183243 -3.097998 0.7758 -0.0845 0.5932 0.8243324

-0.2738422 -0.09651671 -0.07190756 0.506196 -9.983637 -2.656548 -0.9971 0.5935 0.5926 0.158825 0.0301942 0.1944297 -6.334317 6.234255 -3.141162 0.7866 -0.0797 0.5866 0.8243324

-0.2738422 -0.09651671 -0.07190756 0.506196 -9.983637 -2.656548 -0.9971 0.5935 0.5926 0.174882 0.01675516 0.2330015 -6.255837 6.265647 -3.180402 0.7866 -0.0797 0.5866 0.8243324

-0.389732 0.03682645 -0.1551598 0.35316 -10.05525 -2.907684 -0.9971 0.5935 0.5926 0.174882 0.01675516 0.2330015 -6.255837 6.265647 -3.180402 0.7866 -0.0797 0.5866 0.8243324

-0.5503023 0.09896017 -0.1979203 0.326673 -10.07389 -3.086226 -0.9786 0.5973 0.6098 0.174882 0.01675516 0.2330015 -6.255837 6.265647 -3.180402 0.7866 -0.0797 0.5866 0.8243324

-0.5503023 0.09896017 -0.1979203 0.326673 -10.07389 -3.086226 -0.9786 0.5973 0.6098 0.1846558 -0.02338741 0.2419026 -6.156756 6.346089 -3.199041 0.7869 -0.0685 0.5792 0.8243324

-0.7572984 0.08901179 -0.2089159 0.2943 -10.04642 -3.250053 -0.9786 0.5973 0.6098 0.1846558 -0.02338741 0.2419026 -6.156756 6.346089 -3.199041 0.7869 -0.0685 0.5792 0.8243324

-0.7572984 0.08901179 -0.2089159 0.2943 -10.04642 -3.250053 -0.9786 0.5973 0.6098 0.1846558 -0.02338741 0.2419026 -6.156756 6.346089 -3.199041 0.7869 -0.0685 0.5792 0.8243324

-0.7572984 0.08901179 -0.2089159 0.2943 -10.04642 -3.250053 -0.9786 0.5973 0.6098 0.1846558 -0.02338741 0.2419026 -6.156756 6.346089 -3.199041 0.7869 -0.0685 0.5792 0.8968307

-0.7572984 0.08901179 -0.2089159 0.2943 -10.04642 -3.250053 -0.9786 0.5973 0.6098 0.1846558 -0.02338741 0.2419026 -6.156756 6.346089 -3.199041 0.7869 -0.0685 0.5792 0.8968307

-1.068491 0.02478367 -0.1836087 0.746541 -9.246906 -3.929886 -0.9587 0.5316 0.735 0.4630359 0.01518436 0.5159193 -6.030208 6.705135 -3.431538 0.7881 -0.089 0.5894 0.8968307

-1.02957 0.03473205 -0.1877974 0.879957 -8.974188 -4.157478 -0.9587 0.5316 0.735 0.5408775 -0.0005235987 0.5923647 -5.96448 6.711021 -3.51198 0.7881 -0.089 0.5894 0.8968307

-1.02957 0.03473205 -0.1877974 0.879957 -8.974188 -4.157478 -0.9587 0.5316 0.735 0.5408775 -0.0005235987 0.5923647 -5.96448 6.711021 -3.51198 0.7881 -0.089 0.5894 0.9371076

-1.024857 0.1424189 -0.1649336 0.879957 -8.761312 -4.487094 -0.9225 0.476 0.8019 0.5550147 -0.04904375 0.5778785 -5.916411 6.725736 -3.519828 0.8009 -0.0771 0.5944 0.9371076

-1.133417 0.2553417 -0.1687733 0.896634 -8.645553 -4.773546 -0.9225 0.476 0.8019 0.5726426 -0.06614798 0.5635668 -5.922297 6.718869 -3.515904 0.8009 -0.0771 0.5944 0.9371076

-1.133417 0.2553417 -0.1687733 0.896634 -8.645553 -4.773546 -0.9225 0.476 0.8019 0.5726426 -0.06614798 0.5635668 -5.922297 6.718869 -3.515904 0.8009 -0.0771 0.5944 0.9371076

-1.315106 0.3141593 -0.1511455 0.9692281 -8.556282 -4.951107 -0.8978 0.4046 0.8818 0.6218608 -0.05602507 0.5984734 -5.926221 6.707098 -3.536505 0.8131 -0.0652 0.5989 0.9827546

-1.480039 0.3152064 -0.1106539 1.06929 -8.36793 -5.132592 -0.8978 0.4046 0.8818 0.6914994 -0.0434587 0.6721262 -5.89581 6.73849 -3.581631 0.8131 -0.0652 0.5989 0.9827546

-1.480039 0.3152064 -0.1106539 1.06929 -8.36793 -5.132592 -0.8978 0.4046 0.8818 0.7566002 -0.05375614 0.7490953 -5.831064 6.763995 -3.647358 0.816 -0.0579 0.5937 0.9827546

-1.590169 0.3412119 -0.05637414 1.184067 -8.109927 -5.358222 -0.8589 0.3215 0.9335 0.7566002 -0.05375614 0.7490953 -5.831064 6.763995 -3.647358 0.816 -0.0579 0.5937 0.9827546

-1.679879 0.3426081 0.02740167 1.229193 -7.86762 -5.63094 -0.7804 0.2284 0.9585 0.8091347 -0.04747296 0.8098328 -5.766318 6.762033 -3.779793 0.816 -0.0579 0.5937 0.9827546

-1.679879 0.3426081 0.02740167 1.229193 -7.86762 -5.63094 -0.7804 0.2284 0.9585 0.8944812 -0.04380776 0.8583529 -5.692743 6.846399 -3.888684 0.8173 -0.0546 0.5816 0.9827546

-1.706059 0.3993313 0.1284562 1.086948 -7.569396 -5.978214 -0.7804 0.2284 0.9585 1.086293 -0.04363323 0.9690068 -5.330754 7.11225 -4.029948 0.7896 -0.0751 0.5881 0.9827546

-1.669756 0.599346 0.2574361 0.8819191 -7.24959 -6.241122 -0.6983 0.1186 0.9946 1.086293 -0.04363323 0.9690068 -5.330754 7.11225 -4.029948 0.7896 -0.0751 0.5881 0.9827546

-1.686861 0.6304129 0.339292 0.986886 -7.054371 -6.32745 -0.6983 0.1186 0.9946 1.093274 -0.1174607 1.073028 -5.213035 7.128927 -4.182003 0.7924 -0.0802 0.5752 0.9827546

-1.686861 0.6304129 0.339292 0.986886 -7.054371 -6.32745 -0.6983 0.1186 0.9946 1.132719 -0.10088 1.165705 -5.275818 7.094593 -4.417443 0.7924 -0.0802 0.5752 0.9827546

-1.544093 0.4312708 0.5792748 1.15758 -6.702192 -6.476563 -0.6397 -0.0039 1.0315 1.132719 -0.10088 1.165705 -5.275818 7.094593 -4.417443 0.7924 -0.0802 0.5752 0.9827546

-1.219462 0.3415609 0.8023279 1.063404 -6.358842 -6.861115 -0.6397 -0.0039 1.0315 1.257684 -0.00715585 1.166753 -5.243445 7.158358 -4.625415 0.8203 -0.0779 0.579 0.9827546

-1.219462 0.3415609 0.8023279 1.063404 -6.358842 -6.861115 -0.6397 -0.0039 1.0315 1.395042 0.01553343 1.171639 -5.019777 7.275096 -4.698009 0.8203 -0.0779 0.579 1.079419

-1.12277 0.4644321 0.9293878 0.9044821 -6.354918 -7.257438 -0.5814 -0.1274 1.0298 1.395042 0.01553343 1.171639 -5.019777 7.275096 -4.698009 0.8203 -0.0779 0.579 1.079419

-1.12277 0.4644321 0.9293878 0.9044821 -6.354918 -7.257438 -0.5814 -0.1274 1.0298 1.403594 -0.084823 1.264317 -4.796109 7.156395 -4.699971 0.8234 -0.0908 0.5855 1.079419

-1.204801 0.5113814 0.9314822 0.868185 -6.554061 -7.539966 -0.5814 -0.1274 1.0298 1.311964 -0.2049017 1.375319 -4.664655 6.930765 -4.695066 0.8234 -0.0908 0.5855 1.079419

-1.204801 0.5113814 0.9314822 0.868185 -6.554061 -7.539966 -0.5814 -0.1274 1.0298 1.310917 -0.3359759 1.446005 -4.529277 6.909183 -4.772565 0.8203 -0.0959 0.5971 1.099557

-1.415287 0.7150614 1.168323 0.508158 -6.360805 -8.016732 -0.5306 -0.3192 0.7975 1.310917 -0.3359759 1.446005 -4.529277 6.909183 -4.772565 0.8203 -0.0959 0.5971 1.099557

-1.415287 0.7150614 1.168323 0.508158 -6.360805 -8.016732 -0.5306 -0.3192 0.7975 1.39958 -0.2951352 1.502379 -4.481208 6.963139 -4.912848 0.8203 -0.0959 0.5971 1.099557

-1.149474 0.6346017 1.368687 0.515025 -6.005682 -7.980435 -0.5306 -0.3192 0.7975 1.468695 -0.2748893 1.447402 -4.344849 6.947442 -4.979556 0.8277 -0.1167 0.6072 1.099557

-0.805993 0.4995132 1.542696 0.425754 -5.758471 -8.059896 -0.5575 -0.3224 0.7141 1.468695 -0.2748893 1.447402 -4.344849 6.947442 -4.979556 0.8277 -0.1167 0.6072 1.099557

-0.805993 0.4995132 1.542696 0.425754 -5.758471 -8.059896 -0.5575 -0.3224 0.7141 1.450718 -0.3851942 1.410575 -4.148649 6.815989 -4.940316 0.8277 -0.1167 0.6072 1.099557

-0.5633923 0.5717698 1.63677 0.073575 -5.667237 -8.178597 -0.5575 -0.3224 0.7141 1.394867 -0.4948008 1.528385 -3.98286 6.505011 -4.956013 0.8147 -0.1461 0.6042 1.099557

-0.5633923 0.5717698 1.63677 0.073575 -5.667237 -8.178597 -0.5575 -0.3224 0.7141 1.394867 -0.4948008 1.528385 -3.98286 6.505011 -4.956013 0.8147 -0.1461 0.6042 1.099557

-0.659909 0.7309439 1.614255 -0.354141 -5.844798 -8.157996 -0.5832 -0.2998 0.634 1.289973 -0.6070255 1.638864 -3.843558 6.334317 -5.051169 0.8184 -0.1673 0.6125 1.099557

-1.03882 0.7663741 1.626821 -0.581733 -6.083181 -8.113852 -0.5832 -0.2998 0.634 1.27601 -0.6274459 1.670106 -3.760173 6.369633 -5.206168 0.8184 -0.1673 0.6125 1.099557

-1.26292 0.7400196 1.619142 -0.7141681 -6.041979 -8.147205 -0.5985 -0.2662 0.5419 1.27601 -0.6274459 1.670106 -3.760173 6.369633 -5.206168 0.8184 -0.1673 0.6125 1.099557

-1.26292 0.7400196 1.619142 -0.7141681 -6.041979 -8.147205 -0.5985 -0.2662 0.5419 1.27601 -0.6274459 1.670106 -3.760173 6.369633 -5.206168 0.8184 -0.1673 0.6125 1.102243

-1.364149 0.8121017 1.646369 -0.828945 -5.834988 -8.234514 -0.5985 -0.2662 0.5419 1.27601 -0.6274459 1.670106 -3.760173 6.369633 -5.206168 0.8184 -0.1673 0.6125 1.102243

-1.579697 0.8049458 1.635024 -0.816192 -5.683914 -8.306128 -0.5797 -0.227 0.474 1.465378 -0.2726204 1.730145 -3.908304 5.999796 -6.059637 0.8399 -0.2155 0.6183 1.102243

-1.579697 0.8049458 1.635024 -0.816192 -5.683914 -8.306128 -0.5797 -0.227 0.474 1.465378 -0.2726204 1.730145 -3.908304 5.999796 -6.059637 0.8399 -0.2155 0.6183 1.080762

-1.807637 0.7527605 1.713564 -0.827964 -5.504391 -8.460144 -0.5797 -0.227 0.474 1.430995 -0.2345722 1.726829 -3.726819 5.761413 -6.130269 0.8309 -0.2308 0.616 1.080762

-1.780585 0.7850491 1.878847 -0.983943 -5.157117 -8.674983 -0.5832 -0.1933 0.4297 1.318945 -0.3272492 1.682148 -3.44331 5.540689 -6.304887 0.8309 -0.2308 0.616 1.065993

-1.780585 0.7850491 1.878847 -0.983943 -5.157117 -8.674983 -0.5832 -0.1933 0.4297 1.318945 -0.3272492 1.682148 -3.44331 5.540689 -6.304887 0.8309 -0.2308 0.616 1.065993

-1.780585 0.7850491 1.878847 -0.983943 -5.157117 -8.674983 -0.5832 -0.1933 0.4297 1.249307 -0.3672173 1.652129 -3.306951 5.410215 -6.447132 0.8 -0.2463 0.6198 1.065993

-1.780585 0.7850491 1.878847 -0.983943 -5.157117 -8.674983 -0.5832 -0.1933 0.4297 1.213353 -0.373675 1.556485 -3.275559 5.262084 -6.510897 0.8 -0.2463 0.6198 1.065993

-1.780585 0.7850491 1.878847 -0.983943 -5.157117 -8.674983 -0.5832 -0.1933 0.4297 1.213353 -0.373675 1.556485 -3.275559 5.262084 -6.510897 0.8 -0.2463 0.6198 1.065993

-2.03645 0.6607817 1.925273 -1.205649 -5.079618 -9.050706 -0.6766 -0.1072 0.3901 1.166404 -0.3593633 1.477421 -3.409956 5.093352 -6.646276 0.7759 -0.2552 0.6427 1.065993

-2.167873 0.5852089 1.914452 -1.014354 -4.727439 -9.153711 -0.7205 -0.0459 0.4181 1.159597 -0.2225295 1.472534 -3.679731 4.933449 -6.80814 0.7499 -0.284 0.6593 0.9948377

-2.229833 0.556411 1.960354 -1.016316 -4.337001 -9.295957 -0.7205 -0.0459 0.4181 1.159597 -0.2225295 1.472534 -3.679731 4.933449 -6.80814 0.7499 -0.284 0.6593 0.9948377

-2.229833 0.556411 1.960354 -1.016316 -4.337001 -9.295957 -0.7205 -0.0459 0.4181 1.193456 -0.002268928 1.405165 -3.912228 4.726458 -7.020036 0.7499 -0.284 0.6593 0.9948377

-2.114466 0.4921829 1.984614 -1.041822 -3.878874 -9.286146 -0.7265 0.0153 0.4616 1.193456 -0.002268928 1.405165 -3.912228 4.726458 -7.020036 0.7499 -0.284 0.6593 0.9948377

-2.093522 0.2036799 1.9525 -0.664137 -3.552201 -9.288108 -0.7265 0.0153 0.4616 1.196423 0.1888446 1.307601 -3.923019 4.520448 -7.247628 0.7276 -0.3031 0.6781 0.9317373

-2.093522 0.2036799 1.9525 -0.664137 -3.552201 -9.288108 -0.7265 0.0153 0.4616 1.195376 0.3090978 1.228712 -3.752325 4.389975 -7.347691 0.7276 -0.3031 0.6781 0.9317373

-2.263343 -0.05916666 1.995784 -0.409077 -3.30597 -9.57358 -0.6792 0.0477 0.5537 1.195376 0.3090978 1.228712 -3.752325 4.389975 -7.347691 0.7276 -0.3031 0.6781 0.9317373

-2.375742 -0.05550147 1.966462 -0.502272 -2.974392 -10.07389 -0.6792 0.0477 0.5537 1.149474 0.3237586 1.155582 -3.552201 4.093713 -7.373197 0.7094 -0.2974 0.6955 0.9317373

-2.375742 -0.05550147 1.966462 -0.502272 -2.974392 -10.07389 -0.6792 0.0477 0.5537 1.149474 0.3237586 1.155582 -3.552201 4.093713 -7.373197 0.7094 -0.2974 0.6955 0.8283601

-2.36527 0.1345649 1.95599 -0.6621751 -2.484873 -10.43686 -0.6101 0.0489 0.6783 0.9531243 0.3166027 0.8354891 -3.094074 3.27654 -7.603731 0.6589 -0.3019 0.7523 0.8283601

-2.36527 0.1345649 1.95599 -0.6621751 -2.484873 -10.43686 -0.6101 0.0489 0.6783 0.9531243 0.3166027 0.8354891 -3.094074 3.27654 -7.603731 0.6589 -0.3019 0.7523 0.7800279

-2.137679 0.07749262 1.97292 -0.521892 -1.882539 -10.48689 -0.6101 0.0489 0.6783 0.8707448 0.4242895 0.7293731 -3.023442 3.075435 -7.844076 0.6589 -0.3019 0.7523 0.7800279

-2.082352 -0.1471313 1.99369 -0.279585 -1.366533 -10.52417 -0.5399 0.0272 0.7941 0.8707448 0.4242895 0.7293731 -3.023442 3.075435 -7.844076 0.6589 -0.3019 0.7523 0.7800279

-2.082352 -0.1471313 1.99369 -0.279585 -1.366533 -10.52417 -0.5399 0.0272 0.7941 0.9302605 0.5359906 0.6384414 -3.08034 2.881197 -7.973568 0.6136 -0.3039 0.7673 0.7800279

-1.965939 -0.3543018 2.101027 -0.289395 -0.866223 -10.60069 -0.4764 -0.0307 0.9096 1.008626 0.7113962 0.5057964 -3.025404 2.635947 -7.848001 0.6136 -0.3039 0.7673 0.7800279

-1.965939 -0.3543018 2.101027 -0.289395 -0.866223 -10.60069 -0.4764 -0.0307 0.9096 1.008626 0.7113962 0.5057964 -3.025404 2.635947 -7.848001 0.6136 -0.3039 0.7673 0.7800279

-1.286831 -0.2759366 2.148849 -0.798534 0.09123301 -10.77432 -0.2502 -0.1649 1.0659 0.8972738 0.8025024 0.3216642 -2.572182 2.377944 -7.872525 0.5745 -0.2865 0.7823 0.5786438

-1.286831 -0.2759366 2.148849 -0.798534 0.09123301 -10.77432 -0.2502 -0.1649 1.0659 0.7993608 0.678584 0.2607522 -2.119941 2.107188 -8.09325 0.5471 -0.2634 0.819 0.5786438

-1.239009 -0.4155629 2.18969 -0.807363 0.167751 -10.58793 -0.2502 -0.1649 1.0659 0.7007497 0.575435 0.2508038 -1.804059 1.951209 -8.020657 0.5471 -0.2634 0.819 0.5786438

-1.265364 -0.5382596 2.167699 -0.9241021 0.09123301 -10.44078 -0.1514 -0.2313 1.1451 0.7007497 0.575435 0.2508038 -1.804059 1.951209 -8.020657 0.5471 -0.2634 0.819 0.5786438

-1.265364 -0.5382596 2.167699 -0.9241021 0.09123301 -10.44078 -0.1514 -0.2313 1.1451 0.6857399 0.479791 0.1956514 -1.485234 1.772667 -7.905879 0.5266 -0.24 0.8534 0.461841

-1.1678 -0.6276204 2.04762 -1.051632 0.120663 -10.34563 -0.1514 -0.2313 1.1451 0.6223844 0.4946263 0.1293289 -1.158561 1.601973 -8.063821 0.5266 -0.24 0.8534 0.461841

-1.1678 -0.6276204 2.04762 -1.051632 0.120663 -10.34563 -0.1514 -0.2313 1.1451 0.6223844 0.4946263 0.1293289 -1.158561 1.601973 -8.063821 0.5266 -0.24 0.8534 0.461841

-0.633031 -0.559378 1.991421 -1.034955 0.810306 -10.15433 -0.0634 -0.293 1.2049 0.5923647 0.5543166 0.167028 -0.887805 1.67751 -8.409133 0.5001 -0.2209 0.8821 0.3987406

-0.0827286 -0.6197664 2.154783 -1.133055 1.256661 -9.877689 -0.0634 -0.293 1.2049 0.5201081 0.3771656 0.233176 -0.8083441 1.51074 -8.453278 0.5001 -0.2209 0.8821 0.3987406

-0.2528982 -0.7131416 1.966986 -1.171314 0.862299 -9.901234 0.0045 -0.3531 1.2354 0.4178318 0.4977679 0.2370157 -0.8907481 1.244889 -8.303185 0.4757 -0.2038 0.8943 0.3987406

-0.2528982 -0.7131416 1.966986 -1.171314 0.862299 -9.901234 0.0045 -0.3531 1.2354 0.4178318 0.4977679 0.2370157 -0.8907481 1.244889 -8.303185 0.4757 -0.2038 0.8943 0.3047614

-0.4211479 -0.6997025 1.810256 -0.980019 0.690624 -10.10626 0.0615 -0.3989 1.2507 0.4178318 0.4977679 0.2370157 -0.8907481 1.244889 -8.303185 0.4757 -0.2038 0.8943 0.3047614

0.03804818 -0.4623377 1.749344 -1.071252 1.135017 -10.19063 0.0615 -0.3989 1.2507 0.4178318 0.4977679 0.2370157 -0.8907481 1.244889 -8.303185 0.4757 -0.2038 0.8943 0.3047614

0.03804818 -0.4623377 1.749344 -1.071252 1.135017 -10.19063 0.0615 -0.3989 1.2507 0.4183554 0.00418879 0.09424778 0.5964481 0.9859051 -8.620048 0.4278 -0.1641 0.9093 0.1973565

0.5503023 -0.1928589 1.736952 -1.247832 1.476405 -10.11019 0.0949 -0.4221 1.2705 0.4183554 0.00418879 0.09424778 0.5964481 0.9859051 -8.620048 0.4278 -0.1641 0.9093 0.1973565

0.6831219 -0.1441642 1.724385 -1.040841 1.489158 -9.932626 0.0949 -0.4221 1.2705 0.3836234 0.07592182 0.1219985 0.52974 0.780876 -8.558244 0.4278 -0.1641 0.9093 0.1973565

0.6831219 -0.1441642 1.724385 -1.040841 1.489158 -9.932626 0.0949 -0.4221 1.2705 0.2895501 0.02932153 -0.06806784 0.595467 0.7298641 -8.607294 0.4184 -0.1524 0.9058 0.1973565

0.6831219 -0.1441642 1.724385 -1.040841 1.489158 -9.932626 0.0949 -0.4221 1.2705 0.4272566 0.1069887 -0.2052507 0.629802 0.857394 -8.902575 0.4035 -0.1318 0.93 0.1342561

0.6831219 -0.1441642 1.724385 -1.040841 1.489158 -9.932626 0.0949 -0.4221 1.2705 0.4272566 0.1069887 -0.2052507 0.629802 0.857394 -8.902575 0.4035 -0.1318 0.93 0.1342561

1.367291 -0.7274532 1.134639 -0.162846 1.021221 -9.396999 0.1656 -0.4399 1.2708 0.4010766 0.0424115 -0.1919862 0.6621751 0.6141061 -8.882956 0.4035 -0.1318 0.93 0.1342561

1.367291 -0.7274532 1.134639 -0.162846 1.021221 -9.396999 0.1656 -0.4399 1.2708 0.3403392 0.1511455 -0.1043707 0.448317 0.479709 -8.820171 0.395 -0.1161 0.9427 0.1342561

1.616349 -0.7168067 1.198518 -0.26487 1.107549 -9.454879 0.1886 -0.4206 1.2656 0.3403392 0.1511455 -0.1043707 0.448317 0.479709 -8.820171 0.395 -0.1161 0.9427 0.06981317

1.429425 -0.6031858 1.17705 -0.283509 0.606258 -9.661869 0.1886 -0.4206 1.2656 0.3645993 0.3869395 -0.2272419 0.341388 0.518949 -9.036972 0.395 -0.1161 0.9427 0.06981317

1.429425 -0.6031858 1.17705 -0.283509 0.606258 -9.661869 0.1886 -0.4206 1.2656 0.4082325 0.3993313 -0.3754203 0.456165 0.416925 -9.059535 0.3891 -0.1117 0.9458 0.06981317

0.8414232 -0.4216715 0.941256 -0.360027 -0.250155 -10.06016 0.2095 -0.3881 1.2608 0.4082325 0.3993313 -0.3754203 0.456165 0.416925 -9.059535 0.3891 -0.1117 0.9458 0.04430451

0.3743731 0.05113815 0.7934266 -0.646479 -0.723978 -10.37506 0.2215 -0.3516 1.2535 0.3750713 0.4059636 -0.4478515 0.61803 0.24525 -8.919252 0.3891 -0.1117 0.9458 0.04430451

0.3743731 0.05113815 0.7934266 -0.646479 -0.723978 -10.37506 0.2215 -0.3516 1.2535 0.3467969 0.5330235 -0.4152139 0.825021 0.242307 -8.884917 0.3823 -0.0963 0.9658 0.04430451

0.3743731 0.05113815 0.7934266 -0.646479 -0.723978 -10.37506 0.2215 -0.3516 1.2535 0.3181735 0.405789 -0.4021239 1.145808 0.257022 -8.896689 0.3823 -0.0963 0.9658 0.04430451
