0.009247184 -5.722046E-08 -0.5101292 270.0198 -2.561322E-06 0

0.01359123 0.01558525 -0.5097938 270.2954 6.157415 353.7194

0.01359123 0.01558525 -0.5097938 270.2954 6.157415 353.7194

0.01359123 0.01558525 -0.5097938 270.2954 6.157415 353.7194

0.008923622 -0.004114494 -0.5101184 270.1467 147.6497 212.0191

-0.02443917 0.01474703 -0.5086029 271.6119 314.171 45.33423

-0.03136836 -0.004356708 -0.5084177 270.4348 241.0541 118.1574

-0.03136836 -0.004356708 -0.5084177 270.4348 241.0541 118.1574

-0.02716898 0.01541714 -0.5084444 271.7493 40.283 319.1219

-0.03393849 -0.003892937 -0.5082564 273.7511 37.32153 322.2731

-0.03161076 0.009359893 -0.5083352 273.7511 37.32154 322.2731

-0.03161076 0.009359893 -0.5083352 275.5964 34.44181 325.3067

-0.02848244 0.02191034 -0.5081341 276.6292 33.30613 326.3495

-0.02576966 0.03031654 -0.5078468 276.1466 32.92815 326.3374

-0.0228456 0.03570865 -0.5076362 276.5279 26.3411 332.6747

-0.0228456 0.03570865 -0.5076362 276.5279 26.3411 332.6747

-0.01853048 0.03822684 -0.5076287 276.56 35.49049 323.2586

-0.007226589 0.02143455 -0.5089804 277.2976 33.43853 325.3201

-0.0009599039 0.04046141 -0.5078727 277.2977 33.4385 325.3201

-0.0009599039 0.04046141 -0.5078727 276.5446 31.12195 327.2865

-0.006087718 0.02119337 -0.5090054 276.7933 28.33509 329.8702

0.0003414284 0.04045558 -0.5079501 277.2137 29.56964 328.4206

-0.003845121 0.0220388 -0.5090674 277.2137 29.56964 328.4206

-0.003845121 0.0220388 -0.5090674 277.3431 31.25931 326.5149

0.002437418 0.04055735 -0.5079362 277.4637 24.76195 332.804

-0.002372129 0.02062059 -0.5091724 276.854 23.35519 333.7283

0.002433099 0.03978049 -0.5080344 276.854 23.35519 333.7283

0.002433099 0.03978049 -0.5080344 277.5788 26.5867 330.1642

-0.003307025 0.0198603 -0.5091974 277.9492 31.60012 324.9141

0.00559721 0.03441402 -0.5085387 278.9718 19.843 336.7036

0.005213133 0.01402828 -0.5095128 278.9717 19.84301 336.7036

0.005213133 0.01402828 -0.5095128 277.7322 19.56813 336.4483

0.01080881 0.03158878 -0.508638 278.7125 14.5589 341.2353

0.01637773 0.009086551 -0.5096905 277.8161 21.68022 333.6181

0.02258347 0.02627769 -0.5088562 277.8161 21.68023 333.6181

0.02258347 0.02627769 -0.5088562 278.586 9.675532 345.3806

0.02198725 0.005086498 -0.509535 277.3366 15.26766 339.2209

0.02588621 0.02050066 -0.5089645 276.0793 353.9836 359.5584

0.02427201 0.02032986 -0.5090508 276.0793 353.9836 359.5584

0.02427201 0.02032986 -0.5090508 275.5215 329.6163 22.8718

0.02506959 0.02230396 -0.5089295 274.9116 313.1734 38.04113

0.03216197 0.01273756 -0.5088601 274.8054 300.267 49.36762

0.03268199 0.006180553 -0.5089489 274.8054 300.267 49.36761

0.03268199 0.006180553 -0.5089489 273.8426 300.8128 47.03598

0.03567956 0.01549805 -0.5085489 273.6326 313.9313 32.33743

0.03140199 -0.00430687 -0.5090488 274.3426 298.6678 45.86516

0.03140199 -0.00430687 -0.5090488 274.3426 298.6678 45.86516

0.02351626 -0.02245136 -0.5089972 274.1494 282.3086 60.24905

0.02555596 -0.007387333 -0.5093403 273.4826 273.5542 66.87072

0.02555596 -0.007387333 -0.5093403 273.4826 273.5542 66.87072

0.02082815 -0.0304331 -0.5086995 272.4294 277.3893 61.14909

0.09133317 -0.008137665 -0.4989535 272.2596 294.0149 42.59084

0.09133317 -0.008137665 -0.4989535 274.2813 285.268 49.16508

0.09153912 -0.01871487 -0.498631 274.2814 285.268 49.16504

0.113845 -0.00301363 -0.492416 272.7607 278.411 54.30885

0.113845 -0.00301363 -0.492416 275.1683 280.0671 50.59119

0.1123929 -0.02337324 -0.4922041 274.4979 258.2657 70.11323

0.1131378 -0.03090099 -0.491618 274.4979 258.2657 70.11323

0.1131378 -0.03090099 -0.491618 276.5677 257.2446 68.45635

0.03522351 -0.07191496 -0.503907 275.8688 255.1002 67.83421

0.03892444 -0.06143486 -0.5050203 275.8688 255.1002 67.83422

0.03892444 -0.06143486 -0.5050203 278.1956 245.8141 74.04974

0.03031675 -0.0877644 -0.5017102 278.0269 234.1573 83.01044

0.03031675 -0.0877644 -0.5017102 278.0269 234.1573 83.01044

0.02988079 -0.07886633 -0.5032116 280.7991 230.6604 83.29118

0.1597845 -0.03650888 -0.4611346 283.0276 231.9001 78.64532

0.1574829 -0.05488171 -0.4601045 283.0276 231.9001 78.64529

0.1577434 -0.07068663 -0.4578531 282.5055 225.1377 83.03764

0.1577434 -0.07068663 -0.4578531 282.5055 225.1377 83.03764

0.1583606 -0.08622845 -0.4549677 281.9427 223.4963 81.97607

0.1583606 -0.08622845 -0.4549677 281.9427 223.4963 81.97607

0.1630466 -0.09641988 -0.4512517 285.8502 222.7113 81.01028

0.1671188 -0.1103222 -0.4465528 289.7434 222.4049 79.8205

0.1705693 -0.1275733 -0.4406134 293.5639 222.1849 78.78859

0.1858377 -0.121654 -0.4360891 297.3067 222.441 77.35449

0.1858377 -0.121654 -0.4360891 297.3067 222.441 77.35449

0.2289347 -0.09977969 -0.386614 300.9896 222.1958 76.70148

0.2372775 -0.09620871 -0.3824666 304.3462 222.2261 75.8598

0.2372775 -0.09620871 -0.3824666 304.3462 222.2261 75.8598

0.239975 -0.1159292 -0.3752464 307.4211 222.1516 75.3782

0.2552497 -0.1104622 -0.3667195 307.4211 222.1516 75.3782

0.2552497 -0.1104622 -0.3667195 309.9763 222.7514 74.42703

0.2552497 -0.1104622 -0.3667195 312.2995 223.2392 73.7468

0.2551829 -0.1302623 -0.3602095 312.2995 223.2392 73.74679

0.2551829 -0.1302623 -0.3602095 314.5049 224.1711 73.01534

0.2556929 -0.1503228 -0.3519399 317.2076 224.8868 72.62822

0.2556929 -0.1503228 -0.3519399 317.2076 224.8868 72.62822

0.2557673 -0.1712839 -0.342173 317.2076 224.8868 72.62821

0.2659786 -0.1659964 -0.3369541 320.2974 224.5814 73.00201

0.2659786 -0.1659964 -0.3369541 323.3062 224.5805 73.21484

0.2842914 -0.1418761 -0.2962705 323.3062 224.5805 73.21484

0.299789 -0.1481545 -0.2773147 326.3393 224.5861 73.3172

0.299789 -0.1481545 -0.2773147 329.0875 224.5941 73.47128

0.3095469 -0.154824 -0.2625584 329.0875 224.5941 73.47128

0.3174064 -0.1431433 -0.2514959 331.6639 224.6312 73.5448

0.3210405 -0.1529032 -0.2409161 331.6639 224.6312 73.54482

0.3210405 -0.1529032 -0.2409161 333.9564 224.8943 73.48729

0.3299781 -0.1505844 -0.230056 336.2799 225.2345 73.28918

0.3333959 -0.1550826 -0.2161887 336.2799 225.2345 73.28918

0.3333959 -0.1550826 -0.2161887 338.5551 225.6123 73.1463

0.3366815 -0.1623138 -0.2055257 340.5825 226.0079 73.00475

0.3366365 -0.1609257 -0.2047418 342.087 226.5802 72.80472

0.3324792 -0.1712187 -0.2031801 342.087 226.5802 72.80472

0.3324792 -0.1712187 -0.2031801 343.3393 227.3712 72.55505

0.340771 -0.1613959 -0.1961773 343.3394 227.3712 72.55505

0.340771 -0.1613959 -0.1961773 344.6301 228.2653 72.34723

0.3461199 -0.1648518 -0.1835319 344.6301 228.2653 72.34723

0.3508623 -0.168331 -0.1709368 345.8413 229.1713 72.14175

0.3508623 -0.168331 -0.1709368 345.8413 229.1713 72.14175

0.3568728 -0.1756411 -0.1498368 345.8942 230.4637 72.17774

0.3568728 -0.1756411 -0.1498368 345.6355 231.6959 72.28773

0.3632363 -0.1679188 -0.143254 345.6355 231.6959 72.28773

0.3639078 -0.1737665 -0.134296 345.4246 232.992 72.41742

0.3642607 -0.174843 -0.1319209 344.9876 234.0033 72.733

0.3642607 -0.174843 -0.1319209 344.9876 234.0033 72.733

0.3662677 -0.1765567 -0.1238335 344.4384 235.1077 73.03709

0.3630121 -0.1850056 -0.1210544 343.5311 235.6691 73.6874

0.3630121 -0.1850056 -0.1210544 343.5311 235.6691 73.6874

0.367641 -0.1786028 -0.1166197 342.3355 233.9329 74.74638

0.368908 -0.1802811 -0.1098392 342.3355 233.9329 74.74639

0.368908 -0.1802811 -0.1098392 340.8984 232.7755 75.19136

0.368908 -0.1802811 -0.1098392 341.261 231.0778 74.36279

0.3753756 -0.1825387 -0.1058689 341.261 231.0778 74.3628

0.3825358 -0.1747925 -0.09246301 340.5994 229.4817 73.63851

0.3825358 -0.1747925 -0.09246301 340.7997 231.6901 73.33606

0.3843142 -0.1751307 -0.08406723 340.7997 231.6901 73.33607

0.3851303 -0.1808197 -0.08598825 340.7997 231.6901 73.33606

0.390735 -0.1726218 -0.07709071 341.9239 234.7837 72.81478

0.390735 -0.1726218 -0.07709071 343.7692 236.7421 72.10347

0.3940803 -0.1707195 -0.06301334 345.3189 239.1319 71.02576

0.3969381 -0.1755901 -0.05983423 345.3188 239.1319 71.02576

0.3983196 -0.1754344 -0.05035981 346.7377 241.9727 70.23959

0.3983196 -0.1754344 -0.05035981 346.7377 241.9727 70.23959

0.4005688 -0.1716643 -0.04525331 348.3182 242.3227 68.92445

0.4006028 -0.1731192 -0.03897377 348.3462 244.9558 68.16151

0.4006028 -0.1731192 -0.03897377 349.6057 243.8032 68.215

0.4005504 -0.1743089 -0.03387716 349.6057 243.8032 68.21499

0.4005504 -0.1743089 -0.03387716 348.7756 243.7855 69.56729

0.4011019 -0.1738332 -0.02951604 350.0247 243.4566 68.53804

0.4076794 -0.1579023 -0.0289173 350.0247 243.4565 68.53804

0.4076794 -0.1579023 -0.0289173 349.3342 245.7627 68.60523

0.4066283 -0.1608692 -0.02732121 350.3366 244.7878 68.18227

0.4080897 -0.1766204 -0.02964423 350.3366 244.7878 68.18227

0.4080897 -0.1766204 -0.02964423 350.0167 246.4954 67.88725

0.4061154 -0.1812313 -0.02891697 351.6227 245.9922 66.14183

0.4061154 -0.1812313 -0.02891697 351.9923 248.2439 66.89172

0.4054063 -0.1842744 -0.01730372 351.9923 248.2439 66.89172

0.4063364 -0.1822011 -0.0174428 353.4833 249.6013 67.97552

0.4123094 -0.1689227 -0.008764371 355.184 250.6024 68.56706

0.4123094 -0.1689227 -0.008764371 356.4914 250.8551 66.93729

0.4124602 -0.168773 -0.001716986 356.4914 250.8551 66.93729

0.4124602 -0.168773 -0.001716986 358.2238 250.6715 65.82254

0.4141854 -0.1645029 0.0001115942 0.3537497 250.1584 65.78792

0.4201707 -0.1484412 0.005701961 1.480567 250.8502 67.56654

0.4191591 -0.1512425 0.006494422 1.480559 250.8501 67.56654

0.4191591 -0.1512425 0.006494422 3.21898 249.4406 66.57921

0.42469 -0.1345675 0.01186448 3.218979 249.4406 66.5792

0.4200312 -0.1483421 0.01338424 4.3021 250.9373 66.87057

0.4200312 -0.1483421 0.01338424 5.772166 251.1968 65.81142

0.4200312 -0.1483421 0.01338424 5.772166 251.1968 65.81142

0.4198877 -0.1477347 0.01351637 6.931136 251.7188 66.71913

0.4198877 -0.1477347 0.01351637 6.810635 248.7969 65.42471

0.4245506 -0.1331321 0.01861542 6.810637 248.7969 65.42471

0.4297554 -0.1136892 0.02643783 6.297017 250.0414 65.997

0.4298522 -0.1139884 0.02638477 6.297012 250.0414 65.99701

0.4286155 -0.1161719 0.03542919 6.597869 246.8596 64.95561

0.4296177 -0.1100246 0.04225613 6.502613 243.5174 63.95625

0.4295408 -0.1040065 0.05603324 6.502613 243.5174 63.95625

0.4305966 -0.1069736 0.05552879 5.958527 240.0519 63.22892

0.4306918 -0.1040492 0.06015485 4.684662 236.9469 63.47421

0.4280417 -0.1143272 0.06280117 4.684662 236.9469 63.4742

0.4300284 -0.1028613 0.06877153 4.532756 237.7012 64.31976

0.4300284 -0.1028613 0.06877153 3.058204 234.6106 64.27594

0.4290168 -0.1002199 0.07832605 3.058195 234.6106 64.27592

0.4290168 -0.1002199 0.07832605 1.023881 233.8858 64.71683

0.428818 -0.09660952 0.08376195 359.1338 231.1774 64.70537

0.4282545 -0.1079347 0.09156517 359.1338 231.1774 64.70537

0.4285609 -0.101782 0.09701542 357.1549 228.8623 65.08301

0.4285609 -0.101782 0.09701542 357.6363 228.6875 63.03586

0.4261362 -0.1042859 0.10473 357.6363 228.6875 63.03586

0.4281305 -0.1099285 0.1037788 355.5954 227.1634 63.49656

0.4281305 -0.1099285 0.1037788 355.5954 227.1634 63.49656

0.4262335 -0.1088545 0.1123644 354.4275 227.7386 63.37809

0.4262335 -0.1088545 0.1123644 354.4275 227.7386 63.37809

0.4285171 -0.1110986 0.1151587 352.7005 227.5213 64.00486

0.4285171 -0.1110986 0.1151587 351.0101 227.2635 64.91522

0.4260716 -0.111137 0.1238661 351.0101 227.2635 64.91524

0.4260716 -0.111137 0.1238661 349.2924 224.6863 65.20439

0.4274335 -0.116726 0.126709 350.6266 225.3001 64.82258

0.4234151 -0.1223814 0.1346179 350.6266 225.3001 64.82258

0.4234151 -0.1223814 0.1346179 348.603 223.5171 65.84506

0.4234151 -0.1223814 0.1346179 349.9621 224.3465 65.47421

0.4248435 -0.12718 0.1336305 349.9621 224.3465 65.47421

0.4245804 -0.1242362 0.1371887 348.1284 223.7775 66.1259

0.4253395 -0.1269574 0.1366799 348.1284 223.7775 66.1259

0.4238293 -0.1317877 0.1367989 348.9032 225.0303 65.53671

0.4211409 -0.1323918 0.1443118 348.1461 225.9555 65.98444

0.4211409 -0.1323918 0.1443118 347.2297 226.7793 66.50145

0.4153088 -0.1276003 0.1641646 347.2297 226.7793 66.50146

0.4137847 -0.1296326 0.1664058 347.2156 228.222 66.83308

0.4107 -0.1331839 0.1711746 346.1016 228.9013 67.22477

0.4107 -0.1331839 0.1711746 346.1016 228.9013 67.22477

0.4135714 -0.1247125 0.1706419 347.7011 229.9027 66.69971

0.409673 -0.1313453 0.1750134 345.8663 229.1795 67.51072

0.4084814 -0.1455014 0.1663894 347.4469 229.9759 66.90231

0.410101 -0.1300361 0.1749886 347.4469 229.9759 66.90231

0.410101 -0.1300361 0.1749886 345.4866 228.9149 67.79066

0.4051856 -0.1393232 0.1792399 347.0911 229.5557 67.42387

0.3959049 -0.1440277 0.1955212 347.0911 229.5557 67.42387

0.3959049 -0.1440277 0.1955212 345.9776 230.4607 68.35985

0.393931 -0.144112 0.1994075 347.2813 231.4585 67.28124

0.3936086 -0.1384665 0.2039915 347.8515 233.2731 67.95381

0.3893919 -0.1455442 0.2071329 347.8515 233.2731 67.95381

0.3893919 -0.1455442 0.2071329 347.7108 234.8745 68.99522

0.3888539 -0.1422043 0.2104371 346.456 235.7802 69.63262

0.385189 -0.150875 0.2111383 348.1172 235.9801 69.68047

0.3864034 -0.1461142 0.2122646 348.1172 235.9801 69.68048

0.3864034 -0.1461142 0.2122646 346.4221 234.5363 70.00121

0.3876306 -0.1591174 0.2109905 348.1143 235.1031 69.4882

0.3889245 -0.1532042 0.2129765 349.5757 234.7454 69.59994

0.3856458 -0.1590944 0.2146139 349.5757 234.7454 69.59994

0.3854901 -0.1584912 0.2147513 347.6883 233.5591 69.69685

0.3869717 -0.1509903 0.2174743 349.3637 233.9792 69.32923

0.3869717 -0.1509903 0.2174743 348.686 231.8778 69.4575

0.3838596 -0.1571598 0.2186156 348.686 231.8778 69.4575

0.380356 -0.1463724 0.2312822 350.308 232.2339 68.52265

0.380356 -0.1463724 0.2312822 348.6739 230.8383 68.30094

0.3763605 -0.1505602 0.2350989 350.5451 231.0545 68.38254

0.3771624 -0.1440144 0.237898 350.5451 231.0545 68.38254

0.3771624 -0.1440144 0.237898 351.8226 230.1463 69.47928

0.3734921 -0.1538617 0.2375233 351.4919 231.7518 68.39563

0.3754249 -0.1478875 0.2382699 351.4919 231.7518 68.39563

0.3715248 -0.163918 0.2338531 350.5615 231.3786 70.55157

0.3715248 -0.163918 0.2338531 352.3699 232.2006 70.26114

0.3783787 -0.146989 0.2341172 350.5801 232.138 70.85994

0.3783787 -0.146989 0.2341172 350.5801 232.138 70.85994

0.3738656 -0.1577176 0.2343858 349.4137 231.106 69.31543

0.3738656 -0.1577176 0.2343858 349.4137 231.106 69.31543

0.3757375 -0.1496111 0.23723 351.0698 231.1313 69.14446

0.3717712 -0.156502 0.2390262 349.0992 230.4665 69.30141

0.3749729 -0.1422731 0.242365 350.6636 231.1649 68.4906

0.3749729 -0.1422731 0.242365 348.8954 230.3756 69.08179

0.371658 -0.1509592 0.2422163 348.8954 230.3756 69.08179

0.3724016 -0.148154 0.2428054 348.9611 232.3278 67.79682

0.3693961 -0.1574991 0.2415111 347.5668 232.9348 67.30878

0.3693961 -0.1574991 0.2415111 347.5668 232.9348 67.30878

0.3682856 -0.166915 0.2368378 349.392 233.8777 67.21156

0.3752458 -0.1581022 0.2319081 347.8911 233.1313 68.58788

0.3752458 -0.1581022 0.2319081 347.8911 233.1313 68.58788

0.3755682 -0.1614189 0.2290842 347.8911 233.1313 68.58788

0.3755682 -0.1614189 0.2290842 349.5733 233.9115 67.76711

0.3744209 -0.1645083 0.2273703 347.6591 233.1832 69.13528

0.3795337 -0.1702422 0.2142965 347.6591 233.1832 69.13528

0.3795337 -0.1702422 0.2142965 345.8766 233.1679 70.48195

0.3806148 -0.1720653 0.2108959 345.8766 233.1679 70.48195

0.3810982 -0.1725812 0.2089873 344.0226 233.3211 71.67944

0.3793485 -0.1852344 0.2011933 342.4827 233.9796 72.62431

0.3793485 -0.1852344 0.2011933 342.4827 233.9796 72.62431

0.3785907 -0.1920011 0.1932438 340.8426 234.5335 73.33248

0.3805693 -0.1946532 0.1865895 339.8736 235.9458 74.01093

0.382297 -0.1984407 0.17891 339.8736 235.9458 74.01092

0.3805215 -0.1900735 0.1814756 337.732 235.5971 74.01788

0.3805911 -0.1969025 0.1738902 336.3442 234.3676 72.78767

0.3861079 -0.1932974 0.1655739 336.3442 234.3676 72.78766

0.3847734 -0.1963553 0.158416 337.3798 234.9616 71.23575

0.3847734 -0.1963553 0.158416 334.8858 234.1848 71.56564

0.3877228 -0.1960918 0.1513957 334.8858 234.1848 71.56564

0.3850044 -0.1852093 0.1550588 332.3863 233.544 71.08907

0.3790626 -0.2037108 0.1462451 332.7302 233.0983 70.16786

0.3790626 -0.2037108 0.1462451 332.7302 233.0983 70.16786

0.3851926 -0.1959268 0.1407602 332.7302 233.0983 70.16787

0.3855602 -0.1768894 0.1464897 330.0962 232.3513 70.414

0.3855602 -0.1768894 0.1464897 327.6809 231.4181 70.65111

0.3808114 -0.1895542 0.1430304 327.6809 231.4181 70.65111

0.3799458 -0.2036992 0.1247138 325.4012 230.4947 70.78018

0.3799458 -0.2036992 0.1247138 323.3192 229.7379 70.87159

0.3794915 -0.2189012 0.09733599 323.3192 229.7379 70.87158

0.3753803 -0.2023087 0.1043951 321.5067 229.2025 70.62313

0.381676 -0.1957256 0.09355393 319.4387 228.746 70.43122

0.377923 -0.208022 0.08147696 319.4387 228.746 70.43122

0.3802995 -0.2088562 0.06699871 317.4417 228.3677 70.36957

0.3774578 -0.1984484 0.07177795 315.7223 228.0996 70.29778

0.3774578 -0.1984484 0.07177795 315.7223 228.0996 70.29778

0.3785546 -0.2006522 0.05868042 314.1256 227.978 70.10482

0.3769653 -0.200632 0.04616143 312.4021 228.1121 69.74398

0.3748411 -0.2054697 0.04199281 312.4021 228.1121 69.74399

0.3748411 -0.2054697 0.04199281 310.6674 228.6851 69.1041

0.375818 -0.2063678 0.02569356 310.6674 228.685 69.10412

0.3790829 -0.2012774 0.01644961 309.1647 229.5273 68.36244

0.3790829 -0.2012774 0.01644961 308.1684 230.5295 67.51962

0.3782973 -0.2033968 0.002805734 308.1684 230.5296 67.51961

0.3803933 -0.199201 -0.01033713 307.3188 231.3932 66.94625

0.3803933 -0.199201 -0.01033713 307.1952 232.6033 66.26182

0.382016 -0.1949979 -0.02294819 307.1952 232.6033 66.26181

0.3830853 -0.1910473 -0.03512372 307.1952 232.6033 66.26181

0.3827851 -0.1897198 -0.03429252 307.0352 233.6901 65.7121

0.3827851 -0.1897198 -0.03429252 308.8198 235.9359 66.20881

0.3832355 -0.1848545 -0.0515111 308.8198 235.9359 66.20879

0.3853601 -0.1742142 -0.06957726 310.3685 237.1673 67.09295

0.3853601 -0.1742142 -0.06957726 311.8378 238.9012 67.83166

0.388455 -0.1595917 -0.08559906 311.8378 238.9012 67.83164

0.3825834 -0.165607 -0.09949006 313.1744 241.343 68.17248

0.3825834 -0.165607 -0.09949006 314.0542 243.0403 68.03036

0.3834115 -0.1566459 -0.1102346 314.0542 243.0403 68.03035

0.3834115 -0.1566459 -0.1102346 314.7561 247.2163 67.61892

0.3827336 -0.1463477 -0.1256635 315.2847 250.014 65.81575

0.3817757 -0.1312964 -0.1438837 315.2847 250.014 65.81573

0.3817757 -0.1312964 -0.1438837 315.255 254.1363 65.62403

0.3716123 -0.1412507 -0.1601454 314.5739 259.0497 64.1639

0.3716123 -0.1412507 -0.1601454 314.5739 259.0497 64.1639

0.3716123 -0.1412507 -0.1601454 313.7109 263.3755 64.06457

0.3716123 -0.1412507 -0.1601454 313.7109 263.3755 64.06457

0.3708024 -0.1561299 -0.1966138 311.5504 267.7054 62.85878

0.3664066 -0.1514318 -0.2081888 311.5504 267.7054 62.85878

0.3596256 -0.1464179 -0.2230677 308.143 271.3706 62.83301

0.3596256 -0.1464179 -0.2230677 308.143 271.3706 62.83301

0.3524829 -0.1474743 -0.2335276 305.3777 276.4283 60.60349

0.3421478 -0.1570557 -0.2675644 302.327 277.614 59.21719

0.3421478 -0.1570557 -0.2675644 302.327 277.614 59.21719

0.3273626 -0.1536473 -0.2873127 301.9543 278.5565 60.56317

0.3144509 -0.1565862 -0.2998727 297.9952 281.071 58.096

0.3033558 -0.1445375 -0.3168699 294.8069 283.3321 55.47934

0.3033558 -0.1445375 -0.3168699 294.8069 283.3321 55.47934

0.2856224 -0.1457435 -0.3324169 290.9811 288.7607 51.3069

0.2815752 -0.1307158 -0.3419812 288.6249 296.0705 46.26982

0.2815752 -0.1307158 -0.3419812 288.6249 296.0705 46.26982

0.2540228 -0.1374056 -0.3792603 285.717 300.9245 43.59369

0.2473171 -0.119762 -0.3895351 282.512 298.4341 48.34988

0.2375906 -0.1330828 -0.391262 282.512 298.4341 48.34988

0.2375906 -0.1330828 -0.391262 280.8063 287.6677 60.31623

0.2297096 -0.1270106 -0.3979297 280.8063 287.6677 60.31622

0.2134885 -0.1363736 -0.4038207 280.4429 289.332 58.78764

0.2107131 -0.1167613 -0.4113551 280.4429 289.332 58.78764

0.1762739 -0.1377766 -0.4392174 277.8606 289.7992 60.56191

0.1605581 -0.1488635 -0.4416193 277.8606 289.7992 60.56191

0.1535549 -0.1412703 -0.4465763 274.9479 284.4096 67.81308

0.1418412 -0.1416825 -0.4503043 274.2224 255.0767 98.01672
