0.01975201 -5.722046E-08 -0.5094867 270 -2.561321E-06 0

0.01786751 0.003661766 -0.5095431 270 -2.530055E-06 0

0.01637476 0.006138954 -0.5095695 272.1588 345.3812 13.72239

0.01637476 0.006138954 -0.5095695 270.7368 322.4305 35.48048

0.01194067 -0.008308926 -0.5096619 270.7368 322.4304 35.48051

0.01872212 0.01156294 -0.5093943 272.2071 32.91555 324.8664

0.007322757 -0.003658791 -0.5098037 271.3376 321.9308 35.13483

0.007322757 -0.003658791 -0.5098037 271.3376 321.9308 35.13483

0.01433438 0.01457582 -0.5094595 273.2646 332.3861 23.68919

0.01542258 0.01300901 -0.5094701 273.2646 332.3861 23.68919

0.01664844 0.02348007 -0.5090564 271.3991 343.1862 12.2144

0.01175681 0.006113949 -0.5096972 273.504 354.1359 0.7484887

0.01175681 0.006113949 -0.5096972 272.2148 321.7719 32.32481

0.01827175 0.02558281 -0.5088994 272.2148 321.7719 32.32481

0.01317523 0.00745737 -0.5096447 272.9993 8.836987 345.3723

0.01961544 0.02614088 -0.508821 272.0575 324.6786 28.71618

0.01961544 0.02614088 -0.508821 274.1024 337.0779 16.25614

0.01486922 0.008003483 -0.5095898 274.1024 337.0779 16.25614

0.02137642 0.02519365 -0.5087978 272.8737 313.086 39.33783

0.02137642 0.02519365 -0.5087978 273.147 355.6891 356.9289

0.01627028 0.008303947 -0.5095701 271.9635 317.2266 34.52525

0.0230534 0.02622963 -0.5087002 273.8416 348.5348 3.305436

0.02518805 0.00943491 -0.5091875 273.8416 348.5348 3.305443

0.02518805 0.00943491 -0.5091875 272.0915 1.382722 349.5588

0.03430464 0.02824041 -0.5079297 274.2273 16.8342 334.3519

0.03388509 0.01366316 -0.5085587 272.9653 346.4859 4.07786

0.04374177 0.03171687 -0.5069987 272.9653 346.4859 4.07786

0.04374177 0.03171687 -0.5069987 274.7133 9.15378 341.6167

0.03815537 0.01276909 -0.5082794 272.7048 356.9727 353.1379

0.04305704 0.03161685 -0.5070635 272.705 356.9727 353.1379

0.03604258 0.01337986 -0.5084179 275.0327 355.2466 354.8983

0.04067461 0.0333627 -0.5071483 274.1092 328.7736 20.7451

0.04067461 0.0333627 -0.5071483 275.3682 352.3919 357.3138

0.03252164 0.01566027 -0.5085902 275.3683 352.3919 357.3137

0.03824887 0.03226238 -0.5073938 274.1235 329.5573 19.63556

0.03227358 0.01282133 -0.5086711 275.2234 354.1269 355.1359

0.03227358 0.01282133 -0.5086711 273.9982 331.4965 17.26928

0.039134 0.03165562 -0.5073645 273.9984 331.4965 17.26928

0.03775702 0.01190626 -0.5083157 275.3766 354.4681 354.4444

0.04472854 0.03018926 -0.5069913 273.3976 338.0983 10.29107

0.04403051 0.01420298 -0.5077518 275.3593 355.8495 352.8135

0.04403051 0.01420298 -0.5077518 275.3593 355.8495 352.8135

0.05020714 0.03011252 -0.5064828 274.2359 334.3173 13.87166

0.04692882 0.01423525 -0.5074912 275.4995 356.0648 352.3058

0.05125394 0.02915983 -0.5064337 275.4995 356.0649 352.3058

0.05125394 0.02915983 -0.5064337 273.8343 337.5858 10.23464

0.04576011 0.01587765 -0.5075492 273.8344 337.5858 10.23463

0.05170203 0.03108685 -0.5062734 275.4303 357.2017 350.89

0.04376133 0.01264561 -0.5078163 275.4303 357.2017 350.89

0.04376133 0.01264561 -0.5078163 274.7242 333.3551 14.29896

0.04922995 0.03224155 -0.5064476 274.7242 333.3551 14.29896

0.04158292 0.01364439 -0.5079734 276.5252 347.4741 0.3949927

0.04643247 0.03281367 -0.5066751 275.1955 327.6584 19.69185

0.04643247 0.03281367 -0.5066751 277.3541 331.8473 15.60931

0.03681593 0.0144005 -0.5083203 277.3541 331.8474 15.60931

0.04076166 0.03319216 -0.5071381 275.8052 317.2207 29.83093

0.04076166 0.03319216 -0.5071381 275.9913 338.4916 8.59016

0.03620883 0.02193603 -0.5080945 275.9913 338.4916 8.590153

0.04759268 0.04033424 -0.5057439 276.0371 0.9472963 346.1955

0.04355194 0.02068268 -0.5072911 273.7765 5.038403 341.4745

0.04355194 0.02068268 -0.5072911 273.7765 5.038403 341.4745

0.05176063 0.03818587 -0.5055012 275.9835 13.72496 333.0125

0.04631159 0.01818197 -0.5071424 274.3496 357.9508 348.3004

0.04631159 0.01818197 -0.5071424 274.3496 357.9508 348.3004

0.04672273 0.02228674 -0.5068847 276.3403 10.89508 335.6226

0.03793664 0.003547954 -0.5080945 274.2086 3.719083 342.3117

0.04410986 0.02238081 -0.5071146 276.201 15.50675 330.7133

0.04410986 0.02238081 -0.5071146 276.201 15.50675 330.7133

0.03878444 0.01012699 -0.507942 274.3366 2.013101 343.513

0.03878444 0.01012699 -0.507942 274.3366 2.013101 343.513

0.04517465 0.02785197 -0.5067497 276.3409 18.32697 327.3496

0.04517465 0.02785197 -0.5067497 276.3409 18.32697 327.3496

0.03763153 0.008777675 -0.5080537 274.4489 10.25844 334.8027

0.03763153 0.008777675 -0.5080537 274.4489 10.25844 334.8027

0.04469233 0.02544771 -0.506919 276.7938 8.807823 336.2733

0.04081368 0.005776691 -0.507753 274.8336 18.16093 326.3948

0.0472988 0.02438782 -0.5066361 274.8336 18.16093 326.3948

0.0472988 0.02438782 -0.5066361 276.4334 33.21938 311.361

0.04152207 0.004930343 -0.5077045 274.353 21.90116 322.1342

0.04564765 0.01956047 -0.5069969 274.353 21.90115 322.1342

0.04277284 0.01091034 -0.5075073 276.2256 11.15901 333.0045

0.04277284 0.01091034 -0.5075073 274.9787 352.5621 351.1159

0.04850831 0.02728106 -0.5063743 274.9789 352.5621 351.1159

0.04221444 0.006931972 -0.507624 275.0168 327.9815 15.09304

0.04221444 0.006931972 -0.507624 276.4845 309.5829 33.08265

0.0497532 0.02272419 -0.5064785 278.5553 306.6289 36.02282

0.04101663 0.002228908 -0.5077646 278.5553 306.6289 36.02282

0.04101663 0.002228908 -0.5077646 279.8321 295.6051 46.19673

0.04101663 0.002228908 -0.5077646 279.8321 295.6051 46.19673

0.04631819 0.01849668 -0.506976 280.6008 290.6954 50.77238

0.04631819 0.01849668 -0.506976 278.5724 299.8129 41.21087

0.04631819 0.01849668 -0.506976 278.5724 299.8129 41.21087

0.0719525 0.0135066 -0.5011631 277.0289 313.7718 26.36208

0.06976055 0.009947319 -0.5015562 277.0289 313.7718 26.36207

0.06976055 0.009947319 -0.5015562 275.9883 332.4829 7.04681

0.06970064 0.004326153 -0.5016444 275.9884 332.4829 7.046786

0.08547085 -0.0002693939 -0.4968649 275.5753 357.6389 341.3757

0.0775025 -0.01217485 -0.4980212 274.9211 23.3095 314.9966

0.0775025 -0.01217485 -0.4980212 274.9211 23.3095 314.9966

0.09786916 0.005997791 -0.4914871 275.0172 45.67766 291.9247

0.09068152 -0.01337517 -0.4927189 276.486 43.5786 294.0086

0.09068152 -0.01337517 -0.4927189 276.486 43.5786 294.0086

0.09259021 -0.001441269 -0.4925433 273.6878 37.03366 299.0799

0.08370809 -0.01514751 -0.4939003 275.0202 12.49026 322.7298

0.1046534 -0.01389135 -0.4845908 275.0202 12.49025 322.7299

0.1079621 -0.0020858 -0.4840593 273.1401 352.7855 341.6572

0.1012664 -0.01810306 -0.485171 275.2457 353.5154 340.0461

0.1206185 -0.01513907 -0.474456 275.2457 353.5154 340.0461

0.1232538 -0.001281681 -0.4740183 274.3766 0.2435088 332.7797

0.1232538 -0.001281681 -0.4740183 276.1067 338.0494 354.2408

0.1160146 -0.02243251 -0.4753145 276.1067 338.0494 354.2408

0.1398145 -0.0175787 -0.4588846 276.1067 338.0495 354.2408

0.1342929 -0.03555965 -0.4594923 275.1151 345.4771 345.867

0.1404268 -0.02648726 -0.4582695 277.0349 320.2194 9.340303

0.1356904 -0.05011771 -0.457721 277.0349 320.2194 9.34029

0.1356904 -0.05011771 -0.457721 279.338 310.044 17.84144

0.1652314 -0.03299872 -0.4366788 281.6888 305.7783 20.5577

0.1644977 -0.0510218 -0.4352194 281.6888 305.7783 20.5577

0.1644977 -0.0510218 -0.4352194 283.7271 306.0639 18.94255

0.1874293 -0.04500904 -0.4141504 285.9633 304.5534 19.13465

0.1874293 -0.04500904 -0.4141504 285.9633 304.5534 19.13465

0.1863272 -0.06767792 -0.4115555 287.7813 304.1491 18.41821

0.1910145 -0.06325905 -0.4101071 287.7813 304.1491 18.4182

0.1910145 -0.06325905 -0.4101071 290.1679 299.8034 21.49415

0.1949273 -0.08066159 -0.3961095 292.0408 296.8374 23.47215

0.1962134 -0.08660462 -0.3942152 292.0409 296.8374 23.47213

0.1962134 -0.08660462 -0.3942152 294.1778 293.7579 25.37025

0.2053299 -0.07938097 -0.3798364 296.0469 291.1109 26.98408

0.2029399 -0.09945642 -0.3763791 296.0469 291.1109 26.98408

0.2029399 -0.09945642 -0.3763791 298.439 287.7678 28.97926

0.2068323 -0.1130034 -0.3647212 298.439 287.7678 28.97925

0.2090688 -0.1253495 -0.3593726 300.7393 284.645 30.59664

0.2090688 -0.1253495 -0.3593726 300.7393 284.645 30.59664

0.2204708 -0.1182788 -0.3549278 303.0759 282.1732 31.53063

0.2183259 -0.1387578 -0.3487851 303.0759 282.1732 31.53064

0.2183259 -0.1387578 -0.3487851 305.4229 280.0665 32.17355

0.2278126 -0.1447666 -0.3226237 307.9294 277.9915 32.72937

0.2319308 -0.1404251 -0.3216067 307.9294 277.9915 32.72937

0.2319308 -0.1404251 -0.3216067 310.2518 275.9256 33.2485

0.2347677 -0.1497959 -0.3046641 312.4594 274.2181 33.44274

0.2422236 -0.1444583 -0.3013876 312.4594 274.2181 33.44272

0.2428047 -0.1609543 -0.2924288 314.6554 272.6984 33.48539

0.2428047 -0.1609543 -0.2924288 316.7137 271.1485 33.46175

0.2512975 -0.1570635 -0.2873249 316.7137 271.1485 33.46175

0.2528362 -0.170633 -0.2780885 318.5588 269.6917 33.36261

0.255157 -0.161671 -0.2688549 320.361 268.4974 33.11025

0.2689794 -0.1584134 -0.2570619 320.361 268.4974 33.11026

0.2689794 -0.1584134 -0.2570619 322.2905 267.4254 32.75982

0.267272 -0.1743045 -0.2484133 322.2905 267.4254 32.75982

0.2678862 -0.1701952 -0.2444515 322.2905 267.4254 32.75982

0.2671862 -0.1756302 -0.2413535 324.1115 266.4047 32.32795

0.2671862 -0.1756302 -0.2413535 325.3422 265.6351 31.85865

0.268222 -0.1864718 -0.2318862 325.3422 265.6351 31.85866

0.2698511 -0.1960561 -0.2218747 326.5782 264.873 31.34892

0.2698511 -0.1960561 -0.2218747 327.9845 264.044 30.83491

0.2724784 -0.2045452 -0.2107196 327.9845 264.044 30.83492

0.2804672 -0.2003451 -0.2041714 329.5054 263.1922 30.2668

0.2804672 -0.2003451 -0.2041714 329.5054 263.1922 30.2668

0.2834896 -0.2023379 -0.1887089 330.9529 262.3769 29.65116

0.2862146 -0.2085733 -0.1774722 332.3369 261.8663 28.81369

0.2862146 -0.2085733 -0.1774722 333.7531 261.4341 27.91537

0.293279 -0.202613 -0.1727815 333.7531 261.4341 27.91537

0.2959326 -0.2076323 -0.161959 335.0828 260.8096 27.08873

0.2959326 -0.2076323 -0.161959 336.4313 260.0903 26.31398

0.2928729 -0.2189505 -0.1523291 337.7753 259.4958 25.41722

0.2928729 -0.2189505 -0.1523291 337.7753 259.4958 25.41722

0.3019921 -0.2105946 -0.1461804 339.0718 258.831 24.51626

0.302004 -0.210867 -0.146346 340.231 258.1726 23.65178

0.3142399 -0.204888 -0.1279163 340.231 258.1726 23.65178

0.3136881 -0.2121371 -0.1169872 341.2424 257.7643 22.77623

0.3136881 -0.2121371 -0.1169872 342.1583 257.591 21.90879

0.3162426 -0.2125117 -0.1091686 342.1583 257.591 21.90878

0.3162426 -0.2125117 -0.1091686 343.0483 257.6569 21.05383

0.3199298 -0.2079943 -0.107106 343.9101 257.6714 20.35762

0.3206775 -0.2100829 -0.1005957 343.9101 257.6714 20.35761

0.3206775 -0.2100829 -0.1005957 343.9101 257.6714 20.35761

0.3249483 -0.2044921 -0.09838706 344.4545 258.1684 19.84459

0.3260266 -0.2204461 -0.09990335 345.2991 258.7906 19.28225

0.3260266 -0.2204461 -0.09990335 345.2991 258.7906 19.28225

0.3308283 -0.2144254 -0.09718435 346.1924 259.616 18.7294

0.3306276 -0.2200719 -0.08440494 346.1924 259.616 18.72941

0.3306276 -0.2200719 -0.08440494 347.0956 260.3561 18.37085

0.3347256 -0.214986 -0.0813034 348.1661 261.1034 18.14424

0.3329977 -0.2334622 -0.07402456 348.1661 261.1034 18.14424

0.3329977 -0.2334622 -0.07402456 349.4881 262.0421 17.90359

0.3396644 -0.2247501 -0.07062 350.788 262.8055 17.6708

0.3415332 -0.2243443 -0.06242147 352.1556 263.6122 17.548

0.3415332 -0.2243443 -0.06242147 352.1556 263.6122 17.548

0.3462337 -0.2176554 -0.0601669 353.6403 264.4246 17.45286

0.35073 -0.2117099 -0.05512802 355.1241 265.0026 17.37146

0.35073 -0.2117099 -0.05512802 355.1241 265.0026 17.37146

0.3530892 -0.2071657 -0.05728931 356.6732 265.7681 17.3228

0.3530892 -0.2071657 -0.05728931 358.2659 266.6223 17.21661

0.3525099 -0.2278932 -0.06557304 358.2659 266.6223 17.21662

0.3525099 -0.2278932 -0.06557304 359.675 267.3249 17.0698

0.3632329 -0.2111946 -0.06290536 0.9512414 267.8827 16.96296

0.3732574 -0.1938128 -0.06011641 0.9512354 267.8827 16.96296

0.3743378 -0.2019499 -0.06363284 2.035516 268.4524 16.9023

0.3817986 -0.1891284 -0.05849801 2.953961 268.6821 16.89443

0.3817986 -0.1891284 -0.05849801 3.880468 268.7465 17.01445

0.3810064 -0.1918455 -0.0546909 4.928772 269.0826 17.24274

0.3825275 -0.2033083 -0.04803092 4.928769 269.0826 17.24273

0.3852231 -0.1989653 -0.04454794 5.851106 269.6258 17.51575

0.3852231 -0.1989653 -0.04454794 6.701312 270.0486 17.78194

0.3849344 -0.1982961 -0.04972523 6.701313 270.0486 17.78194

0.3854755 -0.2070599 -0.05286831 7.545544 270.4553 18.09379

0.3854755 -0.2070599 -0.05286831 8.337694 271.0456 18.35861

0.3835661 -0.2078909 -0.06259967 9.038651 271.8372 18.60808

0.3835661 -0.2078909 -0.06259967 9.038651 271.8372 18.60808

0.385405 -0.2121528 -0.06343463 9.838487 272.5107 18.81905

0.385405 -0.2121528 -0.06343463 10.70375 273.5631 19.16112

0.3870066 -0.2096885 -0.06185785 11.57117 274.5065 19.4119

0.387059 -0.2108592 -0.06236222 11.57117 274.5065 19.4119

0.3900305 -0.2078436 -0.05331589 12.27586 275.3506 19.76863

0.3903328 -0.2071739 -0.05370945 13.185 275.9558 20.23276

0.3926589 -0.2034939 -0.05074027 13.18499 275.9558 20.23277

0.3926589 -0.2034939 -0.05074027 13.86195 276.6323 20.72684

0.3891562 -0.2085338 -0.05689031 14.66229 277.7069 21.17358

0.390432 -0.2065843 -0.05523724 15.02494 278.8798 21.62808

0.3906055 -0.2101433 -0.05663414 15.02493 278.8798 21.62808

0.3991098 -0.1941727 -0.05430187 15.5624 279.835 22.04333

0.3909878 -0.2096072 -0.05597917 16.08493 280.5712 22.53698

0.3909878 -0.2096072 -0.05597917 16.68129 281.4059 23.04086

0.3993675 -0.193855 -0.05353663 16.6813 281.4059 23.04085

0.3959692 -0.2013256 -0.05115392 17.25754 282.0092 23.45977

0.3959692 -0.2013256 -0.05115392 17.82629 282.5486 23.84896

0.3991082 -0.1952894 -0.05014941 18.21023 283.0341 24.09538

0.3991082 -0.1952894 -0.05014941 18.21023 283.0341 24.09538

0.4025818 -0.1884785 -0.04841483 18.50441 283.4439 24.10238

0.4021567 -0.1845939 -0.04702932 18.73897 284.0172 24.03597

0.405828 -0.1782164 -0.03948624 18.73897 284.0172 24.03596

0.4090224 -0.1724388 -0.03133999 18.96725 284.6366 23.85784

0.4090224 -0.1724388 -0.03133999 19.16237 285.3885 23.65718

0.4114464 -0.167913 -0.02310292 19.16238 285.3885 23.65717

0.4114464 -0.167913 -0.02310292 19.3382 286.085 23.41927

0.4114951 -0.1685233 -0.01697821 19.33819 286.085 23.41928

0.4117701 -0.1687057 -0.0006375933 19.33819 286.085 23.41928

0.4129098 -0.1655945 0.01003179 19.3382 286.085 23.41928

0.4129098 -0.1655945 0.01003179 19.51517 286.7844 23.18708

0.4132687 -0.1641336 0.016905 19.76832 286.959 22.5573

0.4142306 -0.1605811 0.02536433 19.93153 287.1745 21.94523

0.409399 -0.1427041 0.0301699 20.06028 287.4071 21.36773

0.4086261 -0.1431721 0.03753283 20.06028 287.4071 21.36773

0.4086261 -0.1431721 0.03753283 20.20052 287.5727 20.79061

0.4097217 -0.1377795 0.04502453 20.37771 287.7068 20.2438

0.4086123 -0.1345452 0.04581021 20.3777 287.7068 20.2438

0.4086123 -0.1345452 0.04581021 20.49605 287.8839 19.73068

0.4037006 -0.1472102 0.05019968 20.49605 287.8839 19.73069

0.4086637 -0.1299655 0.05716532 20.55678 288.2065 19.43102

0.4070958 -0.1334258 0.06407143 20.58705 288.5734 19.25921

0.4070958 -0.1334258 0.06407143 20.58705 288.5734 19.25921

0.407013 -0.1312478 0.06891313 20.47431 289.2728 19.34752

0.407013 -0.1312478 0.06891313 20.47431 289.2728 19.34752

0.4046918 -0.1378153 0.06975704 20.28739 290.1496 19.59438

0.4046918 -0.1378153 0.06975704 20.10326 291.0598 19.92085

0.4048381 -0.1308445 0.08136614 20.10327 291.0598 19.92085

0.4048381 -0.1308445 0.08136614 20.10327 291.0598 19.92085

0.3992407 -0.1333114 0.1023208 19.43423 292.4556 20.916

0.4025037 -0.1420958 0.1003894 18.69048 293.8971 22.13013

0.4019594 -0.1386991 0.1070962 18.69049 293.8971 22.13013

0.3987233 -0.1408101 0.116063 18.12361 295.2838 23.37041

0.4004667 -0.1458332 0.1150012 17.55356 296.6163 24.78674

0.4004667 -0.1458332 0.1150012 17.55356 296.6163 24.78674

0.4005286 -0.1422319 0.1192189 17.00828 297.9482 26.26797

0.3980008 -0.1417461 0.1279438 16.55906 299.2963 27.62221

0.3998972 -0.1473869 0.1268 16.55905 299.2963 27.62221

0.3975312 -0.1453104 0.1362818 16.01051 300.7378 29.0971

0.3973516 -0.1405023 0.141738 15.56938 302.2067 30.44955

0.3984539 -0.1437747 0.141117 15.56939 302.2067 30.44955

0.3951567 -0.1452344 0.1486902 14.99992 303.7176 32.00076

0.3949984 -0.1408467 0.1532616 14.48174 305.301 33.42208

0.3966735 -0.1459168 0.1523199 13.90411 306.8627 34.84838

0.3924416 -0.1494233 0.1597036 13.90411 306.8627 34.84838

0.3918331 -0.1455144 0.1647279 13.40825 308.4255 36.12321

0.3918331 -0.1455144 0.1647279 12.89692 309.9368 37.48036

0.3942414 -0.1533112 0.1632545 12.31137 311.5703 38.98289

0.3907529 -0.1598696 0.1653377 12.31137 311.5703 38.9829

0.3881787 -0.1481939 0.1814897 11.85792 313.2336 40.40528

0.3881787 -0.1481939 0.1814897 11.85792 313.2336 40.40528

0.3815741 -0.1568336 0.1881145 11.3283 314.9072 41.79234

0.3808897 -0.1521017 0.1933152 10.83311 316.6245 42.98582

0.3831679 -0.1599502 0.1919107 10.83311 316.6245 42.98582

0.378432 -0.1651347 0.196853 10.40757 318.2613 44.23906

0.3745259 -0.1805864 0.1906574 10.40757 318.2613 44.23906

0.3780547 -0.1643152 0.1982587 10.11975 319.9008 45.37671

0.3780547 -0.1643152 0.1982587 10.11975 319.9008 45.37671

0.3710005 -0.1763941 0.2011841 9.523893 321.6924 46.79425

0.3710005 -0.1763941 0.2011841 9.044662 323.5717 48.24783

0.3730133 -0.1679128 0.2046892 9.044662 323.5717 48.24781

0.3730133 -0.1679128 0.2046892 8.70777 325.5399 49.63825

0.3755022 -0.1775894 0.2026094 8.707783 325.5399 49.63826

0.3702855 -0.1849273 0.2056234 8.553305 327.5705 51.00702

0.360578 -0.1838088 0.2231328 8.546306 329.5728 52.25837

0.3574375 -0.1895877 0.2268942 8.546312 329.5728 52.25837

0.3581539 -0.1854893 0.2291412 8.493602 331.6101 53.48669

0.3581539 -0.1854893 0.2291412 8.436481 333.7295 54.7205

0.3538297 -0.1916801 0.2307583 8.436471 333.7295 54.72049

0.355283 -0.1849792 0.2339719 8.351902 335.8984 56.00874

0.350871 -0.1927378 0.234367 8.315644 338.0118 57.26507

0.350871 -0.1927378 0.234367 8.333364 340.1175 58.59785

0.3526186 -0.188192 0.2354359 8.333361 340.1175 58.59785

0.3511414 -0.191948 0.23461 8.369443 342.2554 59.94566

0.3511414 -0.191948 0.23461 8.361402 344.4119 61.29203

0.3527681 -0.1873257 0.2359024 8.361394 344.4119 61.29203

0.349852 -0.1932053 0.2355026 8.357396 346.5634 62.6289

0.3517578 -0.1877127 0.2371002 8.332661 348.6553 63.88981

0.3517578 -0.1877127 0.2371002 8.332661 348.6553 63.88981

0.3517578 -0.1877127 0.2371002 8.332661 348.6553 63.88981

0.3489908 -0.192352 0.2374705 8.234283 350.7104 65.3059

0.3487172 -0.1885976 0.2408598 7.903203 352.7224 66.67842

0.3428633 -0.1907206 0.2475006 7.903201 352.7224 66.67842

0.3449103 -0.2001454 0.2453258 7.530976 354.7852 67.89884

0.3461313 -0.1938239 0.2486593 7.106886 356.8054 69.04675

0.3461313 -0.1938239 0.2486593 6.54644 358.8333 70.05761

0.3424077 -0.1994207 0.2493881 6.546448 358.8333 70.05761

0.3424077 -0.1994207 0.2493881 5.914289 0.8010332 71.00024

0.3426684 -0.1933991 0.2537344 5.226902 2.671886 71.93336

0.3378663 -0.2006151 0.2548198 5.226894 2.67189 71.93337

0.3388892 -0.1954351 0.2574732 4.546076 4.535715 72.79143

0.3388892 -0.1954351 0.2574732 3.757332 6.217778 73.58734

0.3352064 -0.2030687 0.2563846 3.757331 6.217772 73.58734

0.3380044 -0.1962459 0.2577724 3.091012 7.967368 74.4259

0.335885 -0.203229 0.255118 2.671862 9.923166 75.31653

0.335885 -0.203229 0.255118 2.007798 11.69289 76.3279

0.335885 -0.203229 0.255118 2.007798 11.69289 76.3279

0.3403085 -0.1975324 0.2544761 1.545818 13.70053 77.13232

0.3363298 -0.2063522 0.2527609 0.523654 15.33157 77.84861

0.3363298 -0.2063522 0.2527609 0.523654 15.33157 77.84861

0.3355682 -0.2054781 0.2544796 1.084 17.35139 77.66479

0.3327456 -0.2108119 0.2538223 359.3992 17.24841 78.50054

0.3327456 -0.2108119 0.2538223 359.3992 17.24841 78.50054

0.3353042 -0.1999731 0.2591697 357.9153 18.07289 77.91089

0.3319295 -0.207796 0.2573531 359.5315 18.33375 77.50903

0.3318735 -0.2074905 0.2574254 359.5315 18.33375 77.50903

0.334375 -0.1989306 0.2609218 357.967 17.47898 77.73138

0.331 -0.2041034 0.2612299 359.4169 18.29007 76.84881

0.332753 -0.192593 0.2676631 357.8806 17.27679 77.34843

0.332753 -0.192593 0.2676631 357.8806 17.27679 77.34843

0.3281527 -0.2013585 0.2668909 359.4024 17.86453 77.65599

0.3282138 -0.2016641 0.2668227 357.6635 16.83859 77.91693

0.3205359 -0.2029974 0.2750199 358.8448 17.90819 77.46341

0.3185019 -0.2088829 0.2729678 358.8448 17.90818 77.4634

0.3184444 -0.2085768 0.2730366 357.0499 17.37156 77.87818

0.3237464 -0.2049112 0.2695551 355.6165 18.04895 77.59323

0.3226249 -0.2057788 0.2702378 356.537 18.73447 79.29074

0.3207187 -0.2106947 0.2687145 355.1363 17.6817 78.06306

0.3207187 -0.2106947 0.2687145 355.1363 17.6817 78.06306

0.3233637 -0.2034526 0.2706456 356.5615 18.00906 77.88683

0.3208536 -0.2113622 0.2675537 355.0137 16.32979 78.54803

0.3208536 -0.2113622 0.2675537 355.0137 16.32979 78.54803

0.3246252 -0.2052631 0.2677529 356.1669 17.47913 78.48584

0.324146 -0.2159403 0.2598175 354.3018 17.31364 79.27188

0.3289724 -0.2104207 0.2582757 354.3018 17.31366 79.27187

0.3289724 -0.2104207 0.2582757 352.8238 18.3112 79.54736

0.3332973 -0.2205163 0.2439086 354.1027 19.66546 78.94713

0.3384006 -0.2160768 0.2408358 352.3432 18.46442 79.52444

0.3384006 -0.2160768 0.2408358 352.3432 18.46442 79.52444

0.3381237 -0.2145627 0.241253 352.3432 18.46443 79.52444

0.3381664 -0.2230839 0.2333343 353.6994 18.6277 79.17282

0.3424003 -0.2349984 0.214722 353.6994 18.6277 79.17283

0.3420879 -0.2332217 0.2153607 351.4226 17.87767 79.65066

0.3481417 -0.229386 0.2097051 349.0733 17.24319 80.07247

0.3482908 -0.2401921 0.1969722 349.0733 17.2432 80.07246

0.3468741 -0.2325799 0.1999401 346.6861 17.01027 80.328

0.3517822 -0.2294877 0.1948735 344.2142 16.41561 80.4659

0.3517822 -0.2294877 0.1948735 344.2142 16.41561 80.4659

0.3560998 -0.2291854 0.187238 341.7672 16.22792 80.32404

0.3556139 -0.226521 0.1881892 340.0837 14.54119 81.13808

0.3561664 -0.2314342 0.1810301 340.0837 14.54119 81.13808

0.3598491 -0.2278744 0.1782416 341.0897 15.11518 80.67045

0.3632503 -0.2278758 0.1688234 339.682 13.3109 81.02878

0.3632503 -0.2278758 0.1688234 339.9852 12.29418 81.11262

0.3750824 -0.2171505 0.1566473 339.9852 12.29417 81.11262

0.3700977 -0.2326201 0.1459284 339.2072 10.53702 81.64754

0.3700977 -0.2326201 0.1459284 338.409 8.900235 81.97461

0.3800212 -0.2219903 0.1366884 337.8373 7.476098 82.0961

0.3745 -0.2316903 0.1358266 337.8373 7.476087 82.09612

0.3745 -0.2316903 0.1358266 336.6882 5.885863 82.19357

0.3818453 -0.2252863 0.1257766 335.5511 4.522351 82.00072

0.388212 -0.2217445 0.1118051 334.0443 3.020361 81.9134

0.388212 -0.2217445 0.1118051 334.0443 3.020361 81.9134

0.3868061 -0.2309425 0.09708852 332.6193 1.678354 81.67628

0.3906152 -0.2292712 0.08505319 330.9288 0.4227175 81.41968

0.3906152 -0.2292712 0.08505319 329.327 359.4132 80.89596

0.4014558 -0.2168467 0.06473253 329.327 359.4132 80.89594

0.3873506 -0.2067665 0.07123908 327.5653 358.3212 80.60851

0.3898322 -0.20402 0.06537978 327.5653 358.3212 80.60851

0.3898322 -0.20402 0.06537978 325.8601 357.49 80.19323

0.3903461 -0.2062112 0.05454077 324.2185 356.6888 79.91366

0.3927066 -0.1967495 0.05331777 324.2185 356.6888 79.91367

0.3927066 -0.1967495 0.05331777 322.6865 355.9466 79.74133

0.3934539 -0.1984235 0.03992111 321.2211 355.2528 79.62003

0.4019457 -0.1838623 0.02014808 321.2211 355.2528 79.62002

0.3956561 -0.1932775 0.007526264 321.2211 355.2528 79.62002

0.3956561 -0.1932775 0.007526264 319.1706 354.5442 79.51141

0.397744 -0.1890489 -0.004098701 317.1938 353.9789 79.34226

0.397744 -0.1890489 -0.004098701 317.1938 353.9789 79.34226

0.3986233 -0.1834009 -0.01417943 315.2969 353.3664 79.18954

0.3986233 -0.1834009 -0.01417943 313.6581 353.2517 78.54457

0.3991551 -0.1803055 -0.03004247 313.6581 353.2517 78.54456

0.3991551 -0.1803055 -0.03004247 313.4005 355.0088 76.68131

0.4033794 -0.1665285 -0.04786205 313.4006 355.0088 76.6813

0.401132 -0.1670178 -0.06273425 312.7622 355.8477 75.87192

0.4007889 -0.1659778 -0.061575 312.5107 358.2706 74.21545

0.4024106 -0.1558969 -0.07572153 312.5107 358.2705 74.21545

0.4066742 -0.1364176 -0.08932065 309.4101 358.872 73.14017

0.4066742 -0.1364176 -0.08932065 308.6695 4.031115 70.8869

0.3994201 -0.1508935 -0.1079416 308.6695 4.031098 70.88691

0.4013498 -0.1369344 -0.1188439 306.1135 3.087966 72.60651

0.4013498 -0.1369344 -0.1188439 306.597 7.013209 71.78078

0.3996567 -0.1305998 -0.1310528 306.597 7.013182 71.78081

0.4006476 -0.1349006 -0.1373067 307.0273 7.130203 73.43732

0.4001113 -0.1257377 -0.1472099 307.0273 7.130177 73.43733

0.4032003 -0.108935 -0.1520936 305.2733 7.301877 72.87759

0.4058437 -0.09221873 -0.1560653 305.2733 7.301868 72.87761

0.4070997 -0.09797183 -0.1659212 302.1384 12.4692 69.18489

0.406711 -0.08769616 -0.1724934 298.6661 17.79659 65.41517

0.406711 -0.08769616 -0.1724934 298.6661 17.79659 65.41517

0.4069178 -0.08648887 -0.1726154 295.0281 23.40926 62.00196

0.407769 -0.09596226 -0.1903086 292.9391 30.60018 58.14971

0.4030601 -0.09683168 -0.1996693 292.9391 30.60017 58.14972

0.3995462 -0.09161509 -0.2089764 290.4495 29.49149 62.38531

0.3995462 -0.09161509 -0.2089764 288.5685 38.72331 55.45715

0.3937924 -0.09428941 -0.2392873 288.5685 38.72332 55.45713

0.3889174 -0.08567622 -0.2502482 285.9769 34.6104 61.24518

0.3889174 -0.08567622 -0.2502482 285.9769 34.6104 61.24518

0.3782196 -0.07832122 -0.2683971 284.4582 28.68157 69.15753

0.3715427 -0.086592 -0.29193 284.1177 24.65723 73.7308

0.3606917 -0.08759905 -0.3049478 284.1177 24.65726 73.73078

0.3543124 -0.07123635 -0.3164701 284.3905 27.04868 72.53397

0.3543124 -0.07123635 -0.3164701 284.433 26.76327 73.57267

0.3288554 -0.08180612 -0.3504787 284.433 26.76328 73.57266

0.3221697 -0.06661517 -0.3597814 284.433 26.76329 73.57266

0.3090891 -0.07565686 -0.369342 281.0263 23.99822 76.73224

0.3090891 -0.07565686 -0.369342 278.08 25.77272 75.05228

0.2974988 -0.06012749 -0.3880508 278.08 25.77267 75.05232

0.2838038 -0.06897426 -0.3967396 277.2702 38.36477 63.12932

0.2838038 -0.06897426 -0.3967396 274.7835 51.6739 50.61102

0.2802618 -0.0527223 -0.4017187 274.7835 51.67392 50.61103

0.255995 -0.05872555 -0.4218226 275.6483 41.38198 63.15717

0.255995 -0.05872555 -0.4218226 272.7132 21.08669 84.07966

0.2542294 -0.0425663 -0.4248199 272.7131 21.08667 84.07969

0.2542294 -0.0425663 -0.4248199 273.8583 19.91786 86.92902

0.2293311 -0.0513228 -0.4420679 271.4365 337.2391 130.0361

0.2293311 -0.0513228 -0.4420679 271.4365 337.2391 130.0361

0.2111537 -0.04825087 -0.4513721 271.3667 242.7352 224.6781

0.2111537 -0.04825087 -0.4513721 270.8089 316.2992 152.372

0.1941603 -0.03546052 -0.4628485 270.8094 316.2993 152.3721

0.1836902 -0.04443561 -0.4663345 272.6523 261.1367 207.3887

0.1853443 -0.02358338 -0.4672 272.6523 261.1367 207.3887

0.1853443 -0.02358338 -0.4672 271.7519 285.9603 183.4927

0.1667495 -0.0400375 -0.4749172 271.7519 285.9602 183.4928

0.1688208 -0.01877475 -0.4755017 274.165 257.9892 212.1662

0.1594774 -0.03437256 -0.4778496 274.1651 257.9892 212.1662

0.1594774 -0.03437256 -0.4778496 276.4149 245.2149 225.4208

0.1512177 -0.01482822 -0.483412 275.1553 240.3894 230.7894

0.1512177 -0.01482822 -0.483412 275.1553 240.3894 230.7894

0.1422479 -0.03133375 -0.4853427 277.5938 245.1896 226.3698

0.144188 -0.01524925 -0.4855421 275.7479 249.0917 223.2358

0.1232852 -0.02922975 -0.4920158 277.8308 246.3966 226.1397

0.1232852 -0.02922975 -0.4920158 277.8308 246.3966 226.1397

0.1276424 -0.008330498 -0.4917024 277.1794 245.6318 226.8761

0.120299 -0.02555918 -0.4929584 279.0571 250.372 222.3725

0.1258562 -0.004614258 -0.4922115 277.6806 241.7212 231.5999

0.1258562 -0.004614258 -0.4922115 277.6806 241.7212 231.5999

0.1205643 -0.01897522 -0.493191 279.4452 247.707 225.7911

0.1262153 0.001776524 -0.4921379 279.4451 247.707 225.7911

0.1076546 -0.01482016 -0.49748 278.7469 239.7268 234.1206

0.1076546 -0.01482016 -0.49748 279.5227 246.0902 227.6812

0.1146167 0.005690632 -0.496111 277.8849 239.6654 234.5982

0.1092104 -0.01220947 -0.4972117 277.8849 239.6654 234.5982

0.1155155 0.008265323 -0.4958662 279.6276 246.7224 227.3999
