-0.005802335 -0.01856775 -0.5099373 270 -2.634693E-06 0

0.000473137 -0.003028564 -0.510299 271.8058 351.0064 8.522571

0.000473137 -0.003028564 -0.510299 271.8058 351.0064 8.522571

0.000473137 -0.003028564 -0.510299 271.8058 351.0064 8.522571

0.002446253 -0.007617359 -0.5102455 270.2928 24.49926 334.7913

-0.005502089 -0.004077301 -0.5101231 271.8384 48.42529 311.041

-0.007550023 -0.01774475 -0.5098045 271.0637 356.774 1.859779

-0.007550023 -0.01774475 -0.5098045 271.0637 356.774 1.859779

0.001721816 -0.0003604317 -0.510166 271.9977 74.7383 284.4115

0.01007568 0.014748 -0.5098563 273.7469 87.68935 271.9303

0.01510865 0.02476627 -0.5093436 275.7258 89.73571 270.6309

0.01510865 0.02476627 -0.5093436 275.7258 89.73571 270.6309

0.01872942 0.03114098 -0.5088732 277.9041 90.4661 270.7791

0.01644728 0.01116657 -0.5097817 279.8806 89.17801 272.7661

0.02345693 0.02931473 -0.5087858 281.574 83.90751 278.8223

0.02858981 0.03214027 -0.5083524 281.574 83.90751 278.8223

0.02858981 0.03214027 -0.5083524 283.3619 78.82378 284.7956

0.02553394 0.02374821 -0.508976 283.3619 78.82376 284.7956

0.02553394 0.02374821 -0.508976 282.0568 79.08862 283.8133

0.03321923 0.04138824 -0.5074012 283.3295 76.99313 286.2643

0.02542712 0.02283508 -0.5090231 282.5054 81.55797 281.1323

0.0316741 0.03365621 -0.5080714 282.5054 81.55797 281.1322

0.0316741 0.03365621 -0.5080714 284.0074 77.68168 285.7808

0.02497036 0.01896189 -0.5092047 283.9904 83.38545 279.9387

0.02806002 0.0299255 -0.5085171 283.3121 74.10524 289.1082

0.02284873 0.01171858 -0.5095225 283.3121 74.10523 289.1082

0.02284873 0.01171858 -0.5095225 283.029 80.28767 282.551

0.0298638 0.02611856 -0.5086241 284.387 75.67466 287.9194

0.0298638 0.02611856 -0.5086241 284.387 75.67466 287.9194

0.0293884 0.0257959 -0.5086682 283.6139 71.122 292.3178

0.0293884 0.0257959 -0.5086682 283.6139 71.122 292.3178

0.0294386 0.02977856 -0.5084478 283.8349 75.19296 288.2111

0.02151957 0.01721941 -0.5094241 283.8349 75.19296 288.2111

0.02671841 0.02979401 -0.5085971 283.4119 65.31528 297.9716

0.03165125 0.03884171 -0.5077027 283.472 72.91774 290.3099

0.03165125 0.03884171 -0.5077027 283.472 72.91774 290.3099

0.02765939 0.02862722 -0.5086138 284.605 73.42896 290.2036

0.03415402 0.03996251 -0.5074535 282.6429 75.06849 287.6004

0.03415402 0.03996251 -0.5074535 282.6429 75.06849 287.6004

0.02553864 0.02129614 -0.5090842 283.9654 70.37699 292.5168

0.03756987 0.03812075 -0.507417 282.1085 70.44328 291.1252

0.03785416 0.03420779 -0.5076746 280.8581 69.37273 290.6115

0.03785416 0.03420779 -0.5076746 280.8581 69.37273 290.6115

0.04493453 0.043735 -0.5063643 281.2841 72.27917 286.8271

0.03827683 0.02437105 -0.5082101 282.5989 72.05378 286.9799

0.04486186 0.03001079 -0.507369 284.016 71.05305 288.19

0.04892857 0.03073417 -0.5070081 284.016 71.05305 288.19

0.05006985 0.01212255 -0.5076829 282.1375 65.88807 292.5512

0.05006985 0.01212255 -0.5076829 282.1375 65.88807 292.5512

0.057798 0.02020225 -0.5066034 282.7239 67.06204 291.1605

0.05983419 0.01476328 -0.5065547 283.1317 64.01337 293.9027

0.05500941 -0.007658729 -0.5072584 280.7406 55.13093 300.456

0.05500941 -0.007658729 -0.5072584 280.7406 55.13093 300.456

0.06467902 0.00498064 -0.5061498 279.2086 58.32327 295.3512

0.0693407 0.00513073 -0.5055307 278.432 55.35295 297.3616

0.07182668 -0.006771869 -0.5051641 276.5203 54.1099 297.4373

0.07182668 -0.006771869 -0.5051641 276.5203 54.1099 297.4373

0.0788746 -0.01133034 -0.5040299 273.9987 24.07419 325.6475

0.0788746 -0.01133034 -0.5040299 271.9262 14.45337 333.3807

0.09721011 -0.02071684 -0.5003588 271.9262 14.45337 333.3807

0.1052169 -0.01405277 -0.4989688 272.2089 315.485 29.59571

0.1014296 -0.0393227 -0.4984011 271.9112 274.8139 68.31663

0.1014296 -0.0393227 -0.4984011 271.9112 274.8139 68.31663

0.1154471 -0.04889236 -0.4942149 272.9384 265.3376 75.24226

0.1241021 -0.05644872 -0.4913035 273.9116 244.5281 93.91713

0.1241021 -0.05644872 -0.4913035 276.6563 247.9259 87.54481

0.1241021 -0.05644872 -0.4913035 277.3221 236.3735 97.30093

0.1386782 -0.04993887 -0.4875912 277.3221 236.3735 97.30093

0.1386782 -0.04993887 -0.4875912 281.0146 235.8792 95.48149

0.1386782 -0.04993887 -0.4875912 281.0146 235.8792 95.48149

0.1444101 -0.05121431 -0.4857916 285.1693 236.7157 92.17728

0.1444101 -0.05121431 -0.4857916 289.1378 234.7894 91.25108

0.1514944 -0.06385957 -0.4817691 293.0427 234.4676 89.20855

0.1553213 -0.08084704 -0.4779845 293.0427 234.4676 89.20855

0.1657306 -0.07610618 -0.4752592 295.2143 228.977 91.89231

0.1657306 -0.07610618 -0.4752592 299.6155 229.2802 89.47091

0.1642824 -0.1002908 -0.471257 302.021 231.2365 85.98072

0.1652896 -0.1226591 -0.4655795 302.021 231.2365 85.98072

0.1856013 -0.1083182 -0.4603119 306.4962 230.7108 84.81888

0.1856013 -0.1083182 -0.4603119 310.8885 230.4387 83.61212

0.1958789 -0.108602 -0.4559658 310.8884 230.4387 83.61213

0.1958789 -0.108602 -0.4559658 315.3701 230.1278 82.5817

0.1955193 -0.1281151 -0.4510282 315.3701 230.1278 82.58169

0.2028998 -0.1385667 -0.4432677 319.5117 229.4232 81.97053

0.2078934 -0.1522762 -0.436403 319.5117 229.4232 81.97053

0.2078934 -0.1522762 -0.436403 323.4888 229.3624 81.04317

0.2078934 -0.1522762 -0.436403 326.5031 228.5664 80.41824

0.2026149 -0.1587006 -0.4377288 326.5031 228.5664 80.41824

0.2088491 -0.1693175 -0.4307653 329.7081 228.1631 79.55317

0.2156411 -0.1605151 -0.4292131 333.0523 227.9099 78.4838

0.2280484 -0.1609631 -0.4225811 333.0523 227.9098 78.48379

0.233234 -0.1721667 -0.4152717 336.3257 227.4933 77.41937

0.245164 -0.176356 -0.4065504 336.3257 227.4933 77.41938

0.245164 -0.176356 -0.4065504 339.2084 227.2405 76.30428

0.2539339 -0.1735875 -0.402337 341.8711 227.1554 74.98959

0.2566485 -0.19097 -0.3926221 341.8711 227.1554 74.98959

0.2609493 -0.206421 -0.3818193 344.2844 227.1128 73.70976

0.2670182 -0.1961351 -0.3807428 346.6336 227.1254 72.3108

0.2730824 -0.2094004 -0.3692022 346.6336 227.1254 72.31079

0.2730824 -0.2094004 -0.3692022 348.9984 227.3077 70.74841

0.2985834 -0.2033049 -0.3508175 348.9984 227.3077 70.74842

0.3023974 -0.2204985 -0.3368887 351.2662 227.3915 69.27975

0.3023974 -0.2204985 -0.3368887 351.2662 227.3915 69.27975

0.3130267 -0.2175946 -0.3289753 351.2662 227.3915 69.27976

0.323471 -0.2154018 -0.3150745 353.4908 227.49 67.79671

0.323471 -0.2154018 -0.3150745 353.4908 227.49 67.79671

0.3315001 -0.2133121 -0.308073 354.9185 228.2913 66.42442

0.3358951 -0.2209437 -0.2977611 356.3729 229.0226 65.12872

0.3381366 -0.2154977 -0.2970477 356.3729 229.0226 65.12872

0.3427604 -0.2225668 -0.2863431 357.8417 229.7454 63.96738

0.3427604 -0.2225668 -0.2863431 357.8417 229.7454 63.96738

0.3477537 -0.2350004 -0.269917 359.3245 230.5001 62.84362

0.350776 -0.2269011 -0.2691945 359.3245 230.5001 62.84363

0.3600534 -0.2194121 -0.2630847 0.6192234 231.5194 61.72124

0.3619826 -0.2328788 -0.2484546 1.828439 232.5892 60.67557

0.3638009 -0.227669 -0.2478632 1.828445 232.5892 60.67558

0.3751807 -0.2177328 -0.2396919 2.57442 233.8519 59.82756

0.3751807 -0.2177328 -0.2396919 3.048425 235.1603 59.00927

0.3779694 -0.222861 -0.2293922 3.04843 235.1603 59.00927

0.3779694 -0.222861 -0.2293922 3.592631 236.6838 58.20157

0.383883 -0.2219206 -0.2203038 3.889225 238.4112 57.56211

0.3844421 -0.2325732 -0.2079967 3.889237 238.4112 57.56211

0.3844421 -0.2325732 -0.2079967 3.889237 238.4112 57.56211

0.3845387 -0.2322717 -0.207958 4.175763 240.1237 57.06147

0.3902264 -0.2296299 -0.2001502 4.479264 241.7853 56.68072

0.3916754 -0.2343117 -0.191716 4.479257 241.7853 56.68072

0.3955807 -0.2324918 -0.1858229 4.479261 241.7853 56.68071

0.3955233 -0.232672 -0.1858521 4.765895 243.4482 56.35514

0.3955233 -0.232672 -0.1858521 4.545831 245.3882 56.23851

0.396411 -0.23664 -0.1788176 4.545841 245.3882 56.23852

0.396411 -0.23664 -0.1788176 4.548827 247.2395 56.12771

0.4001273 -0.2363665 -0.1725172 4.237317 249.2334 56.15892

0.4046901 -0.2386279 -0.1581642 4.237309 249.2334 56.15892

0.4046901 -0.2386279 -0.1581642 3.72495 251.3217 56.0932

0.4083107 -0.2361132 -0.1525324 3.724949 251.3218 56.09321

0.4083107 -0.2361132 -0.1525324 2.911499 253.0239 56.45748

0.4098835 -0.2413252 -0.1422597 2.911494 253.0239 56.4575

0.4130782 -0.2384474 -0.1378022 3.40505 251.8926 54.78311

0.4130782 -0.2384474 -0.1378022 2.506745 250.8681 55.47014

0.4130782 -0.2384474 -0.1378022 2.506745 250.8681 55.47014

0.4113209 -0.2516721 -0.1206745 3.966943 252.7973 53.87746

0.4113209 -0.2516721 -0.1206745 4.995109 251.6573 52.94236

0.4113209 -0.2516721 -0.1206745 4.995109 251.6573 52.94236

0.4170648 -0.2432303 -0.1182453 5.346363 253.6988 54.50473

0.416053 -0.2463624 -0.1186566 4.917565 252.8342 55.86441

0.416053 -0.2463624 -0.1186566 4.917565 252.8342 55.86441

0.420147 -0.2391589 -0.1189686 6.556932 254.2852 54.22675

0.4129157 -0.2529335 -0.1185246 8.031988 253.6078 52.73901

0.4129157 -0.2529335 -0.1185246 8.031988 253.6078 52.73901

0.4146408 -0.2502111 -0.1182805 8.757318 255.7093 52.3138

0.4213527 -0.2400226 -0.1156458 8.757316 255.7093 52.3138

0.4200697 -0.2420857 -0.1160122 7.589073 255.9363 52.92664

0.4200697 -0.2420857 -0.1160122 6.579441 256.9172 53.5394

0.4219269 -0.2346599 -0.1270378 6.579435 256.9172 53.53939

0.419946 -0.2386331 -0.1261975 7.191693 255.9833 51.69611

0.4198076 -0.2395375 -0.1249382 8.625841 254.796 50.6286

0.4198076 -0.2395375 -0.1249382 10.20399 253.9432 49.93845

0.4216796 -0.236957 -0.1237759 10.20399 253.9432 49.93846

0.4199947 -0.2401009 -0.1234452 11.59973 253.1195 49.03324

0.4302278 -0.2251755 -0.1161151 12.25913 255.1843 48.762

0.4302278 -0.2251755 -0.1161151 12.25913 255.1843 48.762

0.423413 -0.2414509 -0.1081921 12.25915 255.1843 48.76198

0.4335104 -0.2257611 -0.1018991 13.33138 254.29 49.39159

0.4293988 -0.2351316 -0.09804365 14.78025 255.3352 48.09002

0.4293988 -0.2351316 -0.09804365 14.78025 255.3352 48.09002

0.4345938 -0.2267455 -0.09485464 16.77399 255.0989 47.2951

0.4345938 -0.2267455 -0.09485464 16.77399 255.0989 47.2951

0.437027 -0.2222895 -0.09422064 17.50747 252.4812 46.28035

0.437027 -0.2222895 -0.09422064 17.50747 252.4812 46.28035

0.4434987 -0.2099247 -0.09232115 19.104 253.4193 45.49289

0.4434987 -0.2099247 -0.09232115 18.30968 250.6376 44.64504

0.4442233 -0.2084685 -0.09213706 18.30967 250.6376 44.64506

0.4497234 -0.1972674 -0.09001686 19.48304 251.8277 43.97368

0.4518142 -0.1932849 -0.08816712 20.89009 252.013 43.4355

0.4518142 -0.1932849 -0.08816712 20.89009 252.013 43.4355

0.4604185 -0.1753844 -0.08006553 21.83088 250.4256 42.75583

0.4619715 -0.1729107 -0.07641714 22.01325 252.1882 42.89117

0.4619715 -0.1729107 -0.07641714 21.83785 249.2365 41.75003

0.46244 -0.1743002 -0.07017135 21.83785 249.2365 41.75002

0.4664245 -0.1656133 -0.06462065 23.10937 248.6569 40.71758

0.4665776 -0.1644218 -0.06445985 21.28446 247.3719 41.40907

0.4684192 -0.1602122 -0.06164237 21.28447 247.3719 41.40906

0.4673719 -0.1644799 -0.05825939 22.4035 246.0737 39.98919

0.4674871 -0.1635392 -0.05812756 20.73618 246.3989 40.21583

0.4699846 -0.1573017 -0.05512434 20.73618 246.3989 40.21582

0.4699846 -0.1573017 -0.05512434 19.24158 243.5453 40.17658

0.4763656 -0.139708 -0.04717584 19.24158 243.5453 40.17657

0.4763656 -0.139708 -0.04717584 19.75209 244.2274 39.13456

0.4764145 -0.1389517 -0.04706779 19.75209 244.2274 39.13456

0.4813371 -0.1194721 -0.05034616 17.54562 242.7502 39.5194

0.4788956 -0.130518 -0.0460198 17.54562 242.7502 39.5194

0.4799987 -0.12979 -0.03534868 18.7259 243.1239 39.50255

0.4800013 -0.1297271 -0.03533795 18.72591 243.1239 39.50255

0.4796203 -0.1320935 -0.03154111 16.61453 242.3373 39.73082

0.4807508 -0.1300812 -0.02089851 16.61453 242.3373 39.73082

0.4807508 -0.1300812 -0.02089851 14.6052 241.6259 39.5404

0.4807462 -0.1302069 -0.02092001 12.61532 240.379 39.08448

0.4812572 -0.1296936 -0.008911801 12.6153 240.379 39.0845

0.4812572 -0.1296936 -0.008911801 11.31853 240.2145 39.06606

0.4812572 -0.1296936 -0.008911801 11.31853 240.2145 39.06606

0.4820159 -0.1270337 0.005609636 10.24009 240.2833 40.13893

0.4817504 -0.1272058 0.01560626 10.24009 240.2833 40.13892

0.480928 -0.1286624 0.02574095 10.09569 241.0482 40.67612

0.4808906 -0.1307222 0.02530862 9.099804 241.6353 41.01088

0.4816152 -0.1275219 0.02774071 9.823765 242.2363 40.87372

0.4805314 -0.1298102 0.03497682 9.82376 242.2363 40.87373

0.4805314 -0.1298102 0.03497682 8.705582 242.5938 42.16689

0.4804607 -0.1328667 0.03432724 8.904023 243.8321 42.53339

0.4808099 -0.1312842 0.03550598 8.904027 243.8321 42.53338

0.4808099 -0.1312842 0.03550598 8.904027 243.8321 42.53338

0.4781991 -0.1379834 0.04427876 8.404952 245.0238 43.57651

0.4748126 -0.1488938 0.0531166 8.404968 245.0238 43.5765

0.4748126 -0.1488938 0.0531166 9.099298 245.9686 43.2256

0.4739189 -0.1515001 0.05372475 9.099293 245.9686 43.22559

0.4741284 -0.1501923 0.05551772 7.202072 245.9536 43.99862

0.4740451 -0.1514932 0.05520909 5.838801 246.6606 43.96204

0.4744075 -0.1504069 0.05506594 5.838799 246.6606 43.96204

0.4700118 -0.1635746 0.05522003 6.964513 248.2695 44.77234

0.4700118 -0.1635746 0.05522003 5.511767 248.6048 46.10643

0.4688695 -0.1686205 0.05253555 7.188771 248.7613 45.72242

0.4667879 -0.1734378 0.05531678 7.188767 248.7613 45.72242

0.4667879 -0.1734378 0.05531678 5.548332 248.7296 45.96673

0.4668705 -0.1731854 0.05541002 5.548328 248.7296 45.96674

0.463651 -0.1805655 0.06072863 7.164401 248.5351 45.80984

0.463651 -0.1805655 0.06072863 6.799775 248.0218 44.07183

0.4633663 -0.1742139 0.0787734 6.799778 248.0218 44.07183

0.4633663 -0.1742139 0.0787734 8.02204 248.4216 46.26313

0.45594 -0.191056 0.08371613 6.630973 248.9545 47.62548

0.45594 -0.191056 0.08371613 8.405335 248.9369 47.38274

0.45594 -0.191056 0.08371613 8.405335 248.9369 47.38274

0.4564887 -0.1889378 0.08551425 10.1144 248.8563 46.55151

0.4564887 -0.1889378 0.08551425 10.1144 248.8563 46.55151

0.456589 -0.1831054 0.09775553 9.007973 249.7311 47.1501

0.4495232 -0.1989868 0.09945017 10.85992 249.517 46.96973

0.4473928 -0.2025861 0.1017635 10.85993 249.517 46.96973

0.4473928 -0.2025861 0.1017635 9.707034 250.1324 47.9477

0.4465687 -0.2051741 0.1017375 11.50575 249.956 47.41222

0.4417856 -0.2156173 0.1010208 10.99417 251.4887 48.06744

0.4417856 -0.2156173 0.1010208 10.99417 251.4887 48.06744

0.4437201 -0.2113671 0.1015231 12.80292 251.7027 47.68687

0.4358763 -0.2277778 0.1012859 11.844 252.9264 48.28514

0.4375606 -0.2239597 0.1025297 13.79208 253.279 48.00554

0.4375606 -0.2239597 0.1025297 13.79208 253.279 48.00554

0.435269 -0.2283024 0.1027062 13.40803 254.5511 47.06942

0.4352272 -0.2284832 0.1026598 15.26193 254.8068 46.98233

0.4360676 -0.2262539 0.104022 15.26192 254.8068 46.98233

0.4327122 -0.2328084 0.1035703 16.33583 256.9038 47.45029

0.4328382 -0.2308248 0.1074122 15.05759 258.2068 47.73891

0.4298365 -0.2357294 0.1085795 16.71026 258.5055 47.68355

0.4298365 -0.2357294 0.1085795 16.71026 258.5055 47.68355

0.4308427 -0.233038 0.1103866 18.09949 260.2249 47.77098

0.4308427 -0.233038 0.1103866 18.09949 260.2249 47.77098

0.4279705 -0.2381567 0.1106348 16.6236 260.8336 47.98243

0.4279705 -0.2381567 0.1106348 18.33929 260.6735 47.84413

0.4294096 -0.2349112 0.1119888 18.33929 260.6735 47.84412

0.4271999 -0.2387489 0.1123237 17.05517 261.3787 46.97875

0.4291769 -0.2331512 0.1164691 18.80592 261.0598 47.1509

0.4291769 -0.2331512 0.1164691 18.80592 261.0598 47.1509

0.4259142 -0.2387458 0.1171108 18.30628 261.0814 49.14261

0.4249067 -0.2388876 0.1204342 19.43106 260.5725 47.39017

0.4233617 -0.2416135 0.120437 19.43105 260.5725 47.39017

0.4233617 -0.2416135 0.120437 17.93149 261.0392 48.15616

0.4256343 -0.2362447 0.1230499 17.93149 261.0392 48.15616

0.4256343 -0.2362447 0.1230499 19.36204 260.7909 47.47507

0.423299 -0.239715 0.1243867 17.45842 261.1701 47.39656

0.4260931 -0.2306695 0.1317329 18.8645 261.3272 47.45561

0.423333 -0.2354054 0.1322527 18.8645 261.3272 47.45561

0.423333 -0.2354054 0.1322527 20.0908 260.531 47.80536

0.422529 -0.2292994 0.1449429 18.44688 260.4347 47.45715

0.418377 -0.2370543 0.1445106 19.86076 260.4593 49.06122

0.4175911 -0.2381388 0.1449998 19.86077 260.4593 49.06121

0.4175911 -0.2381388 0.1449998 18.18917 260.381 48.82156

0.4146123 -0.2446393 0.1427083 16.54424 260.2416 48.64077

0.4146123 -0.2446393 0.1427083 16.54424 260.2416 48.64077

0.4168633 -0.2401626 0.143751 18.27309 260.1504 49.33461

0.4138046 -0.246337 0.142131 17.33796 260.3855 47.96749

0.4138046 -0.246337 0.142131 17.33796 260.3855 47.96749

0.4175755 -0.2397657 0.1423393 18.76691 260.5881 49.40469

0.4149178 -0.2451299 0.1409677 18.7669 260.5881 49.40469

0.4182402 -0.239976 0.1400144 17.28458 261.8862 50.56533

0.4182402 -0.239976 0.1400144 18.71726 262.7799 51.88899

0.4159571 -0.2454758 0.1372541 17.72896 263.7515 53.48633

0.4173655 -0.2446245 0.1344702 17.72896 263.7515 53.48634

0.4142809 -0.2518716 0.1305735 19.32162 264.0628 54.55341

0.4142809 -0.2518716 0.1305735 17.51662 263.8313 54.53244

0.407797 -0.267633 0.1191283 17.51662 263.8313 54.53245

0.4033929 -0.2791358 0.1071203 18.63661 264.2389 55.43867

0.4034898 -0.2788481 0.1072181 18.63661 264.2389 55.43867

0.4048538 -0.2788336 0.1019861 17.59672 265.1518 56.80279

0.3999865 -0.2899781 0.08932783 18.77293 265.88 58.04825

0.4015835 -0.2891138 0.08485202 17.10622 266.5243 58.05793

0.4024002 -0.2869433 0.08555774 17.10622 266.5244 58.05794

0.3990222 -0.2941277 0.07650275 18.34863 267.0176 59.1362

0.4009624 -0.2920734 0.0741943 18.34863 267.0176 59.13619

0.4009624 -0.2920734 0.0741943 18.34863 267.0176 59.13619

0.4011606 -0.2928321 0.07001507 18.34863 267.0176 59.1362

0.4104663 -0.2768155 0.07169423 14.46122 267.4794 56.83804

0.4104663 -0.2768155 0.07169423 14.46122 267.4794 56.83804

0.4071241 -0.2827351 0.06752961 12.55892 267.7164 55.31017

0.4071241 -0.2827351 0.06752961 12.55892 267.7164 55.31017

0.4134336 -0.2681983 0.07248556 10.51925 267.8212 54.2704

0.4052419 -0.2831918 0.06077207 8.769719 267.9415 52.89744

0.4059113 -0.283898 0.05243792 8.769717 267.9415 52.89744

0.4059113 -0.283898 0.05243792 6.345822 268.3578 53.03076

0.4101365 -0.2760305 0.03622724 3.995538 268.9408 52.68766

0.4093846 -0.2781244 0.02771653 3.995531 268.9408 52.68767

0.4093846 -0.2781244 0.02771653 1.393602 269.3943 53.12667

0.3973497 -0.2960299 0.01402422 1.393597 269.3943 53.12666

0.4001861 -0.2878374 0.0172461 358.6989 270.1893 53.83599

0.4030763 -0.2841782 0.008306951 358.6989 270.1893 53.83598

0.4081892 -0.2769026 0.001790714 355.9184 270.9471 54.74614

0.4098967 -0.2710702 0.003929586 353.0663 271.4866 55.77754

0.4049168 -0.2784478 -0.004359999 350.3544 271.8295 56.78932

0.401446 -0.2830117 -0.01598027 350.3545 271.8295 56.78933

0.401446 -0.2830117 -0.01598027 347.7087 272.1053 57.9267

0.401446 -0.2830117 -0.01598027 347.7087 272.1053 57.9267

0.3912877 -0.2953423 -0.03430372 347.7087 272.1054 57.9267

0.3927018 -0.2914338 -0.03250491 345.164 272.1414 58.84789

0.3927018 -0.2914338 -0.03250491 345.164 272.1414 58.84789

0.381959 -0.3027346 -0.05161325 343.1204 272.4443 59.88893

0.3784603 -0.3037305 -0.0687058 341.4544 273.0774 60.27207

0.3787331 -0.3030938 -0.06837993 341.4544 273.0774 60.27206

0.376238 -0.3030954 -0.08098441 340.4617 273.9039 60.35903

0.3761057 -0.3001482 -0.09184747 340.4617 273.9039 60.35902

0.3647737 -0.3118833 -0.09823122 339.4886 274.7338 60.417

0.3646704 -0.3120899 -0.09833962 339.4886 274.7338 60.417

0.3638559 -0.3070102 -0.1157969 338.0305 275.7165 60.41388

0.3671676 -0.2986296 -0.1267424 336.4685 276.813 60.49733

0.3671676 -0.2986296 -0.1267424 336.4685 276.813 60.49733

0.3705907 -0.2884118 -0.1412322 335.5748 277.6402 60.95111

0.3705907 -0.2884118 -0.1412322 335.5748 277.6402 60.95111

0.3763494 -0.2752243 -0.1519147 335.4774 278.2319 61.64497

0.3782618 -0.265778 -0.1635401 335.1009 278.7546 62.51709

0.3782618 -0.265778 -0.1635401 334.2593 279.4243 63.39611

0.3720394 -0.2690268 -0.1744433 334.2593 279.4243 63.39611

0.3720394 -0.2690268 -0.1744433 333.3368 280.1356 64.23134

0.3720394 -0.2690268 -0.1744433 333.3368 280.1356 64.23134
