-0.01154141 -5.722046E-08 -0.5100287 270.0198 -2.561322E-06 0

-0.009291265 0.009252777 -0.5099841 270.8838 268.5138 91.43523

-0.009291265 0.009252777 -0.5099841 270.8838 268.5138 91.43523

-0.009291265 0.009252777 -0.5099841 270.8838 268.5138 91.43523

-0.01434371 -0.005990582 -0.5099157 270.4567 254.6648 105.5758

-0.006613435 0.0102166 -0.510024 270.5675 35.69772 325.3523

-0.01363443 -0.004606132 -0.5099661 270.4102 129.5255 231.6869

-0.01363443 -0.004606132 -0.5099661 270.4102 129.5255 231.6869

-0.006104126 0.0135961 -0.5099514 271.8358 244.3299 116.3288

-0.001922942 0.02013113 -0.5097836 273.9173 251.8494 108.1762

-0.0003042959 0.02375341 -0.5096313 276.1634 257.7623 101.5719

-0.0003042959 0.02375341 -0.5096313 276.1634 257.7623 101.5719

-0.00185055 0.02815052 -0.5094041 278.2713 260.7344 97.88284

-0.00185055 0.02815052 -0.5094041 278.2713 260.7344 97.88284

-0.008489046 0.02240278 -0.5096063 280.3738 261.9008 95.9874

-0.003519311 0.03262373 -0.5091128 282.3684 263.1047 94.24757

-0.009921434 0.02136131 -0.5096251 282.7399 263.5411 93.95256

-0.009921434 0.02136131 -0.5096251 282.7399 263.5411 93.95256

-0.00533339 0.03566342 -0.5089087 283.2314 266.1655 91.48154

-0.01352361 0.01729334 -0.5097121 282.6367 263.9937 93.96909

-0.007167406 0.03494279 -0.5089362 283.2508 267.3398 90.79304

-0.007167406 0.03494279 -0.5089362 282.7395 264.1436 94.20748

-0.01471177 0.01586214 -0.5097257 282.7395 264.1436 94.20748

-0.006318105 0.03350847 -0.5090438 282.5269 264.1915 94.49664

-0.006318105 0.03350847 -0.5090438 282.5269 264.1915 94.49664

-0.009846429 0.01404362 -0.5098962 282.9008 264.511 94.24992

-0.003090505 0.03262069 -0.5091313 283.0759 263.8919 94.84992

-0.002454937 0.03267311 -0.5091462 283.1112 263.985 94.86372

-0.01003573 0.01345785 -0.509923 283.1113 263.985 94.86374

-0.007130872 0.03304161 -0.5090783 282.1165 261.2497 97.93311

-0.01657183 0.01477524 -0.509716 282.8089 262.5379 96.43866

-0.01657183 0.01477524 -0.509716 283.0899 262.192 96.7126

-0.01149165 0.03369867 -0.5089555 283.0899 262.192 96.7126

-0.02025153 0.01692707 -0.5095161 283.1526 265.0123 94.12461

-0.01527042 0.03507431 -0.5087632 283.1099 263.6491 95.45154

-0.01495317 0.03510384 -0.5087776 283.11 263.6491 95.45152

-0.02099798 0.01986546 -0.5093868 284.9422 267.2154 91.25599

-0.02099798 0.01986546 -0.5093868 284.9422 267.2154 91.25599

-0.01477724 0.03765221 -0.5086004 284.3278 267.1527 91.08239

-0.02272219 0.01868872 -0.5093573 285.627 267.9193 89.35141

-0.02177353 0.0187999 -0.5094142 285.09 267.3177 89.55398

-0.01390063 0.03526499 -0.5088158 285.09 267.3177 89.55398

-0.02202878 0.01522882 -0.5095226 288.1025 270.192 85.89912

-0.01880282 0.02587492 -0.5092223 288.8572 269.4321 86.00362

-0.01721828 0.02603834 -0.5092981 288.8572 269.4321 86.00362

-0.02451825 0.006738682 -0.50962 289.4831 268.8368 85.80852

-0.01863565 0.0232338 -0.5093839 289.0603 268.414 85.83669

-0.01863565 0.0232338 -0.5093839 289.0603 268.414 85.83669

-0.02683505 0.004579182 -0.5095052 290.5608 269.361 83.94571

-0.02683505 0.004579182 -0.5095052 290.9574 268.9304 83.54693

-0.01799359 0.01772072 -0.5096065 290.9574 268.9304 83.54693

-0.01806777 0.002856216 -0.5099347 291.6222 269.3503 81.96104

-0.01061272 0.006985073 -0.5101044 291.1984 269.0091 81.41137

-0.01061272 0.006985073 -0.5101044 291.1794 269.8422 79.61199

-0.006805204 -0.009059886 -0.5101664 291.1794 269.8422 79.61199

-0.006805204 -0.009059886 -0.5101664 290.7032 269.4514 79.15965

0.00217503 0.002596321 -0.510281 290.4881 269.4189 78.27853

-0.001459925 -0.01821562 -0.5099649 291.0211 274.0823 72.54467

-0.001459925 -0.01821562 -0.5099649 291.0211 274.0823 72.54467

0.00346122 -0.01022438 -0.510192 291.0211 274.0823 72.54467

0.00346122 -0.01022438 -0.510192 291.7841 273.5553 71.49976

0.0008809888 -0.02093931 -0.5098756 291.8437 273.23 70.29688

-0.000567878 -0.02502422 -0.5096919 291.8437 273.23 70.29687

0.00445241 -0.02410881 -0.5097067 291.3517 272.613 69.54151

0.003289037 -0.02301241 -0.509766 291.0322 271.4074 69.28896

-0.002380608 -0.03081945 -0.5093588 291.0322 271.4074 69.28896

-0.0006327216 -0.03045198 -0.5093687 291.1535 269.6111 69.24084

-0.0006327216 -0.03045198 -0.5093687 292.8928 268.5541 67.75685

0.004556837 -0.02023104 -0.5098569 292.8928 268.5541 67.75685

0.004556837 -0.02023104 -0.5098569 293.5753 265.9176 67.88348

0.0153379 -0.02636456 -0.5093069 293.5753 265.9176 67.88345

0.02295874 -0.03139549 -0.5087349 294.2112 265.0616 66.1114

0.02295874 -0.03139549 -0.5087349 293.9308 262.6753 66.45084

0.03032632 -0.03738819 -0.5079434 293.9308 262.6753 66.45084

0.03395014 -0.03598864 -0.5077195 293.7551 262.279 64.84473

0.04374051 -0.04013494 -0.5066585 293.7551 262.2791 64.84473

0.05405476 -0.04636128 -0.5051293 293.7551 262.279 64.84473

0.05405476 -0.04636128 -0.5051293 293.4023 261.3866 63.79203

0.07800978 -0.03553402 -0.5025796 296.2355 257.6252 64.57357

0.08430411 -0.05923982 -0.4993175 296.2355 257.6252 64.57356

0.08430411 -0.05923982 -0.4993175 299.255 254.1752 64.48056

0.08430411 -0.05923982 -0.4993175 299.255 254.1752 64.48056

0.1089353 -0.04458464 -0.4954835 302.4334 249.9387 64.94196

0.1132727 -0.07070898 -0.491455 304.4819 245.7663 65.33612

0.1132727 -0.07070898 -0.491455 304.4819 245.7663 65.33612

0.1132727 -0.07070898 -0.491455 304.4819 245.7663 65.33612

0.1282754 -0.06177898 -0.4886711 306.8172 241.1222 66.00667

0.1344296 -0.0802482 -0.4843136 308.0923 236.5904 66.43079

0.1344296 -0.0802482 -0.4843136 310.8158 231.9666 66.98618

0.1471132 -0.09236203 -0.4779473 310.8158 231.9666 66.98618

0.1621617 -0.09866981 -0.471778 314.2744 227.6347 67.68677

0.1621617 -0.09866981 -0.471778 317.4417 223.0786 68.17988

0.1621617 -0.09866981 -0.471778 317.4417 223.0786 68.17988

0.1753567 -0.1169914 -0.4627846 321.0143 219.0739 68.84778

0.1911701 -0.1125936 -0.4575842 321.0143 219.0739 68.84779

0.1911701 -0.1125936 -0.4575842 321.0143 219.0739 68.84779

0.1911701 -0.1125936 -0.4575842 321.0143 219.0739 68.84779

0.1911701 -0.1125936 -0.4575842 324.2383 214.7918 69.1693

0.207836 -0.1175781 -0.4484197 324.2383 214.7918 69.1693

0.2161357 -0.1336274 -0.4399201 327.278 212.0674 69.79453

0.2161357 -0.1336274 -0.4399201 327.278 212.0674 69.79453

0.2313142 -0.1416733 -0.4287103 330.3231 209.3677 70.2178

0.2424923 -0.1544328 -0.4179929 333.1198 207.5436 70.13255

0.2424923 -0.1544328 -0.4179929 335.7881 206.1199 69.74256

0.2424923 -0.1544328 -0.4179929 335.7881 206.1199 69.74256

0.2559368 -0.1660041 -0.4053506 338.3873 205.0911 69.29062

0.269819 -0.1783334 -0.3908516 338.3873 205.0911 69.29062

0.269819 -0.1783334 -0.3908516 341.0912 204.2307 68.79227

0.2791524 -0.1639408 -0.3875205 343.8018 203.5179 68.23286

0.2940917 -0.1624911 -0.376937 346.2443 203.2998 67.48426

0.3019066 -0.1770237 -0.3639915 346.2443 203.2998 67.48426

0.3019066 -0.1770237 -0.3639915 348.606 203.1577 66.6299

0.3157566 -0.183268 -0.3470215 348.606 203.1577 66.6299

0.3343239 -0.192274 -0.3239932 350.6802 203.2461 65.5808

0.3343239 -0.192274 -0.3239932 352.4761 203.526 64.40442

0.3495617 -0.1976696 -0.3040505 352.4761 203.526 64.40442

0.3554651 -0.2088957 -0.2893451 352.4761 203.526 64.40442

0.3554651 -0.2088957 -0.2893451 354.0247 204.0257 63.28196

0.3728715 -0.2020857 -0.2670971 355.1725 204.2518 61.16049

0.3728715 -0.2020857 -0.2670971 355.1725 204.2518 61.16049

0.3786916 -0.2106328 -0.2518711 355.864 204.447 58.69542

0.3786916 -0.2106328 -0.2518711 355.864 204.447 58.69542

0.3854783 -0.2126002 -0.2372354 355.9676 205.2662 56.90749

0.3854783 -0.2126002 -0.2372354 354.4712 204.1096 56.08905

0.3923785 -0.2154769 -0.2228943 354.4712 204.1096 56.08904

0.3923785 -0.2154769 -0.2228943 356.3549 204.0902 54.79792

0.3964318 -0.2196551 -0.2113446 356.3549 204.0902 54.79794

0.4047799 -0.2168497 -0.195228 355.311 201.5646 54.89305

0.4047799 -0.2168497 -0.195228 356.9257 199.7206 54.19495

0.4075033 -0.2202181 -0.1855519 356.9257 199.7206 54.19493

0.4107935 -0.2194422 -0.1791043 356.9257 199.7206 54.19493

0.4113207 -0.2178377 -0.1787668 355.2943 198.3462 54.63559

0.4113207 -0.2178377 -0.1787668 354.0149 196.0527 54.7436

0.4131137 -0.2207251 -0.1704492 355.0902 194.4285 53.71411

0.4268846 -0.2050207 -0.1554718 355.0902 194.4285 53.71409

0.4268846 -0.2050207 -0.1554718 353.5267 193.5507 54.74287

0.4248476 -0.2159625 -0.1459454 353.5267 193.5507 54.74289

0.4248476 -0.2159625 -0.1459454 353.5267 193.5507 54.74289

0.4271366 -0.2174689 -0.1367367 354.4418 195.2063 53.97904

0.4271366 -0.2174689 -0.1367367 354.4418 195.2063 53.97904

0.4287504 -0.2194167 -0.1283152 354.2829 193.4301 54.32616

0.4287504 -0.2194167 -0.1283152 354.2031 191.8352 55.25559

0.4312681 -0.2172808 -0.1234187 354.2031 191.8352 55.2556

0.4308137 -0.2242404 -0.1120322 354.3654 190.1747 56.35834

0.4308137 -0.2242404 -0.1120322 354.0013 188.7156 55.4236

0.4354503 -0.2183582 -0.1055371 354.0013 188.7156 55.42359

0.4354503 -0.2183582 -0.1055371 354.2066 190.7426 56.31105

0.4354503 -0.2183582 -0.1055371 353.8699 189.4582 55.25019

0.4354503 -0.2183582 -0.1055371 353.8699 189.4582 55.25019

0.4351436 -0.2219855 -0.09954872 354.1822 190.6052 57.02034

0.4351436 -0.2219855 -0.09954872 354.1822 190.6052 57.02034

0.4386235 -0.2176935 -0.09357534 355.6989 190.014 55.55372

0.4386235 -0.2176935 -0.09357534 356.9114 188.7479 55.26909

0.4395379 -0.219971 -0.08340666 356.9114 188.7479 55.26908

0.4394373 -0.2218366 -0.07887223 357.4958 191.1338 54.35471

0.4400615 -0.2223051 -0.07391677 357.6386 189.6551 54.45834

0.4400615 -0.2223051 -0.07391677 357.6386 189.6551 54.45834

0.4415745 -0.2202698 -0.070927 358.4636 192.2678 54.16032

0.4453618 -0.2144705 -0.07155857 358.5464 190.5513 53.68022

0.4460596 -0.2128596 -0.07202107 359.2873 189.1169 52.63444

0.4460596 -0.2128596 -0.07202107 359.2873 189.1169 52.63444

0.4481397 -0.2084629 -0.07196791 358.8646 190.8385 53.60254

0.4484704 -0.2077335 -0.0720176 357.8107 190.9049 54.00633

0.4488045 -0.2081629 -0.06861584 357.8107 190.9049 54.00633

0.4488045 -0.2081629 -0.06861584 358.8031 190.1755 51.57805

0.4467807 -0.2126683 -0.06800456 0.8674804 189.0623 51.56078

0.4480313 -0.2111942 -0.0642677 359.6887 190.6006 51.59368

0.4503906 -0.2072331 -0.06056549 359.6887 190.6006 51.59368

0.4503906 -0.2072331 -0.06056549 1.195812 189.827 50.80267

0.4511173 -0.2063053 -0.05828101 1.195811 189.827 50.80267

0.4511173 -0.2063053 -0.05828101 2.876529 189.7201 51.24331

0.4479567 -0.2207476 -0.05522973 4.56061 188.7659 50.7757

0.453709 -0.2088687 -0.05447013 4.560609 188.7659 50.77569

0.4566419 -0.2028648 -0.05262231 5.770707 187.4956 49.16781

0.4552969 -0.208063 -0.05337597 5.770705 187.4956 49.16781

0.4613371 -0.1958048 -0.04757167 7.418846 188.0979 48.02723

0.459852 -0.1993392 -0.04727005 7.41884 188.0979 48.02724

0.4554541 -0.2115111 -0.03548474 6.131 188.203 49.06482

0.4554541 -0.2115111 -0.03548474 6.131 188.203 49.06482

0.4647368 -0.1911646 -0.0301724 7.419713 186.6649 48.18361

0.4627758 -0.1979376 -0.02897122 7.419713 186.6649 48.18362

0.4627758 -0.1979376 -0.02897122 8.73719 185.1538 47.22441

0.4660088 -0.1905495 -0.02658683 8.737185 185.1538 47.2244

0.4690691 -0.1832286 -0.0241158 10.21276 184.2413 46.7312

0.4690691 -0.1832286 -0.0241158 11.61672 184.4123 46.83257

0.4718436 -0.1762109 -0.02221364 11.61671 184.4123 46.83258

0.4748443 -0.1673703 -0.0262724 10.00704 181.9913 46.86423

0.4748443 -0.1673703 -0.0262724 11.2701 182.566 46.2588

0.4750417 -0.167205 -0.02362189 11.2701 182.566 46.25878

0.4750417 -0.167205 -0.02362189 9.510942 180.1143 46.14323

0.4832486 -0.1431191 -0.01210457 10.73141 180.5101 45.28786

0.4832486 -0.1431191 -0.01210457 10.73141 180.5101 45.28786

0.4830609 -0.144149 0.005658088 8.979383 178.209 45.68594

0.4830609 -0.144149 0.005658088 8.979383 178.209 45.68594

0.4871379 -0.1281396 0.01782526 9.880075 178.1742 43.98997

0.4871771 -0.1273507 0.02193266 8.143844 178.3733 43.28331

0.4871771 -0.1273507 0.02193266 8.143844 178.3733 43.28331

0.4868467 -0.1270867 0.02949577 9.253261 178.6743 42.85727

0.4869152 -0.1261448 0.02964968 7.832194 179.3713 43.07796

0.4878524 -0.1216649 0.03279761 7.832195 179.3713 43.07796

0.4893803 -0.1116958 0.04369275 7.8322 179.3713 43.07796

0.4893803 -0.1116958 0.04369275 8.947841 179.8064 42.73143

0.4926319 -0.0901404 0.05397231 8.947834 179.8064 42.73143

0.4926319 -0.0901404 0.05397231 6.759447 179.412 42.05101

0.4904154 -0.09982481 0.05702708 5.149161 179.7502 41.17985

0.4904154 -0.09982481 0.05702708 5.149161 179.7502 41.17985

0.4904154 -0.09982481 0.05702708 5.149161 179.7502 41.17985

0.4910784 -0.09340448 0.06198443 3.3256 180.0703 41.28448

0.4903608 -0.09615508 0.06274017 2.591852 181.0508 40.67144

0.4885942 -0.1015108 0.06787536 0.7536898 181.2151 40.57063

0.4885942 -0.1015108 0.06787536 0.7536898 181.2151 40.57063

0.4896213 -0.09653529 0.06773298 1.165448 182.5744 40.60762

0.4881 -0.0985745 0.07534848 1.165449 182.5744 40.60763

0.4881 -0.0985745 0.07534848 359.6722 183.3323 41.02131

0.4887093 -0.09643666 0.07415549 0.2741339 184.7606 41.16793

0.4887093 -0.09643666 0.07415549 0.2741339 184.7606 41.16793

0.4887093 -0.09643666 0.07415549 358.8873 185.5709 42.068

0.486355 -0.1035457 0.07983074 358.8873 185.5709 42.068

0.483893 -0.1108067 0.08488377 359.7746 186.6338 41.63596

0.483893 -0.1108067 0.08488377 358.7994 187.6912 41.66928

0.4842668 -0.1149645 0.07698563 358.7994 187.6912 41.66928

0.4822693 -0.1184376 0.08394541 358.2755 188.9905 42.17082

0.4822693 -0.1184376 0.08394541 358.9182 189.6436 41.05727

0.4830748 -0.1162198 0.08239997 358.9182 189.6436 41.05728

0.479713 -0.1248166 0.08918695 357.3346 189.601 42.32965

0.479713 -0.1248166 0.08918695 358.2726 191.0249 43.66587

0.4778495 -0.1341971 0.08549359 358.2726 191.0249 43.66587

0.4778238 -0.1346337 0.08540346 356.8242 191.0829 43.44189

0.4757068 -0.1371837 0.09283962 356.8242 191.0829 43.44189

0.4790157 -0.1220152 0.09691058 356.8242 191.0829 43.44189

0.4790157 -0.1220152 0.09691058 356.8242 191.0829 43.44189

0.4729336 -0.140787 0.10107 358.5153 191.0862 43.43204

0.4729336 -0.140787 0.10107 359.0565 192.2679 45.72434

0.4727949 -0.1407194 0.1018109 359.0565 192.2679 45.72433

0.4727949 -0.1407194 0.1018109 0.4899525 193.5656 45.79178

0.4668979 -0.1564581 0.1062294 359.6196 194.5164 45.30573

0.4657243 -0.1583999 0.1084796 359.6196 194.5164 45.30572

0.4610334 -0.1672546 0.1150284 1.469214 194.2603 46.5176

0.4610334 -0.1672546 0.1150284 1.469214 194.2603 46.5176

0.4601321 -0.1679568 0.1178662 2.434038 194.9049 45.1954

0.4566535 -0.1736852 0.1229819 1.288257 194.8191 47.04844

0.4570707 -0.1680148 0.1291541 3.014214 194.5786 46.91464

0.4570707 -0.1680148 0.1291541 1.812723 195.6637 47.44441

0.4525961 -0.1779206 0.1321595 1.812718 195.6637 47.44439

0.4525961 -0.1779206 0.1321595 3.57083 195.8188 47.89812

0.4486829 -0.1798822 0.1424472 5.426984 196.2471 48.23936

0.4486829 -0.1798822 0.1424472 6.953442 197.4898 47.70325

0.4461114 -0.1849218 0.1448792 6.953441 197.4898 47.70324

0.4385144 -0.2006821 0.1470824 7.135653 199.2521 47.09369

0.4385144 -0.2006821 0.1470824 7.135653 199.2521 47.09369

0.436608 -0.2004807 0.1529133 8.713552 200.6508 47.54535

0.436608 -0.2004807 0.1529133 7.531536 201.7123 47.84376

0.4344176 -0.2034148 0.1555655 7.531538 201.7123 47.84376

0.4298693 -0.2107635 0.158392 9.326555 201.8763 48.28732

0.4297208 -0.2079653 0.162442 11.07389 202.7142 48.48309

0.4296079 -0.2085162 0.1623261 9.909376 203.8027 48.37736

0.4252941 -0.2160159 0.1638711 9.909379 203.8027 48.37736

0.4252941 -0.2160159 0.1638711 11.70592 203.9352 48.44788

0.4259437 -0.2129864 0.166134 13.42968 204.3006 48.2774

0.4259437 -0.2129864 0.166134 13.42968 204.3006 48.2774

0.4216277 -0.2212241 0.1670325 13.34246 206.1808 47.5755

0.4227804 -0.217663 0.1687883 14.9302 206.7375 48.21004

0.4227804 -0.217663 0.1687883 14.9302 206.7375 48.21004

0.4201131 -0.222635 0.1689633 16.02213 208.4701 48.1265

0.4200293 -0.2229979 0.1688753 17.35506 207.227 46.08451

0.4210383 -0.2215012 0.1683313 16.67225 208.8104 47.4457

0.4166789 -0.2332455 0.1632381 16.67225 208.8103 47.44569

0.4166789 -0.2332455 0.1632381 18.40232 209.0716 47.35952

0.4202558 -0.225966 0.1645529 16.94322 210.1904 46.92339

0.4199648 -0.2267755 0.1641817 16.94321 210.1904 46.92339

0.422157 -0.2219861 0.1651024 18.38412 210.5217 47.02713

0.422157 -0.2219861 0.1651024 18.38412 210.5217 47.02713

0.422157 -0.2219861 0.1651024 18.93949 212.1897 46.45461

0.4201171 -0.2247228 0.1665966 18.86142 214.6651 47.20072

0.4214601 -0.2216117 0.1673705 18.86143 214.6651 47.20071

0.4214601 -0.2216117 0.1673705 19.12743 216.8697 46.90293

0.4113761 -0.2368414 0.171549 20.53799 217.7974 46.73395

0.4113761 -0.2368414 0.171549 18.99839 218.0306 45.93166

0.4184428 -0.2209016 0.1756738 18.99839 218.0306 45.93165

0.4082351 -0.2385723 0.1765801 20.5829 218.0486 46.58237

0.4082351 -0.2385723 0.1765801 19.08237 218.4984 46.08892

0.4170948 -0.2213914 0.1782439 20.68358 218.2878 46.30384

0.4121006 -0.2317702 0.1766603 20.68358 218.2878 46.30382

0.4121006 -0.2317702 0.1766603 19.36284 218.8998 45.24737

0.4195959 -0.2199221 0.1741456 19.36284 218.8998 45.24736

0.4160799 -0.2290365 0.1708011 20.82999 218.9617 46.12865

0.4160949 -0.2289761 0.1708157 19.36267 220.2457 46.41392

0.4178876 -0.2262262 0.170102 20.66892 220.6938 47.44027

0.4159386 -0.2320355 0.1670257 20.66891 220.6938 47.44027

0.4159386 -0.2320355 0.1670257 19.05761 221.8519 47.48539

0.4205235 -0.2254548 0.1643839 20.221 222.264 48.35797

0.4185216 -0.2304883 0.1625018 20.221 222.264 48.35798

0.4185216 -0.2304883 0.1625018 20.56473 221.5768 46.74598

0.422794 -0.2254732 0.1582973 19.83248 222.6349 49.40599

0.4206792 -0.2311196 0.155768 19.83248 222.6349 49.406

0.4206792 -0.2311196 0.155768 18.25786 223.0269 48.74793

0.4228515 -0.2279889 0.1544947 18.25786 223.0269 48.74792

0.4228515 -0.2279889 0.1544947 18.25786 223.0269 48.74792

0.4197769 -0.2356803 0.151305 19.57943 222.8453 49.62693

0.4185016 -0.2413383 0.145819 19.57944 222.8453 49.62693

0.4188936 -0.2435561 0.1409245 18.05465 223.691 50.45996

0.4188936 -0.2435561 0.1409245 16.96476 225.2057 52.15567

0.4238343 -0.2385902 0.1344996 16.96476 225.2057 52.15566

0.4231928 -0.242579 0.1292837 15.15876 226.407 51.34324

0.4341996 -0.2305082 0.1139638 15.69237 227.5713 52.88572

0.4341996 -0.2305082 0.1139638 15.69237 227.5713 52.88572

0.4285785 -0.2452934 0.103936 13.51916 228.7923 53.00896

0.4286848 -0.2449393 0.1040353 13.51915 228.7923 53.00897

0.4371327 -0.23269 0.09674569 13.51916 228.7923 53.00896

0.4334438 -0.2416405 0.09124426 14.60241 229.2776 53.3889

0.4334438 -0.2416405 0.09124426 13.03295 229.1155 52.18169

0.4343249 -0.2409182 0.0867897 14.19648 228.1509 51.75328

0.4350936 -0.2407335 0.08338494 14.19649 228.1509 51.75327

0.4314062 -0.2492256 0.07737814 12.4375 228.2204 50.99459

0.4314062 -0.2492256 0.07737814 10.47974 228.3773 50.40859

0.4361432 -0.2407055 0.07354574 10.47974 228.3773 50.40859

0.4414027 -0.2326283 0.06794659 8.512317 228.1393 50.2042

0.4375047 -0.2412038 0.06308272 6.396774 228.5181 50.04663

0.4375047 -0.2412038 0.06308272 6.396774 228.5181 50.04663

0.4361567 -0.2452175 0.05661 6.396774 228.5181 50.04662

0.4361567 -0.2452175 0.05661 4.635036 228.1505 50.51474

0.4366747 -0.2438189 0.05862242 4.635022 228.1505 50.51474

0.4377425 -0.240075 0.05985111 4.635033 228.1505 50.51474

0.4363779 -0.2436538 0.05517088 4.386883 227.3807 50.86598

0.4364962 -0.2431686 0.05636387 1.527369 228.3651 50.95473

0.4353669 -0.246311 0.05121757 1.52737 228.3651 50.95472

0.4372651 -0.2392024 0.05394167 358.5449 229.4121 51.25895

0.4341783 -0.2485363 0.03235909 355.7277 230.469 51.26576

0.4363662 -0.2462033 0.01722424 355.7277 230.469 51.26575

0.4333718 -0.25191 0.007642393 352.7393 231.1 51.19785

0.4366048 -0.2403921 0.01242608 352.7393 231.1 51.19784

0.4377527 -0.2386136 0.00162622 349.5353 231.834 51.19126

0.4377527 -0.2386136 0.00162622 349.5353 231.834 51.19126

0.4352983 -0.243021 -0.004773545 346.3995 232.5949 51.32302

0.4360095 -0.2372781 -0.01238744 343.6077 233.3162 51.42481
